     1	1332476 
     2	1332476 
     3	1332476 
     4	1885796 
     5	1885796 
     6	1885796 
     7	1575556 
     8	1575556 
     9	1575556 
    10	1436476 
    11	1436476 
    12	1812424 
    13	1812424 
    14	1812424 
    15	1552648 
    16	1552648 
    17	1552648 
    18	1428492 
    19	1428492 
    20	1428492 
    21	1428484 
    22	1428484 
    23	1428484 
    24	1428472 
    25	1428472 
    26	1428472 
    27	1428460 
    28	1428460 
    29	1428460 
    30	1428456 
    31	1428456 
    32	1428456 
    33	1423168 
    34	1423168 
    35	1423168 
    36	1422808 
    37	1422808 
    38	1422808 
    39	1422660 
    40	1422660 
    41	1422660 
    42	1416808 
    43	1416808 
    44	1416808 
    45	1416772 
    46	1416772 
    47	1416772 
    48	1416756 
    49	1416756 
    50	1416756 
    51	1416728 
    52	1416728 
    53	1416728 
    54	1405928 
    55	1405928 
    56	1405928 
    57	1398484 
    58	1398484 
    59	1398484 
    60	1388196 
    61	1388196 
    62	1388196 
    63	1373020 
    64	1373020 
    65	1373020 
