ping_2  | 100 packets transmitted, 100 packets received, 0% packet loss
ping_1  | 100 packets transmitted, 100 packets received, 0% packet loss
ping_4  | 100 packets transmitted, 100 packets received, 0% packet loss
ping_6  | 100 packets transmitted, 100 packets received, 0% packet loss
ping_10 | 100 packets transmitted, 100 packets received, 0% packet loss
ping_3  | 100 packets transmitted, 100 packets received, 0% packet loss
ping_5  | 100 packets transmitted, 100 packets received, 0% packet loss
ping_7  | 100 packets transmitted, 100 packets received, 0% packet loss
ping_9  | 100 packets transmitted, 100 packets received, 0% packet loss
ping_8  | 100 packets transmitted, 100 packets received, 0% packet loss
