top - 22:19:40 up  1:36,  1 user,  load average: 0.07, 0.38, 1.12
Tasks: 380 total,   1 running, 314 sleeping,   0 stopped,   0 zombie
%Cpu(s):  3.5 us,  1.6 sy,  0.0 ni, 94.7 id,  0.1 wa,  0.0 hi,  0.0 si,  0.0 st
KiB Mem : 16278768 total, 12111944 free,  1400380 used,  2766444 buff/cache
KiB Swap: 16630780 total, 16630780 free,        0 used. 14428040 avail Mem 

  PID USER      PR  NI    VIRT    RES    SHR S  %CPU %MEM     TIME+ COMMAND
22448 kenenth   20   0   41908   3832   3172 R  16.7  0.0   0:00.03 top
  703 systemd+  20   0   71276   6532   5524 S  11.1  0.0   0:03.48 systemd-re+
   28 root      20   0       0      0      0 S   5.6  0.0   0:00.78 ksoftirqd/3
  995 avahi     20   0   48148   4680   3344 S   5.6  0.0   0:05.81 avahi-daem+
 1985 kenenth   20   0 3537936 241736  96100 S   5.6  1.5   3:35.72 gnome-shell

top - 22:19:41 up  1:36,  1 user,  load average: 0.07, 0.38, 1.12
Tasks: 380 total,   1 running, 314 sleeping,   0 stopped,   0 zombie
%Cpu(s):  0.4 us,  0.5 sy,  0.0 ni, 99.1 id,  0.0 wa,  0.0 hi,  0.0 si,  0.0 st
KiB Mem : 16278768 total, 12111944 free,  1400380 used,  2766444 buff/cache
KiB Swap: 16630780 total, 16630780 free,        0 used. 14428040 avail Mem 

  PID USER      PR  NI    VIRT    RES    SHR S  %CPU %MEM     TIME+ COMMAND
22448 kenenth   20   0   42044   3832   3172 R   1.9  0.0   0:00.05 top
  703 systemd+  20   0   71276   6532   5524 S   1.0  0.0   0:03.49 systemd-re+
 1780 root      20   0  433932  94760  61668 S   1.0  0.6   1:19.50 Xorg

top - 22:19:42 up  1:36,  1 user,  load average: 0.06, 0.37, 1.11
Tasks: 380 total,   1 running, 314 sleeping,   0 stopped,   0 zombie
%Cpu(s):  0.1 us,  0.2 sy,  0.0 ni, 99.5 id,  0.0 wa,  0.0 hi,  0.1 si,  0.0 st
KiB Mem : 16278768 total, 12111944 free,  1400380 used,  2766444 buff/cache
KiB Swap: 16630780 total, 16630780 free,        0 used. 14428040 avail Mem 

  PID USER      PR  NI    VIRT    RES    SHR S  %CPU %MEM     TIME+ COMMAND
   28 root      20   0       0      0      0 S   1.0  0.0   0:00.79 ksoftirqd/3
22448 kenenth   20   0   42012   4088   3236 R   1.0  0.0   0:00.06 top

top - 22:19:43 up  1:36,  1 user,  load average: 0.06, 0.37, 1.11
Tasks: 380 total,   1 running, 314 sleeping,   0 stopped,   0 zombie
%Cpu(s):  0.1 us,  0.2 sy,  0.0 ni, 99.5 id,  0.0 wa,  0.0 hi,  0.1 si,  0.0 st
KiB Mem : 16278768 total, 12111324 free,  1401032 used,  2766412 buff/cache
KiB Swap: 16630780 total, 16630780 free,        0 used. 14427388 avail Mem 

  PID USER      PR  NI    VIRT    RES    SHR S  %CPU %MEM     TIME+ COMMAND
22448 kenenth   20   0   42012   4088   3236 R   2.9  0.0   0:00.09 top
 1780 root      20   0  433932  94760  61668 S   1.0  0.6   1:19.51 Xorg

top - 22:19:44 up  1:36,  1 user,  load average: 0.06, 0.37, 1.11
Tasks: 380 total,   1 running, 314 sleeping,   0 stopped,   0 zombie
%Cpu(s):  0.1 us,  0.4 sy,  0.0 ni, 99.3 id,  0.0 wa,  0.0 hi,  0.2 si,  0.0 st
KiB Mem : 16278768 total, 12111324 free,  1401032 used,  2766412 buff/cache
KiB Swap: 16630780 total, 16630780 free,        0 used. 14427388 avail Mem 

  PID USER      PR  NI    VIRT    RES    SHR S  %CPU %MEM     TIME+ COMMAND
    8 root      20   0       0      0      0 I   1.0  0.0   0:03.40 rcu_sched
   28 root      20   0       0      0      0 S   1.0  0.0   0:00.80 ksoftirqd/3
 1331 root      20   0  315344   8564   7280 S   1.0  0.1   0:00.32 upowerd
22448 kenenth   20   0   42012   4088   3236 R   1.0  0.0   0:00.10 top

top - 22:19:45 up  1:36,  1 user,  load average: 0.06, 0.37, 1.11
Tasks: 380 total,   2 running, 314 sleeping,   0 stopped,   0 zombie
%Cpu(s):  0.1 us,  0.2 sy,  0.0 ni, 99.6 id,  0.0 wa,  0.0 hi,  0.0 si,  0.0 st
KiB Mem : 16278768 total, 12111324 free,  1401032 used,  2766412 buff/cache
KiB Swap: 16630780 total, 16630780 free,        0 used. 14427388 avail Mem 

  PID USER      PR  NI    VIRT    RES    SHR S  %CPU %MEM     TIME+ COMMAND
22448 kenenth   20   0   42012   4088   3236 R   2.0  0.0   0:00.12 top
  950 message+  20   0   51840   6208   3852 S   1.0  0.0   1:08.80 dbus-daemon

top - 22:19:46 up  1:36,  1 user,  load average: 0.06, 0.37, 1.11
Tasks: 380 total,   1 running, 314 sleeping,   0 stopped,   0 zombie
%Cpu(s):  0.1 us,  0.2 sy,  0.0 ni, 99.5 id,  0.0 wa,  0.0 hi,  0.1 si,  0.0 st
KiB Mem : 16278768 total, 12111316 free,  1401004 used,  2766448 buff/cache
KiB Swap: 16630780 total, 16630780 free,        0 used. 14427380 avail Mem 

  PID USER      PR  NI    VIRT    RES    SHR S  %CPU %MEM     TIME+ COMMAND
   28 root      20   0       0      0      0 S   1.0  0.0   0:00.81 ksoftirqd/3
 1780 root      20   0  433932  94760  61668 S   1.0  0.6   1:19.52 Xorg
 1781 root     -51   0       0      0      0 S   1.0  0.0   0:09.37 irq/135-nv+
22448 kenenth   20   0   42012   4088   3236 R   1.0  0.0   0:00.13 top

top - 22:19:47 up  1:36,  1 user,  load average: 0.06, 0.36, 1.10
Tasks: 380 total,   1 running, 314 sleeping,   0 stopped,   0 zombie
%Cpu(s):  0.1 us,  0.4 sy,  0.0 ni, 99.4 id,  0.0 wa,  0.0 hi,  0.1 si,  0.0 st
KiB Mem : 16278768 total, 12111316 free,  1401004 used,  2766448 buff/cache
KiB Swap: 16630780 total, 16630780 free,        0 used. 14427380 avail Mem 

  PID USER      PR  NI    VIRT    RES    SHR S  %CPU %MEM     TIME+ COMMAND
  944 root      20   0  110512   3520   3184 S   1.0  0.0   0:00.97 irqbalance
22448 kenenth   20   0   42012   4088   3236 R   1.0  0.0   0:00.14 top

top - 22:19:48 up  1:36,  1 user,  load average: 0.06, 0.36, 1.10
Tasks: 380 total,   1 running, 314 sleeping,   0 stopped,   0 zombie
%Cpu(s):  0.2 us,  0.2 sy,  0.0 ni, 99.5 id,  0.0 wa,  0.0 hi,  0.0 si,  0.0 st
KiB Mem : 16278768 total, 12111316 free,  1401004 used,  2766448 buff/cache
KiB Swap: 16630780 total, 16630780 free,        0 used. 14427380 avail Mem 

  PID USER      PR  NI    VIRT    RES    SHR S  %CPU %MEM     TIME+ COMMAND
22448 kenenth   20   0   42012   4088   3236 R   2.0  0.0   0:00.16 top
 1780 root      20   0  433932  94760  61668 S   1.0  0.6   1:19.53 Xorg