ping_4  | 50 packets transmitted, 50 packets received, 0% packet loss
ping_3  | 50 packets transmitted, 50 packets received, 0% packet loss
ping_5  | 50 packets transmitted, 50 packets received, 0% packet loss
ping_1  | 50 packets transmitted, 50 packets received, 0% packet loss
ping_9  | 50 packets transmitted, 50 packets received, 0% packet loss
ping_7  | 50 packets transmitted, 50 packets received, 0% packet loss
ping_6  | 50 packets transmitted, 50 packets received, 0% packet loss
ping_2  | 50 packets transmitted, 50 packets received, 0% packet loss
ping_8  | 50 packets transmitted, 50 packets received, 0% packet loss
ping_10 | 50 packets transmitted, 50 packets received, 0% packet loss
ping_11 | 50 packets transmitted, 50 packets received, 0% packet loss
ping_12 | 50 packets transmitted, 50 packets received, 0% packet loss
ping_16 | 50 packets transmitted, 50 packets received, 0% packet loss
ping_17 | 50 packets transmitted, 50 packets received, 0% packet loss
ping_18 | 50 packets transmitted, 50 packets received, 0% packet loss
ping_20 | 50 packets transmitted, 50 packets received, 0% packet loss
ping_14 | 50 packets transmitted, 50 packets received, 0% packet loss
ping_19 | 50 packets transmitted, 50 packets received, 0% packet loss
ping_15 | 50 packets transmitted, 50 packets received, 0% packet loss
ping_13 | 50 packets transmitted, 50 packets received, 0% packet loss
