     1	1333012 
     2	1333012 
     3	1333012 
     4	1332980 
     5	1332980 
     6	1332980 
     7	1332980 
     8	1332980 
     9	1332980 
    10	1333004 
    11	1333004 
    12	1333004 
    13	1332996 
    14	1332996 
    15	1332996 
    16	1333016 
    17	1333016 
    18	1333016 
    19	1333060 
    20	1333060 
    21	1333060 
    22	1333032 
    23	1333032 
    24	1333032 
    25	1333032 
    26	1333032 
    27	1333076 
    28	1333076 
    29	1333076 
    30	1333088 
    31	1333088 
    32	1333088 
    33	1333088 
    34	1333088 
    35	1333088 
    36	1333112 
    37	1333112 
    38	1333112 
    39	1333116 
    40	1333116 
    41	1333116 
    42	1333120 
    43	1333120 
    44	1333120 
    45	1333120 
    46	1333120 
    47	1333120 
    48	1333140 
    49	1333140 
    50	1333140 
    51	1333172 
    52	1333172 
    53	1333172 
    54	1333192 
    55	1333192 
    56	1333192 
    57	1333232 
    58	1333232 
    59	1333232 
    60	1333216 
    61	1333216 
    62	1333216 
    63	1333380 
    64	1333380 
    65	1333380 
    66	1333392 
    67	1333392 
    68	1333392 
    69	1333392 
    70	1333392 
    71	1333392 
    72	1333456 
    73	1333456 
    74	1333456 
    75	1333452 
    76	1333452 
    77	1333452 
    78	1333460 
    79	1333460 
    80	1333460 
    81	1333476 
    82	1333476 
    83	1333476 
    84	1333448 
    85	1333448 
    86	1333448 
    87	1333488 
    88	1333488 
    89	1333488 
    90	1333512 
    91	1333512 
    92	1333512 
    93	1333536 
    94	1333536 
    95	1333536 
    96	1333536 
    97	1333536 
    98	1333536 
