     1	 97.9 
     2	 97.0 
     3	 48.0 
     4	 62.1 
     5	 86.2 
     6	 94.7 
     7	 96.8 
     8	 92.7 
     9	 95.6 
    10	 36.8 
    11	 74.3 
    12	 95.0 
    13	 91.9 
    14	 94.6 
    15	 96.2 
    16	 95.3 
    17	 98.9 
    18	 99.3 
    19	 98.9 
    20	 99.1 
    21	 99.1 
    22	 99.4 
    23	 99.0 
    24	 99.3 
    25	 99.1 
    26	 99.1 
    27	 99.3 
    28	 99.3 
    29	 99.1 
    30	 99.3 
    31	 99.4 
    32	 99.0 
    33	 99.1 
    34	 99.3 
    35	 99.4 
    36	 99.5 
    37	 99.3 
    38	 99.1 
    39	 98.9 
    40	 99.1 
    41	 99.0 
    42	 99.3 
    43	 99.1 
    44	 99.3 
    45	 99.1 
    46	 99.3 
    47	 99.5 
    48	 99.4 
    49	 99.1 
    50	 98.6 
    51	 99.1 
    52	 99.3 
    53	 79.3 
    54	 87.2 
    55	 92.1 
    56	 94.5 
    57	 86.9 
    58	 93.1 
    59	 92.4 
    60	 85.1 
    61	 88.1 
    62	 80.8 
    63	 93.4 
    64	 92.4 
