PING speedtest.xsmedia.com (199.66.198.2) 56(84) bytes of data.
64 bytes from 199.66.198.2 (199.66.198.2): icmp_seq=1 ttl=56 time=21.3 ms
PING speedtest.xsmedia.com (199.66.198.2) 56(84) bytes of data.
64 bytes from 199.66.198.2 (199.66.198.2): icmp_seq=1 ttl=56 time=21.2 ms
PING speedtest.xsmedia.com (199.66.198.2) 56(84) bytes of data.
64 bytes from 199.66.198.2 (199.66.198.2): icmp_seq=1 ttl=56 time=21.0 ms
PING speedtest.xsmedia.com (199.66.198.2) 56(84) bytes of data.
64 bytes from 199.66.198.2 (199.66.198.2): icmp_seq=1 ttl=56 time=21.2 ms
PING speedtest.xsmedia.com (199.66.198.2) 56(84) bytes of data.
64 bytes from 199.66.198.2 (199.66.198.2): icmp_seq=1 ttl=56 time=21.2 ms
PING speedtest.xsmedia.com (199.66.198.2) 56(84) bytes of data.
64 bytes from 199.66.198.2 (199.66.198.2): icmp_seq=1 ttl=56 time=21.2 ms
PING speedtest.xsmedia.com (199.66.198.2) 56(84) bytes of data.
64 bytes from 199.66.198.2 (199.66.198.2): icmp_seq=1 ttl=56 time=21.1 ms
PING speedtest.xsmedia.com (199.66.198.2) 56(84) bytes of data.
64 bytes from 199.66.198.2 (199.66.198.2): icmp_seq=1 ttl=56 time=21.3 ms
PING speedtest.xsmedia.com (199.66.198.2) 56(84) bytes of data.
64 bytes from 199.66.198.2 (199.66.198.2): icmp_seq=1 ttl=56 time=21.1 ms
PING speedtest.xsmedia.com (199.66.198.2) 56(84) bytes of data.
64 bytes from 199.66.198.2 (199.66.198.2): icmp_seq=1 ttl=56 time=21.3 ms
PING speedtest.xsmedia.com (199.66.198.2) 56(84) bytes of data.
64 bytes from 199.66.198.2 (199.66.198.2): icmp_seq=1 ttl=56 time=21.2 ms
PING speedtest.xsmedia.com (199.66.198.2) 56(84) bytes of data.
64 bytes from 199.66.198.2 (199.66.198.2): icmp_seq=1 ttl=56 time=21.2 ms
PING speedtest.xsmedia.com (199.66.198.2) 56(84) bytes of data.
64 bytes from 199.66.198.2 (199.66.198.2): icmp_seq=1 ttl=56 time=21.2 ms
PING speedtest.xsmedia.com (199.66.198.2) 56(84) bytes of data.
64 bytes from 199.66.198.2 (199.66.198.2): icmp_seq=1 ttl=56 time=21.2 ms
PING speedtest.xsmedia.com (199.66.198.2) 56(84) bytes of data.
64 bytes from 199.66.198.2 (199.66.198.2): icmp_seq=1 ttl=56 time=21.1 ms
PING speedtest.xsmedia.com (199.66.198.2) 56(84) bytes of data.
64 bytes from 199.66.198.2 (199.66.198.2): icmp_seq=1 ttl=56 time=21.2 ms
PING speedtest.xsmedia.com (199.66.198.2) 56(84) bytes of data.
64 bytes from 199.66.198.2 (199.66.198.2): icmp_seq=1 ttl=56 time=21.0 ms
PING speedtest.xsmedia.com (199.66.198.2) 56(84) bytes of data.
64 bytes from 199.66.198.2 (199.66.198.2): icmp_seq=1 ttl=56 time=21.1 ms
PING speedtest.xsmedia.com (199.66.198.2) 56(84) bytes of data.
64 bytes from 199.66.198.2 (199.66.198.2): icmp_seq=1 ttl=56 time=21.0 ms
PING speedtest.xsmedia.com (199.66.198.2) 56(84) bytes of data.
64 bytes from 199.66.198.2 (199.66.198.2): icmp_seq=1 ttl=56 time=21.2 ms
64 bytes from 199.66.198.2 (199.66.198.2): icmp_seq=2 ttl=56 time=21.9 ms
64 bytes from 199.66.198.2 (199.66.198.2): icmp_seq=2 ttl=56 time=22.0 ms
64 bytes from 199.66.198.2 (199.66.198.2): icmp_seq=2 ttl=56 time=21.8 ms
64 bytes from 199.66.198.2 (199.66.198.2): icmp_seq=2 ttl=56 time=21.8 ms
64 bytes from 199.66.198.2 (199.66.198.2): icmp_seq=2 ttl=56 time=21.3 ms
64 bytes from 199.66.198.2 (199.66.198.2): icmp_seq=2 ttl=56 time=21.3 ms
64 bytes from 199.66.198.2 (199.66.198.2): icmp_seq=2 ttl=56 time=21.3 ms
64 bytes from 199.66.198.2 (199.66.198.2): icmp_seq=2 ttl=56 time=21.7 ms
64 bytes from 199.66.198.2 (199.66.198.2): icmp_seq=2 ttl=56 time=21.4 ms
64 bytes from 199.66.198.2 (199.66.198.2): icmp_seq=2 ttl=56 time=21.3 ms
64 bytes from 199.66.198.2 (199.66.198.2): icmp_seq=2 ttl=56 time=21.3 ms
64 bytes from 199.66.198.2 (199.66.198.2): icmp_seq=2 ttl=56 time=21.4 ms
64 bytes from 199.66.198.2 (199.66.198.2): icmp_seq=2 ttl=56 time=21.3 ms
64 bytes from 199.66.198.2 (199.66.198.2): icmp_seq=2 ttl=56 time=21.4 ms
64 bytes from 199.66.198.2 (199.66.198.2): icmp_seq=2 ttl=56 time=21.3 ms
64 bytes from 199.66.198.2 (199.66.198.2): icmp_seq=2 ttl=56 time=21.3 ms
64 bytes from 199.66.198.2 (199.66.198.2): icmp_seq=2 ttl=56 time=21.3 ms
64 bytes from 199.66.198.2 (199.66.198.2): icmp_seq=2 ttl=56 time=21.3 ms
64 bytes from 199.66.198.2 (199.66.198.2): icmp_seq=2 ttl=56 time=21.3 ms
64 bytes from 199.66.198.2 (199.66.198.2): icmp_seq=2 ttl=56 time=21.3 ms
64 bytes from 199.66.198.2 (199.66.198.2): icmp_seq=3 ttl=56 time=21.4 ms
64 bytes from 199.66.198.2 (199.66.198.2): icmp_seq=3 ttl=56 time=21.4 ms
64 bytes from 199.66.198.2 (199.66.198.2): icmp_seq=3 ttl=56 time=21.4 ms
64 bytes from 199.66.198.2 (199.66.198.2): icmp_seq=3 ttl=56 time=21.8 ms
64 bytes from 199.66.198.2 (199.66.198.2): icmp_seq=3 ttl=56 time=21.8 ms
64 bytes from 199.66.198.2 (199.66.198.2): icmp_seq=3 ttl=56 time=21.9 ms
64 bytes from 199.66.198.2 (199.66.198.2): icmp_seq=3 ttl=56 time=21.9 ms
64 bytes from 199.66.198.2 (199.66.198.2): icmp_seq=3 ttl=56 time=21.9 ms
64 bytes from 199.66.198.2 (199.66.198.2): icmp_seq=3 ttl=56 time=21.9 ms
64 bytes from 199.66.198.2 (199.66.198.2): icmp_seq=3 ttl=56 time=21.9 ms
64 bytes from 199.66.198.2 (199.66.198.2): icmp_seq=3 ttl=56 time=21.9 ms
64 bytes from 199.66.198.2 (199.66.198.2): icmp_seq=3 ttl=56 time=21.9 ms
64 bytes from 199.66.198.2 (199.66.198.2): icmp_seq=3 ttl=56 time=22.1 ms
64 bytes from 199.66.198.2 (199.66.198.2): icmp_seq=3 ttl=56 time=21.9 ms
64 bytes from 199.66.198.2 (199.66.198.2): icmp_seq=3 ttl=56 time=21.9 ms
64 bytes from 199.66.198.2 (199.66.198.2): icmp_seq=3 ttl=56 time=21.9 ms
64 bytes from 199.66.198.2 (199.66.198.2): icmp_seq=3 ttl=56 time=21.9 ms
64 bytes from 199.66.198.2 (199.66.198.2): icmp_seq=3 ttl=56 time=21.8 ms
64 bytes from 199.66.198.2 (199.66.198.2): icmp_seq=3 ttl=56 time=21.7 ms
64 bytes from 199.66.198.2 (199.66.198.2): icmp_seq=3 ttl=56 time=21.8 ms
64 bytes from 199.66.198.2 (199.66.198.2): icmp_seq=4 ttl=56 time=21.8 ms
64 bytes from 199.66.198.2 (199.66.198.2): icmp_seq=4 ttl=56 time=21.3 ms
64 bytes from 199.66.198.2 (199.66.198.2): icmp_seq=4 ttl=56 time=21.2 ms
64 bytes from 199.66.198.2 (199.66.198.2): icmp_seq=4 ttl=56 time=21.6 ms
64 bytes from 199.66.198.2 (199.66.198.2): icmp_seq=4 ttl=56 time=21.6 ms
64 bytes from 199.66.198.2 (199.66.198.2): icmp_seq=4 ttl=56 time=21.6 ms
64 bytes from 199.66.198.2 (199.66.198.2): icmp_seq=4 ttl=56 time=21.6 ms
64 bytes from 199.66.198.2 (199.66.198.2): icmp_seq=4 ttl=56 time=21.6 ms
64 bytes from 199.66.198.2 (199.66.198.2): icmp_seq=4 ttl=56 time=21.7 ms
64 bytes from 199.66.198.2 (199.66.198.2): icmp_seq=4 ttl=56 time=21.6 ms
64 bytes from 199.66.198.2 (199.66.198.2): icmp_seq=4 ttl=56 time=21.7 ms
64 bytes from 199.66.198.2 (199.66.198.2): icmp_seq=4 ttl=56 time=21.7 ms
64 bytes from 199.66.198.2 (199.66.198.2): icmp_seq=4 ttl=56 time=21.7 ms
64 bytes from 199.66.198.2 (199.66.198.2): icmp_seq=4 ttl=56 time=21.7 ms
64 bytes from 199.66.198.2 (199.66.198.2): icmp_seq=4 ttl=56 time=21.5 ms
64 bytes from 199.66.198.2 (199.66.198.2): icmp_seq=4 ttl=56 time=21.6 ms
64 bytes from 199.66.198.2 (199.66.198.2): icmp_seq=4 ttl=56 time=21.6 ms
64 bytes from 199.66.198.2 (199.66.198.2): icmp_seq=4 ttl=56 time=21.4 ms
64 bytes from 199.66.198.2 (199.66.198.2): icmp_seq=4 ttl=56 time=21.4 ms
64 bytes from 199.66.198.2 (199.66.198.2): icmp_seq=4 ttl=56 time=21.4 ms
64 bytes from 199.66.198.2 (199.66.198.2): icmp_seq=5 ttl=56 time=21.7 ms
64 bytes from 199.66.198.2 (199.66.198.2): icmp_seq=5 ttl=56 time=21.4 ms
64 bytes from 199.66.198.2 (199.66.198.2): icmp_seq=5 ttl=56 time=21.3 ms
64 bytes from 199.66.198.2 (199.66.198.2): icmp_seq=5 ttl=56 time=21.4 ms
64 bytes from 199.66.198.2 (199.66.198.2): icmp_seq=5 ttl=56 time=21.5 ms
64 bytes from 199.66.198.2 (199.66.198.2): icmp_seq=5 ttl=56 time=21.5 ms
64 bytes from 199.66.198.2 (199.66.198.2): icmp_seq=5 ttl=56 time=21.6 ms
64 bytes from 199.66.198.2 (199.66.198.2): icmp_seq=5 ttl=56 time=21.5 ms
64 bytes from 199.66.198.2 (199.66.198.2): icmp_seq=5 ttl=56 time=21.6 ms
64 bytes from 199.66.198.2 (199.66.198.2): icmp_seq=5 ttl=56 time=21.6 ms
64 bytes from 199.66.198.2 (199.66.198.2): icmp_seq=5 ttl=56 time=21.7 ms
64 bytes from 199.66.198.2 (199.66.198.2): icmp_seq=5 ttl=56 time=21.6 ms
64 bytes from 199.66.198.2 (199.66.198.2): icmp_seq=5 ttl=56 time=21.6 ms
64 bytes from 199.66.198.2 (199.66.198.2): icmp_seq=5 ttl=56 time=21.6 ms
64 bytes from 199.66.198.2 (199.66.198.2): icmp_seq=5 ttl=56 time=21.6 ms
64 bytes from 199.66.198.2 (199.66.198.2): icmp_seq=5 ttl=56 time=21.6 ms
64 bytes from 199.66.198.2 (199.66.198.2): icmp_seq=5 ttl=56 time=21.7 ms
64 bytes from 199.66.198.2 (199.66.198.2): icmp_seq=5 ttl=56 time=21.4 ms
64 bytes from 199.66.198.2 (199.66.198.2): icmp_seq=5 ttl=56 time=21.7 ms
64 bytes from 199.66.198.2 (199.66.198.2): icmp_seq=5 ttl=56 time=21.3 ms
64 bytes from 199.66.198.2 (199.66.198.2): icmp_seq=6 ttl=56 time=21.5 ms
64 bytes from 199.66.198.2 (199.66.198.2): icmp_seq=6 ttl=56 time=21.4 ms
64 bytes from 199.66.198.2 (199.66.198.2): icmp_seq=6 ttl=56 time=22.0 ms
64 bytes from 199.66.198.2 (199.66.198.2): icmp_seq=6 ttl=56 time=22.0 ms
64 bytes from 199.66.198.2 (199.66.198.2): icmp_seq=6 ttl=56 time=21.6 ms
64 bytes from 199.66.198.2 (199.66.198.2): icmp_seq=6 ttl=56 time=21.6 ms
64 bytes from 199.66.198.2 (199.66.198.2): icmp_seq=6 ttl=56 time=21.6 ms
64 bytes from 199.66.198.2 (199.66.198.2): icmp_seq=6 ttl=56 time=21.6 ms
64 bytes from 199.66.198.2 (199.66.198.2): icmp_seq=6 ttl=56 time=21.6 ms
64 bytes from 199.66.198.2 (199.66.198.2): icmp_seq=6 ttl=56 time=21.6 ms
64 bytes from 199.66.198.2 (199.66.198.2): icmp_seq=6 ttl=56 time=21.6 ms
64 bytes from 199.66.198.2 (199.66.198.2): icmp_seq=6 ttl=56 time=21.7 ms
64 bytes from 199.66.198.2 (199.66.198.2): icmp_seq=6 ttl=56 time=21.7 ms
64 bytes from 199.66.198.2 (199.66.198.2): icmp_seq=6 ttl=56 time=21.7 ms
64 bytes from 199.66.198.2 (199.66.198.2): icmp_seq=6 ttl=56 time=21.7 ms
64 bytes from 199.66.198.2 (199.66.198.2): icmp_seq=6 ttl=56 time=21.8 ms
64 bytes from 199.66.198.2 (199.66.198.2): icmp_seq=6 ttl=56 time=21.5 ms
64 bytes from 199.66.198.2 (199.66.198.2): icmp_seq=6 ttl=56 time=21.8 ms
64 bytes from 199.66.198.2 (199.66.198.2): icmp_seq=6 ttl=56 time=21.7 ms
64 bytes from 199.66.198.2 (199.66.198.2): icmp_seq=6 ttl=56 time=21.4 ms
64 bytes from 199.66.198.2 (199.66.198.2): icmp_seq=7 ttl=56 time=22.0 ms
64 bytes from 199.66.198.2 (199.66.198.2): icmp_seq=7 ttl=56 time=22.0 ms
64 bytes from 199.66.198.2 (199.66.198.2): icmp_seq=7 ttl=56 time=21.9 ms
64 bytes from 199.66.198.2 (199.66.198.2): icmp_seq=7 ttl=56 time=21.5 ms
64 bytes from 199.66.198.2 (199.66.198.2): icmp_seq=7 ttl=56 time=21.7 ms
64 bytes from 199.66.198.2 (199.66.198.2): icmp_seq=7 ttl=56 time=21.6 ms
64 bytes from 199.66.198.2 (199.66.198.2): icmp_seq=7 ttl=56 time=21.7 ms
64 bytes from 199.66.198.2 (199.66.198.2): icmp_seq=7 ttl=56 time=21.7 ms
64 bytes from 199.66.198.2 (199.66.198.2): icmp_seq=7 ttl=56 time=21.7 ms
64 bytes from 199.66.198.2 (199.66.198.2): icmp_seq=7 ttl=56 time=21.6 ms
64 bytes from 199.66.198.2 (199.66.198.2): icmp_seq=7 ttl=56 time=21.5 ms
64 bytes from 199.66.198.2 (199.66.198.2): icmp_seq=7 ttl=56 time=21.6 ms
64 bytes from 199.66.198.2 (199.66.198.2): icmp_seq=7 ttl=56 time=21.6 ms
64 bytes from 199.66.198.2 (199.66.198.2): icmp_seq=7 ttl=56 time=21.6 ms
64 bytes from 199.66.198.2 (199.66.198.2): icmp_seq=7 ttl=56 time=21.6 ms
64 bytes from 199.66.198.2 (199.66.198.2): icmp_seq=7 ttl=56 time=21.6 ms
64 bytes from 199.66.198.2 (199.66.198.2): icmp_seq=7 ttl=56 time=21.5 ms
64 bytes from 199.66.198.2 (199.66.198.2): icmp_seq=7 ttl=56 time=21.5 ms
64 bytes from 199.66.198.2 (199.66.198.2): icmp_seq=7 ttl=56 time=21.4 ms
64 bytes from 199.66.198.2 (199.66.198.2): icmp_seq=7 ttl=56 time=21.4 ms
64 bytes from 199.66.198.2 (199.66.198.2): icmp_seq=8 ttl=56 time=21.7 ms
64 bytes from 199.66.198.2 (199.66.198.2): icmp_seq=8 ttl=56 time=21.7 ms
64 bytes from 199.66.198.2 (199.66.198.2): icmp_seq=8 ttl=56 time=21.8 ms
64 bytes from 199.66.198.2 (199.66.198.2): icmp_seq=8 ttl=56 time=21.6 ms
64 bytes from 199.66.198.2 (199.66.198.2): icmp_seq=8 ttl=56 time=21.5 ms
64 bytes from 199.66.198.2 (199.66.198.2): icmp_seq=8 ttl=56 time=21.5 ms
64 bytes from 199.66.198.2 (199.66.198.2): icmp_seq=8 ttl=56 time=21.6 ms
64 bytes from 199.66.198.2 (199.66.198.2): icmp_seq=8 ttl=56 time=21.6 ms
64 bytes from 199.66.198.2 (199.66.198.2): icmp_seq=8 ttl=56 time=21.6 ms
64 bytes from 199.66.198.2 (199.66.198.2): icmp_seq=8 ttl=56 time=21.6 ms
64 bytes from 199.66.198.2 (199.66.198.2): icmp_seq=8 ttl=56 time=21.7 ms
64 bytes from 199.66.198.2 (199.66.198.2): icmp_seq=8 ttl=56 time=21.7 ms
64 bytes from 199.66.198.2 (199.66.198.2): icmp_seq=8 ttl=56 time=21.6 ms
64 bytes from 199.66.198.2 (199.66.198.2): icmp_seq=8 ttl=56 time=21.6 ms
64 bytes from 199.66.198.2 (199.66.198.2): icmp_seq=8 ttl=56 time=21.7 ms
64 bytes from 199.66.198.2 (199.66.198.2): icmp_seq=8 ttl=56 time=21.7 ms
64 bytes from 199.66.198.2 (199.66.198.2): icmp_seq=8 ttl=56 time=21.7 ms
64 bytes from 199.66.198.2 (199.66.198.2): icmp_seq=8 ttl=56 time=21.4 ms
64 bytes from 199.66.198.2 (199.66.198.2): icmp_seq=8 ttl=56 time=21.3 ms
64 bytes from 199.66.198.2 (199.66.198.2): icmp_seq=8 ttl=56 time=21.3 ms
64 bytes from 199.66.198.2 (199.66.198.2): icmp_seq=9 ttl=56 time=21.8 ms
64 bytes from 199.66.198.2 (199.66.198.2): icmp_seq=9 ttl=56 time=21.6 ms
64 bytes from 199.66.198.2 (199.66.198.2): icmp_seq=9 ttl=56 time=21.7 ms
64 bytes from 199.66.198.2 (199.66.198.2): icmp_seq=9 ttl=56 time=21.5 ms
64 bytes from 199.66.198.2 (199.66.198.2): icmp_seq=9 ttl=56 time=21.9 ms
64 bytes from 199.66.198.2 (199.66.198.2): icmp_seq=9 ttl=56 time=21.9 ms
64 bytes from 199.66.198.2 (199.66.198.2): icmp_seq=9 ttl=56 time=21.4 ms
64 bytes from 199.66.198.2 (199.66.198.2): icmp_seq=9 ttl=56 time=21.4 ms
64 bytes from 199.66.198.2 (199.66.198.2): icmp_seq=9 ttl=56 time=21.8 ms
64 bytes from 199.66.198.2 (199.66.198.2): icmp_seq=9 ttl=56 time=21.5 ms
64 bytes from 199.66.198.2 (199.66.198.2): icmp_seq=9 ttl=56 time=21.4 ms
64 bytes from 199.66.198.2 (199.66.198.2): icmp_seq=9 ttl=56 time=21.6 ms
64 bytes from 199.66.198.2 (199.66.198.2): icmp_seq=9 ttl=56 time=21.6 ms
64 bytes from 199.66.198.2 (199.66.198.2): icmp_seq=9 ttl=56 time=21.6 ms
64 bytes from 199.66.198.2 (199.66.198.2): icmp_seq=9 ttl=56 time=21.6 ms
64 bytes from 199.66.198.2 (199.66.198.2): icmp_seq=9 ttl=56 time=21.6 ms
64 bytes from 199.66.198.2 (199.66.198.2): icmp_seq=9 ttl=56 time=21.6 ms
64 bytes from 199.66.198.2 (199.66.198.2): icmp_seq=9 ttl=56 time=21.6 ms
64 bytes from 199.66.198.2 (199.66.198.2): icmp_seq=9 ttl=56 time=21.6 ms
64 bytes from 199.66.198.2 (199.66.198.2): icmp_seq=9 ttl=56 time=21.5 ms
64 bytes from 199.66.198.2 (199.66.198.2): icmp_seq=10 ttl=56 time=21.9 ms
64 bytes from 199.66.198.2 (199.66.198.2): icmp_seq=10 ttl=56 time=21.5 ms
64 bytes from 199.66.198.2 (199.66.198.2): icmp_seq=10 ttl=56 time=21.5 ms
64 bytes from 199.66.198.2 (199.66.198.2): icmp_seq=10 ttl=56 time=21.5 ms
64 bytes from 199.66.198.2 (199.66.198.2): icmp_seq=10 ttl=56 time=21.5 ms
64 bytes from 199.66.198.2 (199.66.198.2): icmp_seq=10 ttl=56 time=21.5 ms
64 bytes from 199.66.198.2 (199.66.198.2): icmp_seq=10 ttl=56 time=21.4 ms
64 bytes from 199.66.198.2 (199.66.198.2): icmp_seq=10 ttl=56 time=21.3 ms
64 bytes from 199.66.198.2 (199.66.198.2): icmp_seq=10 ttl=56 time=21.5 ms
64 bytes from 199.66.198.2 (199.66.198.2): icmp_seq=10 ttl=56 time=21.5 ms
64 bytes from 199.66.198.2 (199.66.198.2): icmp_seq=10 ttl=56 time=21.4 ms
64 bytes from 199.66.198.2 (199.66.198.2): icmp_seq=10 ttl=56 time=21.5 ms
64 bytes from 199.66.198.2 (199.66.198.2): icmp_seq=10 ttl=56 time=21.5 ms
64 bytes from 199.66.198.2 (199.66.198.2): icmp_seq=10 ttl=56 time=21.5 ms
64 bytes from 199.66.198.2 (199.66.198.2): icmp_seq=10 ttl=56 time=21.5 ms
64 bytes from 199.66.198.2 (199.66.198.2): icmp_seq=10 ttl=56 time=21.6 ms
64 bytes from 199.66.198.2 (199.66.198.2): icmp_seq=10 ttl=56 time=21.6 ms
64 bytes from 199.66.198.2 (199.66.198.2): icmp_seq=10 ttl=56 time=21.5 ms
64 bytes from 199.66.198.2 (199.66.198.2): icmp_seq=10 ttl=56 time=21.7 ms
64 bytes from 199.66.198.2 (199.66.198.2): icmp_seq=10 ttl=56 time=21.6 ms
64 bytes from 199.66.198.2 (199.66.198.2): icmp_seq=11 ttl=56 time=21.6 ms
64 bytes from 199.66.198.2 (199.66.198.2): icmp_seq=11 ttl=56 time=21.8 ms
64 bytes from 199.66.198.2 (199.66.198.2): icmp_seq=11 ttl=56 time=21.8 ms
64 bytes from 199.66.198.2 (199.66.198.2): icmp_seq=11 ttl=56 time=21.8 ms
64 bytes from 199.66.198.2 (199.66.198.2): icmp_seq=11 ttl=56 time=21.7 ms
64 bytes from 199.66.198.2 (199.66.198.2): icmp_seq=11 ttl=56 time=21.8 ms
64 bytes from 199.66.198.2 (199.66.198.2): icmp_seq=11 ttl=56 time=21.6 ms
64 bytes from 199.66.198.2 (199.66.198.2): icmp_seq=11 ttl=56 time=21.6 ms
64 bytes from 199.66.198.2 (199.66.198.2): icmp_seq=11 ttl=56 time=21.6 ms
64 bytes from 199.66.198.2 (199.66.198.2): icmp_seq=11 ttl=56 time=21.5 ms
64 bytes from 199.66.198.2 (199.66.198.2): icmp_seq=11 ttl=56 time=21.6 ms
64 bytes from 199.66.198.2 (199.66.198.2): icmp_seq=11 ttl=56 time=21.2 ms
64 bytes from 199.66.198.2 (199.66.198.2): icmp_seq=11 ttl=56 time=21.2 ms
64 bytes from 199.66.198.2 (199.66.198.2): icmp_seq=11 ttl=56 time=21.2 ms
64 bytes from 199.66.198.2 (199.66.198.2): icmp_seq=11 ttl=56 time=21.2 ms
64 bytes from 199.66.198.2 (199.66.198.2): icmp_seq=11 ttl=56 time=21.2 ms
64 bytes from 199.66.198.2 (199.66.198.2): icmp_seq=11 ttl=56 time=21.3 ms
64 bytes from 199.66.198.2 (199.66.198.2): icmp_seq=11 ttl=56 time=21.3 ms
64 bytes from 199.66.198.2 (199.66.198.2): icmp_seq=11 ttl=56 time=21.3 ms
64 bytes from 199.66.198.2 (199.66.198.2): icmp_seq=11 ttl=56 time=21.2 ms
64 bytes from 199.66.198.2 (199.66.198.2): icmp_seq=12 ttl=56 time=22.1 ms
64 bytes from 199.66.198.2 (199.66.198.2): icmp_seq=12 ttl=56 time=22.0 ms
64 bytes from 199.66.198.2 (199.66.198.2): icmp_seq=12 ttl=56 time=21.8 ms
64 bytes from 199.66.198.2 (199.66.198.2): icmp_seq=12 ttl=56 time=21.8 ms
64 bytes from 199.66.198.2 (199.66.198.2): icmp_seq=12 ttl=56 time=21.6 ms
64 bytes from 199.66.198.2 (199.66.198.2): icmp_seq=12 ttl=56 time=21.6 ms
64 bytes from 199.66.198.2 (199.66.198.2): icmp_seq=12 ttl=56 time=21.6 ms
64 bytes from 199.66.198.2 (199.66.198.2): icmp_seq=12 ttl=56 time=21.4 ms
64 bytes from 199.66.198.2 (199.66.198.2): icmp_seq=12 ttl=56 time=21.4 ms
64 bytes from 199.66.198.2 (199.66.198.2): icmp_seq=12 ttl=56 time=21.4 ms
64 bytes from 199.66.198.2 (199.66.198.2): icmp_seq=12 ttl=56 time=21.5 ms
64 bytes from 199.66.198.2 (199.66.198.2): icmp_seq=12 ttl=56 time=21.5 ms
64 bytes from 199.66.198.2 (199.66.198.2): icmp_seq=12 ttl=56 time=21.5 ms
64 bytes from 199.66.198.2 (199.66.198.2): icmp_seq=12 ttl=56 time=21.6 ms
64 bytes from 199.66.198.2 (199.66.198.2): icmp_seq=12 ttl=56 time=21.5 ms
64 bytes from 199.66.198.2 (199.66.198.2): icmp_seq=12 ttl=56 time=21.4 ms
64 bytes from 199.66.198.2 (199.66.198.2): icmp_seq=12 ttl=56 time=21.5 ms
64 bytes from 199.66.198.2 (199.66.198.2): icmp_seq=12 ttl=56 time=21.5 ms
64 bytes from 199.66.198.2 (199.66.198.2): icmp_seq=12 ttl=56 time=21.4 ms
64 bytes from 199.66.198.2 (199.66.198.2): icmp_seq=12 ttl=56 time=21.5 ms
64 bytes from 199.66.198.2 (199.66.198.2): icmp_seq=13 ttl=56 time=21.6 ms
64 bytes from 199.66.198.2 (199.66.198.2): icmp_seq=13 ttl=56 time=21.6 ms
64 bytes from 199.66.198.2 (199.66.198.2): icmp_seq=13 ttl=56 time=21.6 ms
64 bytes from 199.66.198.2 (199.66.198.2): icmp_seq=13 ttl=56 time=21.6 ms
64 bytes from 199.66.198.2 (199.66.198.2): icmp_seq=13 ttl=56 time=21.7 ms
64 bytes from 199.66.198.2 (199.66.198.2): icmp_seq=13 ttl=56 time=21.7 ms
64 bytes from 199.66.198.2 (199.66.198.2): icmp_seq=13 ttl=56 time=21.8 ms
64 bytes from 199.66.198.2 (199.66.198.2): icmp_seq=13 ttl=56 time=21.8 ms
64 bytes from 199.66.198.2 (199.66.198.2): icmp_seq=13 ttl=56 time=21.3 ms
64 bytes from 199.66.198.2 (199.66.198.2): icmp_seq=13 ttl=56 time=21.4 ms
64 bytes from 199.66.198.2 (199.66.198.2): icmp_seq=13 ttl=56 time=21.3 ms
64 bytes from 199.66.198.2 (199.66.198.2): icmp_seq=13 ttl=56 time=21.4 ms
64 bytes from 199.66.198.2 (199.66.198.2): icmp_seq=13 ttl=56 time=21.4 ms
64 bytes from 199.66.198.2 (199.66.198.2): icmp_seq=13 ttl=56 time=21.4 ms
64 bytes from 199.66.198.2 (199.66.198.2): icmp_seq=13 ttl=56 time=21.4 ms
64 bytes from 199.66.198.2 (199.66.198.2): icmp_seq=13 ttl=56 time=21.4 ms
64 bytes from 199.66.198.2 (199.66.198.2): icmp_seq=13 ttl=56 time=21.4 ms
64 bytes from 199.66.198.2 (199.66.198.2): icmp_seq=13 ttl=56 time=21.7 ms
64 bytes from 199.66.198.2 (199.66.198.2): icmp_seq=13 ttl=56 time=21.5 ms
64 bytes from 199.66.198.2 (199.66.198.2): icmp_seq=13 ttl=56 time=21.4 ms
64 bytes from 199.66.198.2 (199.66.198.2): icmp_seq=14 ttl=56 time=21.7 ms
64 bytes from 199.66.198.2 (199.66.198.2): icmp_seq=14 ttl=56 time=21.6 ms
64 bytes from 199.66.198.2 (199.66.198.2): icmp_seq=14 ttl=56 time=21.7 ms
64 bytes from 199.66.198.2 (199.66.198.2): icmp_seq=14 ttl=56 time=21.7 ms
64 bytes from 199.66.198.2 (199.66.198.2): icmp_seq=14 ttl=56 time=21.6 ms
64 bytes from 199.66.198.2 (199.66.198.2): icmp_seq=14 ttl=56 time=21.7 ms
64 bytes from 199.66.198.2 (199.66.198.2): icmp_seq=14 ttl=56 time=21.7 ms
64 bytes from 199.66.198.2 (199.66.198.2): icmp_seq=14 ttl=56 time=21.8 ms
64 bytes from 199.66.198.2 (199.66.198.2): icmp_seq=14 ttl=56 time=21.7 ms
64 bytes from 199.66.198.2 (199.66.198.2): icmp_seq=14 ttl=56 time=21.8 ms
64 bytes from 199.66.198.2 (199.66.198.2): icmp_seq=14 ttl=56 time=21.8 ms
64 bytes from 199.66.198.2 (199.66.198.2): icmp_seq=14 ttl=56 time=21.8 ms
64 bytes from 199.66.198.2 (199.66.198.2): icmp_seq=14 ttl=56 time=21.8 ms
64 bytes from 199.66.198.2 (199.66.198.2): icmp_seq=14 ttl=56 time=21.8 ms
64 bytes from 199.66.198.2 (199.66.198.2): icmp_seq=14 ttl=56 time=21.8 ms
64 bytes from 199.66.198.2 (199.66.198.2): icmp_seq=14 ttl=56 time=21.9 ms
64 bytes from 199.66.198.2 (199.66.198.2): icmp_seq=14 ttl=56 time=21.9 ms
64 bytes from 199.66.198.2 (199.66.198.2): icmp_seq=14 ttl=56 time=21.9 ms
64 bytes from 199.66.198.2 (199.66.198.2): icmp_seq=14 ttl=56 time=21.6 ms
64 bytes from 199.66.198.2 (199.66.198.2): icmp_seq=14 ttl=56 time=21.9 ms
64 bytes from 199.66.198.2 (199.66.198.2): icmp_seq=15 ttl=56 time=21.8 ms
64 bytes from 199.66.198.2 (199.66.198.2): icmp_seq=15 ttl=56 time=21.8 ms
64 bytes from 199.66.198.2 (199.66.198.2): icmp_seq=15 ttl=56 time=21.9 ms
64 bytes from 199.66.198.2 (199.66.198.2): icmp_seq=15 ttl=56 time=21.9 ms
64 bytes from 199.66.198.2 (199.66.198.2): icmp_seq=15 ttl=56 time=21.7 ms
64 bytes from 199.66.198.2 (199.66.198.2): icmp_seq=15 ttl=56 time=21.6 ms
64 bytes from 199.66.198.2 (199.66.198.2): icmp_seq=15 ttl=56 time=21.6 ms
64 bytes from 199.66.198.2 (199.66.198.2): icmp_seq=15 ttl=56 time=21.6 ms
64 bytes from 199.66.198.2 (199.66.198.2): icmp_seq=15 ttl=56 time=21.6 ms
64 bytes from 199.66.198.2 (199.66.198.2): icmp_seq=15 ttl=56 time=21.6 ms
64 bytes from 199.66.198.2 (199.66.198.2): icmp_seq=15 ttl=56 time=21.7 ms
64 bytes from 199.66.198.2 (199.66.198.2): icmp_seq=15 ttl=56 time=21.7 ms
64 bytes from 199.66.198.2 (199.66.198.2): icmp_seq=15 ttl=56 time=21.7 ms
64 bytes from 199.66.198.2 (199.66.198.2): icmp_seq=15 ttl=56 time=21.5 ms
64 bytes from 199.66.198.2 (199.66.198.2): icmp_seq=15 ttl=56 time=21.4 ms
64 bytes from 199.66.198.2 (199.66.198.2): icmp_seq=15 ttl=56 time=21.4 ms
64 bytes from 199.66.198.2 (199.66.198.2): icmp_seq=15 ttl=56 time=21.5 ms
64 bytes from 199.66.198.2 (199.66.198.2): icmp_seq=15 ttl=56 time=21.4 ms
64 bytes from 199.66.198.2 (199.66.198.2): icmp_seq=15 ttl=56 time=21.5 ms
64 bytes from 199.66.198.2 (199.66.198.2): icmp_seq=15 ttl=56 time=21.4 ms
64 bytes from 199.66.198.2 (199.66.198.2): icmp_seq=16 ttl=56 time=21.9 ms
64 bytes from 199.66.198.2 (199.66.198.2): icmp_seq=16 ttl=56 time=21.9 ms
64 bytes from 199.66.198.2 (199.66.198.2): icmp_seq=16 ttl=56 time=21.9 ms
64 bytes from 199.66.198.2 (199.66.198.2): icmp_seq=16 ttl=56 time=21.8 ms
64 bytes from 199.66.198.2 (199.66.198.2): icmp_seq=16 ttl=56 time=21.9 ms
64 bytes from 199.66.198.2 (199.66.198.2): icmp_seq=16 ttl=56 time=21.7 ms
64 bytes from 199.66.198.2 (199.66.198.2): icmp_seq=16 ttl=56 time=21.7 ms
64 bytes from 199.66.198.2 (199.66.198.2): icmp_seq=16 ttl=56 time=21.8 ms
64 bytes from 199.66.198.2 (199.66.198.2): icmp_seq=16 ttl=56 time=21.8 ms
64 bytes from 199.66.198.2 (199.66.198.2): icmp_seq=16 ttl=56 time=21.9 ms
64 bytes from 199.66.198.2 (199.66.198.2): icmp_seq=16 ttl=56 time=21.9 ms
64 bytes from 199.66.198.2 (199.66.198.2): icmp_seq=16 ttl=56 time=21.9 ms
64 bytes from 199.66.198.2 (199.66.198.2): icmp_seq=16 ttl=56 time=21.9 ms
64 bytes from 199.66.198.2 (199.66.198.2): icmp_seq=16 ttl=56 time=21.9 ms
64 bytes from 199.66.198.2 (199.66.198.2): icmp_seq=16 ttl=56 time=21.8 ms
64 bytes from 199.66.198.2 (199.66.198.2): icmp_seq=16 ttl=56 time=21.8 ms
64 bytes from 199.66.198.2 (199.66.198.2): icmp_seq=16 ttl=56 time=21.9 ms
64 bytes from 199.66.198.2 (199.66.198.2): icmp_seq=16 ttl=56 time=21.8 ms
64 bytes from 199.66.198.2 (199.66.198.2): icmp_seq=16 ttl=56 time=21.8 ms
64 bytes from 199.66.198.2 (199.66.198.2): icmp_seq=16 ttl=56 time=21.6 ms
64 bytes from 199.66.198.2 (199.66.198.2): icmp_seq=17 ttl=56 time=21.8 ms
64 bytes from 199.66.198.2 (199.66.198.2): icmp_seq=17 ttl=56 time=21.8 ms
64 bytes from 199.66.198.2 (199.66.198.2): icmp_seq=17 ttl=56 time=21.8 ms
64 bytes from 199.66.198.2 (199.66.198.2): icmp_seq=17 ttl=56 time=21.7 ms
64 bytes from 199.66.198.2 (199.66.198.2): icmp_seq=17 ttl=56 time=21.8 ms
64 bytes from 199.66.198.2 (199.66.198.2): icmp_seq=17 ttl=56 time=21.6 ms
64 bytes from 199.66.198.2 (199.66.198.2): icmp_seq=17 ttl=56 time=21.6 ms
64 bytes from 199.66.198.2 (199.66.198.2): icmp_seq=17 ttl=56 time=21.6 ms
64 bytes from 199.66.198.2 (199.66.198.2): icmp_seq=17 ttl=56 time=21.6 ms
64 bytes from 199.66.198.2 (199.66.198.2): icmp_seq=17 ttl=56 time=21.5 ms
64 bytes from 199.66.198.2 (199.66.198.2): icmp_seq=17 ttl=56 time=21.5 ms
64 bytes from 199.66.198.2 (199.66.198.2): icmp_seq=17 ttl=56 time=21.5 ms
64 bytes from 199.66.198.2 (199.66.198.2): icmp_seq=17 ttl=56 time=21.5 ms
64 bytes from 199.66.198.2 (199.66.198.2): icmp_seq=17 ttl=56 time=21.5 ms
64 bytes from 199.66.198.2 (199.66.198.2): icmp_seq=17 ttl=56 time=21.4 ms
64 bytes from 199.66.198.2 (199.66.198.2): icmp_seq=17 ttl=56 time=21.5 ms
64 bytes from 199.66.198.2 (199.66.198.2): icmp_seq=17 ttl=56 time=21.5 ms
64 bytes from 199.66.198.2 (199.66.198.2): icmp_seq=17 ttl=56 time=21.4 ms
64 bytes from 199.66.198.2 (199.66.198.2): icmp_seq=17 ttl=56 time=21.4 ms
64 bytes from 199.66.198.2 (199.66.198.2): icmp_seq=17 ttl=56 time=21.5 ms
64 bytes from 199.66.198.2 (199.66.198.2): icmp_seq=18 ttl=56 time=21.9 ms
64 bytes from 199.66.198.2 (199.66.198.2): icmp_seq=18 ttl=56 time=21.9 ms
64 bytes from 199.66.198.2 (199.66.198.2): icmp_seq=18 ttl=56 time=21.9 ms
64 bytes from 199.66.198.2 (199.66.198.2): icmp_seq=18 ttl=56 time=21.9 ms
64 bytes from 199.66.198.2 (199.66.198.2): icmp_seq=18 ttl=56 time=21.8 ms
64 bytes from 199.66.198.2 (199.66.198.2): icmp_seq=18 ttl=56 time=21.7 ms
64 bytes from 199.66.198.2 (199.66.198.2): icmp_seq=18 ttl=56 time=21.7 ms
64 bytes from 199.66.198.2 (199.66.198.2): icmp_seq=18 ttl=56 time=21.7 ms
64 bytes from 199.66.198.2 (199.66.198.2): icmp_seq=18 ttl=56 time=21.7 ms
64 bytes from 199.66.198.2 (199.66.198.2): icmp_seq=18 ttl=56 time=21.7 ms
64 bytes from 199.66.198.2 (199.66.198.2): icmp_seq=18 ttl=56 time=21.8 ms
64 bytes from 199.66.198.2 (199.66.198.2): icmp_seq=18 ttl=56 time=21.7 ms
64 bytes from 199.66.198.2 (199.66.198.2): icmp_seq=18 ttl=56 time=21.8 ms
64 bytes from 199.66.198.2 (199.66.198.2): icmp_seq=18 ttl=56 time=21.8 ms
64 bytes from 199.66.198.2 (199.66.198.2): icmp_seq=18 ttl=56 time=21.7 ms
64 bytes from 199.66.198.2 (199.66.198.2): icmp_seq=18 ttl=56 time=21.8 ms
64 bytes from 199.66.198.2 (199.66.198.2): icmp_seq=18 ttl=56 time=21.8 ms
64 bytes from 199.66.198.2 (199.66.198.2): icmp_seq=18 ttl=56 time=21.8 ms
64 bytes from 199.66.198.2 (199.66.198.2): icmp_seq=18 ttl=56 time=21.6 ms
64 bytes from 199.66.198.2 (199.66.198.2): icmp_seq=18 ttl=56 time=21.8 ms
64 bytes from 199.66.198.2 (199.66.198.2): icmp_seq=19 ttl=56 time=21.9 ms
64 bytes from 199.66.198.2 (199.66.198.2): icmp_seq=19 ttl=56 time=21.9 ms
64 bytes from 199.66.198.2 (199.66.198.2): icmp_seq=19 ttl=56 time=22.0 ms
64 bytes from 199.66.198.2 (199.66.198.2): icmp_seq=19 ttl=56 time=21.8 ms
64 bytes from 199.66.198.2 (199.66.198.2): icmp_seq=19 ttl=56 time=22.0 ms
64 bytes from 199.66.198.2 (199.66.198.2): icmp_seq=19 ttl=56 time=21.6 ms
64 bytes from 199.66.198.2 (199.66.198.2): icmp_seq=19 ttl=56 time=21.4 ms
64 bytes from 199.66.198.2 (199.66.198.2): icmp_seq=19 ttl=56 time=21.4 ms
64 bytes from 199.66.198.2 (199.66.198.2): icmp_seq=19 ttl=56 time=21.4 ms
64 bytes from 199.66.198.2 (199.66.198.2): icmp_seq=19 ttl=56 time=21.5 ms
64 bytes from 199.66.198.2 (199.66.198.2): icmp_seq=19 ttl=56 time=21.5 ms
64 bytes from 199.66.198.2 (199.66.198.2): icmp_seq=19 ttl=56 time=21.5 ms
64 bytes from 199.66.198.2 (199.66.198.2): icmp_seq=19 ttl=56 time=21.5 ms
64 bytes from 199.66.198.2 (199.66.198.2): icmp_seq=19 ttl=56 time=21.5 ms
64 bytes from 199.66.198.2 (199.66.198.2): icmp_seq=19 ttl=56 time=21.6 ms
64 bytes from 199.66.198.2 (199.66.198.2): icmp_seq=19 ttl=56 time=21.5 ms
64 bytes from 199.66.198.2 (199.66.198.2): icmp_seq=19 ttl=56 time=21.5 ms
64 bytes from 199.66.198.2 (199.66.198.2): icmp_seq=19 ttl=56 time=21.6 ms
64 bytes from 199.66.198.2 (199.66.198.2): icmp_seq=19 ttl=56 time=21.4 ms
64 bytes from 199.66.198.2 (199.66.198.2): icmp_seq=19 ttl=56 time=21.6 ms
64 bytes from 199.66.198.2 (199.66.198.2): icmp_seq=20 ttl=56 time=21.8 ms
64 bytes from 199.66.198.2 (199.66.198.2): icmp_seq=20 ttl=56 time=21.8 ms
64 bytes from 199.66.198.2 (199.66.198.2): icmp_seq=20 ttl=56 time=21.9 ms
64 bytes from 199.66.198.2 (199.66.198.2): icmp_seq=20 ttl=56 time=21.9 ms
64 bytes from 199.66.198.2 (199.66.198.2): icmp_seq=20 ttl=56 time=21.7 ms
64 bytes from 199.66.198.2 (199.66.198.2): icmp_seq=20 ttl=56 time=21.6 ms
64 bytes from 199.66.198.2 (199.66.198.2): icmp_seq=20 ttl=56 time=21.6 ms
64 bytes from 199.66.198.2 (199.66.198.2): icmp_seq=20 ttl=56 time=21.6 ms
64 bytes from 199.66.198.2 (199.66.198.2): icmp_seq=20 ttl=56 time=21.6 ms
64 bytes from 199.66.198.2 (199.66.198.2): icmp_seq=20 ttl=56 time=21.6 ms
64 bytes from 199.66.198.2 (199.66.198.2): icmp_seq=20 ttl=56 time=21.6 ms
64 bytes from 199.66.198.2 (199.66.198.2): icmp_seq=20 ttl=56 time=21.6 ms
64 bytes from 199.66.198.2 (199.66.198.2): icmp_seq=20 ttl=56 time=21.6 ms
64 bytes from 199.66.198.2 (199.66.198.2): icmp_seq=20 ttl=56 time=21.7 ms
64 bytes from 199.66.198.2 (199.66.198.2): icmp_seq=20 ttl=56 time=21.7 ms
64 bytes from 199.66.198.2 (199.66.198.2): icmp_seq=20 ttl=56 time=21.6 ms
64 bytes from 199.66.198.2 (199.66.198.2): icmp_seq=20 ttl=56 time=21.7 ms
64 bytes from 199.66.198.2 (199.66.198.2): icmp_seq=20 ttl=56 time=21.6 ms
64 bytes from 199.66.198.2 (199.66.198.2): icmp_seq=20 ttl=56 time=21.6 ms
64 bytes from 199.66.198.2 (199.66.198.2): icmp_seq=20 ttl=56 time=21.5 ms
64 bytes from 199.66.198.2 (199.66.198.2): icmp_seq=21 ttl=56 time=21.6 ms
64 bytes from 199.66.198.2 (199.66.198.2): icmp_seq=21 ttl=56 time=21.6 ms
64 bytes from 199.66.198.2 (199.66.198.2): icmp_seq=21 ttl=56 time=21.5 ms
64 bytes from 199.66.198.2 (199.66.198.2): icmp_seq=21 ttl=56 time=21.6 ms
64 bytes from 199.66.198.2 (199.66.198.2): icmp_seq=21 ttl=56 time=21.6 ms
64 bytes from 199.66.198.2 (199.66.198.2): icmp_seq=21 ttl=56 time=21.6 ms
64 bytes from 199.66.198.2 (199.66.198.2): icmp_seq=21 ttl=56 time=21.5 ms
64 bytes from 199.66.198.2 (199.66.198.2): icmp_seq=21 ttl=56 time=21.5 ms
64 bytes from 199.66.198.2 (199.66.198.2): icmp_seq=21 ttl=56 time=21.5 ms
64 bytes from 199.66.198.2 (199.66.198.2): icmp_seq=21 ttl=56 time=21.5 ms
64 bytes from 199.66.198.2 (199.66.198.2): icmp_seq=21 ttl=56 time=21.5 ms
64 bytes from 199.66.198.2 (199.66.198.2): icmp_seq=21 ttl=56 time=21.6 ms
64 bytes from 199.66.198.2 (199.66.198.2): icmp_seq=21 ttl=56 time=21.6 ms
64 bytes from 199.66.198.2 (199.66.198.2): icmp_seq=21 ttl=56 time=21.6 ms
64 bytes from 199.66.198.2 (199.66.198.2): icmp_seq=21 ttl=56 time=21.6 ms
64 bytes from 199.66.198.2 (199.66.198.2): icmp_seq=21 ttl=56 time=21.6 ms
64 bytes from 199.66.198.2 (199.66.198.2): icmp_seq=21 ttl=56 time=21.6 ms
64 bytes from 199.66.198.2 (199.66.198.2): icmp_seq=21 ttl=56 time=21.4 ms
64 bytes from 199.66.198.2 (199.66.198.2): icmp_seq=21 ttl=56 time=21.6 ms
64 bytes from 199.66.198.2 (199.66.198.2): icmp_seq=21 ttl=56 time=21.6 ms
64 bytes from 199.66.198.2 (199.66.198.2): icmp_seq=22 ttl=56 time=22.0 ms
64 bytes from 199.66.198.2 (199.66.198.2): icmp_seq=22 ttl=56 time=22.0 ms
64 bytes from 199.66.198.2 (199.66.198.2): icmp_seq=22 ttl=56 time=22.1 ms
64 bytes from 199.66.198.2 (199.66.198.2): icmp_seq=22 ttl=56 time=21.9 ms
64 bytes from 199.66.198.2 (199.66.198.2): icmp_seq=22 ttl=56 time=22.1 ms
64 bytes from 199.66.198.2 (199.66.198.2): icmp_seq=22 ttl=56 time=21.7 ms
64 bytes from 199.66.198.2 (199.66.198.2): icmp_seq=22 ttl=56 time=21.7 ms
64 bytes from 199.66.198.2 (199.66.198.2): icmp_seq=22 ttl=56 time=21.8 ms
64 bytes from 199.66.198.2 (199.66.198.2): icmp_seq=22 ttl=56 time=21.7 ms
64 bytes from 199.66.198.2 (199.66.198.2): icmp_seq=22 ttl=56 time=21.7 ms
64 bytes from 199.66.198.2 (199.66.198.2): icmp_seq=22 ttl=56 time=21.8 ms
64 bytes from 199.66.198.2 (199.66.198.2): icmp_seq=22 ttl=56 time=21.8 ms
64 bytes from 199.66.198.2 (199.66.198.2): icmp_seq=22 ttl=56 time=21.8 ms
64 bytes from 199.66.198.2 (199.66.198.2): icmp_seq=22 ttl=56 time=21.8 ms
64 bytes from 199.66.198.2 (199.66.198.2): icmp_seq=22 ttl=56 time=21.8 ms
64 bytes from 199.66.198.2 (199.66.198.2): icmp_seq=22 ttl=56 time=21.8 ms
64 bytes from 199.66.198.2 (199.66.198.2): icmp_seq=22 ttl=56 time=21.8 ms
64 bytes from 199.66.198.2 (199.66.198.2): icmp_seq=22 ttl=56 time=21.9 ms
64 bytes from 199.66.198.2 (199.66.198.2): icmp_seq=22 ttl=56 time=21.8 ms
64 bytes from 199.66.198.2 (199.66.198.2): icmp_seq=22 ttl=56 time=21.7 ms
64 bytes from 199.66.198.2 (199.66.198.2): icmp_seq=23 ttl=56 time=21.8 ms
64 bytes from 199.66.198.2 (199.66.198.2): icmp_seq=23 ttl=56 time=21.8 ms
64 bytes from 199.66.198.2 (199.66.198.2): icmp_seq=23 ttl=56 time=21.8 ms
64 bytes from 199.66.198.2 (199.66.198.2): icmp_seq=23 ttl=56 time=21.7 ms
64 bytes from 199.66.198.2 (199.66.198.2): icmp_seq=23 ttl=56 time=21.8 ms
64 bytes from 199.66.198.2 (199.66.198.2): icmp_seq=23 ttl=56 time=21.7 ms
64 bytes from 199.66.198.2 (199.66.198.2): icmp_seq=23 ttl=56 time=21.7 ms
64 bytes from 199.66.198.2 (199.66.198.2): icmp_seq=23 ttl=56 time=21.8 ms
64 bytes from 199.66.198.2 (199.66.198.2): icmp_seq=23 ttl=56 time=21.7 ms
64 bytes from 199.66.198.2 (199.66.198.2): icmp_seq=23 ttl=56 time=21.8 ms
64 bytes from 199.66.198.2 (199.66.198.2): icmp_seq=23 ttl=56 time=21.4 ms
64 bytes from 199.66.198.2 (199.66.198.2): icmp_seq=23 ttl=56 time=21.4 ms
64 bytes from 199.66.198.2 (199.66.198.2): icmp_seq=23 ttl=56 time=21.4 ms
64 bytes from 199.66.198.2 (199.66.198.2): icmp_seq=23 ttl=56 time=21.4 ms
64 bytes from 199.66.198.2 (199.66.198.2): icmp_seq=23 ttl=56 time=21.4 ms
64 bytes from 199.66.198.2 (199.66.198.2): icmp_seq=23 ttl=56 time=21.4 ms
64 bytes from 199.66.198.2 (199.66.198.2): icmp_seq=23 ttl=56 time=21.5 ms
64 bytes from 199.66.198.2 (199.66.198.2): icmp_seq=23 ttl=56 time=21.3 ms
64 bytes from 199.66.198.2 (199.66.198.2): icmp_seq=23 ttl=56 time=21.5 ms
64 bytes from 199.66.198.2 (199.66.198.2): icmp_seq=23 ttl=56 time=21.5 ms
64 bytes from 199.66.198.2 (199.66.198.2): icmp_seq=24 ttl=56 time=21.8 ms
64 bytes from 199.66.198.2 (199.66.198.2): icmp_seq=24 ttl=56 time=21.7 ms
64 bytes from 199.66.198.2 (199.66.198.2): icmp_seq=24 ttl=56 time=21.8 ms
64 bytes from 199.66.198.2 (199.66.198.2): icmp_seq=24 ttl=56 time=21.8 ms
64 bytes from 199.66.198.2 (199.66.198.2): icmp_seq=24 ttl=56 time=21.5 ms
64 bytes from 199.66.198.2 (199.66.198.2): icmp_seq=24 ttl=56 time=21.7 ms
64 bytes from 199.66.198.2 (199.66.198.2): icmp_seq=24 ttl=56 time=21.8 ms
64 bytes from 199.66.198.2 (199.66.198.2): icmp_seq=24 ttl=56 time=21.8 ms
64 bytes from 199.66.198.2 (199.66.198.2): icmp_seq=24 ttl=56 time=21.8 ms
64 bytes from 199.66.198.2 (199.66.198.2): icmp_seq=24 ttl=56 time=21.8 ms
64 bytes from 199.66.198.2 (199.66.198.2): icmp_seq=24 ttl=56 time=21.8 ms
64 bytes from 199.66.198.2 (199.66.198.2): icmp_seq=24 ttl=56 time=21.9 ms
64 bytes from 199.66.198.2 (199.66.198.2): icmp_seq=24 ttl=56 time=21.9 ms
64 bytes from 199.66.198.2 (199.66.198.2): icmp_seq=24 ttl=56 time=21.9 ms
64 bytes from 199.66.198.2 (199.66.198.2): icmp_seq=24 ttl=56 time=21.9 ms
64 bytes from 199.66.198.2 (199.66.198.2): icmp_seq=24 ttl=56 time=21.9 ms
64 bytes from 199.66.198.2 (199.66.198.2): icmp_seq=24 ttl=56 time=22.0 ms
64 bytes from 199.66.198.2 (199.66.198.2): icmp_seq=24 ttl=56 time=21.9 ms
64 bytes from 199.66.198.2 (199.66.198.2): icmp_seq=24 ttl=56 time=21.7 ms
64 bytes from 199.66.198.2 (199.66.198.2): icmp_seq=24 ttl=56 time=22.0 ms
64 bytes from 199.66.198.2 (199.66.198.2): icmp_seq=25 ttl=56 time=21.7 ms
64 bytes from 199.66.198.2 (199.66.198.2): icmp_seq=25 ttl=56 time=21.6 ms
64 bytes from 199.66.198.2 (199.66.198.2): icmp_seq=25 ttl=56 time=21.4 ms
64 bytes from 199.66.198.2 (199.66.198.2): icmp_seq=25 ttl=56 time=21.4 ms
64 bytes from 199.66.198.2 (199.66.198.2): icmp_seq=25 ttl=56 time=21.2 ms
64 bytes from 199.66.198.2 (199.66.198.2): icmp_seq=25 ttl=56 time=21.6 ms
64 bytes from 199.66.198.2 (199.66.198.2): icmp_seq=25 ttl=56 time=21.7 ms
64 bytes from 199.66.198.2 (199.66.198.2): icmp_seq=25 ttl=56 time=21.4 ms
64 bytes from 199.66.198.2 (199.66.198.2): icmp_seq=25 ttl=56 time=21.4 ms
64 bytes from 199.66.198.2 (199.66.198.2): icmp_seq=25 ttl=56 time=21.4 ms
64 bytes from 199.66.198.2 (199.66.198.2): icmp_seq=25 ttl=56 time=21.4 ms
64 bytes from 199.66.198.2 (199.66.198.2): icmp_seq=25 ttl=56 time=21.4 ms
64 bytes from 199.66.198.2 (199.66.198.2): icmp_seq=25 ttl=56 time=21.5 ms
64 bytes from 199.66.198.2 (199.66.198.2): icmp_seq=25 ttl=56 time=21.5 ms
64 bytes from 199.66.198.2 (199.66.198.2): icmp_seq=25 ttl=56 time=21.5 ms
64 bytes from 199.66.198.2 (199.66.198.2): icmp_seq=25 ttl=56 time=21.5 ms
64 bytes from 199.66.198.2 (199.66.198.2): icmp_seq=25 ttl=56 time=21.5 ms
64 bytes from 199.66.198.2 (199.66.198.2): icmp_seq=25 ttl=56 time=21.5 ms
64 bytes from 199.66.198.2 (199.66.198.2): icmp_seq=25 ttl=56 time=21.4 ms
64 bytes from 199.66.198.2 (199.66.198.2): icmp_seq=25 ttl=56 time=21.3 ms
64 bytes from 199.66.198.2 (199.66.198.2): icmp_seq=26 ttl=56 time=21.9 ms
64 bytes from 199.66.198.2 (199.66.198.2): icmp_seq=26 ttl=56 time=22.0 ms
64 bytes from 199.66.198.2 (199.66.198.2): icmp_seq=26 ttl=56 time=21.9 ms
64 bytes from 199.66.198.2 (199.66.198.2): icmp_seq=26 ttl=56 time=21.4 ms
64 bytes from 199.66.198.2 (199.66.198.2): icmp_seq=26 ttl=56 time=21.6 ms
64 bytes from 199.66.198.2 (199.66.198.2): icmp_seq=26 ttl=56 time=21.7 ms
64 bytes from 199.66.198.2 (199.66.198.2): icmp_seq=26 ttl=56 time=21.7 ms
64 bytes from 199.66.198.2 (199.66.198.2): icmp_seq=26 ttl=56 time=21.7 ms
64 bytes from 199.66.198.2 (199.66.198.2): icmp_seq=26 ttl=56 time=21.7 ms
64 bytes from 199.66.198.2 (199.66.198.2): icmp_seq=26 ttl=56 time=21.6 ms
64 bytes from 199.66.198.2 (199.66.198.2): icmp_seq=26 ttl=56 time=21.7 ms
64 bytes from 199.66.198.2 (199.66.198.2): icmp_seq=26 ttl=56 time=21.7 ms
64 bytes from 199.66.198.2 (199.66.198.2): icmp_seq=26 ttl=56 time=21.8 ms
64 bytes from 199.66.198.2 (199.66.198.2): icmp_seq=26 ttl=56 time=21.8 ms
64 bytes from 199.66.198.2 (199.66.198.2): icmp_seq=26 ttl=56 time=21.9 ms
64 bytes from 199.66.198.2 (199.66.198.2): icmp_seq=26 ttl=56 time=21.8 ms
64 bytes from 199.66.198.2 (199.66.198.2): icmp_seq=26 ttl=56 time=21.9 ms
64 bytes from 199.66.198.2 (199.66.198.2): icmp_seq=26 ttl=56 time=21.6 ms
64 bytes from 199.66.198.2 (199.66.198.2): icmp_seq=26 ttl=56 time=21.9 ms
64 bytes from 199.66.198.2 (199.66.198.2): icmp_seq=26 ttl=56 time=21.3 ms
64 bytes from 199.66.198.2 (199.66.198.2): icmp_seq=27 ttl=56 time=21.4 ms
64 bytes from 199.66.198.2 (199.66.198.2): icmp_seq=27 ttl=56 time=21.5 ms
64 bytes from 199.66.198.2 (199.66.198.2): icmp_seq=27 ttl=56 time=21.5 ms
64 bytes from 199.66.198.2 (199.66.198.2): icmp_seq=27 ttl=56 time=21.6 ms
64 bytes from 199.66.198.2 (199.66.198.2): icmp_seq=27 ttl=56 time=21.5 ms
64 bytes from 199.66.198.2 (199.66.198.2): icmp_seq=27 ttl=56 time=21.8 ms
64 bytes from 199.66.198.2 (199.66.198.2): icmp_seq=27 ttl=56 time=21.8 ms
64 bytes from 199.66.198.2 (199.66.198.2): icmp_seq=27 ttl=56 time=21.9 ms
64 bytes from 199.66.198.2 (199.66.198.2): icmp_seq=27 ttl=56 time=21.8 ms
64 bytes from 199.66.198.2 (199.66.198.2): icmp_seq=27 ttl=56 time=21.8 ms
64 bytes from 199.66.198.2 (199.66.198.2): icmp_seq=27 ttl=56 time=21.8 ms
64 bytes from 199.66.198.2 (199.66.198.2): icmp_seq=27 ttl=56 time=21.5 ms
64 bytes from 199.66.198.2 (199.66.198.2): icmp_seq=27 ttl=56 time=21.7 ms
64 bytes from 199.66.198.2 (199.66.198.2): icmp_seq=27 ttl=56 time=21.5 ms
64 bytes from 199.66.198.2 (199.66.198.2): icmp_seq=27 ttl=56 time=21.5 ms
64 bytes from 199.66.198.2 (199.66.198.2): icmp_seq=27 ttl=56 time=21.6 ms
64 bytes from 199.66.198.2 (199.66.198.2): icmp_seq=27 ttl=56 time=21.6 ms
64 bytes from 199.66.198.2 (199.66.198.2): icmp_seq=27 ttl=56 time=21.6 ms
64 bytes from 199.66.198.2 (199.66.198.2): icmp_seq=27 ttl=56 time=21.6 ms
64 bytes from 199.66.198.2 (199.66.198.2): icmp_seq=27 ttl=56 time=21.5 ms
64 bytes from 199.66.198.2 (199.66.198.2): icmp_seq=28 ttl=56 time=21.6 ms
64 bytes from 199.66.198.2 (199.66.198.2): icmp_seq=28 ttl=56 time=21.7 ms
64 bytes from 199.66.198.2 (199.66.198.2): icmp_seq=28 ttl=56 time=21.6 ms
64 bytes from 199.66.198.2 (199.66.198.2): icmp_seq=28 ttl=56 time=21.6 ms
64 bytes from 199.66.198.2 (199.66.198.2): icmp_seq=28 ttl=56 time=21.7 ms
64 bytes from 199.66.198.2 (199.66.198.2): icmp_seq=28 ttl=56 time=21.8 ms
64 bytes from 199.66.198.2 (199.66.198.2): icmp_seq=28 ttl=56 time=21.8 ms
64 bytes from 199.66.198.2 (199.66.198.2): icmp_seq=28 ttl=56 time=21.8 ms
64 bytes from 199.66.198.2 (199.66.198.2): icmp_seq=28 ttl=56 time=21.8 ms
64 bytes from 199.66.198.2 (199.66.198.2): icmp_seq=28 ttl=56 time=21.9 ms
64 bytes from 199.66.198.2 (199.66.198.2): icmp_seq=28 ttl=56 time=21.9 ms
64 bytes from 199.66.198.2 (199.66.198.2): icmp_seq=28 ttl=56 time=21.8 ms
64 bytes from 199.66.198.2 (199.66.198.2): icmp_seq=28 ttl=56 time=21.8 ms
64 bytes from 199.66.198.2 (199.66.198.2): icmp_seq=28 ttl=56 time=21.7 ms
64 bytes from 199.66.198.2 (199.66.198.2): icmp_seq=28 ttl=56 time=21.3 ms
64 bytes from 199.66.198.2 (199.66.198.2): icmp_seq=28 ttl=56 time=21.4 ms
64 bytes from 199.66.198.2 (199.66.198.2): icmp_seq=28 ttl=56 time=21.4 ms
64 bytes from 199.66.198.2 (199.66.198.2): icmp_seq=28 ttl=56 time=21.3 ms
64 bytes from 199.66.198.2 (199.66.198.2): icmp_seq=28 ttl=56 time=21.4 ms
64 bytes from 199.66.198.2 (199.66.198.2): icmp_seq=28 ttl=56 time=21.6 ms
64 bytes from 199.66.198.2 (199.66.198.2): icmp_seq=29 ttl=56 time=21.9 ms
64 bytes from 199.66.198.2 (199.66.198.2): icmp_seq=29 ttl=56 time=21.9 ms
64 bytes from 199.66.198.2 (199.66.198.2): icmp_seq=29 ttl=56 time=21.9 ms
64 bytes from 199.66.198.2 (199.66.198.2): icmp_seq=29 ttl=56 time=21.3 ms
64 bytes from 199.66.198.2 (199.66.198.2): icmp_seq=29 ttl=56 time=21.8 ms
64 bytes from 199.66.198.2 (199.66.198.2): icmp_seq=29 ttl=56 time=21.8 ms
64 bytes from 199.66.198.2 (199.66.198.2): icmp_seq=29 ttl=56 time=21.8 ms
64 bytes from 199.66.198.2 (199.66.198.2): icmp_seq=29 ttl=56 time=21.8 ms
64 bytes from 199.66.198.2 (199.66.198.2): icmp_seq=29 ttl=56 time=21.9 ms
64 bytes from 199.66.198.2 (199.66.198.2): icmp_seq=29 ttl=56 time=21.9 ms
64 bytes from 199.66.198.2 (199.66.198.2): icmp_seq=29 ttl=56 time=21.9 ms
64 bytes from 199.66.198.2 (199.66.198.2): icmp_seq=29 ttl=56 time=21.7 ms
64 bytes from 199.66.198.2 (199.66.198.2): icmp_seq=29 ttl=56 time=21.3 ms
64 bytes from 199.66.198.2 (199.66.198.2): icmp_seq=29 ttl=56 time=21.1 ms
64 bytes from 199.66.198.2 (199.66.198.2): icmp_seq=29 ttl=56 time=21.3 ms
64 bytes from 199.66.198.2 (199.66.198.2): icmp_seq=29 ttl=56 time=21.3 ms
64 bytes from 199.66.198.2 (199.66.198.2): icmp_seq=29 ttl=56 time=21.4 ms
64 bytes from 199.66.198.2 (199.66.198.2): icmp_seq=29 ttl=56 time=21.3 ms
64 bytes from 199.66.198.2 (199.66.198.2): icmp_seq=29 ttl=56 time=21.4 ms
64 bytes from 199.66.198.2 (199.66.198.2): icmp_seq=29 ttl=56 time=21.4 ms
64 bytes from 199.66.198.2 (199.66.198.2): icmp_seq=30 ttl=56 time=21.8 ms
64 bytes from 199.66.198.2 (199.66.198.2): icmp_seq=30 ttl=56 time=21.8 ms
64 bytes from 199.66.198.2 (199.66.198.2): icmp_seq=30 ttl=56 time=21.8 ms
64 bytes from 199.66.198.2 (199.66.198.2): icmp_seq=30 ttl=56 time=21.8 ms
64 bytes from 199.66.198.2 (199.66.198.2): icmp_seq=30 ttl=56 time=21.4 ms
64 bytes from 199.66.198.2 (199.66.198.2): icmp_seq=30 ttl=56 time=21.5 ms
64 bytes from 199.66.198.2 (199.66.198.2): icmp_seq=30 ttl=56 time=21.5 ms
64 bytes from 199.66.198.2 (199.66.198.2): icmp_seq=30 ttl=56 time=21.5 ms
64 bytes from 199.66.198.2 (199.66.198.2): icmp_seq=30 ttl=56 time=21.5 ms
64 bytes from 199.66.198.2 (199.66.198.2): icmp_seq=30 ttl=56 time=21.5 ms
64 bytes from 199.66.198.2 (199.66.198.2): icmp_seq=30 ttl=56 time=21.5 ms
64 bytes from 199.66.198.2 (199.66.198.2): icmp_seq=30 ttl=56 time=21.4 ms
64 bytes from 199.66.198.2 (199.66.198.2): icmp_seq=30 ttl=56 time=21.6 ms
64 bytes from 199.66.198.2 (199.66.198.2): icmp_seq=30 ttl=56 time=21.6 ms
64 bytes from 199.66.198.2 (199.66.198.2): icmp_seq=30 ttl=56 time=21.5 ms
64 bytes from 199.66.198.2 (199.66.198.2): icmp_seq=30 ttl=56 time=21.6 ms
64 bytes from 199.66.198.2 (199.66.198.2): icmp_seq=30 ttl=56 time=21.5 ms
64 bytes from 199.66.198.2 (199.66.198.2): icmp_seq=30 ttl=56 time=21.5 ms
64 bytes from 199.66.198.2 (199.66.198.2): icmp_seq=30 ttl=56 time=21.5 ms
64 bytes from 199.66.198.2 (199.66.198.2): icmp_seq=30 ttl=56 time=21.5 ms
64 bytes from 199.66.198.2 (199.66.198.2): icmp_seq=31 ttl=56 time=22.0 ms
64 bytes from 199.66.198.2 (199.66.198.2): icmp_seq=31 ttl=56 time=21.9 ms
64 bytes from 199.66.198.2 (199.66.198.2): icmp_seq=31 ttl=56 time=22.0 ms
64 bytes from 199.66.198.2 (199.66.198.2): icmp_seq=31 ttl=56 time=22.1 ms
64 bytes from 199.66.198.2 (199.66.198.2): icmp_seq=31 ttl=56 time=21.6 ms
64 bytes from 199.66.198.2 (199.66.198.2): icmp_seq=31 ttl=56 time=21.7 ms
64 bytes from 199.66.198.2 (199.66.198.2): icmp_seq=31 ttl=56 time=21.7 ms
64 bytes from 199.66.198.2 (199.66.198.2): icmp_seq=31 ttl=56 time=21.7 ms
64 bytes from 199.66.198.2 (199.66.198.2): icmp_seq=31 ttl=56 time=21.7 ms
64 bytes from 199.66.198.2 (199.66.198.2): icmp_seq=31 ttl=56 time=21.7 ms
64 bytes from 199.66.198.2 (199.66.198.2): icmp_seq=31 ttl=56 time=21.7 ms
64 bytes from 199.66.198.2 (199.66.198.2): icmp_seq=31 ttl=56 time=21.6 ms
64 bytes from 199.66.198.2 (199.66.198.2): icmp_seq=31 ttl=56 time=21.7 ms
64 bytes from 199.66.198.2 (199.66.198.2): icmp_seq=31 ttl=56 time=21.7 ms
64 bytes from 199.66.198.2 (199.66.198.2): icmp_seq=31 ttl=56 time=21.7 ms
64 bytes from 199.66.198.2 (199.66.198.2): icmp_seq=31 ttl=56 time=21.8 ms
64 bytes from 199.66.198.2 (199.66.198.2): icmp_seq=31 ttl=56 time=21.7 ms
64 bytes from 199.66.198.2 (199.66.198.2): icmp_seq=31 ttl=56 time=21.8 ms
64 bytes from 199.66.198.2 (199.66.198.2): icmp_seq=31 ttl=56 time=21.7 ms
64 bytes from 199.66.198.2 (199.66.198.2): icmp_seq=31 ttl=56 time=21.6 ms
64 bytes from 199.66.198.2 (199.66.198.2): icmp_seq=32 ttl=56 time=21.8 ms
64 bytes from 199.66.198.2 (199.66.198.2): icmp_seq=32 ttl=56 time=21.7 ms
64 bytes from 199.66.198.2 (199.66.198.2): icmp_seq=32 ttl=56 time=21.8 ms
64 bytes from 199.66.198.2 (199.66.198.2): icmp_seq=32 ttl=56 time=21.8 ms
64 bytes from 199.66.198.2 (199.66.198.2): icmp_seq=32 ttl=56 time=21.7 ms
64 bytes from 199.66.198.2 (199.66.198.2): icmp_seq=32 ttl=56 time=21.7 ms
64 bytes from 199.66.198.2 (199.66.198.2): icmp_seq=32 ttl=56 time=21.8 ms
64 bytes from 199.66.198.2 (199.66.198.2): icmp_seq=32 ttl=56 time=21.9 ms
64 bytes from 199.66.198.2 (199.66.198.2): icmp_seq=32 ttl=56 time=21.9 ms
64 bytes from 199.66.198.2 (199.66.198.2): icmp_seq=32 ttl=56 time=21.9 ms
64 bytes from 199.66.198.2 (199.66.198.2): icmp_seq=32 ttl=56 time=21.9 ms
64 bytes from 199.66.198.2 (199.66.198.2): icmp_seq=32 ttl=56 time=21.6 ms
64 bytes from 199.66.198.2 (199.66.198.2): icmp_seq=32 ttl=56 time=21.7 ms
64 bytes from 199.66.198.2 (199.66.198.2): icmp_seq=32 ttl=56 time=21.7 ms
64 bytes from 199.66.198.2 (199.66.198.2): icmp_seq=32 ttl=56 time=21.7 ms
64 bytes from 199.66.198.2 (199.66.198.2): icmp_seq=32 ttl=56 time=21.7 ms
64 bytes from 199.66.198.2 (199.66.198.2): icmp_seq=32 ttl=56 time=21.8 ms
64 bytes from 199.66.198.2 (199.66.198.2): icmp_seq=32 ttl=56 time=21.7 ms
64 bytes from 199.66.198.2 (199.66.198.2): icmp_seq=32 ttl=56 time=21.8 ms
64 bytes from 199.66.198.2 (199.66.198.2): icmp_seq=32 ttl=56 time=21.6 ms
64 bytes from 199.66.198.2 (199.66.198.2): icmp_seq=33 ttl=56 time=21.7 ms
64 bytes from 199.66.198.2 (199.66.198.2): icmp_seq=33 ttl=56 time=21.6 ms
64 bytes from 199.66.198.2 (199.66.198.2): icmp_seq=33 ttl=56 time=21.7 ms
64 bytes from 199.66.198.2 (199.66.198.2): icmp_seq=33 ttl=56 time=21.4 ms
64 bytes from 199.66.198.2 (199.66.198.2): icmp_seq=33 ttl=56 time=21.7 ms
64 bytes from 199.66.198.2 (199.66.198.2): icmp_seq=33 ttl=56 time=21.7 ms
64 bytes from 199.66.198.2 (199.66.198.2): icmp_seq=33 ttl=56 time=21.6 ms
64 bytes from 199.66.198.2 (199.66.198.2): icmp_seq=33 ttl=56 time=21.6 ms
64 bytes from 199.66.198.2 (199.66.198.2): icmp_seq=33 ttl=56 time=21.7 ms
64 bytes from 199.66.198.2 (199.66.198.2): icmp_seq=33 ttl=56 time=21.7 ms
64 bytes from 199.66.198.2 (199.66.198.2): icmp_seq=33 ttl=56 time=21.7 ms
64 bytes from 199.66.198.2 (199.66.198.2): icmp_seq=33 ttl=56 time=21.6 ms
64 bytes from 199.66.198.2 (199.66.198.2): icmp_seq=33 ttl=56 time=21.4 ms
64 bytes from 199.66.198.2 (199.66.198.2): icmp_seq=33 ttl=56 time=21.6 ms
64 bytes from 199.66.198.2 (199.66.198.2): icmp_seq=33 ttl=56 time=21.7 ms
64 bytes from 199.66.198.2 (199.66.198.2): icmp_seq=33 ttl=56 time=21.7 ms
64 bytes from 199.66.198.2 (199.66.198.2): icmp_seq=33 ttl=56 time=21.7 ms
64 bytes from 199.66.198.2 (199.66.198.2): icmp_seq=33 ttl=56 time=21.7 ms
64 bytes from 199.66.198.2 (199.66.198.2): icmp_seq=33 ttl=56 time=21.7 ms
64 bytes from 199.66.198.2 (199.66.198.2): icmp_seq=33 ttl=56 time=21.5 ms
64 bytes from 199.66.198.2 (199.66.198.2): icmp_seq=34 ttl=56 time=21.6 ms
64 bytes from 199.66.198.2 (199.66.198.2): icmp_seq=34 ttl=56 time=21.7 ms
64 bytes from 199.66.198.2 (199.66.198.2): icmp_seq=34 ttl=56 time=21.7 ms
64 bytes from 199.66.198.2 (199.66.198.2): icmp_seq=34 ttl=56 time=21.6 ms
64 bytes from 199.66.198.2 (199.66.198.2): icmp_seq=34 ttl=56 time=21.8 ms
64 bytes from 199.66.198.2 (199.66.198.2): icmp_seq=34 ttl=56 time=21.7 ms
64 bytes from 199.66.198.2 (199.66.198.2): icmp_seq=34 ttl=56 time=21.8 ms
64 bytes from 199.66.198.2 (199.66.198.2): icmp_seq=34 ttl=56 time=21.5 ms
64 bytes from 199.66.198.2 (199.66.198.2): icmp_seq=34 ttl=56 time=21.5 ms
64 bytes from 199.66.198.2 (199.66.198.2): icmp_seq=34 ttl=56 time=21.6 ms
64 bytes from 199.66.198.2 (199.66.198.2): icmp_seq=34 ttl=56 time=21.5 ms
64 bytes from 199.66.198.2 (199.66.198.2): icmp_seq=34 ttl=56 time=21.5 ms
64 bytes from 199.66.198.2 (199.66.198.2): icmp_seq=34 ttl=56 time=21.6 ms
64 bytes from 199.66.198.2 (199.66.198.2): icmp_seq=34 ttl=56 time=21.7 ms
64 bytes from 199.66.198.2 (199.66.198.2): icmp_seq=34 ttl=56 time=21.8 ms
64 bytes from 199.66.198.2 (199.66.198.2): icmp_seq=34 ttl=56 time=21.7 ms
64 bytes from 199.66.198.2 (199.66.198.2): icmp_seq=34 ttl=56 time=21.7 ms
64 bytes from 199.66.198.2 (199.66.198.2): icmp_seq=34 ttl=56 time=21.7 ms
64 bytes from 199.66.198.2 (199.66.198.2): icmp_seq=34 ttl=56 time=21.8 ms
64 bytes from 199.66.198.2 (199.66.198.2): icmp_seq=34 ttl=56 time=21.6 ms
64 bytes from 199.66.198.2 (199.66.198.2): icmp_seq=35 ttl=56 time=21.3 ms
64 bytes from 199.66.198.2 (199.66.198.2): icmp_seq=35 ttl=56 time=21.3 ms
64 bytes from 199.66.198.2 (199.66.198.2): icmp_seq=35 ttl=56 time=21.3 ms
64 bytes from 199.66.198.2 (199.66.198.2): icmp_seq=35 ttl=56 time=21.3 ms
64 bytes from 199.66.198.2 (199.66.198.2): icmp_seq=35 ttl=56 time=21.4 ms
64 bytes from 199.66.198.2 (199.66.198.2): icmp_seq=35 ttl=56 time=21.8 ms
64 bytes from 199.66.198.2 (199.66.198.2): icmp_seq=35 ttl=56 time=21.8 ms
64 bytes from 199.66.198.2 (199.66.198.2): icmp_seq=35 ttl=56 time=21.8 ms
64 bytes from 199.66.198.2 (199.66.198.2): icmp_seq=35 ttl=56 time=22.0 ms
64 bytes from 199.66.198.2 (199.66.198.2): icmp_seq=35 ttl=56 time=21.8 ms
64 bytes from 199.66.198.2 (199.66.198.2): icmp_seq=35 ttl=56 time=21.7 ms
64 bytes from 199.66.198.2 (199.66.198.2): icmp_seq=35 ttl=56 time=21.6 ms
64 bytes from 199.66.198.2 (199.66.198.2): icmp_seq=35 ttl=56 time=21.6 ms
64 bytes from 199.66.198.2 (199.66.198.2): icmp_seq=35 ttl=56 time=21.3 ms
64 bytes from 199.66.198.2 (199.66.198.2): icmp_seq=35 ttl=56 time=21.3 ms
64 bytes from 199.66.198.2 (199.66.198.2): icmp_seq=35 ttl=56 time=21.3 ms
64 bytes from 199.66.198.2 (199.66.198.2): icmp_seq=35 ttl=56 time=21.3 ms
64 bytes from 199.66.198.2 (199.66.198.2): icmp_seq=35 ttl=56 time=21.2 ms
64 bytes from 199.66.198.2 (199.66.198.2): icmp_seq=35 ttl=56 time=21.3 ms
64 bytes from 199.66.198.2 (199.66.198.2): icmp_seq=35 ttl=56 time=21.3 ms
64 bytes from 199.66.198.2 (199.66.198.2): icmp_seq=36 ttl=56 time=21.2 ms
64 bytes from 199.66.198.2 (199.66.198.2): icmp_seq=36 ttl=56 time=21.2 ms
64 bytes from 199.66.198.2 (199.66.198.2): icmp_seq=36 ttl=56 time=21.2 ms
64 bytes from 199.66.198.2 (199.66.198.2): icmp_seq=36 ttl=56 time=21.2 ms
64 bytes from 199.66.198.2 (199.66.198.2): icmp_seq=36 ttl=56 time=21.2 ms
64 bytes from 199.66.198.2 (199.66.198.2): icmp_seq=36 ttl=56 time=21.2 ms
64 bytes from 199.66.198.2 (199.66.198.2): icmp_seq=36 ttl=56 time=21.2 ms
64 bytes from 199.66.198.2 (199.66.198.2): icmp_seq=36 ttl=56 time=21.1 ms
64 bytes from 199.66.198.2 (199.66.198.2): icmp_seq=36 ttl=56 time=21.1 ms
64 bytes from 199.66.198.2 (199.66.198.2): icmp_seq=36 ttl=56 time=21.2 ms
64 bytes from 199.66.198.2 (199.66.198.2): icmp_seq=36 ttl=56 time=21.1 ms
64 bytes from 199.66.198.2 (199.66.198.2): icmp_seq=36 ttl=56 time=21.2 ms
64 bytes from 199.66.198.2 (199.66.198.2): icmp_seq=36 ttl=56 time=21.2 ms
64 bytes from 199.66.198.2 (199.66.198.2): icmp_seq=36 ttl=56 time=21.3 ms
64 bytes from 199.66.198.2 (199.66.198.2): icmp_seq=36 ttl=56 time=21.3 ms
64 bytes from 199.66.198.2 (199.66.198.2): icmp_seq=36 ttl=56 time=21.3 ms
64 bytes from 199.66.198.2 (199.66.198.2): icmp_seq=36 ttl=56 time=21.3 ms
64 bytes from 199.66.198.2 (199.66.198.2): icmp_seq=36 ttl=56 time=21.2 ms
64 bytes from 199.66.198.2 (199.66.198.2): icmp_seq=36 ttl=56 time=21.3 ms
64 bytes from 199.66.198.2 (199.66.198.2): icmp_seq=36 ttl=56 time=21.3 ms
64 bytes from 199.66.198.2 (199.66.198.2): icmp_seq=37 ttl=56 time=21.2 ms
64 bytes from 199.66.198.2 (199.66.198.2): icmp_seq=37 ttl=56 time=21.2 ms
64 bytes from 199.66.198.2 (199.66.198.2): icmp_seq=37 ttl=56 time=21.2 ms
64 bytes from 199.66.198.2 (199.66.198.2): icmp_seq=37 ttl=56 time=21.2 ms
64 bytes from 199.66.198.2 (199.66.198.2): icmp_seq=37 ttl=56 time=21.2 ms
64 bytes from 199.66.198.2 (199.66.198.2): icmp_seq=37 ttl=56 time=21.2 ms
64 bytes from 199.66.198.2 (199.66.198.2): icmp_seq=37 ttl=56 time=21.2 ms
64 bytes from 199.66.198.2 (199.66.198.2): icmp_seq=37 ttl=56 time=21.2 ms
64 bytes from 199.66.198.2 (199.66.198.2): icmp_seq=37 ttl=56 time=21.2 ms
64 bytes from 199.66.198.2 (199.66.198.2): icmp_seq=37 ttl=56 time=21.2 ms
64 bytes from 199.66.198.2 (199.66.198.2): icmp_seq=37 ttl=56 time=21.2 ms
64 bytes from 199.66.198.2 (199.66.198.2): icmp_seq=37 ttl=56 time=21.2 ms
64 bytes from 199.66.198.2 (199.66.198.2): icmp_seq=37 ttl=56 time=21.2 ms
64 bytes from 199.66.198.2 (199.66.198.2): icmp_seq=37 ttl=56 time=21.3 ms
64 bytes from 199.66.198.2 (199.66.198.2): icmp_seq=37 ttl=56 time=21.3 ms
64 bytes from 199.66.198.2 (199.66.198.2): icmp_seq=37 ttl=56 time=21.3 ms
64 bytes from 199.66.198.2 (199.66.198.2): icmp_seq=37 ttl=56 time=21.3 ms
64 bytes from 199.66.198.2 (199.66.198.2): icmp_seq=37 ttl=56 time=21.3 ms
64 bytes from 199.66.198.2 (199.66.198.2): icmp_seq=37 ttl=56 time=21.3 ms
64 bytes from 199.66.198.2 (199.66.198.2): icmp_seq=37 ttl=56 time=21.3 ms
64 bytes from 199.66.198.2 (199.66.198.2): icmp_seq=38 ttl=56 time=21.3 ms
64 bytes from 199.66.198.2 (199.66.198.2): icmp_seq=38 ttl=56 time=21.3 ms
64 bytes from 199.66.198.2 (199.66.198.2): icmp_seq=38 ttl=56 time=21.3 ms
64 bytes from 199.66.198.2 (199.66.198.2): icmp_seq=38 ttl=56 time=21.3 ms
64 bytes from 199.66.198.2 (199.66.198.2): icmp_seq=38 ttl=56 time=21.3 ms
64 bytes from 199.66.198.2 (199.66.198.2): icmp_seq=38 ttl=56 time=21.3 ms
64 bytes from 199.66.198.2 (199.66.198.2): icmp_seq=38 ttl=56 time=21.3 ms
64 bytes from 199.66.198.2 (199.66.198.2): icmp_seq=38 ttl=56 time=21.4 ms
64 bytes from 199.66.198.2 (199.66.198.2): icmp_seq=38 ttl=56 time=21.4 ms
64 bytes from 199.66.198.2 (199.66.198.2): icmp_seq=38 ttl=56 time=21.4 ms
64 bytes from 199.66.198.2 (199.66.198.2): icmp_seq=38 ttl=56 time=21.4 ms
64 bytes from 199.66.198.2 (199.66.198.2): icmp_seq=38 ttl=56 time=21.4 ms
64 bytes from 199.66.198.2 (199.66.198.2): icmp_seq=38 ttl=56 time=21.4 ms
64 bytes from 199.66.198.2 (199.66.198.2): icmp_seq=38 ttl=56 time=21.4 ms
64 bytes from 199.66.198.2 (199.66.198.2): icmp_seq=38 ttl=56 time=21.3 ms
64 bytes from 199.66.198.2 (199.66.198.2): icmp_seq=38 ttl=56 time=21.3 ms
64 bytes from 199.66.198.2 (199.66.198.2): icmp_seq=38 ttl=56 time=21.3 ms
64 bytes from 199.66.198.2 (199.66.198.2): icmp_seq=38 ttl=56 time=21.3 ms
64 bytes from 199.66.198.2 (199.66.198.2): icmp_seq=38 ttl=56 time=21.4 ms
64 bytes from 199.66.198.2 (199.66.198.2): icmp_seq=38 ttl=56 time=21.3 ms
64 bytes from 199.66.198.2 (199.66.198.2): icmp_seq=39 ttl=56 time=21.3 ms
64 bytes from 199.66.198.2 (199.66.198.2): icmp_seq=39 ttl=56 time=21.3 ms
64 bytes from 199.66.198.2 (199.66.198.2): icmp_seq=39 ttl=56 time=21.3 ms
64 bytes from 199.66.198.2 (199.66.198.2): icmp_seq=39 ttl=56 time=21.3 ms
64 bytes from 199.66.198.2 (199.66.198.2): icmp_seq=39 ttl=56 time=21.3 ms
64 bytes from 199.66.198.2 (199.66.198.2): icmp_seq=39 ttl=56 time=21.3 ms
64 bytes from 199.66.198.2 (199.66.198.2): icmp_seq=39 ttl=56 time=21.3 ms
64 bytes from 199.66.198.2 (199.66.198.2): icmp_seq=39 ttl=56 time=21.3 ms
64 bytes from 199.66.198.2 (199.66.198.2): icmp_seq=39 ttl=56 time=21.3 ms
64 bytes from 199.66.198.2 (199.66.198.2): icmp_seq=39 ttl=56 time=21.2 ms
64 bytes from 199.66.198.2 (199.66.198.2): icmp_seq=39 ttl=56 time=21.3 ms
64 bytes from 199.66.198.2 (199.66.198.2): icmp_seq=39 ttl=56 time=21.3 ms
64 bytes from 199.66.198.2 (199.66.198.2): icmp_seq=39 ttl=56 time=21.3 ms
64 bytes from 199.66.198.2 (199.66.198.2): icmp_seq=39 ttl=56 time=21.2 ms
64 bytes from 199.66.198.2 (199.66.198.2): icmp_seq=39 ttl=56 time=21.3 ms
64 bytes from 199.66.198.2 (199.66.198.2): icmp_seq=39 ttl=56 time=21.3 ms
64 bytes from 199.66.198.2 (199.66.198.2): icmp_seq=39 ttl=56 time=21.3 ms
64 bytes from 199.66.198.2 (199.66.198.2): icmp_seq=39 ttl=56 time=21.2 ms
64 bytes from 199.66.198.2 (199.66.198.2): icmp_seq=39 ttl=56 time=21.3 ms
64 bytes from 199.66.198.2 (199.66.198.2): icmp_seq=39 ttl=56 time=21.4 ms
64 bytes from 199.66.198.2 (199.66.198.2): icmp_seq=40 ttl=56 time=21.3 ms
64 bytes from 199.66.198.2 (199.66.198.2): icmp_seq=40 ttl=56 time=21.3 ms
64 bytes from 199.66.198.2 (199.66.198.2): icmp_seq=40 ttl=56 time=21.4 ms
64 bytes from 199.66.198.2 (199.66.198.2): icmp_seq=40 ttl=56 time=21.4 ms
64 bytes from 199.66.198.2 (199.66.198.2): icmp_seq=40 ttl=56 time=21.3 ms
64 bytes from 199.66.198.2 (199.66.198.2): icmp_seq=40 ttl=56 time=21.3 ms
64 bytes from 199.66.198.2 (199.66.198.2): icmp_seq=40 ttl=56 time=21.3 ms
64 bytes from 199.66.198.2 (199.66.198.2): icmp_seq=40 ttl=56 time=21.4 ms
64 bytes from 199.66.198.2 (199.66.198.2): icmp_seq=40 ttl=56 time=21.5 ms
64 bytes from 199.66.198.2 (199.66.198.2): icmp_seq=40 ttl=56 time=21.4 ms
64 bytes from 199.66.198.2 (199.66.198.2): icmp_seq=40 ttl=56 time=21.3 ms
64 bytes from 199.66.198.2 (199.66.198.2): icmp_seq=40 ttl=56 time=21.4 ms
64 bytes from 199.66.198.2 (199.66.198.2): icmp_seq=40 ttl=56 time=21.5 ms
64 bytes from 199.66.198.2 (199.66.198.2): icmp_seq=40 ttl=56 time=21.2 ms
64 bytes from 199.66.198.2 (199.66.198.2): icmp_seq=40 ttl=56 time=21.2 ms
64 bytes from 199.66.198.2 (199.66.198.2): icmp_seq=40 ttl=56 time=21.2 ms
64 bytes from 199.66.198.2 (199.66.198.2): icmp_seq=40 ttl=56 time=21.3 ms
64 bytes from 199.66.198.2 (199.66.198.2): icmp_seq=40 ttl=56 time=21.3 ms
64 bytes from 199.66.198.2 (199.66.198.2): icmp_seq=40 ttl=56 time=21.2 ms
64 bytes from 199.66.198.2 (199.66.198.2): icmp_seq=40 ttl=56 time=21.3 ms
64 bytes from 199.66.198.2 (199.66.198.2): icmp_seq=41 ttl=56 time=21.3 ms
64 bytes from 199.66.198.2 (199.66.198.2): icmp_seq=41 ttl=56 time=21.3 ms
64 bytes from 199.66.198.2 (199.66.198.2): icmp_seq=41 ttl=56 time=21.3 ms
64 bytes from 199.66.198.2 (199.66.198.2): icmp_seq=41 ttl=56 time=21.3 ms
64 bytes from 199.66.198.2 (199.66.198.2): icmp_seq=41 ttl=56 time=21.3 ms
64 bytes from 199.66.198.2 (199.66.198.2): icmp_seq=41 ttl=56 time=21.3 ms
64 bytes from 199.66.198.2 (199.66.198.2): icmp_seq=41 ttl=56 time=21.3 ms
64 bytes from 199.66.198.2 (199.66.198.2): icmp_seq=41 ttl=56 time=21.2 ms
64 bytes from 199.66.198.2 (199.66.198.2): icmp_seq=41 ttl=56 time=21.2 ms
64 bytes from 199.66.198.2 (199.66.198.2): icmp_seq=41 ttl=56 time=21.2 ms
64 bytes from 199.66.198.2 (199.66.198.2): icmp_seq=41 ttl=56 time=21.2 ms
64 bytes from 199.66.198.2 (199.66.198.2): icmp_seq=41 ttl=56 time=21.2 ms
64 bytes from 199.66.198.2 (199.66.198.2): icmp_seq=41 ttl=56 time=21.3 ms
64 bytes from 199.66.198.2 (199.66.198.2): icmp_seq=41 ttl=56 time=21.3 ms
64 bytes from 199.66.198.2 (199.66.198.2): icmp_seq=41 ttl=56 time=21.3 ms
64 bytes from 199.66.198.2 (199.66.198.2): icmp_seq=41 ttl=56 time=21.4 ms
64 bytes from 199.66.198.2 (199.66.198.2): icmp_seq=41 ttl=56 time=21.3 ms
64 bytes from 199.66.198.2 (199.66.198.2): icmp_seq=41 ttl=56 time=21.4 ms
64 bytes from 199.66.198.2 (199.66.198.2): icmp_seq=41 ttl=56 time=21.3 ms
64 bytes from 199.66.198.2 (199.66.198.2): icmp_seq=41 ttl=56 time=21.4 ms
64 bytes from 199.66.198.2 (199.66.198.2): icmp_seq=42 ttl=56 time=21.2 ms
64 bytes from 199.66.198.2 (199.66.198.2): icmp_seq=42 ttl=56 time=21.2 ms
64 bytes from 199.66.198.2 (199.66.198.2): icmp_seq=42 ttl=56 time=21.2 ms
64 bytes from 199.66.198.2 (199.66.198.2): icmp_seq=42 ttl=56 time=21.2 ms
64 bytes from 199.66.198.2 (199.66.198.2): icmp_seq=42 ttl=56 time=21.3 ms
64 bytes from 199.66.198.2 (199.66.198.2): icmp_seq=42 ttl=56 time=21.3 ms
64 bytes from 199.66.198.2 (199.66.198.2): icmp_seq=42 ttl=56 time=21.3 ms
64 bytes from 199.66.198.2 (199.66.198.2): icmp_seq=42 ttl=56 time=21.4 ms
64 bytes from 199.66.198.2 (199.66.198.2): icmp_seq=42 ttl=56 time=21.3 ms
64 bytes from 199.66.198.2 (199.66.198.2): icmp_seq=42 ttl=56 time=21.3 ms
64 bytes from 199.66.198.2 (199.66.198.2): icmp_seq=42 ttl=56 time=21.4 ms
64 bytes from 199.66.198.2 (199.66.198.2): icmp_seq=42 ttl=56 time=21.4 ms
64 bytes from 199.66.198.2 (199.66.198.2): icmp_seq=42 ttl=56 time=21.3 ms
64 bytes from 199.66.198.2 (199.66.198.2): icmp_seq=42 ttl=56 time=21.3 ms
64 bytes from 199.66.198.2 (199.66.198.2): icmp_seq=42 ttl=56 time=21.3 ms
64 bytes from 199.66.198.2 (199.66.198.2): icmp_seq=42 ttl=56 time=21.3 ms
64 bytes from 199.66.198.2 (199.66.198.2): icmp_seq=42 ttl=56 time=21.3 ms
64 bytes from 199.66.198.2 (199.66.198.2): icmp_seq=42 ttl=56 time=21.3 ms
64 bytes from 199.66.198.2 (199.66.198.2): icmp_seq=42 ttl=56 time=21.3 ms
64 bytes from 199.66.198.2 (199.66.198.2): icmp_seq=42 ttl=56 time=21.3 ms
64 bytes from 199.66.198.2 (199.66.198.2): icmp_seq=43 ttl=56 time=21.3 ms
64 bytes from 199.66.198.2 (199.66.198.2): icmp_seq=43 ttl=56 time=21.3 ms
64 bytes from 199.66.198.2 (199.66.198.2): icmp_seq=43 ttl=56 time=21.3 ms
64 bytes from 199.66.198.2 (199.66.198.2): icmp_seq=43 ttl=56 time=21.3 ms
64 bytes from 199.66.198.2 (199.66.198.2): icmp_seq=43 ttl=56 time=21.3 ms
64 bytes from 199.66.198.2 (199.66.198.2): icmp_seq=43 ttl=56 time=21.3 ms
64 bytes from 199.66.198.2 (199.66.198.2): icmp_seq=43 ttl=56 time=21.3 ms
64 bytes from 199.66.198.2 (199.66.198.2): icmp_seq=43 ttl=56 time=21.3 ms
64 bytes from 199.66.198.2 (199.66.198.2): icmp_seq=43 ttl=56 time=21.3 ms
64 bytes from 199.66.198.2 (199.66.198.2): icmp_seq=43 ttl=56 time=21.3 ms
64 bytes from 199.66.198.2 (199.66.198.2): icmp_seq=43 ttl=56 time=21.3 ms
64 bytes from 199.66.198.2 (199.66.198.2): icmp_seq=43 ttl=56 time=21.3 ms
64 bytes from 199.66.198.2 (199.66.198.2): icmp_seq=43 ttl=56 time=21.3 ms
64 bytes from 199.66.198.2 (199.66.198.2): icmp_seq=43 ttl=56 time=21.4 ms
64 bytes from 199.66.198.2 (199.66.198.2): icmp_seq=43 ttl=56 time=21.3 ms
64 bytes from 199.66.198.2 (199.66.198.2): icmp_seq=43 ttl=56 time=21.4 ms
64 bytes from 199.66.198.2 (199.66.198.2): icmp_seq=43 ttl=56 time=21.4 ms
64 bytes from 199.66.198.2 (199.66.198.2): icmp_seq=43 ttl=56 time=21.4 ms
64 bytes from 199.66.198.2 (199.66.198.2): icmp_seq=43 ttl=56 time=21.4 ms
64 bytes from 199.66.198.2 (199.66.198.2): icmp_seq=43 ttl=56 time=21.3 ms
64 bytes from 199.66.198.2 (199.66.198.2): icmp_seq=44 ttl=56 time=24.4 ms
64 bytes from 199.66.198.2 (199.66.198.2): icmp_seq=44 ttl=56 time=24.4 ms
64 bytes from 199.66.198.2 (199.66.198.2): icmp_seq=44 ttl=56 time=24.4 ms
64 bytes from 199.66.198.2 (199.66.198.2): icmp_seq=44 ttl=56 time=24.5 ms
64 bytes from 199.66.198.2 (199.66.198.2): icmp_seq=44 ttl=56 time=22.7 ms
64 bytes from 199.66.198.2 (199.66.198.2): icmp_seq=44 ttl=56 time=22.7 ms
64 bytes from 199.66.198.2 (199.66.198.2): icmp_seq=44 ttl=56 time=22.7 ms
64 bytes from 199.66.198.2 (199.66.198.2): icmp_seq=44 ttl=56 time=22.7 ms
64 bytes from 199.66.198.2 (199.66.198.2): icmp_seq=44 ttl=56 time=21.4 ms
64 bytes from 199.66.198.2 (199.66.198.2): icmp_seq=44 ttl=56 time=21.4 ms
64 bytes from 199.66.198.2 (199.66.198.2): icmp_seq=44 ttl=56 time=21.4 ms
64 bytes from 199.66.198.2 (199.66.198.2): icmp_seq=44 ttl=56 time=21.4 ms
64 bytes from 199.66.198.2 (199.66.198.2): icmp_seq=44 ttl=56 time=21.3 ms
64 bytes from 199.66.198.2 (199.66.198.2): icmp_seq=44 ttl=56 time=21.3 ms
64 bytes from 199.66.198.2 (199.66.198.2): icmp_seq=44 ttl=56 time=21.3 ms
64 bytes from 199.66.198.2 (199.66.198.2): icmp_seq=44 ttl=56 time=21.3 ms
64 bytes from 199.66.198.2 (199.66.198.2): icmp_seq=44 ttl=56 time=21.3 ms
64 bytes from 199.66.198.2 (199.66.198.2): icmp_seq=44 ttl=56 time=21.3 ms
64 bytes from 199.66.198.2 (199.66.198.2): icmp_seq=44 ttl=56 time=21.3 ms
64 bytes from 199.66.198.2 (199.66.198.2): icmp_seq=44 ttl=56 time=21.3 ms
64 bytes from 199.66.198.2 (199.66.198.2): icmp_seq=45 ttl=56 time=21.4 ms
64 bytes from 199.66.198.2 (199.66.198.2): icmp_seq=45 ttl=56 time=21.4 ms
64 bytes from 199.66.198.2 (199.66.198.2): icmp_seq=45 ttl=56 time=21.3 ms
64 bytes from 199.66.198.2 (199.66.198.2): icmp_seq=45 ttl=56 time=21.3 ms
64 bytes from 199.66.198.2 (199.66.198.2): icmp_seq=45 ttl=56 time=21.3 ms
64 bytes from 199.66.198.2 (199.66.198.2): icmp_seq=45 ttl=56 time=21.4 ms
64 bytes from 199.66.198.2 (199.66.198.2): icmp_seq=45 ttl=56 time=21.3 ms
64 bytes from 199.66.198.2 (199.66.198.2): icmp_seq=45 ttl=56 time=21.3 ms
64 bytes from 199.66.198.2 (199.66.198.2): icmp_seq=45 ttl=56 time=22.5 ms
64 bytes from 199.66.198.2 (199.66.198.2): icmp_seq=45 ttl=56 time=22.6 ms
64 bytes from 199.66.198.2 (199.66.198.2): icmp_seq=45 ttl=56 time=22.5 ms
64 bytes from 199.66.198.2 (199.66.198.2): icmp_seq=45 ttl=56 time=22.5 ms
64 bytes from 199.66.198.2 (199.66.198.2): icmp_seq=45 ttl=56 time=22.6 ms
64 bytes from 199.66.198.2 (199.66.198.2): icmp_seq=45 ttl=56 time=23.1 ms
64 bytes from 199.66.198.2 (199.66.198.2): icmp_seq=45 ttl=56 time=23.2 ms
64 bytes from 199.66.198.2 (199.66.198.2): icmp_seq=45 ttl=56 time=23.1 ms
64 bytes from 199.66.198.2 (199.66.198.2): icmp_seq=45 ttl=56 time=23.6 ms
64 bytes from 199.66.198.2 (199.66.198.2): icmp_seq=45 ttl=56 time=23.6 ms
64 bytes from 199.66.198.2 (199.66.198.2): icmp_seq=45 ttl=56 time=23.6 ms
64 bytes from 199.66.198.2 (199.66.198.2): icmp_seq=45 ttl=56 time=23.5 ms
64 bytes from 199.66.198.2 (199.66.198.2): icmp_seq=46 ttl=56 time=21.4 ms
64 bytes from 199.66.198.2 (199.66.198.2): icmp_seq=46 ttl=56 time=21.4 ms
64 bytes from 199.66.198.2 (199.66.198.2): icmp_seq=46 ttl=56 time=21.4 ms
64 bytes from 199.66.198.2 (199.66.198.2): icmp_seq=46 ttl=56 time=21.4 ms
64 bytes from 199.66.198.2 (199.66.198.2): icmp_seq=46 ttl=56 time=21.3 ms
64 bytes from 199.66.198.2 (199.66.198.2): icmp_seq=46 ttl=56 time=21.4 ms
64 bytes from 199.66.198.2 (199.66.198.2): icmp_seq=46 ttl=56 time=21.3 ms
64 bytes from 199.66.198.2 (199.66.198.2): icmp_seq=46 ttl=56 time=21.3 ms
64 bytes from 199.66.198.2 (199.66.198.2): icmp_seq=46 ttl=56 time=21.3 ms
64 bytes from 199.66.198.2 (199.66.198.2): icmp_seq=46 ttl=56 time=21.3 ms
64 bytes from 199.66.198.2 (199.66.198.2): icmp_seq=46 ttl=56 time=21.3 ms
64 bytes from 199.66.198.2 (199.66.198.2): icmp_seq=46 ttl=56 time=21.3 ms
64 bytes from 199.66.198.2 (199.66.198.2): icmp_seq=46 ttl=56 time=21.3 ms
64 bytes from 199.66.198.2 (199.66.198.2): icmp_seq=46 ttl=56 time=21.3 ms
64 bytes from 199.66.198.2 (199.66.198.2): icmp_seq=46 ttl=56 time=21.3 ms
64 bytes from 199.66.198.2 (199.66.198.2): icmp_seq=46 ttl=56 time=21.3 ms
64 bytes from 199.66.198.2 (199.66.198.2): icmp_seq=46 ttl=56 time=21.3 ms
64 bytes from 199.66.198.2 (199.66.198.2): icmp_seq=46 ttl=56 time=21.3 ms
64 bytes from 199.66.198.2 (199.66.198.2): icmp_seq=46 ttl=56 time=21.3 ms
64 bytes from 199.66.198.2 (199.66.198.2): icmp_seq=46 ttl=56 time=21.3 ms
64 bytes from 199.66.198.2 (199.66.198.2): icmp_seq=47 ttl=56 time=21.2 ms
64 bytes from 199.66.198.2 (199.66.198.2): icmp_seq=47 ttl=56 time=21.3 ms
64 bytes from 199.66.198.2 (199.66.198.2): icmp_seq=47 ttl=56 time=21.2 ms
64 bytes from 199.66.198.2 (199.66.198.2): icmp_seq=47 ttl=56 time=21.2 ms
64 bytes from 199.66.198.2 (199.66.198.2): icmp_seq=47 ttl=56 time=21.2 ms
64 bytes from 199.66.198.2 (199.66.198.2): icmp_seq=47 ttl=56 time=21.2 ms
64 bytes from 199.66.198.2 (199.66.198.2): icmp_seq=47 ttl=56 time=21.2 ms
64 bytes from 199.66.198.2 (199.66.198.2): icmp_seq=47 ttl=56 time=21.2 ms
64 bytes from 199.66.198.2 (199.66.198.2): icmp_seq=47 ttl=56 time=21.2 ms
64 bytes from 199.66.198.2 (199.66.198.2): icmp_seq=47 ttl=56 time=21.2 ms
64 bytes from 199.66.198.2 (199.66.198.2): icmp_seq=47 ttl=56 time=21.2 ms
64 bytes from 199.66.198.2 (199.66.198.2): icmp_seq=47 ttl=56 time=21.2 ms
64 bytes from 199.66.198.2 (199.66.198.2): icmp_seq=47 ttl=56 time=21.2 ms
64 bytes from 199.66.198.2 (199.66.198.2): icmp_seq=47 ttl=56 time=21.2 ms
64 bytes from 199.66.198.2 (199.66.198.2): icmp_seq=47 ttl=56 time=21.2 ms
64 bytes from 199.66.198.2 (199.66.198.2): icmp_seq=47 ttl=56 time=21.2 ms
64 bytes from 199.66.198.2 (199.66.198.2): icmp_seq=47 ttl=56 time=21.4 ms
64 bytes from 199.66.198.2 (199.66.198.2): icmp_seq=47 ttl=56 time=21.4 ms
64 bytes from 199.66.198.2 (199.66.198.2): icmp_seq=47 ttl=56 time=21.4 ms
64 bytes from 199.66.198.2 (199.66.198.2): icmp_seq=47 ttl=56 time=21.4 ms
64 bytes from 199.66.198.2 (199.66.198.2): icmp_seq=48 ttl=56 time=21.3 ms
64 bytes from 199.66.198.2 (199.66.198.2): icmp_seq=48 ttl=56 time=21.3 ms
64 bytes from 199.66.198.2 (199.66.198.2): icmp_seq=48 ttl=56 time=21.3 ms
64 bytes from 199.66.198.2 (199.66.198.2): icmp_seq=48 ttl=56 time=21.3 ms
64 bytes from 199.66.198.2 (199.66.198.2): icmp_seq=48 ttl=56 time=21.3 ms
64 bytes from 199.66.198.2 (199.66.198.2): icmp_seq=48 ttl=56 time=21.3 ms
64 bytes from 199.66.198.2 (199.66.198.2): icmp_seq=48 ttl=56 time=21.3 ms
64 bytes from 199.66.198.2 (199.66.198.2): icmp_seq=48 ttl=56 time=21.3 ms
64 bytes from 199.66.198.2 (199.66.198.2): icmp_seq=48 ttl=56 time=21.3 ms
64 bytes from 199.66.198.2 (199.66.198.2): icmp_seq=48 ttl=56 time=21.3 ms
64 bytes from 199.66.198.2 (199.66.198.2): icmp_seq=48 ttl=56 time=21.3 ms
64 bytes from 199.66.198.2 (199.66.198.2): icmp_seq=48 ttl=56 time=21.3 ms
64 bytes from 199.66.198.2 (199.66.198.2): icmp_seq=48 ttl=56 time=21.3 ms
64 bytes from 199.66.198.2 (199.66.198.2): icmp_seq=48 ttl=56 time=21.3 ms
64 bytes from 199.66.198.2 (199.66.198.2): icmp_seq=48 ttl=56 time=21.3 ms
64 bytes from 199.66.198.2 (199.66.198.2): icmp_seq=48 ttl=56 time=21.3 ms
64 bytes from 199.66.198.2 (199.66.198.2): icmp_seq=48 ttl=56 time=21.4 ms
64 bytes from 199.66.198.2 (199.66.198.2): icmp_seq=48 ttl=56 time=21.3 ms
64 bytes from 199.66.198.2 (199.66.198.2): icmp_seq=48 ttl=56 time=21.3 ms
64 bytes from 199.66.198.2 (199.66.198.2): icmp_seq=48 ttl=56 time=21.3 ms
64 bytes from 199.66.198.2 (199.66.198.2): icmp_seq=49 ttl=56 time=21.3 ms
64 bytes from 199.66.198.2 (199.66.198.2): icmp_seq=49 ttl=56 time=21.3 ms
64 bytes from 199.66.198.2 (199.66.198.2): icmp_seq=49 ttl=56 time=21.3 ms
64 bytes from 199.66.198.2 (199.66.198.2): icmp_seq=49 ttl=56 time=21.3 ms
64 bytes from 199.66.198.2 (199.66.198.2): icmp_seq=49 ttl=56 time=21.2 ms
64 bytes from 199.66.198.2 (199.66.198.2): icmp_seq=49 ttl=56 time=21.3 ms
64 bytes from 199.66.198.2 (199.66.198.2): icmp_seq=49 ttl=56 time=21.3 ms
64 bytes from 199.66.198.2 (199.66.198.2): icmp_seq=49 ttl=56 time=21.3 ms
64 bytes from 199.66.198.2 (199.66.198.2): icmp_seq=49 ttl=56 time=21.3 ms
64 bytes from 199.66.198.2 (199.66.198.2): icmp_seq=49 ttl=56 time=21.3 ms
64 bytes from 199.66.198.2 (199.66.198.2): icmp_seq=49 ttl=56 time=21.3 ms
64 bytes from 199.66.198.2 (199.66.198.2): icmp_seq=49 ttl=56 time=21.3 ms
64 bytes from 199.66.198.2 (199.66.198.2): icmp_seq=49 ttl=56 time=21.3 ms
64 bytes from 199.66.198.2 (199.66.198.2): icmp_seq=49 ttl=56 time=21.3 ms
64 bytes from 199.66.198.2 (199.66.198.2): icmp_seq=49 ttl=56 time=21.3 ms
64 bytes from 199.66.198.2 (199.66.198.2): icmp_seq=49 ttl=56 time=21.3 ms
64 bytes from 199.66.198.2 (199.66.198.2): icmp_seq=49 ttl=56 time=21.3 ms
64 bytes from 199.66.198.2 (199.66.198.2): icmp_seq=49 ttl=56 time=21.3 ms
64 bytes from 199.66.198.2 (199.66.198.2): icmp_seq=49 ttl=56 time=21.3 ms
64 bytes from 199.66.198.2 (199.66.198.2): icmp_seq=49 ttl=56 time=21.2 ms
64 bytes from 199.66.198.2 (199.66.198.2): icmp_seq=50 ttl=56 time=21.3 ms
64 bytes from 199.66.198.2 (199.66.198.2): icmp_seq=50 ttl=56 time=21.3 ms
64 bytes from 199.66.198.2 (199.66.198.2): icmp_seq=50 ttl=56 time=21.3 ms


64 bytes from 199.66.198.2 (199.66.198.2): icmp_seq=50 ttl=56 time=21.3 ms


--- speedtest.xsmedia.com ping statistics ---
50 packets transmitted, 50 received, 0% packet loss, time 49072ms
rtt min/avg/max/mdev = 21.068/21.661/24.468/0.512 ms
--- speedtest.xsmedia.com ping statistics ---
50 packets transmitted, 50 received, 0% packet loss, time 49074ms
rtt min/avg/max/mdev = 21.210/21.687/24.467/0.490 ms
--- speedtest.xsmedia.com ping statistics ---
50 packets transmitted, 50 received, 0% packet loss, time 49072ms
rtt min/avg/max/mdev = 21.180/21.683/24.418/0.473 ms
--- speedtest.xsmedia.com ping statistics ---
50 packets transmitted, 50 received, 0% packet loss, time 49075ms
rtt min/avg/max/mdev = 21.230/21.712/24.523/0.505 ms
64 bytes from 199.66.198.2 (199.66.198.2): icmp_seq=50 ttl=56 time=21.3 ms
64 bytes from 199.66.198.2 (199.66.198.2): icmp_seq=50 ttl=56 time=21.3 ms


64 bytes from 199.66.198.2 (199.66.198.2): icmp_seq=50 ttl=56 time=21.3 ms
64 bytes from 199.66.198.2 (199.66.198.2): icmp_seq=50 ttl=56 time=21.3 ms


--- speedtest.xsmedia.com ping statistics ---
50 packets transmitted, 50 received, 0% packet loss, time 49076ms
rtt min/avg/max/mdev = 21.228/21.586/22.751/0.303 ms
--- speedtest.xsmedia.com ping statistics ---
50 packets transmitted, 50 received, 0% packet loss, time 49075ms
rtt min/avg/max/mdev = 21.245/21.605/22.743/0.321 ms
--- speedtest.xsmedia.com ping statistics ---
50 packets transmitted, 50 received, 0% packet loss, time 49077ms
rtt min/avg/max/mdev = 21.207/21.585/22.765/0.301 ms
--- speedtest.xsmedia.com ping statistics ---
50 packets transmitted, 50 received, 0% packet loss, time 49078ms
rtt min/avg/max/mdev = 21.195/21.620/22.779/0.321 ms
64 bytes from 199.66.198.2 (199.66.198.2): icmp_seq=50 ttl=56 time=21.3 ms
64 bytes from 199.66.198.2 (199.66.198.2): icmp_seq=50 ttl=56 time=21.3 ms
64 bytes from 199.66.198.2 (199.66.198.2): icmp_seq=50 ttl=56 time=21.3 ms


64 bytes from 199.66.198.2 (199.66.198.2): icmp_seq=50 ttl=56 time=21.3 ms
64 bytes from 199.66.198.2 (199.66.198.2): icmp_seq=50 ttl=56 time=21.3 ms



--- speedtest.xsmedia.com ping statistics ---
50 packets transmitted, 50 received, 0% packet loss, time 49079ms
rtt min/avg/max/mdev = 21.098/21.572/22.577/0.322 ms
--- speedtest.xsmedia.com ping statistics ---
50 packets transmitted, 50 received, 0% packet loss, time 49077ms
rtt min/avg/max/mdev = 21.205/21.601/22.516/0.319 ms
--- speedtest.xsmedia.com ping statistics ---
50 packets transmitted, 50 received, 0% packet loss, time 49077ms
rtt min/avg/max/mdev = 21.058/21.580/22.608/0.313 ms
--- speedtest.xsmedia.com ping statistics ---
50 packets transmitted, 50 received, 0% packet loss, time 49077ms
rtt min/avg/max/mdev = 21.220/21.606/22.550/0.300 ms
--- speedtest.xsmedia.com ping statistics ---
50 packets transmitted, 50 received, 0% packet loss, time 49077ms
rtt min/avg/max/mdev = 21.123/21.593/22.605/0.324 ms
64 bytes from 199.66.198.2 (199.66.198.2): icmp_seq=50 ttl=56 time=21.3 ms
64 bytes from 199.66.198.2 (199.66.198.2): icmp_seq=50 ttl=56 time=21.3 ms

64 bytes from 199.66.198.2 (199.66.198.2): icmp_seq=50 ttl=56 time=21.3 ms
64 bytes from 199.66.198.2 (199.66.198.2): icmp_seq=50 ttl=56 time=21.3 ms



--- speedtest.xsmedia.com ping statistics ---
50 packets transmitted, 50 received, 0% packet loss, time 49078ms
rtt min/avg/max/mdev = 21.200/21.583/23.193/0.336 ms
--- speedtest.xsmedia.com ping statistics ---
50 packets transmitted, 50 received, 0% packet loss, time 49078ms
rtt min/avg/max/mdev = 21.109/21.586/23.669/0.362 ms
--- speedtest.xsmedia.com ping statistics ---
50 packets transmitted, 50 received, 0% packet loss, time 49079ms
rtt min/avg/max/mdev = 21.196/21.539/23.203/0.308 ms
--- speedtest.xsmedia.com ping statistics ---
50 packets transmitted, 50 received, 0% packet loss, time 49079ms
rtt min/avg/max/mdev = 21.280/21.592/23.107/0.322 ms
64 bytes from 199.66.198.2 (199.66.198.2): icmp_seq=50 ttl=56 time=21.3 ms
64 bytes from 199.66.198.2 (199.66.198.2): icmp_seq=50 ttl=56 time=21.3 ms


64 bytes from 199.66.198.2 (199.66.198.2): icmp_seq=50 ttl=56 time=21.3 ms

--- speedtest.xsmedia.com ping statistics ---
50 packets transmitted, 50 received, 0% packet loss, time 49080ms
rtt min/avg/max/mdev = 21.213/21.598/23.660/0.361 ms
--- speedtest.xsmedia.com ping statistics ---
50 packets transmitted, 50 received, 0% packet loss, time 49080ms
rtt min/avg/max/mdev = 21.299/21.590/23.634/0.348 ms
--- speedtest.xsmedia.com ping statistics ---
50 packets transmitted, 50 received, 0% packet loss, time 49081ms
rtt min/avg/max/mdev = 21.257/21.590/23.596/0.353 ms
