top - 18:40:35 up  1:26,  1 user,  load average: 0.31, 0.23, 0.17
Tasks: 279 total,   1 running, 212 sleeping,   0 stopped,   0 zombie
%Cpu(s):  1.0 us,  0.5 sy,  0.0 ni, 98.5 id,  0.0 wa,  0.0 hi,  0.0 si,  0.0 st
KiB Mem : 16278772 total, 13802156 free,  1269796 used,  1206820 buff/cache
KiB Swap: 16630780 total, 16630780 free,        0 used. 14615796 avail Mem 

  PID USER      PR  NI    VIRT    RES    SHR S  %CPU %MEM     TIME+ COMMAND
 2425 kenenth   20   0 3636332 276776  93304 S   6.2  1.7   3:14.23 gnome-shell
 6099 kenenth   20   0   41928   3660   3064 R   6.2  0.0   0:00.02 top

top - 18:40:36 up  1:26,  1 user,  load average: 0.31, 0.23, 0.17
Tasks: 479 total,   1 running, 412 sleeping,   0 stopped,   0 zombie
%Cpu(s):  0.7 us,  3.2 sy,  0.0 ni, 95.8 id,  0.0 wa,  0.0 hi,  0.2 si,  0.0 st
KiB Mem : 16278772 total, 13802156 free,  1269796 used,  1206820 buff/cache
KiB Swap: 16630780 total, 16630780 free,        0 used. 14615796 avail Mem 

  PID USER      PR  NI    VIRT    RES    SHR S  %CPU %MEM     TIME+ COMMAND
 6099 kenenth   20   0   41896   3788   3064 R   3.9  0.0   0:00.06 top
 2425 kenenth   20   0 3636332 276832  93304 S   2.0  1.7   3:14.25 gnome-shell
  949 avahi     20   0   47620   4092   3292 S   1.0  0.0   0:02.03 avahi-daemon
 2219 root      20   0  489548 150024  61816 S   1.0  0.9   1:26.98 Xorg
 6101 kenenth   20   0    4628   1652   1548 S   1.0  0.0   0:00.01 sh

top - 18:40:37 up  1:26,  1 user,  load average: 0.28, 0.23, 0.17
Tasks: 278 total,   1 running, 211 sleeping,   0 stopped,   0 zombie
%Cpu(s):  0.2 us,  0.7 sy,  0.0 ni, 99.0 id,  0.0 wa,  0.0 hi,  0.0 si,  0.0 st
KiB Mem : 16278772 total, 13802156 free,  1269796 used,  1206820 buff/cache
KiB Swap: 16630780 total, 16630780 free,        0 used. 14615796 avail Mem 

  PID USER      PR  NI    VIRT    RES    SHR S  %CPU %MEM     TIME+ COMMAND
 6099 kenenth   20   0   42044   3788   3064 R   1.9  0.0   0:00.08 top
 2219 root      20   0  489548 150024  61816 S   1.0  0.9   1:26.99 Xorg
 2425 kenenth   20   0 3636332 276832  93304 S   1.0  1.7   3:14.26 gnome-shell
 2481 kenenth    9 -11  894756  12120   8844 S   1.0  0.1   0:00.32 pulseaudio

top - 18:40:38 up  1:26,  1 user,  load average: 0.28, 0.23, 0.17
Tasks: 278 total,   1 running, 211 sleeping,   0 stopped,   0 zombie
%Cpu(s):  0.1 us,  0.2 sy,  0.0 ni, 99.6 id,  0.0 wa,  0.0 hi,  0.0 si,  0.0 st
KiB Mem : 16278772 total, 13799656 free,  1272076 used,  1207040 buff/cache
KiB Swap: 16630780 total, 16630780 free,        0 used. 14613424 avail Mem 

  PID USER      PR  NI    VIRT    RES    SHR S  %CPU %MEM     TIME+ COMMAND
 6099 kenenth   20   0   42044   3788   3064 R   2.0  0.0   0:00.10 top
  949 avahi     20   0   47620   4092   3292 S   1.0  0.0   0:02.04 avahi-daemon
 1119 root      20   0 1478700  40092  24868 S   1.0  0.2   0:10.35 containerd
 2425 kenenth   20   0 3636332 276832  93304 S   1.0  1.7   3:14.27 gnome-shell
