ping_15 | round-trip min/avg/max = 119.463/120.085/124.498 ms
ping_38 | round-trip min/avg/max = 119.418/119.685/120.551 ms
ping_39 | round-trip min/avg/max = 119.352/119.633/119.887 ms
ping_3  | round-trip min/avg/max = 119.372/119.508/119.782 ms
ping_16 | round-trip min/avg/max = 119.279/119.590/120.173 ms
ping_32 | round-trip min/avg/max = 119.322/119.448/119.638 ms
ping_17 | round-trip min/avg/max = 119.334/119.863/121.458 ms
ping_11 | round-trip min/avg/max = 119.304/119.527/119.805 ms
ping_26 | round-trip min/avg/max = 119.396/120.328/122.731 ms
ping_35 | round-trip min/avg/max = 119.352/119.530/119.738 ms
ping_12 | round-trip min/avg/max = 119.377/119.637/120.087 ms
ping_34 | round-trip min/avg/max = 119.337/119.566/120.191 ms
ping_1  | round-trip min/avg/max = 119.091/119.410/119.659 ms
ping_24 | round-trip min/avg/max = 119.377/119.536/119.797 ms
ping_23 | round-trip min/avg/max = 119.287/119.443/119.651 ms
ping_27 | round-trip min/avg/max = 119.387/119.541/119.817 ms
ping_20 | round-trip min/avg/max = 119.406/119.742/120.242 ms
ping_6  | round-trip min/avg/max = 119.356/119.572/120.044 ms
ping_31 | round-trip min/avg/max = 119.343/119.538/119.881 ms
ping_28 | round-trip min/avg/max = 119.340/119.573/120.094 ms
ping_25 | round-trip min/avg/max = 119.353/119.883/123.054 ms
ping_37 | round-trip min/avg/max = 119.373/119.529/119.846 ms
ping_36 | round-trip min/avg/max = 119.330/119.497/119.871 ms
ping_13 | round-trip min/avg/max = 119.327/119.537/120.212 ms
ping_21 | round-trip min/avg/max = 119.356/119.703/120.562 ms
ping_5  | round-trip min/avg/max = 119.397/119.540/119.765 ms
ping_10 | round-trip min/avg/max = 119.356/119.495/119.968 ms
ping_14 | round-trip min/avg/max = 119.325/119.499/119.728 ms
ping_40 | round-trip min/avg/max = 119.311/119.528/120.005 ms
ping_29 | round-trip min/avg/max = 119.334/119.658/120.193 ms
ping_33 | round-trip min/avg/max = 119.250/119.507/120.216 ms
ping_19 | round-trip min/avg/max = 119.305/119.414/119.587 ms
ping_47 | round-trip min/avg/max = 119.402/120.079/123.585 ms
ping_18 | round-trip min/avg/max = 119.290/119.666/120.603 ms
ping_30 | round-trip min/avg/max = 119.321/120.399/122.495 ms
ping_8  | round-trip min/avg/max = 119.312/119.405/119.555 ms
ping_9  | round-trip min/avg/max = 119.301/119.754/121.574 ms
ping_2  | round-trip min/avg/max = 119.329/119.607/120.363 ms
ping_22 | round-trip min/avg/max = 119.293/119.491/119.855 ms
ping_4  | round-trip min/avg/max = 119.369/119.890/120.957 ms
ping_56 | round-trip min/avg/max = 119.365/119.621/120.281 ms
ping_7  | round-trip min/avg/max = 119.329/120.006/124.020 ms
ping_60 | round-trip min/avg/max = 119.392/120.085/123.677 ms
ping_44 | round-trip min/avg/max = 119.271/119.560/120.142 ms
ping_45 | round-trip min/avg/max = 119.377/119.610/119.864 ms
ping_43 | round-trip min/avg/max = 119.415/119.622/120.389 ms
ping_100 | round-trip min/avg/max = 119.403/119.524/119.674 ms
ping_88 | round-trip min/avg/max = 119.297/120.197/123.407 ms
ping_66 | round-trip min/avg/max = 119.328/119.539/119.791 ms
ping_53 | round-trip min/avg/max = 119.303/119.547/119.710 ms
ping_46 | round-trip min/avg/max = 119.296/119.511/119.669 ms
ping_48 | round-trip min/avg/max = 119.372/119.638/119.939 ms
ping_49 | round-trip min/avg/max = 119.317/119.475/119.595 ms
ping_64 | round-trip min/avg/max = 119.306/119.758/121.735 ms
ping_78 | round-trip min/avg/max = 119.422/119.566/119.968 ms
ping_42 | round-trip min/avg/max = 119.343/119.574/119.936 ms
ping_54 | round-trip min/avg/max = 119.222/119.575/120.109 ms
ping_77 | round-trip min/avg/max = 119.362/119.629/120.482 ms
ping_81 | round-trip min/avg/max = 119.386/119.566/119.970 ms
ping_79 | round-trip min/avg/max = 119.352/119.553/119.770 ms
ping_83 | round-trip min/avg/max = 119.380/119.656/120.777 ms
ping_65 | round-trip min/avg/max = 119.364/119.641/120.376 ms
ping_86 | round-trip min/avg/max = 119.312/119.649/121.612 ms
ping_89 | round-trip min/avg/max = 119.396/119.723/120.647 ms
ping_90 | round-trip min/avg/max = 119.345/119.858/121.386 ms
ping_69 | round-trip min/avg/max = 119.300/120.434/125.742 ms
ping_41 | round-trip min/avg/max = 119.327/120.354/128.213 ms
ping_95 | round-trip min/avg/max = 119.417/119.504/119.589 ms
ping_52 | round-trip min/avg/max = 119.432/119.570/119.784 ms
ping_55 | round-trip min/avg/max = 119.334/119.550/120.353 ms
ping_84 | round-trip min/avg/max = 119.468/119.601/119.979 ms
ping_57 | round-trip min/avg/max = 119.312/119.527/119.971 ms
ping_76 | round-trip min/avg/max = 119.337/119.485/119.761 ms
ping_87 | round-trip min/avg/max = 119.398/119.651/120.070 ms
ping_91 | round-trip min/avg/max = 119.358/120.060/122.513 ms
ping_63 | round-trip min/avg/max = 119.230/119.473/119.871 ms
ping_62 | round-trip min/avg/max = 119.326/119.557/119.997 ms
ping_58 | round-trip min/avg/max = 119.451/119.625/119.858 ms
ping_59 | round-trip min/avg/max = 119.259/119.658/119.909 ms
ping_93 | round-trip min/avg/max = 119.341/119.597/120.018 ms
ping_97 | round-trip min/avg/max = 119.374/119.669/120.009 ms
ping_68 | round-trip min/avg/max = 119.370/119.847/122.083 ms
ping_72 | round-trip min/avg/max = 119.287/119.704/121.058 ms
ping_50 | round-trip min/avg/max = 119.470/119.672/120.185 ms
ping_94 | round-trip min/avg/max = 119.427/119.612/119.816 ms
ping_85 | round-trip min/avg/max = 119.395/119.585/119.891 ms
ping_96 | round-trip min/avg/max = 119.328/119.545/119.832 ms
ping_67 | round-trip min/avg/max = 119.361/119.759/121.237 ms
ping_73 | round-trip min/avg/max = 119.415/119.672/120.089 ms
ping_75 | round-trip min/avg/max = 119.337/119.488/119.619 ms
ping_74 | round-trip min/avg/max = 119.358/119.690/120.253 ms
ping_51 | round-trip min/avg/max = 119.251/119.583/120.167 ms
ping_71 | round-trip min/avg/max = 119.359/119.561/119.861 ms
ping_80 | round-trip min/avg/max = 119.405/119.664/120.177 ms
ping_61 | round-trip min/avg/max = 119.329/119.725/120.134 ms
ping_99 | round-trip min/avg/max = 119.376/119.713/120.106 ms
ping_92 | round-trip min/avg/max = 119.388/119.717/120.166 ms
ping_98 | round-trip min/avg/max = 119.382/119.738/120.310 ms
ping_70 | round-trip min/avg/max = 119.394/119.827/120.247 ms
ping_82 | round-trip min/avg/max = 119.576/119.921/120.870 ms
