top - 14:31:32 up  1:06,  1 user,  load average: 0.06, 0.56, 1.31
Tasks: 378 total,   1 running, 316 sleeping,   0 stopped,   0 zombie
%Cpu(s):  3.2 us,  1.8 sy,  0.0 ni, 94.8 id,  0.1 wa,  0.0 hi,  0.0 si,  0.0 st
KiB Mem : 16278772 total, 13516668 free,  1470264 used,  1291840 buff/cache
KiB Swap: 16630780 total, 16630780 free,        0 used. 14399084 avail Mem 

  PID USER      PR  NI    VIRT    RES    SHR S  %CPU %MEM     TIME+ COMMAND
  692 systemd+  20   0   71256   6696   5504 S  17.6  0.0   0:03.13 systemd-re+
25970 kenenth   20   0   41908   3716   3124 R  11.8  0.0   0:00.03 top
   28 root      20   0       0      0      0 S   5.9  0.0   0:00.53 ksoftirqd/3

top - 14:31:33 up  1:07,  1 user,  load average: 0.06, 0.56, 1.31
Tasks: 378 total,   1 running, 316 sleeping,   0 stopped,   0 zombie
%Cpu(s):  0.2 us,  0.5 sy,  0.0 ni, 99.3 id,  0.0 wa,  0.0 hi,  0.0 si,  0.0 st
KiB Mem : 16278772 total, 13516668 free,  1470264 used,  1291840 buff/cache
KiB Swap: 16630780 total, 16630780 free,        0 used. 14399084 avail Mem 

  PID USER      PR  NI    VIRT    RES    SHR S  %CPU %MEM     TIME+ COMMAND
25970 kenenth   20   0   42040   3716   3124 R   1.9  0.0   0:00.05 top
 2178 root      20   0  469124 128872  61656 S   1.0  0.8   0:22.81 Xorg
 2390 kenenth   20   0 3566072 277060  91588 S   1.0  1.7   0:51.65 gnome-shell

top - 14:31:34 up  1:07,  1 user,  load average: 0.06, 0.55, 1.30
Tasks: 378 total,   1 running, 316 sleeping,   0 stopped,   0 zombie
%Cpu(s):  0.1 us,  0.2 sy,  0.0 ni, 99.5 id,  0.0 wa,  0.0 hi,  0.1 si,  0.0 st
KiB Mem : 16278772 total, 13516668 free,  1470264 used,  1291840 buff/cache
KiB Swap: 16630780 total, 16630780 free,        0 used. 14399084 avail Mem 

  PID USER      PR  NI    VIRT    RES    SHR S  %CPU %MEM     TIME+ COMMAND
25970 kenenth   20   0   42008   3988   3140 R   2.0  0.0   0:00.07 top
 2179 root     -51   0       0      0      0 S   1.0  0.0   0:02.76 irq/142-nv+

top - 14:31:35 up  1:07,  1 user,  load average: 0.06, 0.55, 1.30
Tasks: 378 total,   1 running, 316 sleeping,   0 stopped,   0 zombie
%Cpu(s):  0.2 us,  0.9 sy,  0.0 ni, 98.9 id,  0.0 wa,  0.0 hi,  0.0 si,  0.0 st
KiB Mem : 16278772 total, 13516544 free,  1470368 used,  1291860 buff/cache
KiB Swap: 16630780 total, 16630780 free,        0 used. 14398980 avail Mem 

  PID USER      PR  NI    VIRT    RES    SHR S  %CPU %MEM     TIME+ COMMAND
   28 root      20   0       0      0      0 S   1.0  0.0   0:00.54 ksoftirqd/3
  920 avahi     20   0   48208   4760   3308 S   1.0  0.0   0:06.72 avahi-daem+
 2178 root      20   0  469124 128872  61656 S   1.0  0.8   0:22.82 Xorg
 2390 kenenth   20   0 3566072 277060  91588 S   1.0  1.7   0:51.66 gnome-shell
25970 kenenth   20   0   42008   3988   3140 R   1.0  0.0   0:00.08 top

top - 14:31:36 up  1:07,  1 user,  load average: 0.06, 0.55, 1.30
Tasks: 378 total,   1 running, 316 sleeping,   0 stopped,   0 zombie
%Cpu(s):  0.1 us,  0.2 sy,  0.0 ni, 99.6 id,  0.0 wa,  0.0 hi,  0.0 si,  0.0 st
KiB Mem : 16278772 total, 13516544 free,  1470368 used,  1291860 buff/cache
KiB Swap: 16630780 total, 16630780 free,        0 used. 14398980 avail Mem 

  PID USER      PR  NI    VIRT    RES    SHR S  %CPU %MEM     TIME+ COMMAND
 2178 root      20   0  469124 128872  61656 S   1.0  0.8   0:22.83 Xorg
 2390 kenenth   20   0 3566072 277060  91588 S   1.0  1.7   0:51.67 gnome-shell
25970 kenenth   20   0   42008   3988   3140 R   1.0  0.0   0:00.09 top

top - 14:31:37 up  1:07,  1 user,  load average: 0.06, 0.55, 1.30
Tasks: 378 total,   1 running, 316 sleeping,   0 stopped,   0 zombie
%Cpu(s):  0.1 us,  0.4 sy,  0.0 ni, 99.4 id,  0.0 wa,  0.0 hi,  0.1 si,  0.0 st
KiB Mem : 16278772 total, 13516544 free,  1470368 used,  1291860 buff/cache
KiB Swap: 16630780 total, 16630780 free,        0 used. 14398980 avail Mem 

  PID USER      PR  NI    VIRT    RES    SHR S  %CPU %MEM     TIME+ COMMAND
 2390 kenenth   20   0 3566072 277060  91588 S   1.0  1.7   0:51.68 gnome-shell
25970 kenenth   20   0   42008   3988   3140 R   1.0  0.0   0:00.10 top

top - 14:31:38 up  1:07,  1 user,  load average: 0.06, 0.55, 1.30
Tasks: 378 total,   1 running, 316 sleeping,   0 stopped,   0 zombie
%Cpu(s):  0.2 us,  0.4 sy,  0.0 ni, 99.1 id,  0.1 wa,  0.0 hi,  0.1 si,  0.0 st
KiB Mem : 16278772 total, 13516700 free,  1470180 used,  1291892 buff/cache
KiB Swap: 16630780 total, 16630780 free,        0 used. 14399144 avail Mem 

  PID USER      PR  NI    VIRT    RES    SHR S  %CPU %MEM     TIME+ COMMAND
25970 kenenth   20   0   42008   3988   3140 R   2.0  0.0   0:00.12 top
   28 root      20   0       0      0      0 S   1.0  0.0   0:00.55 ksoftirqd/3
  990 root      20   0 4988324  40536  26236 S   1.0  0.2   0:20.32 containerd
 2179 root     -51   0       0      0      0 S   1.0  0.0   0:02.77 irq/142-nv+

top - 14:31:39 up  1:07,  1 user,  load average: 0.05, 0.54, 1.29
Tasks: 378 total,   1 running, 316 sleeping,   0 stopped,   0 zombie
%Cpu(s):  0.1 us,  0.2 sy,  0.0 ni, 99.6 id,  0.0 wa,  0.0 hi,  0.0 si,  0.0 st
KiB Mem : 16278772 total, 13516700 free,  1470180 used,  1291892 buff/cache
KiB Swap: 16630780 total, 16630780 free,        0 used. 14399144 avail Mem 

  PID USER      PR  NI    VIRT    RES    SHR S  %CPU %MEM     TIME+ COMMAND
 2390 kenenth   20   0 3566072 277060  91588 S   2.0  1.7   0:51.70 gnome-shell
 2178 root      20   0  469124 128872  61656 S   1.0  0.8   0:22.84 Xorg
25970 kenenth   20   0   42008   3988   3140 R   1.0  0.0   0:00.13 top

top - 14:31:40 up  1:07,  1 user,  load average: 0.05, 0.54, 1.29
Tasks: 378 total,   1 running, 316 sleeping,   0 stopped,   0 zombie
%Cpu(s):  0.4 us,  0.2 sy,  0.0 ni, 99.4 id,  0.0 wa,  0.0 hi,  0.0 si,  0.0 st
KiB Mem : 16278772 total, 13516700 free,  1470180 used,  1291892 buff/cache
KiB Swap: 16630780 total, 16630780 free,        0 used. 14399144 avail Mem 

  PID USER      PR  NI    VIRT    RES    SHR S  %CPU %MEM     TIME+ COMMAND
25970 kenenth   20   0   42008   3988   3140 R   2.0  0.0   0:00.15 top