top - 22:19:49 up  1:36,  1 user,  load average: 0.06, 0.36, 1.10
Tasks: 480 total,   1 running, 414 sleeping,   0 stopped,   0 zombie
%Cpu(s):  3.5 us,  1.6 sy,  0.0 ni, 94.7 id,  0.1 wa,  0.0 hi,  0.0 si,  0.0 st
KiB Mem : 16278768 total, 12076412 free,  1435812 used,  2766544 buff/cache
KiB Swap: 16630780 total, 16630780 free,        0 used. 14392572 avail Mem 

  PID USER      PR  NI    VIRT    RES    SHR S  %CPU %MEM     TIME+ COMMAND
  703 systemd+  20   0   71276   6532   5524 S  36.8  0.0   0:03.58 systemd-re+
   28 root      20   0       0      0      0 S  15.8  0.0   0:00.84 ksoftirqd/3
22555 kenenth   20   0   41908   3860   3196 R  15.8  0.0   0:00.04 top
22556 kenenth   20   0    4628   1648   1544 S   5.3  0.0   0:00.02 sh

top - 22:19:51 up  1:36,  1 user,  load average: 0.06, 0.36, 1.10
Tasks: 480 total,   1 running, 414 sleeping,   0 stopped,   0 zombie
%Cpu(s):  0.2 us,  0.5 sy,  0.0 ni, 98.9 id,  0.0 wa,  0.0 hi,  0.4 si,  0.0 st
KiB Mem : 16278768 total, 12076412 free,  1435812 used,  2766544 buff/cache
KiB Swap: 16630780 total, 16630780 free,        0 used. 14392572 avail Mem 

  PID USER      PR  NI    VIRT    RES    SHR S  %CPU %MEM     TIME+ COMMAND
   28 root      20   0       0      0      0 S   2.9  0.0   0:00.87 ksoftirqd/3
22555 kenenth   20   0   42040   4120   3196 R   1.9  0.0   0:00.06 top
  972 root      20   0  565280  23956  13716 S   1.0  0.1   0:38.15 NetworkMan+
 1129 root      20   0 4971932  40008  25492 S   1.0  0.2   0:25.33 containerd
 1302 gdm       20   0 3332456 121088  66292 S   1.0  0.7   0:55.58 gnome-shell

top - 22:19:52 up  1:36,  1 user,  load average: 0.06, 0.36, 1.10
Tasks: 480 total,   1 running, 414 sleeping,   0 stopped,   0 zombie
%Cpu(s):  0.1 us,  0.6 sy,  0.0 ni, 98.9 id,  0.0 wa,  0.0 hi,  0.4 si,  0.0 st
KiB Mem : 16278768 total, 12075120 free,  1436752 used,  2766896 buff/cache
KiB Swap: 16630780 total, 16630780 free,        0 used. 14391660 avail Mem 

  PID USER      PR  NI    VIRT    RES    SHR S  %CPU %MEM     TIME+ COMMAND
   28 root      20   0       0      0      0 S   2.9  0.0   0:00.90 ksoftirqd/3
22555 kenenth   20   0   42040   4120   3196 R   2.0  0.0   0:00.08 top
 1129 root      20   0 4971932  40008  25492 S   1.0  0.2   0:25.34 containerd
 1780 root      20   0  433932  94760  61668 S   1.0  0.6   1:19.55 Xorg

top - 22:19:53 up  1:36,  1 user,  load average: 0.05, 0.36, 1.10
Tasks: 480 total,   1 running, 414 sleeping,   0 stopped,   0 zombie
%Cpu(s):  0.1 us,  0.2 sy,  0.0 ni, 99.3 id,  0.0 wa,  0.0 hi,  0.4 si,  0.0 st
KiB Mem : 16278768 total, 12075120 free,  1436752 used,  2766896 buff/cache
KiB Swap: 16630780 total, 16630780 free,        0 used. 14391660 avail Mem 

  PID USER      PR  NI    VIRT    RES    SHR S  %CPU %MEM     TIME+ COMMAND
   28 root      20   0       0      0      0 S   2.0  0.0   0:00.92 ksoftirqd/3
22555 kenenth   20   0   42040   4120   3196 R   2.0  0.0   0:00.10 top
 2332 root      20   0 6051056 103740  38472 S   1.0  0.6   1:19.84 dockerd