top - 18:15:42 up 31 min,  1 user,  load average: 0.03, 0.40, 1.10
Tasks: 378 total,   1 running, 317 sleeping,   0 stopped,   0 zombie
%Cpu(s):  3.5 us,  1.9 sy,  0.0 ni, 94.5 id,  0.1 wa,  0.0 hi,  0.0 si,  0.0 st
KiB Mem : 16278772 total, 13284084 free,  1365928 used,  1628760 buff/cache
KiB Swap: 16630780 total, 16630780 free,        0 used. 14471080 avail Mem 

  PID USER      PR  NI    VIRT    RES    SHR S  %CPU %MEM     TIME+ COMMAND
  696 systemd+  20   0   71244   6424   5348 S  11.8  0.0   0:01.62 systemd-resolve
30691 kenenth   20   0   41908   3712   3104 R  11.8  0.0   0:00.03 top
   34 root      20   0       0      0      0 S   5.9  0.0   0:00.28 ksoftirqd/4
 1124 root      20   0 4980128  39668  24916 S   5.9  0.2   0:10.47 containerd
 2192 root      20   0  433352  93656  61704 S   5.9  0.6   0:12.15 Xorg
 2193 root     -51   0       0      0      0 S   5.9  0.0   0:01.66 irq/135-nvidia
 2398 kenenth   20   0 3531420 237016  90416 S   5.9  1.5   0:32.30 gnome-shell

top - 18:15:43 up 31 min,  1 user,  load average: 0.03, 0.40, 1.10
Tasks: 378 total,   1 running, 317 sleeping,   0 stopped,   0 zombie
%Cpu(s):  0.5 us,  0.6 sy,  0.0 ni, 98.9 id,  0.0 wa,  0.0 hi,  0.0 si,  0.0 st
KiB Mem : 16278772 total, 13284084 free,  1365928 used,  1628760 buff/cache
KiB Swap: 16630780 total, 16630780 free,        0 used. 14471080 avail Mem 

  PID USER      PR  NI    VIRT    RES    SHR S  %CPU %MEM     TIME+ COMMAND
30691 kenenth   20   0   42040   3712   3104 R   1.9  0.0   0:00.05 top
   34 root      20   0       0      0      0 S   1.0  0.0   0:00.29 ksoftirqd/4
  696 systemd+  20   0   71244   6424   5348 S   1.0  0.0   0:01.63 systemd-resolve
 2192 root      20   0  433352  93656  61704 S   1.0  0.6   0:12.16 Xorg

top - 18:15:44 up 31 min,  1 user,  load average: 0.03, 0.40, 1.10
Tasks: 378 total,   1 running, 317 sleeping,   0 stopped,   0 zombie
%Cpu(s):  0.1 us,  0.5 sy,  0.0 ni, 99.3 id,  0.0 wa,  0.0 hi,  0.1 si,  0.0 st
KiB Mem : 16278772 total, 13284084 free,  1365928 used,  1628760 buff/cache
KiB Swap: 16630780 total, 16630780 free,        0 used. 14471080 avail Mem 

  PID USER      PR  NI    VIRT    RES    SHR S  %CPU %MEM     TIME+ COMMAND
30691 kenenth   20   0   42008   3956   3104 R   1.0  0.0   0:00.06 top

top - 18:15:45 up 31 min,  1 user,  load average: 0.03, 0.39, 1.09
Tasks: 378 total,   1 running, 317 sleeping,   0 stopped,   0 zombie
%Cpu(s):  0.2 us,  0.1 sy,  0.0 ni, 99.6 id,  0.0 wa,  0.0 hi,  0.0 si,  0.0 st
KiB Mem : 16278772 total, 13283036 free,  1366924 used,  1628812 buff/cache
KiB Swap: 16630780 total, 16630780 free,        0 used. 14470048 avail Mem 

  PID USER      PR  NI    VIRT    RES    SHR S  %CPU %MEM     TIME+ COMMAND
30691 kenenth   20   0   42008   3956   3104 R   2.0  0.0   0:00.08 top
   34 root      20   0       0      0      0 S   1.0  0.0   0:00.30 ksoftirqd/4
 2192 root      20   0  433352  93656  61704 S   1.0  0.6   0:12.17 Xorg
 2398 kenenth   20   0 3531420 237016  90416 S   1.0  1.5   0:32.31 gnome-shell

top - 18:15:46 up 31 min,  1 user,  load average: 0.03, 0.39, 1.09
Tasks: 378 total,   1 running, 317 sleeping,   0 stopped,   0 zombie
%Cpu(s):  0.2 us,  0.5 sy,  0.0 ni, 99.0 id,  0.0 wa,  0.0 hi,  0.2 si,  0.0 st
KiB Mem : 16278772 total, 13283036 free,  1366924 used,  1628812 buff/cache
KiB Swap: 16630780 total, 16630780 free,        0 used. 14470048 avail Mem 

  PID USER      PR  NI    VIRT    RES    SHR S  %CPU %MEM     TIME+ COMMAND
 2398 kenenth   20   0 3531420 237016  90416 S   2.0  1.5   0:32.33 gnome-shell
30691 kenenth   20   0   42008   3956   3104 R   2.0  0.0   0:00.10 top
 2192 root      20   0  433352  93656  61704 S   1.0  0.6   0:12.18 Xorg
 2193 root     -51   0       0      0      0 S   1.0  0.0   0:01.67 irq/135-nvidia
 3367 kenenth   20   0  792980  37580  27984 S   1.0  0.2   0:01.72 gnome-terminal-

top - 18:15:47 up 31 min,  1 user,  load average: 0.03, 0.39, 1.09
Tasks: 378 total,   1 running, 317 sleeping,   0 stopped,   0 zombie
%Cpu(s):  0.1 us,  0.5 sy,  0.0 ni, 99.3 id,  0.0 wa,  0.0 hi,  0.1 si,  0.0 st
KiB Mem : 16278772 total, 13283036 free,  1366924 used,  1628812 buff/cache
KiB Swap: 16630780 total, 16630780 free,        0 used. 14470048 avail Mem 

  PID USER      PR  NI    VIRT    RES    SHR S  %CPU %MEM     TIME+ COMMAND
   34 root      20   0       0      0      0 S   1.0  0.0   0:00.31 ksoftirqd/4
 2192 root      20   0  433352  93656  61704 S   1.0  0.6   0:12.19 Xorg
30691 kenenth   20   0   42008   3956   3104 R   1.0  0.0   0:00.11 top

top - 18:15:48 up 31 min,  1 user,  load average: 0.03, 0.39, 1.09
Tasks: 378 total,   1 running, 317 sleeping,   0 stopped,   0 zombie
%Cpu(s):  0.4 us,  0.2 sy,  0.0 ni, 99.4 id,  0.0 wa,  0.0 hi,  0.0 si,  0.0 st
KiB Mem : 16278772 total, 13283036 free,  1366912 used,  1628824 buff/cache
KiB Swap: 16630780 total, 16630780 free,        0 used. 14470048 avail Mem 

  PID USER      PR  NI    VIRT    RES    SHR S  %CPU %MEM     TIME+ COMMAND
30691 kenenth   20   0   42008   3956   3104 R   1.0  0.0   0:00.12 top

top - 18:15:49 up 32 min,  1 user,  load average: 0.03, 0.39, 1.09
Tasks: 378 total,   1 running, 317 sleeping,   0 stopped,   0 zombie
%Cpu(s):  0.4 us,  0.4 sy,  0.0 ni, 99.1 id,  0.0 wa,  0.0 hi,  0.1 si,  0.0 st
KiB Mem : 16278772 total, 13283036 free,  1366912 used,  1628824 buff/cache
KiB Swap: 16630780 total, 16630780 free,        0 used. 14470048 avail Mem 

  PID USER      PR  NI    VIRT    RES    SHR S  %CPU %MEM     TIME+ COMMAND
  987 root      20   0 1090076  30056  17960 S   2.0  0.2   0:05.70 snapd
30691 kenenth   20   0   42008   3956   3104 R   2.0  0.0   0:00.14 top
   34 root      20   0       0      0      0 S   1.0  0.0   0:00.32 ksoftirqd/4
 1124 root      20   0 4980128  39668  24916 S   1.0  0.2   0:10.48 containerd
 2192 root      20   0  433352  93656  61704 S   1.0  0.6   0:12.20 Xorg
 2398 kenenth   20   0 3531420 237016  90416 S   1.0  1.5   0:32.34 gnome-shell

top - 18:15:50 up 32 min,  1 user,  load average: 0.03, 0.39, 1.09
Tasks: 378 total,   1 running, 317 sleeping,   0 stopped,   0 zombie
%Cpu(s):  0.2 us,  0.4 sy,  0.0 ni, 99.4 id,  0.0 wa,  0.0 hi,  0.0 si,  0.0 st
KiB Mem : 16278772 total, 13283036 free,  1366912 used,  1628824 buff/cache
KiB Swap: 16630780 total, 16630780 free,        0 used. 14470048 avail Mem 

  PID USER      PR  NI    VIRT    RES    SHR S  %CPU %MEM     TIME+ COMMAND
 2398 kenenth   20   0 3531420 237016  90416 S   1.0  1.5   0:32.35 gnome-shell
30691 kenenth   20   0   42008   3956   3104 R   1.0  0.0   0:00.15 top