     1	 95.7 
     2	 96.7 
     3	 64.5 
     4	  7.4 
     5	  4.6 
     6	  6.8 
     7	 46.1 
     8	 86.0 
     9	 94.9 
    10	 88.7 
    11	 89.1 
    12	 93.4 
    13	 87.5 
    14	 89.5 
    15	 80.0 
    16	 84.7 
    17	 77.0 
    18	 88.2 
    19	 76.2 
    20	 66.7 
    21	 75.2 
    22	 77.7 
    23	 64.8 
    24	 77.5 
    25	 62.8 
    26	 18.5 
    27	  6.3 
    28	  5.5 
    29	  4.6 
    30	  4.6 
    31	  2.7 
    32	  2.2 
    33	 34.8 
    34	 82.3 
    35	 96.8 
    36	 91.7 
    37	 86.0 
    38	 87.0 
    39	 78.3 
    40	 83.4 
    41	 86.2 
    42	 85.9 
    43	 75.4 
    44	 81.8 
    45	 88.5 
    46	 71.0 
    47	 66.3 
    48	 71.5 
    49	 74.7 
    50	 71.2 
    51	 72.6 
    52	 80.5 
    53	 70.0 
    54	 65.1 
    55	 83.9 
    56	 86.3 
    57	 93.0 
    58	 85.1 
    59	 95.8 
    60	 86.1 
    61	 87.2 
    62	 91.1 
    63	 96.5 
    64	 82.5 
    65	 82.3 
    66	 88.5 
    67	 94.9 
    68	 88.0 
    69	 96.6 
    70	 90.6 
    71	 94.2 
    72	 92.9 
    73	 94.0 
    74	 89.1 
    75	 93.6 
