ping_23 | round-trip min/avg/max = 172.006/172.679/174.478 ms
ping_3  | round-trip min/avg/max = 171.974/172.565/173.530 ms
ping_29 | round-trip min/avg/max = 171.915/172.877/173.969 ms
ping_21 | round-trip min/avg/max = 171.969/173.125/175.263 ms
ping_8  | round-trip min/avg/max = 171.893/172.276/173.066 ms
ping_15 | round-trip min/avg/max = 171.833/172.139/172.432 ms
ping_16 | round-trip min/avg/max = 171.885/172.259/172.577 ms
ping_13 | round-trip min/avg/max = 171.881/172.761/174.891 ms
ping_25 | round-trip min/avg/max = 171.754/173.636/180.563 ms
ping_10 | round-trip min/avg/max = 172.027/172.544/173.675 ms
ping_24 | round-trip min/avg/max = 171.886/172.516/173.449 ms
ping_36 | round-trip min/avg/max = 171.852/172.166/172.777 ms
ping_22 | round-trip min/avg/max = 171.849/172.423/173.443 ms
ping_27 | round-trip min/avg/max = 172.004/172.431/173.500 ms
ping_31 | round-trip min/avg/max = 171.824/172.199/173.534 ms
ping_19 | round-trip min/avg/max = 171.882/172.326/173.136 ms
ping_17 | round-trip min/avg/max = 171.803/172.353/174.622 ms
ping_14 | round-trip min/avg/max = 171.757/171.993/172.502 ms
ping_35 | round-trip min/avg/max = 171.802/172.190/173.154 ms
ping_18 | round-trip min/avg/max = 171.708/173.511/182.622 ms
ping_30 | round-trip min/avg/max = 171.693/172.216/173.436 ms
ping_28 | round-trip min/avg/max = 171.921/172.876/179.276 ms
ping_2  | round-trip min/avg/max = 171.758/172.085/173.251 ms
ping_12 | round-trip min/avg/max = 171.679/173.133/181.354 ms
ping_33 | round-trip min/avg/max = 171.705/171.858/172.156 ms
ping_6  | round-trip min/avg/max = 171.736/172.281/175.488 ms
ping_37 | round-trip min/avg/max = 171.745/172.258/173.315 ms
ping_34 | round-trip min/avg/max = 171.761/171.933/172.369 ms
ping_4  | round-trip min/avg/max = 171.665/171.998/172.442 ms
ping_40 | round-trip min/avg/max = 171.700/172.025/172.465 ms
ping_39 | round-trip min/avg/max = 171.715/172.031/172.919 ms
ping_26 | round-trip min/avg/max = 171.763/172.371/174.097 ms
ping_9  | round-trip min/avg/max = 171.725/172.064/173.104 ms
ping_38 | round-trip min/avg/max = 171.726/172.432/174.926 ms
ping_20 | round-trip min/avg/max = 171.718/172.074/173.289 ms
ping_7  | round-trip min/avg/max = 171.698/172.554/176.992 ms
ping_1  | round-trip min/avg/max = 171.693/174.775/189.182 ms
ping_5  | round-trip min/avg/max = 171.727/172.415/175.377 ms
ping_11 | round-trip min/avg/max = 171.747/172.274/173.328 ms
ping_32 | round-trip min/avg/max = 171.688/172.275/173.797 ms
ping_51 | round-trip min/avg/max = 171.900/184.430/190.417 ms
ping_91 | round-trip min/avg/max = 171.803/186.238/190.661 ms
ping_58 | round-trip min/avg/max = 185.656/188.165/190.081 ms
ping_48 | round-trip min/avg/max = 188.904/189.357/189.898 ms
ping_44 | round-trip min/avg/max = 171.820/185.313/189.710 ms
ping_86 | round-trip min/avg/max = 171.799/180.204/190.378 ms
ping_66 | round-trip min/avg/max = 184.563/188.347/190.021 ms
ping_42 | round-trip min/avg/max = 183.449/188.171/190.516 ms
ping_57 | round-trip min/avg/max = 185.886/188.625/190.113 ms
ping_84 | round-trip min/avg/max = 184.279/189.460/194.728 ms
ping_78 | round-trip min/avg/max = 184.788/188.279/189.937 ms
ping_77 | round-trip min/avg/max = 188.147/189.454/190.853 ms
ping_100 | round-trip min/avg/max = 183.404/188.606/190.971 ms
ping_73 | round-trip min/avg/max = 184.018/187.792/189.935 ms
ping_55 | round-trip min/avg/max = 184.826/188.078/189.942 ms
ping_59 | round-trip min/avg/max = 184.424/188.286/189.812 ms
ping_64 | round-trip min/avg/max = 185.127/188.266/189.844 ms
ping_92 | round-trip min/avg/max = 186.717/188.974/190.352 ms
ping_72 | round-trip min/avg/max = 183.613/188.169/190.420 ms
ping_50 | round-trip min/avg/max = 186.591/189.052/190.704 ms
ping_87 | round-trip min/avg/max = 183.229/188.658/189.934 ms
ping_45 | round-trip min/avg/max = 184.472/188.600/190.499 ms
ping_94 | round-trip min/avg/max = 187.121/189.335/190.429 ms
ping_95 | round-trip min/avg/max = 183.199/188.477/189.621 ms
ping_85 | round-trip min/avg/max = 185.935/188.640/189.983 ms
ping_56 | round-trip min/avg/max = 183.601/188.132/189.994 ms
ping_54 | round-trip min/avg/max = 186.872/188.728/189.950 ms
ping_53 | round-trip min/avg/max = 188.095/189.379/190.322 ms
ping_63 | round-trip min/avg/max = 186.871/189.056/190.574 ms
ping_76 | round-trip min/avg/max = 186.705/189.119/189.797 ms
ping_43 | round-trip min/avg/max = 186.001/189.094/191.883 ms
ping_41 | round-trip min/avg/max = 187.971/189.408/190.277 ms
ping_49 | round-trip min/avg/max = 185.570/188.899/190.027 ms
ping_75 | round-trip min/avg/max = 187.690/189.280/190.022 ms
ping_79 | round-trip min/avg/max = 187.783/189.112/190.003 ms
ping_80 | round-trip min/avg/max = 186.232/188.713/189.981 ms
ping_99 | round-trip min/avg/max = 187.070/188.851/190.302 ms
ping_88 | round-trip min/avg/max = 182.734/188.142/190.130 ms
ping_89 | round-trip min/avg/max = 187.491/189.397/190.578 ms
ping_82 | round-trip min/avg/max = 188.248/189.368/189.958 ms
ping_74 | round-trip min/avg/max = 188.265/189.235/190.458 ms
ping_98 | round-trip min/avg/max = 186.618/189.469/191.173 ms
ping_47 | round-trip min/avg/max = 187.516/189.562/193.557 ms
ping_67 | round-trip min/avg/max = 183.752/188.682/189.921 ms
ping_46 | round-trip min/avg/max = 188.141/189.527/191.088 ms
ping_96 | round-trip min/avg/max = 188.876/189.696/190.692 ms
ping_93 | round-trip min/avg/max = 188.099/189.578/190.582 ms
ping_52 | round-trip min/avg/max = 188.629/189.427/190.493 ms
ping_65 | round-trip min/avg/max = 188.962/189.891/191.456 ms
ping_69 | round-trip min/avg/max = 187.533/189.329/190.294 ms
ping_62 | round-trip min/avg/max = 186.012/189.168/191.894 ms
ping_90 | round-trip min/avg/max = 186.913/189.403/191.331 ms
ping_68 | round-trip min/avg/max = 186.169/189.241/190.388 ms
ping_71 | round-trip min/avg/max = 186.003/189.104/190.560 ms
ping_61 | round-trip min/avg/max = 188.058/189.777/195.066 ms
ping_97 | round-trip min/avg/max = 186.140/189.220/190.291 ms
ping_81 | round-trip min/avg/max = 186.557/189.095/190.199 ms
ping_70 | round-trip min/avg/max = 189.103/189.554/190.206 ms
ping_83 | round-trip min/avg/max = 186.056/189.195/193.468 ms
ping_60 | round-trip min/avg/max = 185.843/188.870/190.142 ms
