50 packets transmitted, 49 received, 2% packet loss, time 49029ms
50 packets transmitted, 49 received, 2% packet loss, time 49028ms
50 packets transmitted, 49 received, 2% packet loss, time 49035ms
50 packets transmitted, 49 received, 2% packet loss, time 49037ms
50 packets transmitted, 49 received, 2% packet loss, time 49037ms
50 packets transmitted, 49 received, 2% packet loss, time 49040ms
50 packets transmitted, 49 received, 2% packet loss, time 49041ms
50 packets transmitted, 49 received, 2% packet loss, time 49047ms
50 packets transmitted, 49 received, 2% packet loss, time 49047ms
50 packets transmitted, 49 received, 2% packet loss, time 49046ms
50 packets transmitted, 49 received, 2% packet loss, time 49053ms
50 packets transmitted, 48 received, 4% packet loss, time 49059ms
50 packets transmitted, 49 received, 2% packet loss, time 49060ms
50 packets transmitted, 46 received, 8% packet loss, time 49080ms
50 packets transmitted, 47 received, 6% packet loss, time 49082ms
50 packets transmitted, 45 received, 10% packet loss, time 49095ms
50 packets transmitted, 47 received, 6% packet loss, time 49094ms
50 packets transmitted, 46 received, 8% packet loss, time 49103ms
50 packets transmitted, 47 received, 6% packet loss, time 49147ms
50 packets transmitted, 45 received, 10% packet loss, time 49181ms
