     1	1003868 
     2	1003868 
     3	1003868 
     4	1048552 
     5	1048552 
     6	1048552 
     7	1043380 
     8	1043380 
     9	1043380 
    10	1041964 
    11	1041964 
    12	1041964 
    13	1042092 
    14	1042092 
    15	1042092 
    16	1041324 
    17	1041324 
    18	1041324 
    19	1041336 
    20	1041336 
    21	1041336 
    22	1041312 
    23	1041312 
    24	1041328 
    25	1041328 
    26	1041328 
    27	1041348 
    28	1041348 
    29	1041348 
    30	1041440 
    31	1041440 
    32	1041440 
    33	1041468 
    34	1041468 
    35	1041468 
    36	1151756 
    37	1151756 
    38	1151756 
    39	1162764 
    40	1162764 
    41	1162764 
    42	1172396 
    43	1172396 
    44	1172396 
    45	1208324 
    46	1208324 
    47	1208324 
    48	1208416 
    49	1208416 
    50	1208416 
    51	1208536 
    52	1208536 
    53	1208536 
    54	1208552 
    55	1208552 
    56	1208552 
    57	1208508 
    58	1208508 
    59	1208508 
    60	1208756 
    61	1208756 
    62	1208756 
    63	1208784 
    64	1208784 
    65	1208784 
    66	1209000 
    67	1209000 
    68	1209000 
    69	1208992 
    70	1208992 
    71	1208992 
    72	1208980 
    73	1208980 
    74	1208980 
    75	1208992 
    76	1208992 
    77	1208992 
    78	1209124 
    79	1209124 
    80	1209124 
    81	1209092 
    82	1209092 
    83	1209092 
    84	1209128 
    85	1209128 
    86	1209128 
    87	1209340 
    88	1209340 
    89	1209496 
    90	1209496 
    91	1209496 
    92	1209536 
    93	1209536 
    94	1209536 
    95	1215128 
    96	1215128 
    97	1215128 
    98	1214868 
    99	1214868 
   100	1214868 
   101	1214876 
   102	1214876 
   103	1214876 
   104	1214872 
   105	1214872 
   106	1214872 
   107	1214872 
   108	1214872 
   109	1214872 
   110	1214896 
   111	1214896 
   112	1214896 
   113	1214884 
   114	1214884 
   115	1214884 
   116	1214884 
   117	1214884 
   118	1214884 
   119	1214864 
   120	1214864 
   121	1214864 
   122	1214980 
   123	1214980 
   124	1214980 
   125	1215104 
   126	1215104 
   127	1215104 
   128	1215108 
   129	1215108 
   130	1215108 
   131	1215092 
   132	1215092 
   133	1215092 
   134	1215084 
   135	1215084 
   136	1215084 
   137	1215096 
   138	1215096 
   139	1215096 
   140	1215072 
   141	1215072 
   142	1215072 
   143	1215072 
   144	1215072 
   145	1215072 
   146	1215060 
   147	1215060 
   148	1215060 
   149	1215184 
   150	1215184 
   151	1215184 
   152	1215152 
   153	1215152 
   154	1215152 
   155	1214916 
   156	1214916 
   157	1214916 
   158	1214888 
   159	1214888 
   160	1214888 
   161	1214912 
   162	1214912 
   163	1214912 
   164	1214876 
   165	1214876 
   166	1214876 
   167	1214892 
   168	1214892 
   169	1214892 
   170	1214888 
   171	1214888 
   172	1214888 
   173	1214880 
   174	1214880 
   175	1214880 
   176	1214856 
   177	1214856 
   178	1214856 
   179	1214864 
   180	1214864 
   181	1214864 
   182	1214836 
   183	1214836 
   184	1214836 
   185	1214852 
   186	1214852 
   187	1214852 
   188	1214824 
   189	1214824 
   190	1214824 
   191	1214836 
   192	1214836 
   193	1214836 
   194	1214812 
   195	1214812 
   196	1214812 
   197	1214828 
   198	1214828 
   199	1214828 
   200	1214948 
   201	1214948 
   202	1214948 
   203	1214936 
   204	1214936 
   205	1214936 
   206	1214920 
   207	1214920 
   208	1214920 
   209	1214924 
   210	1214924 
   211	1214924 
   212	1214904 
   213	1214904 
   214	1214904 
   215	1215036 
   216	1215036 
   217	1215036 
   218	1215028 
   219	1215028 
   220	1215028 
   221	1215028 
   222	1215028 
   223	1215028 
   224	1215004 
   225	1215004 
   226	1215004 
   227	1215016 
   228	1215016 
   229	1215016 
   230	1215004 
   231	1215004 
   232	1215004 
   233	1215004 
   234	1215004 
   235	1215004 
   236	1214976 
   237	1214976 
   238	1214976 
   239	1214988 
   240	1214988 
   241	1214988 
   242	1214984 
   243	1214984 
   244	1214984 
   245	1214984 
   246	1214984 
   247	1214984 
   248	1214936 
   249	1214936 
   250	1214936 
   251	1214960 
   252	1214960 
   253	1214960 
   254	1214924 
   255	1214924 
   256	1214924 
   257	1214124 
   258	1214124 
   259	1214124 
   260	1214112 
   261	1214112 
   262	1214112 
   263	1214120 
   264	1214120 
   265	1214120 
   266	1214112 
   267	1214112 
   268	1214112 
   269	1214100 
   270	1214100 
   271	1214100 
   272	1214100 
   273	1214100 
   274	1214100 
   275	1214096 
   276	1214096 
   277	1214096 
   278	1214096 
   279	1214096 
   280	1214096 
   281	1214084 
   282	1214084 
   283	1214084 
   284	1214084 
   285	1214084 
   286	1214084 
   287	1214076 
   288	1214076 
   289	1214076 
   290	1214072 
   291	1214072 
   292	1214072 
   293	1214072 
   294	1214072 
   295	1214056 
   296	1214056 
   297	1214056 
   298	1214048 
   299	1214048 
   300	1214048 
   301	1214036 
   302	1214036 
   303	1214036 
   304	1214032 
   305	1214032 
   306	1214032 
   307	1217212 
   308	1217212 
   309	1217212 
   310	1217212 
   311	1217212 
   312	1217212 
   313	1217076 
   314	1217076 
   315	1217076 
   316	1215716 
   317	1215716 
   318	1215716 
   319	1215484 
   320	1215484 
   321	1215484 
   322	1205180 
   323	1205180 
   324	1205180 
   325	1205060 
   326	1205060 
   327	1205060 
   328	1205060 
   329	1205060 
   330	1205060 
   331	1205060 
   332	1205060 
   333	1205060 
   334	1205048 
   335	1205048 
   336	1205048 
   337	1205044 
   338	1205044 
   339	1205044 
   340	1205044 
   341	1205044 
   342	1205044 
   343	1205040 
   344	1205040 
   345	1205040 
   346	1205036 
   347	1205036 
   348	1205036 
   349	1205036 
   350	1205036 
   351	1205036 
   352	1205024 
   353	1205024 
   354	1205024 
   355	1205020 
   356	1205020 
   357	1205020 
   358	1205016 
   359	1205016 
   360	1205016 
   361	1205004 
   362	1205004 
   363	1205004 
   364	1204992 
   365	1204992 
   366	1204992 
   367	1204992 
   368	1204992 
   369	1204992 
   370	1204980 
   371	1204980 
   372	1204980 
   373	1204980 
   374	1204980 
   375	1204980 
   376	1204972 
   377	1204972 
   378	1204972 
   379	1204976 
   380	1204976 
   381	1204976 
   382	1204968 
   383	1204968 
   384	1204968 
   385	1204960 
   386	1204960 
   387	1204960 
   388	1204952 
   389	1204952 
   390	1204952 
   391	1204940 
   392	1204940 
   393	1204940 
   394	1204932 
   395	1204932 
   396	1204932 
   397	1204928 
   398	1204928 
   399	1204928 
   400	1204920 
   401	1204920 
   402	1204920 
   403	1204908 
   404	1204908 
   405	1204908 
   406	1204924 
   407	1204924 
   408	1204924 
   409	1204912 
   410	1204912 
   411	1204912 
   412	1204896 
   413	1204896 
   414	1204896 
   415	1204904 
   416	1204904 
   417	1204904 
   418	1204888 
   419	1204888 
   420	1204888 
   421	1204888 
   422	1204888 
   423	1204888 
   424	1204868 
   425	1204868 
   426	1204868 
   427	1204868 
   428	1204868 
   429	1204868 
   430	1204864 
   431	1204864 
   432	1204864 
   433	1204980 
   434	1204980 
   435	1204980 
   436	1204976 
   437	1204976 
   438	1204976 
   439	1204976 
   440	1204976 
   441	1204976 
   442	1204964 
   443	1204964 
   444	1204964 
   445	1204964 
   446	1204964 
   447	1204964 
   448	1204952 
   449	1204952 
   450	1204952 
   451	1204952 
   452	1204952 
   453	1204952 
   454	1204928 
   455	1204928 
   456	1204928 
   457	1204944 
   458	1204944 
   459	1204944 
   460	1204932 
   461	1204932 
   462	1204932 
   463	1202912 
   464	1202912 
   465	1202912 
   466	1202852 
   467	1202852 
   468	1202852 
   469	1202332 
   470	1202332 
   471	1202332 
   472	1202104 
   473	1202104 
   474	1202104 
   475	1202104 
   476	1202104 
   477	1202104 
   478	1202100 
   479	1202100 
   480	1202100 
   481	1202092 
   482	1202092 
   483	1202092 
   484	1202088 
   485	1202088 
   486	1202088 
   487	1202084 
   488	1202084 
   489	1202084 
   490	1202076 
   491	1202076 
   492	1202076 
   493	1202068 
   494	1202068 
   495	1202068 
   496	1202068 
   497	1202068 
   498	1202068 
   499	1200652 
