     1	.2 
     2	.3 
     3	.8 
     4	.7 
     5	.4 
     6	.5 
     7	.5 
     8	.4 
     9	.4 
    10	.5 
    11	.5 
    12	.5 
    13	.6 
    14	.5 
    15	.8 
    16	.4 
    17	.3 
    18	.8 
    19	.5 
    20	.6 
    21	.0 
    22	.6 
    23	.6 
    24	.8 
    25	.1 
    26	.8 
    27	.2 
    28	.9 
    29	.7 
    30	.7 
    31	.3 
    32	.6 
    33	.1 
    34	.5 
    35	.3 
    36	.9 
    37	.4 
    38	.6 
    39	.6 
    40	.6 
    41	.8 
    42	.5 
    43	.5 
    44	.6 
    45	.8 
    46	.4 
    47	.8 
    48	.5 
    49	.5 
    50	.9 
    51	.6 
    52	.8 
    53	.6 
    54	.5 
    55	.6 
    56	.8 
    57	.8 
    58	.5 
    59	.3 
    60	.8 
    61	.9 
    62	.6 
    63	.8 
    64	.8 
    65	.4 
    66	.8 
    67	.5 
    68	.5 
    69	.8 
    70	.8 
    71	.8 
    72	.5 
    73	.6 
    74	.6 
    75	.6 
    76	.8 
    77	.8 
    78	.5 
    79	.5 
    80	.8 
    81	.6 
    82	.9 
    83	.5 
    84	.4 
    85	.5 
    86	.6 
    87	.4 
    88	.0 
    89	.6 
    90	.6 
    91	.4 
    92	.5 
    93	.6 
    94	.5 
    95	.6 
    96	.5 
    97	.8 
    98	.5 
    99	.5 
   100	.8 
   101	.6 
   102	.6 
   103	.9 
   104	.4 
   105	.5 
   106	.8 
   107	.8 
   108	.5 
   109	.9 
   110	.6 
   111	.5 
   112	.4 
   113	.6 
   114	.8 
   115	.6 
   116	.6 
   117	.8 
   118	.6 
   119	.4 
   120	.6 
   121	.8 
   122	.5 
   123	.5 
   124	.5 
   125	.6 
   126	.8 
   127	.6 
   128	.9 
   129	.6 
   130	.8 
   131	.4 
   132	.6 
   133	.8 
   134	.6 
   135	.6 
   136	.4 
   137	.8 
   138	.9 
   139	.6 
   140	.4 
   141	.8 
   142	.5 
   143	.5 
   144	.9 
   145	.5 
   146	.3 
   147	.8 
   148	.8 
   149	.1 
   150	.6 
   151	.8 
   152	.6 
   153	.4 
   154	.5 
   155	.8 
   156	.5 
   157	.6 
   158	.5 
   159	.5 
   160	.6 
   161	.8 
   162	.5 
   163	.5 
   164	.6 
   165	.5 
   166	.6 
   167	.9 
   168	.8 
   169	.8 
   170	.6 
   171	.8 
   172	.6 
   173	.5 
   174	.8 
   175	.3 
   176	.6 
   177	.4 
   178	.8 
   179	.4 
   180	.6 
   181	.6 
   182	.4 
   183	.6 
   184	.6 
   185	.8 
   186	.6 
   187	.6 
   188	.5 
   189	.9 
   190	.5 
   191	.9 
   192	.6 
   193	.9 
   194	.5 
   195	.6 
   196	.6 
   197	.9 
   198	.5 
   199	.9 
   200	.4 
   201	.5 
   202	.6 
   203	.5 
   204	.5 
   205	.3 
   206	.5 
   207	.6 
   208	.1 
   209	.6 
   210	.9 
   211	.3 
   212	.8 
   213	.3 
   214	.9 
   215	.6 
   216	.6 
   217	.5 
   218	.6 
   219	.5 
   220	.5 
   221	.8 
   222	.8 
   223	.8 
   224	.6 
   225	.5 
   226	.5 
   227	.6 
   228	.6 
   229	.6 
   230	.8 
   231	.6 
   232	.8 
   233	.8 
   234	.1 
   235	.6 
   236	.1 
   237	.6 
   238	.5 
   239	.9 
   240	.5 
   241	.4 
   242	.9 
   243	.6 
   244	.4 
   245	.5 
   246	.6 
   247	.8 
   248	.5 
   249	.6 
   250	.8 
   251	.5 
   252	.9 
   253	.6 
   254	.5 
   255	.8 
   256	.5 
   257	.9 
   258	.8 
   259	.5 
   260	.3 
   261	.8 
   262	.6 
   263	.6 
   264	.5 
   265	.9 
   266	.5 
   267	.4 
   268	.5 
   269	.8 
   270	.6 
   271	.8 
   272	.6 
   273	.3 
   274	.6 
   275	.8 
   276	.5 
   277	.9 
   278	.6 
   279	.5 
   280	.5 
   281	.9 
   282	.6 
   283	.3 
   284	.5 
   285	.6 
   286	.6 
   287	.6 
   288	.4 
   289	.6 
   290	.3 
   291	.5 
   292	.6 
   293	.5 
   294	.5 
   295	.5 
   296	.6 
   297	.0 
   298	.2 
   299	.1 
   300	.1 
   301	.3 
   302	.8 
   303	.1 
   304	.2 
   305	.2 
   306	.0 
   307	.7 
   308	.1 
   309	.9 
   310	.4 
   311	.9 
   312	.6 
   313	.4 
   314	.9 
   315	.6 
   316	.8 
   317	.0 
   318	.6 
   319	.8 
   320	.8 
   321	.4 
   322	.8 
   323	.5 
   324	.0 
   325	.4 
   326	.7 
   327	.6 
   328	.9 
   329	.7 
   330	.7 
   331	.3 
   332	.3 
   333	.8 
   334	.8 
   335	.7 
   336	.3 
   337	.8 
   338	.9 
   339	.8 
   340	.8 
   341	.6 
   342	.6 
   343	.6 
   344	.8 
   345	.8 
   346	.6 
   347	.9 
   348	.6 
   349	.6 
   350	.6 
   351	.6 
   352	.6 
   353	.8 
   354	.6 
   355	.6 
   356	.5 
   357	.8 
   358	.6 
   359	.6 
   360	.8 
   361	.8 
   362	.6 
   363	.8 
   364	.8 
   365	.6 
   366	.8 
   367	.8 
   368	.6 
   369	.8 
   370	.8 
   371	.8 
   372	.6 
   373	.6 
   374	.5 
   375	.6 
   376	.9 
   377	.6 
   378	.5 
   379	.8 
   380	.5 
   381	.5 
   382	.9 
   383	.4 
   384	.6 
   385	.6 
   386	.6 
   387	.9 
   388	.5 
   389	.8 
   390	.5 
   391	.4 
   392	.4 
   393	.6 
   394	.8 
   395	.9 
   396	.9 
   397	.4 
   398	.8 
   399	.6 
   400	.6 
   401	.8 
   402	.5 
   403	.6 
   404	.6 
   405	.4 
   406	.6 
   407	.6 
   408	.6 
   409	.5 
   410	.9 
   411	.6 
   412	.5 
   413	.9 
   414	.4 
   415	.4 
   416	.8 
   417	.6 
   418	.6 
   419	.5 
   420	.8 
   421	.6 
   422	.6 
   423	.9 
   424	.6 
   425	.8 
   426	.5 
   427	.6 
   428	.5 
   429	.6 
   430	.6 
   431	.6 
   432	.9 
   433	.8 
   434	.8 
   435	.6 
   436	.8 
   437	.6 
   438	.9 
   439	.3 
   440	.6 
   441	.5 
   442	.6 
   443	.8 
   444	.8 
   445	.6 
   446	.8 
   447	.1 
   448	.6 
   449	.5 
   450	.4 
   451	.6 
   452	.6 
   453	.8 
   454	.8 
   455	.8 
   456	.6 
   457	.6 
   458	.8 
   459	.8 
   460	.6 
   461	.6 
   462	.4 
   463	.4 
   464	.9 
   465	.9 
   466	.6 
   467	.6 
   468	.8 
   469	.8 
   470	.8 
   471	.5 
   472	.6 
   473	.8 
   474	.9 
   475	.6 
   476	.8 
   477	.5 
   478	.5 
   479	.6 
   480	.6 
   481	.8 
   482	.6 
   483	.5 
   484	.5 
   485	.6 
   486	.9 
   487	.8 
   488	.9 
   489	.6 
   490	.6 
   491	.8 
   492	.6 
   493	.5 
   494	.5 
   495	.8 
   496	.9 
   497	.9 
   498	.1 
   499	.5 
   500	.8 
   501	.9 
