PING csl2.hkspeedtest.com (203.210.4.91) 56(84) bytes of data.
64 bytes from 203-210-4-091.static.pccw-hkt.com (203.210.4.91): icmp_seq=1 ttl=52 time=172 ms
PING csl2.hkspeedtest.com (203.210.4.91) 56(84) bytes of data.
64 bytes from 203-210-4-091.static.pccw-hkt.com (203.210.4.91): icmp_seq=1 ttl=52 time=172 ms
PING csl2.hkspeedtest.com (203.210.4.91) 56(84) bytes of data.
64 bytes from 203-210-4-091.static.pccw-hkt.com (203.210.4.91): icmp_seq=1 ttl=52 time=172 ms
PING csl2.hkspeedtest.com (203.210.4.91) 56(84) bytes of data.
64 bytes from 203-210-4-091.static.pccw-hkt.com (203.210.4.91): icmp_seq=1 ttl=52 time=172 ms
PING csl2.hkspeedtest.com (203.210.4.91) 56(84) bytes of data.
64 bytes from 203-210-4-091.static.pccw-hkt.com (203.210.4.91): icmp_seq=1 ttl=52 time=172 ms
PING csl2.hkspeedtest.com (203.210.4.91) 56(84) bytes of data.
64 bytes from 203-210-4-091.static.pccw-hkt.com (203.210.4.91): icmp_seq=1 ttl=52 time=172 ms
PING csl2.hkspeedtest.com (203.210.4.91) 56(84) bytes of data.
64 bytes from 203-210-4-091.static.pccw-hkt.com (203.210.4.91): icmp_seq=1 ttl=52 time=172 ms
PING csl2.hkspeedtest.com (203.210.4.91) 56(84) bytes of data.
64 bytes from 203-210-4-091.static.pccw-hkt.com (203.210.4.91): icmp_seq=1 ttl=52 time=172 ms
PING csl2.hkspeedtest.com (203.210.4.91) 56(84) bytes of data.
64 bytes from 203-210-4-091.static.pccw-hkt.com (203.210.4.91): icmp_seq=1 ttl=52 time=172 ms
PING csl2.hkspeedtest.com (203.210.4.91) 56(84) bytes of data.
64 bytes from 203-210-4-091.static.pccw-hkt.com (203.210.4.91): icmp_seq=1 ttl=52 time=172 ms
64 bytes from 203-210-4-091.static.pccw-hkt.com (203.210.4.91): icmp_seq=2 ttl=52 time=172 ms
64 bytes from 203-210-4-091.static.pccw-hkt.com (203.210.4.91): icmp_seq=2 ttl=52 time=172 ms
64 bytes from 203-210-4-091.static.pccw-hkt.com (203.210.4.91): icmp_seq=2 ttl=52 time=172 ms
64 bytes from 203-210-4-091.static.pccw-hkt.com (203.210.4.91): icmp_seq=2 ttl=52 time=172 ms
64 bytes from 203-210-4-091.static.pccw-hkt.com (203.210.4.91): icmp_seq=2 ttl=52 time=172 ms
64 bytes from 203-210-4-091.static.pccw-hkt.com (203.210.4.91): icmp_seq=2 ttl=52 time=172 ms
64 bytes from 203-210-4-091.static.pccw-hkt.com (203.210.4.91): icmp_seq=2 ttl=52 time=172 ms
64 bytes from 203-210-4-091.static.pccw-hkt.com (203.210.4.91): icmp_seq=2 ttl=52 time=172 ms
64 bytes from 203-210-4-091.static.pccw-hkt.com (203.210.4.91): icmp_seq=2 ttl=52 time=172 ms
64 bytes from 203-210-4-091.static.pccw-hkt.com (203.210.4.91): icmp_seq=2 ttl=52 time=172 ms
64 bytes from 203-210-4-091.static.pccw-hkt.com (203.210.4.91): icmp_seq=3 ttl=52 time=174 ms
64 bytes from 203-210-4-091.static.pccw-hkt.com (203.210.4.91): icmp_seq=3 ttl=52 time=174 ms
64 bytes from 203-210-4-091.static.pccw-hkt.com (203.210.4.91): icmp_seq=3 ttl=52 time=174 ms
64 bytes from 203-210-4-091.static.pccw-hkt.com (203.210.4.91): icmp_seq=3 ttl=52 time=174 ms
64 bytes from 203-210-4-091.static.pccw-hkt.com (203.210.4.91): icmp_seq=3 ttl=52 time=174 ms
64 bytes from 203-210-4-091.static.pccw-hkt.com (203.210.4.91): icmp_seq=3 ttl=52 time=174 ms
64 bytes from 203-210-4-091.static.pccw-hkt.com (203.210.4.91): icmp_seq=3 ttl=52 time=174 ms
64 bytes from 203-210-4-091.static.pccw-hkt.com (203.210.4.91): icmp_seq=3 ttl=52 time=174 ms
64 bytes from 203-210-4-091.static.pccw-hkt.com (203.210.4.91): icmp_seq=3 ttl=52 time=174 ms
64 bytes from 203-210-4-091.static.pccw-hkt.com (203.210.4.91): icmp_seq=3 ttl=52 time=174 ms
64 bytes from 203-210-4-091.static.pccw-hkt.com (203.210.4.91): icmp_seq=4 ttl=52 time=172 ms
64 bytes from 203-210-4-091.static.pccw-hkt.com (203.210.4.91): icmp_seq=4 ttl=52 time=172 ms
64 bytes from 203-210-4-091.static.pccw-hkt.com (203.210.4.91): icmp_seq=4 ttl=52 time=172 ms
64 bytes from 203-210-4-091.static.pccw-hkt.com (203.210.4.91): icmp_seq=4 ttl=52 time=172 ms
64 bytes from 203-210-4-091.static.pccw-hkt.com (203.210.4.91): icmp_seq=4 ttl=52 time=172 ms
64 bytes from 203-210-4-091.static.pccw-hkt.com (203.210.4.91): icmp_seq=4 ttl=52 time=172 ms
64 bytes from 203-210-4-091.static.pccw-hkt.com (203.210.4.91): icmp_seq=4 ttl=52 time=172 ms
64 bytes from 203-210-4-091.static.pccw-hkt.com (203.210.4.91): icmp_seq=4 ttl=52 time=172 ms
64 bytes from 203-210-4-091.static.pccw-hkt.com (203.210.4.91): icmp_seq=4 ttl=52 time=172 ms
64 bytes from 203-210-4-091.static.pccw-hkt.com (203.210.4.91): icmp_seq=4 ttl=52 time=172 ms
64 bytes from 203-210-4-091.static.pccw-hkt.com (203.210.4.91): icmp_seq=5 ttl=52 time=172 ms
64 bytes from 203-210-4-091.static.pccw-hkt.com (203.210.4.91): icmp_seq=5 ttl=52 time=172 ms
64 bytes from 203-210-4-091.static.pccw-hkt.com (203.210.4.91): icmp_seq=5 ttl=52 time=171 ms
64 bytes from 203-210-4-091.static.pccw-hkt.com (203.210.4.91): icmp_seq=5 ttl=52 time=172 ms
64 bytes from 203-210-4-091.static.pccw-hkt.com (203.210.4.91): icmp_seq=5 ttl=52 time=172 ms
64 bytes from 203-210-4-091.static.pccw-hkt.com (203.210.4.91): icmp_seq=5 ttl=52 time=171 ms
64 bytes from 203-210-4-091.static.pccw-hkt.com (203.210.4.91): icmp_seq=5 ttl=52 time=171 ms
64 bytes from 203-210-4-091.static.pccw-hkt.com (203.210.4.91): icmp_seq=5 ttl=52 time=171 ms
64 bytes from 203-210-4-091.static.pccw-hkt.com (203.210.4.91): icmp_seq=5 ttl=52 time=171 ms
64 bytes from 203-210-4-091.static.pccw-hkt.com (203.210.4.91): icmp_seq=5 ttl=52 time=172 ms
64 bytes from 203-210-4-091.static.pccw-hkt.com (203.210.4.91): icmp_seq=6 ttl=52 time=172 ms
64 bytes from 203-210-4-091.static.pccw-hkt.com (203.210.4.91): icmp_seq=6 ttl=52 time=172 ms
64 bytes from 203-210-4-091.static.pccw-hkt.com (203.210.4.91): icmp_seq=6 ttl=52 time=172 ms
64 bytes from 203-210-4-091.static.pccw-hkt.com (203.210.4.91): icmp_seq=6 ttl=52 time=172 ms
64 bytes from 203-210-4-091.static.pccw-hkt.com (203.210.4.91): icmp_seq=6 ttl=52 time=172 ms
64 bytes from 203-210-4-091.static.pccw-hkt.com (203.210.4.91): icmp_seq=6 ttl=52 time=172 ms
64 bytes from 203-210-4-091.static.pccw-hkt.com (203.210.4.91): icmp_seq=6 ttl=52 time=171 ms
64 bytes from 203-210-4-091.static.pccw-hkt.com (203.210.4.91): icmp_seq=6 ttl=52 time=171 ms
64 bytes from 203-210-4-091.static.pccw-hkt.com (203.210.4.91): icmp_seq=6 ttl=52 time=171 ms
64 bytes from 203-210-4-091.static.pccw-hkt.com (203.210.4.91): icmp_seq=6 ttl=52 time=172 ms
64 bytes from 203-210-4-091.static.pccw-hkt.com (203.210.4.91): icmp_seq=7 ttl=52 time=172 ms
64 bytes from 203-210-4-091.static.pccw-hkt.com (203.210.4.91): icmp_seq=7 ttl=52 time=172 ms
64 bytes from 203-210-4-091.static.pccw-hkt.com (203.210.4.91): icmp_seq=7 ttl=52 time=172 ms
64 bytes from 203-210-4-091.static.pccw-hkt.com (203.210.4.91): icmp_seq=7 ttl=52 time=172 ms
64 bytes from 203-210-4-091.static.pccw-hkt.com (203.210.4.91): icmp_seq=7 ttl=52 time=172 ms
64 bytes from 203-210-4-091.static.pccw-hkt.com (203.210.4.91): icmp_seq=7 ttl=52 time=172 ms
64 bytes from 203-210-4-091.static.pccw-hkt.com (203.210.4.91): icmp_seq=7 ttl=52 time=172 ms
64 bytes from 203-210-4-091.static.pccw-hkt.com (203.210.4.91): icmp_seq=7 ttl=52 time=172 ms
64 bytes from 203-210-4-091.static.pccw-hkt.com (203.210.4.91): icmp_seq=7 ttl=52 time=172 ms
64 bytes from 203-210-4-091.static.pccw-hkt.com (203.210.4.91): icmp_seq=7 ttl=52 time=171 ms
64 bytes from 203-210-4-091.static.pccw-hkt.com (203.210.4.91): icmp_seq=8 ttl=52 time=171 ms
64 bytes from 203-210-4-091.static.pccw-hkt.com (203.210.4.91): icmp_seq=8 ttl=52 time=171 ms
64 bytes from 203-210-4-091.static.pccw-hkt.com (203.210.4.91): icmp_seq=8 ttl=52 time=171 ms
64 bytes from 203-210-4-091.static.pccw-hkt.com (203.210.4.91): icmp_seq=8 ttl=52 time=171 ms
64 bytes from 203-210-4-091.static.pccw-hkt.com (203.210.4.91): icmp_seq=8 ttl=52 time=171 ms
64 bytes from 203-210-4-091.static.pccw-hkt.com (203.210.4.91): icmp_seq=8 ttl=52 time=171 ms
64 bytes from 203-210-4-091.static.pccw-hkt.com (203.210.4.91): icmp_seq=8 ttl=52 time=171 ms
64 bytes from 203-210-4-091.static.pccw-hkt.com (203.210.4.91): icmp_seq=8 ttl=52 time=171 ms
64 bytes from 203-210-4-091.static.pccw-hkt.com (203.210.4.91): icmp_seq=8 ttl=52 time=171 ms
64 bytes from 203-210-4-091.static.pccw-hkt.com (203.210.4.91): icmp_seq=8 ttl=52 time=172 ms
64 bytes from 203-210-4-091.static.pccw-hkt.com (203.210.4.91): icmp_seq=9 ttl=52 time=172 ms
64 bytes from 203-210-4-091.static.pccw-hkt.com (203.210.4.91): icmp_seq=9 ttl=52 time=172 ms
64 bytes from 203-210-4-091.static.pccw-hkt.com (203.210.4.91): icmp_seq=9 ttl=52 time=171 ms
64 bytes from 203-210-4-091.static.pccw-hkt.com (203.210.4.91): icmp_seq=9 ttl=52 time=171 ms
64 bytes from 203-210-4-091.static.pccw-hkt.com (203.210.4.91): icmp_seq=9 ttl=52 time=171 ms
64 bytes from 203-210-4-091.static.pccw-hkt.com (203.210.4.91): icmp_seq=9 ttl=52 time=171 ms
64 bytes from 203-210-4-091.static.pccw-hkt.com (203.210.4.91): icmp_seq=9 ttl=52 time=172 ms
64 bytes from 203-210-4-091.static.pccw-hkt.com (203.210.4.91): icmp_seq=9 ttl=52 time=171 ms
64 bytes from 203-210-4-091.static.pccw-hkt.com (203.210.4.91): icmp_seq=9 ttl=52 time=171 ms
64 bytes from 203-210-4-091.static.pccw-hkt.com (203.210.4.91): icmp_seq=9 ttl=52 time=171 ms
64 bytes from 203-210-4-091.static.pccw-hkt.com (203.210.4.91): icmp_seq=10 ttl=52 time=172 ms
64 bytes from 203-210-4-091.static.pccw-hkt.com (203.210.4.91): icmp_seq=10 ttl=52 time=172 ms
64 bytes from 203-210-4-091.static.pccw-hkt.com (203.210.4.91): icmp_seq=10 ttl=52 time=172 ms
64 bytes from 203-210-4-091.static.pccw-hkt.com (203.210.4.91): icmp_seq=10 ttl=52 time=172 ms
64 bytes from 203-210-4-091.static.pccw-hkt.com (203.210.4.91): icmp_seq=10 ttl=52 time=172 ms
64 bytes from 203-210-4-091.static.pccw-hkt.com (203.210.4.91): icmp_seq=10 ttl=52 time=171 ms
64 bytes from 203-210-4-091.static.pccw-hkt.com (203.210.4.91): icmp_seq=10 ttl=52 time=171 ms
64 bytes from 203-210-4-091.static.pccw-hkt.com (203.210.4.91): icmp_seq=10 ttl=52 time=171 ms
64 bytes from 203-210-4-091.static.pccw-hkt.com (203.210.4.91): icmp_seq=10 ttl=52 time=171 ms
64 bytes from 203-210-4-091.static.pccw-hkt.com (203.210.4.91): icmp_seq=10 ttl=52 time=171 ms
64 bytes from 203-210-4-091.static.pccw-hkt.com (203.210.4.91): icmp_seq=11 ttl=52 time=172 ms
64 bytes from 203-210-4-091.static.pccw-hkt.com (203.210.4.91): icmp_seq=11 ttl=52 time=172 ms
64 bytes from 203-210-4-091.static.pccw-hkt.com (203.210.4.91): icmp_seq=11 ttl=52 time=172 ms
64 bytes from 203-210-4-091.static.pccw-hkt.com (203.210.4.91): icmp_seq=11 ttl=52 time=172 ms
64 bytes from 203-210-4-091.static.pccw-hkt.com (203.210.4.91): icmp_seq=11 ttl=52 time=172 ms
64 bytes from 203-210-4-091.static.pccw-hkt.com (203.210.4.91): icmp_seq=11 ttl=52 time=172 ms
64 bytes from 203-210-4-091.static.pccw-hkt.com (203.210.4.91): icmp_seq=11 ttl=52 time=172 ms
64 bytes from 203-210-4-091.static.pccw-hkt.com (203.210.4.91): icmp_seq=11 ttl=52 time=172 ms
64 bytes from 203-210-4-091.static.pccw-hkt.com (203.210.4.91): icmp_seq=11 ttl=52 time=172 ms
64 bytes from 203-210-4-091.static.pccw-hkt.com (203.210.4.91): icmp_seq=11 ttl=52 time=172 ms
64 bytes from 203-210-4-091.static.pccw-hkt.com (203.210.4.91): icmp_seq=12 ttl=52 time=172 ms
64 bytes from 203-210-4-091.static.pccw-hkt.com (203.210.4.91): icmp_seq=12 ttl=52 time=172 ms
64 bytes from 203-210-4-091.static.pccw-hkt.com (203.210.4.91): icmp_seq=12 ttl=52 time=172 ms
64 bytes from 203-210-4-091.static.pccw-hkt.com (203.210.4.91): icmp_seq=12 ttl=52 time=172 ms
64 bytes from 203-210-4-091.static.pccw-hkt.com (203.210.4.91): icmp_seq=12 ttl=52 time=172 ms
64 bytes from 203-210-4-091.static.pccw-hkt.com (203.210.4.91): icmp_seq=12 ttl=52 time=172 ms
64 bytes from 203-210-4-091.static.pccw-hkt.com (203.210.4.91): icmp_seq=12 ttl=52 time=172 ms
64 bytes from 203-210-4-091.static.pccw-hkt.com (203.210.4.91): icmp_seq=12 ttl=52 time=171 ms
64 bytes from 203-210-4-091.static.pccw-hkt.com (203.210.4.91): icmp_seq=12 ttl=52 time=171 ms
64 bytes from 203-210-4-091.static.pccw-hkt.com (203.210.4.91): icmp_seq=12 ttl=52 time=171 ms
64 bytes from 203-210-4-091.static.pccw-hkt.com (203.210.4.91): icmp_seq=13 ttl=52 time=172 ms
64 bytes from 203-210-4-091.static.pccw-hkt.com (203.210.4.91): icmp_seq=13 ttl=52 time=172 ms
64 bytes from 203-210-4-091.static.pccw-hkt.com (203.210.4.91): icmp_seq=13 ttl=52 time=172 ms
64 bytes from 203-210-4-091.static.pccw-hkt.com (203.210.4.91): icmp_seq=13 ttl=52 time=172 ms
64 bytes from 203-210-4-091.static.pccw-hkt.com (203.210.4.91): icmp_seq=13 ttl=52 time=172 ms
64 bytes from 203-210-4-091.static.pccw-hkt.com (203.210.4.91): icmp_seq=13 ttl=52 time=172 ms
64 bytes from 203-210-4-091.static.pccw-hkt.com (203.210.4.91): icmp_seq=13 ttl=52 time=172 ms
64 bytes from 203-210-4-091.static.pccw-hkt.com (203.210.4.91): icmp_seq=13 ttl=52 time=172 ms
64 bytes from 203-210-4-091.static.pccw-hkt.com (203.210.4.91): icmp_seq=13 ttl=52 time=172 ms
64 bytes from 203-210-4-091.static.pccw-hkt.com (203.210.4.91): icmp_seq=13 ttl=52 time=172 ms
64 bytes from 203-210-4-091.static.pccw-hkt.com (203.210.4.91): icmp_seq=14 ttl=52 time=172 ms
64 bytes from 203-210-4-091.static.pccw-hkt.com (203.210.4.91): icmp_seq=14 ttl=52 time=172 ms
64 bytes from 203-210-4-091.static.pccw-hkt.com (203.210.4.91): icmp_seq=14 ttl=52 time=172 ms
64 bytes from 203-210-4-091.static.pccw-hkt.com (203.210.4.91): icmp_seq=14 ttl=52 time=172 ms
64 bytes from 203-210-4-091.static.pccw-hkt.com (203.210.4.91): icmp_seq=14 ttl=52 time=172 ms
64 bytes from 203-210-4-091.static.pccw-hkt.com (203.210.4.91): icmp_seq=14 ttl=52 time=172 ms
64 bytes from 203-210-4-091.static.pccw-hkt.com (203.210.4.91): icmp_seq=14 ttl=52 time=173 ms
64 bytes from 203-210-4-091.static.pccw-hkt.com (203.210.4.91): icmp_seq=14 ttl=52 time=172 ms
64 bytes from 203-210-4-091.static.pccw-hkt.com (203.210.4.91): icmp_seq=14 ttl=52 time=172 ms
64 bytes from 203-210-4-091.static.pccw-hkt.com (203.210.4.91): icmp_seq=14 ttl=52 time=172 ms
64 bytes from 203-210-4-091.static.pccw-hkt.com (203.210.4.91): icmp_seq=15 ttl=52 time=172 ms
64 bytes from 203-210-4-091.static.pccw-hkt.com (203.210.4.91): icmp_seq=15 ttl=52 time=172 ms
64 bytes from 203-210-4-091.static.pccw-hkt.com (203.210.4.91): icmp_seq=15 ttl=52 time=172 ms
64 bytes from 203-210-4-091.static.pccw-hkt.com (203.210.4.91): icmp_seq=15 ttl=52 time=172 ms
64 bytes from 203-210-4-091.static.pccw-hkt.com (203.210.4.91): icmp_seq=15 ttl=52 time=172 ms
64 bytes from 203-210-4-091.static.pccw-hkt.com (203.210.4.91): icmp_seq=15 ttl=52 time=172 ms
64 bytes from 203-210-4-091.static.pccw-hkt.com (203.210.4.91): icmp_seq=15 ttl=52 time=172 ms
64 bytes from 203-210-4-091.static.pccw-hkt.com (203.210.4.91): icmp_seq=15 ttl=52 time=172 ms
64 bytes from 203-210-4-091.static.pccw-hkt.com (203.210.4.91): icmp_seq=15 ttl=52 time=172 ms
64 bytes from 203-210-4-091.static.pccw-hkt.com (203.210.4.91): icmp_seq=15 ttl=52 time=172 ms
64 bytes from 203-210-4-091.static.pccw-hkt.com (203.210.4.91): icmp_seq=16 ttl=52 time=172 ms
64 bytes from 203-210-4-091.static.pccw-hkt.com (203.210.4.91): icmp_seq=16 ttl=52 time=172 ms
64 bytes from 203-210-4-091.static.pccw-hkt.com (203.210.4.91): icmp_seq=16 ttl=52 time=172 ms
64 bytes from 203-210-4-091.static.pccw-hkt.com (203.210.4.91): icmp_seq=16 ttl=52 time=172 ms
64 bytes from 203-210-4-091.static.pccw-hkt.com (203.210.4.91): icmp_seq=16 ttl=52 time=172 ms
64 bytes from 203-210-4-091.static.pccw-hkt.com (203.210.4.91): icmp_seq=16 ttl=52 time=172 ms
64 bytes from 203-210-4-091.static.pccw-hkt.com (203.210.4.91): icmp_seq=16 ttl=52 time=172 ms
64 bytes from 203-210-4-091.static.pccw-hkt.com (203.210.4.91): icmp_seq=16 ttl=52 time=172 ms
64 bytes from 203-210-4-091.static.pccw-hkt.com (203.210.4.91): icmp_seq=16 ttl=52 time=172 ms
64 bytes from 203-210-4-091.static.pccw-hkt.com (203.210.4.91): icmp_seq=16 ttl=52 time=172 ms
64 bytes from 203-210-4-091.static.pccw-hkt.com (203.210.4.91): icmp_seq=17 ttl=52 time=172 ms
64 bytes from 203-210-4-091.static.pccw-hkt.com (203.210.4.91): icmp_seq=17 ttl=52 time=172 ms
64 bytes from 203-210-4-091.static.pccw-hkt.com (203.210.4.91): icmp_seq=17 ttl=52 time=172 ms
64 bytes from 203-210-4-091.static.pccw-hkt.com (203.210.4.91): icmp_seq=17 ttl=52 time=172 ms
64 bytes from 203-210-4-091.static.pccw-hkt.com (203.210.4.91): icmp_seq=17 ttl=52 time=172 ms
64 bytes from 203-210-4-091.static.pccw-hkt.com (203.210.4.91): icmp_seq=17 ttl=52 time=172 ms
64 bytes from 203-210-4-091.static.pccw-hkt.com (203.210.4.91): icmp_seq=17 ttl=52 time=172 ms
64 bytes from 203-210-4-091.static.pccw-hkt.com (203.210.4.91): icmp_seq=17 ttl=52 time=172 ms
64 bytes from 203-210-4-091.static.pccw-hkt.com (203.210.4.91): icmp_seq=17 ttl=52 time=172 ms
64 bytes from 203-210-4-091.static.pccw-hkt.com (203.210.4.91): icmp_seq=17 ttl=52 time=172 ms
64 bytes from 203-210-4-091.static.pccw-hkt.com (203.210.4.91): icmp_seq=18 ttl=52 time=172 ms
64 bytes from 203-210-4-091.static.pccw-hkt.com (203.210.4.91): icmp_seq=18 ttl=52 time=172 ms
64 bytes from 203-210-4-091.static.pccw-hkt.com (203.210.4.91): icmp_seq=18 ttl=52 time=172 ms
64 bytes from 203-210-4-091.static.pccw-hkt.com (203.210.4.91): icmp_seq=18 ttl=52 time=172 ms
64 bytes from 203-210-4-091.static.pccw-hkt.com (203.210.4.91): icmp_seq=18 ttl=52 time=172 ms
64 bytes from 203-210-4-091.static.pccw-hkt.com (203.210.4.91): icmp_seq=18 ttl=52 time=172 ms
64 bytes from 203-210-4-091.static.pccw-hkt.com (203.210.4.91): icmp_seq=18 ttl=52 time=172 ms
64 bytes from 203-210-4-091.static.pccw-hkt.com (203.210.4.91): icmp_seq=18 ttl=52 time=172 ms
64 bytes from 203-210-4-091.static.pccw-hkt.com (203.210.4.91): icmp_seq=18 ttl=52 time=172 ms
64 bytes from 203-210-4-091.static.pccw-hkt.com (203.210.4.91): icmp_seq=18 ttl=52 time=172 ms
64 bytes from 203-210-4-091.static.pccw-hkt.com (203.210.4.91): icmp_seq=19 ttl=52 time=172 ms
64 bytes from 203-210-4-091.static.pccw-hkt.com (203.210.4.91): icmp_seq=19 ttl=52 time=172 ms
64 bytes from 203-210-4-091.static.pccw-hkt.com (203.210.4.91): icmp_seq=19 ttl=52 time=172 ms
64 bytes from 203-210-4-091.static.pccw-hkt.com (203.210.4.91): icmp_seq=19 ttl=52 time=172 ms
64 bytes from 203-210-4-091.static.pccw-hkt.com (203.210.4.91): icmp_seq=19 ttl=52 time=172 ms
64 bytes from 203-210-4-091.static.pccw-hkt.com (203.210.4.91): icmp_seq=19 ttl=52 time=172 ms
64 bytes from 203-210-4-091.static.pccw-hkt.com (203.210.4.91): icmp_seq=19 ttl=52 time=172 ms
64 bytes from 203-210-4-091.static.pccw-hkt.com (203.210.4.91): icmp_seq=19 ttl=52 time=172 ms
64 bytes from 203-210-4-091.static.pccw-hkt.com (203.210.4.91): icmp_seq=19 ttl=52 time=172 ms
64 bytes from 203-210-4-091.static.pccw-hkt.com (203.210.4.91): icmp_seq=19 ttl=52 time=172 ms
64 bytes from 203-210-4-091.static.pccw-hkt.com (203.210.4.91): icmp_seq=20 ttl=52 time=172 ms
64 bytes from 203-210-4-091.static.pccw-hkt.com (203.210.4.91): icmp_seq=20 ttl=52 time=172 ms
64 bytes from 203-210-4-091.static.pccw-hkt.com (203.210.4.91): icmp_seq=20 ttl=52 time=172 ms
64 bytes from 203-210-4-091.static.pccw-hkt.com (203.210.4.91): icmp_seq=20 ttl=52 time=172 ms
64 bytes from 203-210-4-091.static.pccw-hkt.com (203.210.4.91): icmp_seq=20 ttl=52 time=172 ms
64 bytes from 203-210-4-091.static.pccw-hkt.com (203.210.4.91): icmp_seq=20 ttl=52 time=172 ms
64 bytes from 203-210-4-091.static.pccw-hkt.com (203.210.4.91): icmp_seq=20 ttl=52 time=172 ms
64 bytes from 203-210-4-091.static.pccw-hkt.com (203.210.4.91): icmp_seq=20 ttl=52 time=172 ms
64 bytes from 203-210-4-091.static.pccw-hkt.com (203.210.4.91): icmp_seq=20 ttl=52 time=172 ms
64 bytes from 203-210-4-091.static.pccw-hkt.com (203.210.4.91): icmp_seq=20 ttl=52 time=172 ms
64 bytes from 203-210-4-091.static.pccw-hkt.com (203.210.4.91): icmp_seq=21 ttl=52 time=172 ms
64 bytes from 203-210-4-091.static.pccw-hkt.com (203.210.4.91): icmp_seq=21 ttl=52 time=172 ms
64 bytes from 203-210-4-091.static.pccw-hkt.com (203.210.4.91): icmp_seq=21 ttl=52 time=172 ms
64 bytes from 203-210-4-091.static.pccw-hkt.com (203.210.4.91): icmp_seq=21 ttl=52 time=172 ms
64 bytes from 203-210-4-091.static.pccw-hkt.com (203.210.4.91): icmp_seq=21 ttl=52 time=172 ms
64 bytes from 203-210-4-091.static.pccw-hkt.com (203.210.4.91): icmp_seq=21 ttl=52 time=172 ms
64 bytes from 203-210-4-091.static.pccw-hkt.com (203.210.4.91): icmp_seq=21 ttl=52 time=172 ms
64 bytes from 203-210-4-091.static.pccw-hkt.com (203.210.4.91): icmp_seq=21 ttl=52 time=172 ms
64 bytes from 203-210-4-091.static.pccw-hkt.com (203.210.4.91): icmp_seq=21 ttl=52 time=172 ms
64 bytes from 203-210-4-091.static.pccw-hkt.com (203.210.4.91): icmp_seq=21 ttl=52 time=172 ms
64 bytes from 203-210-4-091.static.pccw-hkt.com (203.210.4.91): icmp_seq=22 ttl=52 time=172 ms
64 bytes from 203-210-4-091.static.pccw-hkt.com (203.210.4.91): icmp_seq=22 ttl=52 time=172 ms
64 bytes from 203-210-4-091.static.pccw-hkt.com (203.210.4.91): icmp_seq=22 ttl=52 time=172 ms
64 bytes from 203-210-4-091.static.pccw-hkt.com (203.210.4.91): icmp_seq=22 ttl=52 time=172 ms
64 bytes from 203-210-4-091.static.pccw-hkt.com (203.210.4.91): icmp_seq=22 ttl=52 time=172 ms
64 bytes from 203-210-4-091.static.pccw-hkt.com (203.210.4.91): icmp_seq=22 ttl=52 time=172 ms
64 bytes from 203-210-4-091.static.pccw-hkt.com (203.210.4.91): icmp_seq=22 ttl=52 time=172 ms
64 bytes from 203-210-4-091.static.pccw-hkt.com (203.210.4.91): icmp_seq=22 ttl=52 time=172 ms
64 bytes from 203-210-4-091.static.pccw-hkt.com (203.210.4.91): icmp_seq=22 ttl=52 time=172 ms
64 bytes from 203-210-4-091.static.pccw-hkt.com (203.210.4.91): icmp_seq=22 ttl=52 time=172 ms
64 bytes from 203-210-4-091.static.pccw-hkt.com (203.210.4.91): icmp_seq=23 ttl=52 time=172 ms
64 bytes from 203-210-4-091.static.pccw-hkt.com (203.210.4.91): icmp_seq=23 ttl=52 time=172 ms
64 bytes from 203-210-4-091.static.pccw-hkt.com (203.210.4.91): icmp_seq=23 ttl=52 time=172 ms
64 bytes from 203-210-4-091.static.pccw-hkt.com (203.210.4.91): icmp_seq=23 ttl=52 time=172 ms
64 bytes from 203-210-4-091.static.pccw-hkt.com (203.210.4.91): icmp_seq=23 ttl=52 time=172 ms
64 bytes from 203-210-4-091.static.pccw-hkt.com (203.210.4.91): icmp_seq=23 ttl=52 time=172 ms
64 bytes from 203-210-4-091.static.pccw-hkt.com (203.210.4.91): icmp_seq=23 ttl=52 time=172 ms
64 bytes from 203-210-4-091.static.pccw-hkt.com (203.210.4.91): icmp_seq=23 ttl=52 time=172 ms
64 bytes from 203-210-4-091.static.pccw-hkt.com (203.210.4.91): icmp_seq=23 ttl=52 time=172 ms
64 bytes from 203-210-4-091.static.pccw-hkt.com (203.210.4.91): icmp_seq=23 ttl=52 time=172 ms
64 bytes from 203-210-4-091.static.pccw-hkt.com (203.210.4.91): icmp_seq=24 ttl=52 time=172 ms
64 bytes from 203-210-4-091.static.pccw-hkt.com (203.210.4.91): icmp_seq=24 ttl=52 time=172 ms
64 bytes from 203-210-4-091.static.pccw-hkt.com (203.210.4.91): icmp_seq=24 ttl=52 time=172 ms
64 bytes from 203-210-4-091.static.pccw-hkt.com (203.210.4.91): icmp_seq=24 ttl=52 time=172 ms
64 bytes from 203-210-4-091.static.pccw-hkt.com (203.210.4.91): icmp_seq=24 ttl=52 time=172 ms
64 bytes from 203-210-4-091.static.pccw-hkt.com (203.210.4.91): icmp_seq=24 ttl=52 time=172 ms
64 bytes from 203-210-4-091.static.pccw-hkt.com (203.210.4.91): icmp_seq=24 ttl=52 time=172 ms
64 bytes from 203-210-4-091.static.pccw-hkt.com (203.210.4.91): icmp_seq=24 ttl=52 time=172 ms
64 bytes from 203-210-4-091.static.pccw-hkt.com (203.210.4.91): icmp_seq=24 ttl=52 time=172 ms
64 bytes from 203-210-4-091.static.pccw-hkt.com (203.210.4.91): icmp_seq=24 ttl=52 time=172 ms
64 bytes from 203-210-4-091.static.pccw-hkt.com (203.210.4.91): icmp_seq=25 ttl=52 time=174 ms
64 bytes from 203-210-4-091.static.pccw-hkt.com (203.210.4.91): icmp_seq=25 ttl=52 time=174 ms
64 bytes from 203-210-4-091.static.pccw-hkt.com (203.210.4.91): icmp_seq=25 ttl=52 time=174 ms
64 bytes from 203-210-4-091.static.pccw-hkt.com (203.210.4.91): icmp_seq=25 ttl=52 time=174 ms
64 bytes from 203-210-4-091.static.pccw-hkt.com (203.210.4.91): icmp_seq=25 ttl=52 time=174 ms
64 bytes from 203-210-4-091.static.pccw-hkt.com (203.210.4.91): icmp_seq=25 ttl=52 time=174 ms
64 bytes from 203-210-4-091.static.pccw-hkt.com (203.210.4.91): icmp_seq=25 ttl=52 time=174 ms
64 bytes from 203-210-4-091.static.pccw-hkt.com (203.210.4.91): icmp_seq=25 ttl=52 time=174 ms
64 bytes from 203-210-4-091.static.pccw-hkt.com (203.210.4.91): icmp_seq=25 ttl=52 time=174 ms
64 bytes from 203-210-4-091.static.pccw-hkt.com (203.210.4.91): icmp_seq=25 ttl=52 time=174 ms
64 bytes from 203-210-4-091.static.pccw-hkt.com (203.210.4.91): icmp_seq=26 ttl=52 time=172 ms
64 bytes from 203-210-4-091.static.pccw-hkt.com (203.210.4.91): icmp_seq=26 ttl=52 time=172 ms
64 bytes from 203-210-4-091.static.pccw-hkt.com (203.210.4.91): icmp_seq=26 ttl=52 time=172 ms
64 bytes from 203-210-4-091.static.pccw-hkt.com (203.210.4.91): icmp_seq=26 ttl=52 time=172 ms
64 bytes from 203-210-4-091.static.pccw-hkt.com (203.210.4.91): icmp_seq=26 ttl=52 time=172 ms
64 bytes from 203-210-4-091.static.pccw-hkt.com (203.210.4.91): icmp_seq=26 ttl=52 time=172 ms
64 bytes from 203-210-4-091.static.pccw-hkt.com (203.210.4.91): icmp_seq=26 ttl=52 time=172 ms
64 bytes from 203-210-4-091.static.pccw-hkt.com (203.210.4.91): icmp_seq=26 ttl=52 time=172 ms
64 bytes from 203-210-4-091.static.pccw-hkt.com (203.210.4.91): icmp_seq=26 ttl=52 time=172 ms
64 bytes from 203-210-4-091.static.pccw-hkt.com (203.210.4.91): icmp_seq=26 ttl=52 time=172 ms
64 bytes from 203-210-4-091.static.pccw-hkt.com (203.210.4.91): icmp_seq=27 ttl=52 time=172 ms
64 bytes from 203-210-4-091.static.pccw-hkt.com (203.210.4.91): icmp_seq=27 ttl=52 time=172 ms
64 bytes from 203-210-4-091.static.pccw-hkt.com (203.210.4.91): icmp_seq=27 ttl=52 time=172 ms
64 bytes from 203-210-4-091.static.pccw-hkt.com (203.210.4.91): icmp_seq=27 ttl=52 time=172 ms
64 bytes from 203-210-4-091.static.pccw-hkt.com (203.210.4.91): icmp_seq=27 ttl=52 time=172 ms
64 bytes from 203-210-4-091.static.pccw-hkt.com (203.210.4.91): icmp_seq=27 ttl=52 time=172 ms
64 bytes from 203-210-4-091.static.pccw-hkt.com (203.210.4.91): icmp_seq=27 ttl=52 time=172 ms
64 bytes from 203-210-4-091.static.pccw-hkt.com (203.210.4.91): icmp_seq=27 ttl=52 time=172 ms
64 bytes from 203-210-4-091.static.pccw-hkt.com (203.210.4.91): icmp_seq=27 ttl=52 time=172 ms
64 bytes from 203-210-4-091.static.pccw-hkt.com (203.210.4.91): icmp_seq=27 ttl=52 time=172 ms
64 bytes from 203-210-4-091.static.pccw-hkt.com (203.210.4.91): icmp_seq=28 ttl=52 time=172 ms
64 bytes from 203-210-4-091.static.pccw-hkt.com (203.210.4.91): icmp_seq=28 ttl=52 time=172 ms
64 bytes from 203-210-4-091.static.pccw-hkt.com (203.210.4.91): icmp_seq=28 ttl=52 time=172 ms
64 bytes from 203-210-4-091.static.pccw-hkt.com (203.210.4.91): icmp_seq=28 ttl=52 time=172 ms
64 bytes from 203-210-4-091.static.pccw-hkt.com (203.210.4.91): icmp_seq=28 ttl=52 time=172 ms
64 bytes from 203-210-4-091.static.pccw-hkt.com (203.210.4.91): icmp_seq=28 ttl=52 time=172 ms
64 bytes from 203-210-4-091.static.pccw-hkt.com (203.210.4.91): icmp_seq=28 ttl=52 time=172 ms
64 bytes from 203-210-4-091.static.pccw-hkt.com (203.210.4.91): icmp_seq=28 ttl=52 time=172 ms
64 bytes from 203-210-4-091.static.pccw-hkt.com (203.210.4.91): icmp_seq=28 ttl=52 time=172 ms
64 bytes from 203-210-4-091.static.pccw-hkt.com (203.210.4.91): icmp_seq=28 ttl=52 time=172 ms
64 bytes from 203-210-4-091.static.pccw-hkt.com (203.210.4.91): icmp_seq=29 ttl=52 time=172 ms
64 bytes from 203-210-4-091.static.pccw-hkt.com (203.210.4.91): icmp_seq=29 ttl=52 time=172 ms
64 bytes from 203-210-4-091.static.pccw-hkt.com (203.210.4.91): icmp_seq=29 ttl=52 time=172 ms
64 bytes from 203-210-4-091.static.pccw-hkt.com (203.210.4.91): icmp_seq=29 ttl=52 time=172 ms
64 bytes from 203-210-4-091.static.pccw-hkt.com (203.210.4.91): icmp_seq=29 ttl=52 time=172 ms
64 bytes from 203-210-4-091.static.pccw-hkt.com (203.210.4.91): icmp_seq=29 ttl=52 time=172 ms
64 bytes from 203-210-4-091.static.pccw-hkt.com (203.210.4.91): icmp_seq=29 ttl=52 time=172 ms
64 bytes from 203-210-4-091.static.pccw-hkt.com (203.210.4.91): icmp_seq=29 ttl=52 time=172 ms
64 bytes from 203-210-4-091.static.pccw-hkt.com (203.210.4.91): icmp_seq=29 ttl=52 time=172 ms
64 bytes from 203-210-4-091.static.pccw-hkt.com (203.210.4.91): icmp_seq=29 ttl=52 time=172 ms
64 bytes from 203-210-4-091.static.pccw-hkt.com (203.210.4.91): icmp_seq=30 ttl=52 time=172 ms
64 bytes from 203-210-4-091.static.pccw-hkt.com (203.210.4.91): icmp_seq=30 ttl=52 time=172 ms
64 bytes from 203-210-4-091.static.pccw-hkt.com (203.210.4.91): icmp_seq=30 ttl=52 time=172 ms
64 bytes from 203-210-4-091.static.pccw-hkt.com (203.210.4.91): icmp_seq=30 ttl=52 time=172 ms
64 bytes from 203-210-4-091.static.pccw-hkt.com (203.210.4.91): icmp_seq=30 ttl=52 time=172 ms
64 bytes from 203-210-4-091.static.pccw-hkt.com (203.210.4.91): icmp_seq=30 ttl=52 time=172 ms
64 bytes from 203-210-4-091.static.pccw-hkt.com (203.210.4.91): icmp_seq=30 ttl=52 time=172 ms
64 bytes from 203-210-4-091.static.pccw-hkt.com (203.210.4.91): icmp_seq=30 ttl=52 time=172 ms
64 bytes from 203-210-4-091.static.pccw-hkt.com (203.210.4.91): icmp_seq=30 ttl=52 time=172 ms
64 bytes from 203-210-4-091.static.pccw-hkt.com (203.210.4.91): icmp_seq=30 ttl=52 time=172 ms
64 bytes from 203-210-4-091.static.pccw-hkt.com (203.210.4.91): icmp_seq=31 ttl=52 time=172 ms
64 bytes from 203-210-4-091.static.pccw-hkt.com (203.210.4.91): icmp_seq=31 ttl=52 time=172 ms
64 bytes from 203-210-4-091.static.pccw-hkt.com (203.210.4.91): icmp_seq=31 ttl=52 time=172 ms
64 bytes from 203-210-4-091.static.pccw-hkt.com (203.210.4.91): icmp_seq=31 ttl=52 time=172 ms
64 bytes from 203-210-4-091.static.pccw-hkt.com (203.210.4.91): icmp_seq=31 ttl=52 time=172 ms
64 bytes from 203-210-4-091.static.pccw-hkt.com (203.210.4.91): icmp_seq=31 ttl=52 time=172 ms
64 bytes from 203-210-4-091.static.pccw-hkt.com (203.210.4.91): icmp_seq=31 ttl=52 time=172 ms
64 bytes from 203-210-4-091.static.pccw-hkt.com (203.210.4.91): icmp_seq=31 ttl=52 time=172 ms
64 bytes from 203-210-4-091.static.pccw-hkt.com (203.210.4.91): icmp_seq=31 ttl=52 time=172 ms
64 bytes from 203-210-4-091.static.pccw-hkt.com (203.210.4.91): icmp_seq=31 ttl=52 time=172 ms
64 bytes from 203-210-4-091.static.pccw-hkt.com (203.210.4.91): icmp_seq=32 ttl=52 time=172 ms
64 bytes from 203-210-4-091.static.pccw-hkt.com (203.210.4.91): icmp_seq=32 ttl=52 time=172 ms
64 bytes from 203-210-4-091.static.pccw-hkt.com (203.210.4.91): icmp_seq=32 ttl=52 time=172 ms
64 bytes from 203-210-4-091.static.pccw-hkt.com (203.210.4.91): icmp_seq=32 ttl=52 time=172 ms
64 bytes from 203-210-4-091.static.pccw-hkt.com (203.210.4.91): icmp_seq=32 ttl=52 time=172 ms
64 bytes from 203-210-4-091.static.pccw-hkt.com (203.210.4.91): icmp_seq=32 ttl=52 time=172 ms
64 bytes from 203-210-4-091.static.pccw-hkt.com (203.210.4.91): icmp_seq=32 ttl=52 time=172 ms
64 bytes from 203-210-4-091.static.pccw-hkt.com (203.210.4.91): icmp_seq=32 ttl=52 time=172 ms
64 bytes from 203-210-4-091.static.pccw-hkt.com (203.210.4.91): icmp_seq=32 ttl=52 time=172 ms
64 bytes from 203-210-4-091.static.pccw-hkt.com (203.210.4.91): icmp_seq=32 ttl=52 time=172 ms
64 bytes from 203-210-4-091.static.pccw-hkt.com (203.210.4.91): icmp_seq=33 ttl=52 time=172 ms
64 bytes from 203-210-4-091.static.pccw-hkt.com (203.210.4.91): icmp_seq=33 ttl=52 time=172 ms
64 bytes from 203-210-4-091.static.pccw-hkt.com (203.210.4.91): icmp_seq=33 ttl=52 time=172 ms
64 bytes from 203-210-4-091.static.pccw-hkt.com (203.210.4.91): icmp_seq=33 ttl=52 time=172 ms
64 bytes from 203-210-4-091.static.pccw-hkt.com (203.210.4.91): icmp_seq=33 ttl=52 time=172 ms
64 bytes from 203-210-4-091.static.pccw-hkt.com (203.210.4.91): icmp_seq=33 ttl=52 time=172 ms
64 bytes from 203-210-4-091.static.pccw-hkt.com (203.210.4.91): icmp_seq=33 ttl=52 time=172 ms
64 bytes from 203-210-4-091.static.pccw-hkt.com (203.210.4.91): icmp_seq=33 ttl=52 time=172 ms
64 bytes from 203-210-4-091.static.pccw-hkt.com (203.210.4.91): icmp_seq=33 ttl=52 time=172 ms
64 bytes from 203-210-4-091.static.pccw-hkt.com (203.210.4.91): icmp_seq=33 ttl=52 time=172 ms
64 bytes from 203-210-4-091.static.pccw-hkt.com (203.210.4.91): icmp_seq=34 ttl=52 time=172 ms
64 bytes from 203-210-4-091.static.pccw-hkt.com (203.210.4.91): icmp_seq=34 ttl=52 time=172 ms
64 bytes from 203-210-4-091.static.pccw-hkt.com (203.210.4.91): icmp_seq=34 ttl=52 time=172 ms
64 bytes from 203-210-4-091.static.pccw-hkt.com (203.210.4.91): icmp_seq=34 ttl=52 time=172 ms
64 bytes from 203-210-4-091.static.pccw-hkt.com (203.210.4.91): icmp_seq=34 ttl=52 time=172 ms
64 bytes from 203-210-4-091.static.pccw-hkt.com (203.210.4.91): icmp_seq=34 ttl=52 time=172 ms
64 bytes from 203-210-4-091.static.pccw-hkt.com (203.210.4.91): icmp_seq=34 ttl=52 time=172 ms
64 bytes from 203-210-4-091.static.pccw-hkt.com (203.210.4.91): icmp_seq=34 ttl=52 time=172 ms
64 bytes from 203-210-4-091.static.pccw-hkt.com (203.210.4.91): icmp_seq=34 ttl=52 time=172 ms
64 bytes from 203-210-4-091.static.pccw-hkt.com (203.210.4.91): icmp_seq=34 ttl=52 time=172 ms
64 bytes from 203-210-4-091.static.pccw-hkt.com (203.210.4.91): icmp_seq=35 ttl=52 time=172 ms
64 bytes from 203-210-4-091.static.pccw-hkt.com (203.210.4.91): icmp_seq=35 ttl=52 time=172 ms
64 bytes from 203-210-4-091.static.pccw-hkt.com (203.210.4.91): icmp_seq=35 ttl=52 time=172 ms
64 bytes from 203-210-4-091.static.pccw-hkt.com (203.210.4.91): icmp_seq=35 ttl=52 time=172 ms
64 bytes from 203-210-4-091.static.pccw-hkt.com (203.210.4.91): icmp_seq=35 ttl=52 time=172 ms
64 bytes from 203-210-4-091.static.pccw-hkt.com (203.210.4.91): icmp_seq=35 ttl=52 time=172 ms
64 bytes from 203-210-4-091.static.pccw-hkt.com (203.210.4.91): icmp_seq=35 ttl=52 time=172 ms
64 bytes from 203-210-4-091.static.pccw-hkt.com (203.210.4.91): icmp_seq=35 ttl=52 time=172 ms
64 bytes from 203-210-4-091.static.pccw-hkt.com (203.210.4.91): icmp_seq=35 ttl=52 time=172 ms
64 bytes from 203-210-4-091.static.pccw-hkt.com (203.210.4.91): icmp_seq=35 ttl=52 time=172 ms
64 bytes from 203-210-4-091.static.pccw-hkt.com (203.210.4.91): icmp_seq=36 ttl=52 time=172 ms
64 bytes from 203-210-4-091.static.pccw-hkt.com (203.210.4.91): icmp_seq=36 ttl=52 time=172 ms
64 bytes from 203-210-4-091.static.pccw-hkt.com (203.210.4.91): icmp_seq=36 ttl=52 time=172 ms
64 bytes from 203-210-4-091.static.pccw-hkt.com (203.210.4.91): icmp_seq=36 ttl=52 time=172 ms
64 bytes from 203-210-4-091.static.pccw-hkt.com (203.210.4.91): icmp_seq=36 ttl=52 time=172 ms
64 bytes from 203-210-4-091.static.pccw-hkt.com (203.210.4.91): icmp_seq=36 ttl=52 time=172 ms
64 bytes from 203-210-4-091.static.pccw-hkt.com (203.210.4.91): icmp_seq=36 ttl=52 time=172 ms
64 bytes from 203-210-4-091.static.pccw-hkt.com (203.210.4.91): icmp_seq=36 ttl=52 time=172 ms
64 bytes from 203-210-4-091.static.pccw-hkt.com (203.210.4.91): icmp_seq=36 ttl=52 time=172 ms
64 bytes from 203-210-4-091.static.pccw-hkt.com (203.210.4.91): icmp_seq=36 ttl=52 time=172 ms
64 bytes from 203-210-4-091.static.pccw-hkt.com (203.210.4.91): icmp_seq=37 ttl=52 time=172 ms
64 bytes from 203-210-4-091.static.pccw-hkt.com (203.210.4.91): icmp_seq=37 ttl=52 time=172 ms
64 bytes from 203-210-4-091.static.pccw-hkt.com (203.210.4.91): icmp_seq=37 ttl=52 time=172 ms
64 bytes from 203-210-4-091.static.pccw-hkt.com (203.210.4.91): icmp_seq=37 ttl=52 time=172 ms
64 bytes from 203-210-4-091.static.pccw-hkt.com (203.210.4.91): icmp_seq=37 ttl=52 time=172 ms
64 bytes from 203-210-4-091.static.pccw-hkt.com (203.210.4.91): icmp_seq=37 ttl=52 time=172 ms
64 bytes from 203-210-4-091.static.pccw-hkt.com (203.210.4.91): icmp_seq=37 ttl=52 time=172 ms
64 bytes from 203-210-4-091.static.pccw-hkt.com (203.210.4.91): icmp_seq=37 ttl=52 time=172 ms
64 bytes from 203-210-4-091.static.pccw-hkt.com (203.210.4.91): icmp_seq=37 ttl=52 time=172 ms
64 bytes from 203-210-4-091.static.pccw-hkt.com (203.210.4.91): icmp_seq=37 ttl=52 time=172 ms
64 bytes from 203-210-4-091.static.pccw-hkt.com (203.210.4.91): icmp_seq=38 ttl=52 time=173 ms
64 bytes from 203-210-4-091.static.pccw-hkt.com (203.210.4.91): icmp_seq=38 ttl=52 time=173 ms
64 bytes from 203-210-4-091.static.pccw-hkt.com (203.210.4.91): icmp_seq=38 ttl=52 time=173 ms
64 bytes from 203-210-4-091.static.pccw-hkt.com (203.210.4.91): icmp_seq=38 ttl=52 time=173 ms
64 bytes from 203-210-4-091.static.pccw-hkt.com (203.210.4.91): icmp_seq=38 ttl=52 time=173 ms
64 bytes from 203-210-4-091.static.pccw-hkt.com (203.210.4.91): icmp_seq=38 ttl=52 time=173 ms
64 bytes from 203-210-4-091.static.pccw-hkt.com (203.210.4.91): icmp_seq=38 ttl=52 time=173 ms
64 bytes from 203-210-4-091.static.pccw-hkt.com (203.210.4.91): icmp_seq=38 ttl=52 time=172 ms
64 bytes from 203-210-4-091.static.pccw-hkt.com (203.210.4.91): icmp_seq=38 ttl=52 time=173 ms
64 bytes from 203-210-4-091.static.pccw-hkt.com (203.210.4.91): icmp_seq=38 ttl=52 time=173 ms
64 bytes from 203-210-4-091.static.pccw-hkt.com (203.210.4.91): icmp_seq=39 ttl=52 time=172 ms
64 bytes from 203-210-4-091.static.pccw-hkt.com (203.210.4.91): icmp_seq=39 ttl=52 time=172 ms
64 bytes from 203-210-4-091.static.pccw-hkt.com (203.210.4.91): icmp_seq=39 ttl=52 time=171 ms
64 bytes from 203-210-4-091.static.pccw-hkt.com (203.210.4.91): icmp_seq=39 ttl=52 time=172 ms
64 bytes from 203-210-4-091.static.pccw-hkt.com (203.210.4.91): icmp_seq=39 ttl=52 time=172 ms
64 bytes from 203-210-4-091.static.pccw-hkt.com (203.210.4.91): icmp_seq=39 ttl=52 time=172 ms
64 bytes from 203-210-4-091.static.pccw-hkt.com (203.210.4.91): icmp_seq=39 ttl=52 time=172 ms
64 bytes from 203-210-4-091.static.pccw-hkt.com (203.210.4.91): icmp_seq=39 ttl=52 time=172 ms
64 bytes from 203-210-4-091.static.pccw-hkt.com (203.210.4.91): icmp_seq=39 ttl=52 time=172 ms
64 bytes from 203-210-4-091.static.pccw-hkt.com (203.210.4.91): icmp_seq=39 ttl=52 time=171 ms
64 bytes from 203-210-4-091.static.pccw-hkt.com (203.210.4.91): icmp_seq=40 ttl=52 time=172 ms
64 bytes from 203-210-4-091.static.pccw-hkt.com (203.210.4.91): icmp_seq=40 ttl=52 time=172 ms
64 bytes from 203-210-4-091.static.pccw-hkt.com (203.210.4.91): icmp_seq=40 ttl=52 time=172 ms
64 bytes from 203-210-4-091.static.pccw-hkt.com (203.210.4.91): icmp_seq=40 ttl=52 time=172 ms
64 bytes from 203-210-4-091.static.pccw-hkt.com (203.210.4.91): icmp_seq=40 ttl=52 time=172 ms
64 bytes from 203-210-4-091.static.pccw-hkt.com (203.210.4.91): icmp_seq=40 ttl=52 time=172 ms
64 bytes from 203-210-4-091.static.pccw-hkt.com (203.210.4.91): icmp_seq=40 ttl=52 time=172 ms
64 bytes from 203-210-4-091.static.pccw-hkt.com (203.210.4.91): icmp_seq=40 ttl=52 time=172 ms
64 bytes from 203-210-4-091.static.pccw-hkt.com (203.210.4.91): icmp_seq=40 ttl=52 time=172 ms
64 bytes from 203-210-4-091.static.pccw-hkt.com (203.210.4.91): icmp_seq=40 ttl=52 time=172 ms
64 bytes from 203-210-4-091.static.pccw-hkt.com (203.210.4.91): icmp_seq=41 ttl=52 time=172 ms
64 bytes from 203-210-4-091.static.pccw-hkt.com (203.210.4.91): icmp_seq=41 ttl=52 time=172 ms
64 bytes from 203-210-4-091.static.pccw-hkt.com (203.210.4.91): icmp_seq=41 ttl=52 time=172 ms
64 bytes from 203-210-4-091.static.pccw-hkt.com (203.210.4.91): icmp_seq=41 ttl=52 time=172 ms
64 bytes from 203-210-4-091.static.pccw-hkt.com (203.210.4.91): icmp_seq=41 ttl=52 time=172 ms
64 bytes from 203-210-4-091.static.pccw-hkt.com (203.210.4.91): icmp_seq=41 ttl=52 time=172 ms
64 bytes from 203-210-4-091.static.pccw-hkt.com (203.210.4.91): icmp_seq=41 ttl=52 time=172 ms
64 bytes from 203-210-4-091.static.pccw-hkt.com (203.210.4.91): icmp_seq=41 ttl=52 time=172 ms
64 bytes from 203-210-4-091.static.pccw-hkt.com (203.210.4.91): icmp_seq=41 ttl=52 time=172 ms
64 bytes from 203-210-4-091.static.pccw-hkt.com (203.210.4.91): icmp_seq=41 ttl=52 time=172 ms
64 bytes from 203-210-4-091.static.pccw-hkt.com (203.210.4.91): icmp_seq=42 ttl=52 time=172 ms
64 bytes from 203-210-4-091.static.pccw-hkt.com (203.210.4.91): icmp_seq=42 ttl=52 time=172 ms
64 bytes from 203-210-4-091.static.pccw-hkt.com (203.210.4.91): icmp_seq=42 ttl=52 time=172 ms
64 bytes from 203-210-4-091.static.pccw-hkt.com (203.210.4.91): icmp_seq=42 ttl=52 time=172 ms
64 bytes from 203-210-4-091.static.pccw-hkt.com (203.210.4.91): icmp_seq=42 ttl=52 time=172 ms
64 bytes from 203-210-4-091.static.pccw-hkt.com (203.210.4.91): icmp_seq=42 ttl=52 time=172 ms
64 bytes from 203-210-4-091.static.pccw-hkt.com (203.210.4.91): icmp_seq=42 ttl=52 time=172 ms
64 bytes from 203-210-4-091.static.pccw-hkt.com (203.210.4.91): icmp_seq=42 ttl=52 time=172 ms
64 bytes from 203-210-4-091.static.pccw-hkt.com (203.210.4.91): icmp_seq=42 ttl=52 time=172 ms
64 bytes from 203-210-4-091.static.pccw-hkt.com (203.210.4.91): icmp_seq=42 ttl=52 time=172 ms
64 bytes from 203-210-4-091.static.pccw-hkt.com (203.210.4.91): icmp_seq=43 ttl=52 time=173 ms
64 bytes from 203-210-4-091.static.pccw-hkt.com (203.210.4.91): icmp_seq=43 ttl=52 time=173 ms
64 bytes from 203-210-4-091.static.pccw-hkt.com (203.210.4.91): icmp_seq=43 ttl=52 time=173 ms
64 bytes from 203-210-4-091.static.pccw-hkt.com (203.210.4.91): icmp_seq=43 ttl=52 time=173 ms
64 bytes from 203-210-4-091.static.pccw-hkt.com (203.210.4.91): icmp_seq=43 ttl=52 time=173 ms
64 bytes from 203-210-4-091.static.pccw-hkt.com (203.210.4.91): icmp_seq=43 ttl=52 time=173 ms
64 bytes from 203-210-4-091.static.pccw-hkt.com (203.210.4.91): icmp_seq=43 ttl=52 time=173 ms
64 bytes from 203-210-4-091.static.pccw-hkt.com (203.210.4.91): icmp_seq=43 ttl=52 time=173 ms
64 bytes from 203-210-4-091.static.pccw-hkt.com (203.210.4.91): icmp_seq=43 ttl=52 time=173 ms
64 bytes from 203-210-4-091.static.pccw-hkt.com (203.210.4.91): icmp_seq=43 ttl=52 time=172 ms
64 bytes from 203-210-4-091.static.pccw-hkt.com (203.210.4.91): icmp_seq=44 ttl=52 time=171 ms
64 bytes from 203-210-4-091.static.pccw-hkt.com (203.210.4.91): icmp_seq=44 ttl=52 time=171 ms
64 bytes from 203-210-4-091.static.pccw-hkt.com (203.210.4.91): icmp_seq=44 ttl=52 time=171 ms
64 bytes from 203-210-4-091.static.pccw-hkt.com (203.210.4.91): icmp_seq=44 ttl=52 time=171 ms
64 bytes from 203-210-4-091.static.pccw-hkt.com (203.210.4.91): icmp_seq=44 ttl=52 time=171 ms
64 bytes from 203-210-4-091.static.pccw-hkt.com (203.210.4.91): icmp_seq=44 ttl=52 time=171 ms
64 bytes from 203-210-4-091.static.pccw-hkt.com (203.210.4.91): icmp_seq=44 ttl=52 time=171 ms
64 bytes from 203-210-4-091.static.pccw-hkt.com (203.210.4.91): icmp_seq=44 ttl=52 time=171 ms
64 bytes from 203-210-4-091.static.pccw-hkt.com (203.210.4.91): icmp_seq=44 ttl=52 time=171 ms
64 bytes from 203-210-4-091.static.pccw-hkt.com (203.210.4.91): icmp_seq=44 ttl=52 time=171 ms
64 bytes from 203-210-4-091.static.pccw-hkt.com (203.210.4.91): icmp_seq=45 ttl=52 time=173 ms
64 bytes from 203-210-4-091.static.pccw-hkt.com (203.210.4.91): icmp_seq=45 ttl=52 time=173 ms
64 bytes from 203-210-4-091.static.pccw-hkt.com (203.210.4.91): icmp_seq=45 ttl=52 time=173 ms
64 bytes from 203-210-4-091.static.pccw-hkt.com (203.210.4.91): icmp_seq=45 ttl=52 time=173 ms
64 bytes from 203-210-4-091.static.pccw-hkt.com (203.210.4.91): icmp_seq=45 ttl=52 time=173 ms
64 bytes from 203-210-4-091.static.pccw-hkt.com (203.210.4.91): icmp_seq=45 ttl=52 time=173 ms
64 bytes from 203-210-4-091.static.pccw-hkt.com (203.210.4.91): icmp_seq=45 ttl=52 time=173 ms
64 bytes from 203-210-4-091.static.pccw-hkt.com (203.210.4.91): icmp_seq=45 ttl=52 time=174 ms
64 bytes from 203-210-4-091.static.pccw-hkt.com (203.210.4.91): icmp_seq=45 ttl=52 time=173 ms
64 bytes from 203-210-4-091.static.pccw-hkt.com (203.210.4.91): icmp_seq=45 ttl=52 time=173 ms
64 bytes from 203-210-4-091.static.pccw-hkt.com (203.210.4.91): icmp_seq=46 ttl=52 time=172 ms
64 bytes from 203-210-4-091.static.pccw-hkt.com (203.210.4.91): icmp_seq=46 ttl=52 time=172 ms
64 bytes from 203-210-4-091.static.pccw-hkt.com (203.210.4.91): icmp_seq=46 ttl=52 time=172 ms
64 bytes from 203-210-4-091.static.pccw-hkt.com (203.210.4.91): icmp_seq=46 ttl=52 time=172 ms
64 bytes from 203-210-4-091.static.pccw-hkt.com (203.210.4.91): icmp_seq=46 ttl=52 time=172 ms
64 bytes from 203-210-4-091.static.pccw-hkt.com (203.210.4.91): icmp_seq=46 ttl=52 time=172 ms
64 bytes from 203-210-4-091.static.pccw-hkt.com (203.210.4.91): icmp_seq=46 ttl=52 time=172 ms
64 bytes from 203-210-4-091.static.pccw-hkt.com (203.210.4.91): icmp_seq=46 ttl=52 time=172 ms
64 bytes from 203-210-4-091.static.pccw-hkt.com (203.210.4.91): icmp_seq=46 ttl=52 time=172 ms
64 bytes from 203-210-4-091.static.pccw-hkt.com (203.210.4.91): icmp_seq=46 ttl=52 time=172 ms
64 bytes from 203-210-4-091.static.pccw-hkt.com (203.210.4.91): icmp_seq=47 ttl=52 time=173 ms
64 bytes from 203-210-4-091.static.pccw-hkt.com (203.210.4.91): icmp_seq=47 ttl=52 time=173 ms
64 bytes from 203-210-4-091.static.pccw-hkt.com (203.210.4.91): icmp_seq=47 ttl=52 time=173 ms
64 bytes from 203-210-4-091.static.pccw-hkt.com (203.210.4.91): icmp_seq=47 ttl=52 time=173 ms
64 bytes from 203-210-4-091.static.pccw-hkt.com (203.210.4.91): icmp_seq=47 ttl=52 time=173 ms
64 bytes from 203-210-4-091.static.pccw-hkt.com (203.210.4.91): icmp_seq=47 ttl=52 time=173 ms
64 bytes from 203-210-4-091.static.pccw-hkt.com (203.210.4.91): icmp_seq=47 ttl=52 time=173 ms
64 bytes from 203-210-4-091.static.pccw-hkt.com (203.210.4.91): icmp_seq=47 ttl=52 time=173 ms
64 bytes from 203-210-4-091.static.pccw-hkt.com (203.210.4.91): icmp_seq=47 ttl=52 time=173 ms
64 bytes from 203-210-4-091.static.pccw-hkt.com (203.210.4.91): icmp_seq=47 ttl=52 time=173 ms
64 bytes from 203-210-4-091.static.pccw-hkt.com (203.210.4.91): icmp_seq=48 ttl=52 time=172 ms
64 bytes from 203-210-4-091.static.pccw-hkt.com (203.210.4.91): icmp_seq=48 ttl=52 time=172 ms
64 bytes from 203-210-4-091.static.pccw-hkt.com (203.210.4.91): icmp_seq=48 ttl=52 time=172 ms
64 bytes from 203-210-4-091.static.pccw-hkt.com (203.210.4.91): icmp_seq=48 ttl=52 time=172 ms
64 bytes from 203-210-4-091.static.pccw-hkt.com (203.210.4.91): icmp_seq=48 ttl=52 time=172 ms
64 bytes from 203-210-4-091.static.pccw-hkt.com (203.210.4.91): icmp_seq=48 ttl=52 time=172 ms
64 bytes from 203-210-4-091.static.pccw-hkt.com (203.210.4.91): icmp_seq=48 ttl=52 time=172 ms
64 bytes from 203-210-4-091.static.pccw-hkt.com (203.210.4.91): icmp_seq=48 ttl=52 time=172 ms
64 bytes from 203-210-4-091.static.pccw-hkt.com (203.210.4.91): icmp_seq=48 ttl=52 time=172 ms
64 bytes from 203-210-4-091.static.pccw-hkt.com (203.210.4.91): icmp_seq=48 ttl=52 time=172 ms
64 bytes from 203-210-4-091.static.pccw-hkt.com (203.210.4.91): icmp_seq=49 ttl=52 time=172 ms
64 bytes from 203-210-4-091.static.pccw-hkt.com (203.210.4.91): icmp_seq=49 ttl=52 time=172 ms
64 bytes from 203-210-4-091.static.pccw-hkt.com (203.210.4.91): icmp_seq=49 ttl=52 time=172 ms
64 bytes from 203-210-4-091.static.pccw-hkt.com (203.210.4.91): icmp_seq=49 ttl=52 time=172 ms
64 bytes from 203-210-4-091.static.pccw-hkt.com (203.210.4.91): icmp_seq=49 ttl=52 time=172 ms
64 bytes from 203-210-4-091.static.pccw-hkt.com (203.210.4.91): icmp_seq=49 ttl=52 time=172 ms
64 bytes from 203-210-4-091.static.pccw-hkt.com (203.210.4.91): icmp_seq=49 ttl=52 time=172 ms
64 bytes from 203-210-4-091.static.pccw-hkt.com (203.210.4.91): icmp_seq=49 ttl=52 time=172 ms
64 bytes from 203-210-4-091.static.pccw-hkt.com (203.210.4.91): icmp_seq=49 ttl=52 time=172 ms
64 bytes from 203-210-4-091.static.pccw-hkt.com (203.210.4.91): icmp_seq=49 ttl=52 time=172 ms
64 bytes from 203-210-4-091.static.pccw-hkt.com (203.210.4.91): icmp_seq=50 ttl=52 time=172 ms
64 bytes from 203-210-4-091.static.pccw-hkt.com (203.210.4.91): icmp_seq=50 ttl=52 time=172 ms
64 bytes from 203-210-4-091.static.pccw-hkt.com (203.210.4.91): icmp_seq=50 ttl=52 time=172 ms
64 bytes from 203-210-4-091.static.pccw-hkt.com (203.210.4.91): icmp_seq=50 ttl=52 time=172 ms
64 bytes from 203-210-4-091.static.pccw-hkt.com (203.210.4.91): icmp_seq=50 ttl=52 time=172 ms
64 bytes from 203-210-4-091.static.pccw-hkt.com (203.210.4.91): icmp_seq=50 ttl=52 time=172 ms
64 bytes from 203-210-4-091.static.pccw-hkt.com (203.210.4.91): icmp_seq=50 ttl=52 time=172 ms
64 bytes from 203-210-4-091.static.pccw-hkt.com (203.210.4.91): icmp_seq=50 ttl=52 time=172 ms
64 bytes from 203-210-4-091.static.pccw-hkt.com (203.210.4.91): icmp_seq=50 ttl=52 time=172 ms
64 bytes from 203-210-4-091.static.pccw-hkt.com (203.210.4.91): icmp_seq=50 ttl=52 time=172 ms
64 bytes from 203-210-4-091.static.pccw-hkt.com (203.210.4.91): icmp_seq=51 ttl=52 time=171 ms
64 bytes from 203-210-4-091.static.pccw-hkt.com (203.210.4.91): icmp_seq=51 ttl=52 time=171 ms
64 bytes from 203-210-4-091.static.pccw-hkt.com (203.210.4.91): icmp_seq=51 ttl=52 time=171 ms
64 bytes from 203-210-4-091.static.pccw-hkt.com (203.210.4.91): icmp_seq=51 ttl=52 time=171 ms
64 bytes from 203-210-4-091.static.pccw-hkt.com (203.210.4.91): icmp_seq=51 ttl=52 time=171 ms
64 bytes from 203-210-4-091.static.pccw-hkt.com (203.210.4.91): icmp_seq=51 ttl=52 time=171 ms
64 bytes from 203-210-4-091.static.pccw-hkt.com (203.210.4.91): icmp_seq=51 ttl=52 time=171 ms
64 bytes from 203-210-4-091.static.pccw-hkt.com (203.210.4.91): icmp_seq=51 ttl=52 time=172 ms
64 bytes from 203-210-4-091.static.pccw-hkt.com (203.210.4.91): icmp_seq=51 ttl=52 time=172 ms
64 bytes from 203-210-4-091.static.pccw-hkt.com (203.210.4.91): icmp_seq=51 ttl=52 time=172 ms
64 bytes from 203-210-4-091.static.pccw-hkt.com (203.210.4.91): icmp_seq=52 ttl=52 time=172 ms
64 bytes from 203-210-4-091.static.pccw-hkt.com (203.210.4.91): icmp_seq=52 ttl=52 time=172 ms
64 bytes from 203-210-4-091.static.pccw-hkt.com (203.210.4.91): icmp_seq=52 ttl=52 time=172 ms
64 bytes from 203-210-4-091.static.pccw-hkt.com (203.210.4.91): icmp_seq=52 ttl=52 time=172 ms
64 bytes from 203-210-4-091.static.pccw-hkt.com (203.210.4.91): icmp_seq=52 ttl=52 time=172 ms
64 bytes from 203-210-4-091.static.pccw-hkt.com (203.210.4.91): icmp_seq=52 ttl=52 time=172 ms
64 bytes from 203-210-4-091.static.pccw-hkt.com (203.210.4.91): icmp_seq=52 ttl=52 time=172 ms
64 bytes from 203-210-4-091.static.pccw-hkt.com (203.210.4.91): icmp_seq=52 ttl=52 time=172 ms
64 bytes from 203-210-4-091.static.pccw-hkt.com (203.210.4.91): icmp_seq=52 ttl=52 time=172 ms
64 bytes from 203-210-4-091.static.pccw-hkt.com (203.210.4.91): icmp_seq=52 ttl=52 time=172 ms
64 bytes from 203-210-4-091.static.pccw-hkt.com (203.210.4.91): icmp_seq=53 ttl=52 time=173 ms
64 bytes from 203-210-4-091.static.pccw-hkt.com (203.210.4.91): icmp_seq=53 ttl=52 time=173 ms
64 bytes from 203-210-4-091.static.pccw-hkt.com (203.210.4.91): icmp_seq=53 ttl=52 time=173 ms
64 bytes from 203-210-4-091.static.pccw-hkt.com (203.210.4.91): icmp_seq=53 ttl=52 time=173 ms
64 bytes from 203-210-4-091.static.pccw-hkt.com (203.210.4.91): icmp_seq=53 ttl=52 time=173 ms
64 bytes from 203-210-4-091.static.pccw-hkt.com (203.210.4.91): icmp_seq=53 ttl=52 time=173 ms
64 bytes from 203-210-4-091.static.pccw-hkt.com (203.210.4.91): icmp_seq=53 ttl=52 time=173 ms
64 bytes from 203-210-4-091.static.pccw-hkt.com (203.210.4.91): icmp_seq=53 ttl=52 time=173 ms
64 bytes from 203-210-4-091.static.pccw-hkt.com (203.210.4.91): icmp_seq=53 ttl=52 time=173 ms
64 bytes from 203-210-4-091.static.pccw-hkt.com (203.210.4.91): icmp_seq=53 ttl=52 time=173 ms
64 bytes from 203-210-4-091.static.pccw-hkt.com (203.210.4.91): icmp_seq=54 ttl=52 time=172 ms
64 bytes from 203-210-4-091.static.pccw-hkt.com (203.210.4.91): icmp_seq=54 ttl=52 time=172 ms
64 bytes from 203-210-4-091.static.pccw-hkt.com (203.210.4.91): icmp_seq=54 ttl=52 time=172 ms
64 bytes from 203-210-4-091.static.pccw-hkt.com (203.210.4.91): icmp_seq=54 ttl=52 time=172 ms
64 bytes from 203-210-4-091.static.pccw-hkt.com (203.210.4.91): icmp_seq=54 ttl=52 time=172 ms
64 bytes from 203-210-4-091.static.pccw-hkt.com (203.210.4.91): icmp_seq=54 ttl=52 time=172 ms
64 bytes from 203-210-4-091.static.pccw-hkt.com (203.210.4.91): icmp_seq=54 ttl=52 time=172 ms
64 bytes from 203-210-4-091.static.pccw-hkt.com (203.210.4.91): icmp_seq=54 ttl=52 time=172 ms
64 bytes from 203-210-4-091.static.pccw-hkt.com (203.210.4.91): icmp_seq=54 ttl=52 time=172 ms
64 bytes from 203-210-4-091.static.pccw-hkt.com (203.210.4.91): icmp_seq=54 ttl=52 time=172 ms
64 bytes from 203-210-4-091.static.pccw-hkt.com (203.210.4.91): icmp_seq=55 ttl=52 time=172 ms
64 bytes from 203-210-4-091.static.pccw-hkt.com (203.210.4.91): icmp_seq=55 ttl=52 time=172 ms
64 bytes from 203-210-4-091.static.pccw-hkt.com (203.210.4.91): icmp_seq=55 ttl=52 time=172 ms
64 bytes from 203-210-4-091.static.pccw-hkt.com (203.210.4.91): icmp_seq=55 ttl=52 time=172 ms
64 bytes from 203-210-4-091.static.pccw-hkt.com (203.210.4.91): icmp_seq=55 ttl=52 time=172 ms
64 bytes from 203-210-4-091.static.pccw-hkt.com (203.210.4.91): icmp_seq=55 ttl=52 time=172 ms
64 bytes from 203-210-4-091.static.pccw-hkt.com (203.210.4.91): icmp_seq=55 ttl=52 time=172 ms
64 bytes from 203-210-4-091.static.pccw-hkt.com (203.210.4.91): icmp_seq=55 ttl=52 time=172 ms
64 bytes from 203-210-4-091.static.pccw-hkt.com (203.210.4.91): icmp_seq=55 ttl=52 time=172 ms
64 bytes from 203-210-4-091.static.pccw-hkt.com (203.210.4.91): icmp_seq=55 ttl=52 time=172 ms
64 bytes from 203-210-4-091.static.pccw-hkt.com (203.210.4.91): icmp_seq=56 ttl=52 time=173 ms
64 bytes from 203-210-4-091.static.pccw-hkt.com (203.210.4.91): icmp_seq=56 ttl=52 time=173 ms
64 bytes from 203-210-4-091.static.pccw-hkt.com (203.210.4.91): icmp_seq=56 ttl=52 time=173 ms
64 bytes from 203-210-4-091.static.pccw-hkt.com (203.210.4.91): icmp_seq=56 ttl=52 time=173 ms
64 bytes from 203-210-4-091.static.pccw-hkt.com (203.210.4.91): icmp_seq=56 ttl=52 time=173 ms
64 bytes from 203-210-4-091.static.pccw-hkt.com (203.210.4.91): icmp_seq=56 ttl=52 time=173 ms
64 bytes from 203-210-4-091.static.pccw-hkt.com (203.210.4.91): icmp_seq=56 ttl=52 time=173 ms
64 bytes from 203-210-4-091.static.pccw-hkt.com (203.210.4.91): icmp_seq=56 ttl=52 time=172 ms
64 bytes from 203-210-4-091.static.pccw-hkt.com (203.210.4.91): icmp_seq=56 ttl=52 time=172 ms
64 bytes from 203-210-4-091.static.pccw-hkt.com (203.210.4.91): icmp_seq=56 ttl=52 time=173 ms
64 bytes from 203-210-4-091.static.pccw-hkt.com (203.210.4.91): icmp_seq=57 ttl=52 time=172 ms
64 bytes from 203-210-4-091.static.pccw-hkt.com (203.210.4.91): icmp_seq=57 ttl=52 time=171 ms
64 bytes from 203-210-4-091.static.pccw-hkt.com (203.210.4.91): icmp_seq=57 ttl=52 time=172 ms
64 bytes from 203-210-4-091.static.pccw-hkt.com (203.210.4.91): icmp_seq=57 ttl=52 time=171 ms
64 bytes from 203-210-4-091.static.pccw-hkt.com (203.210.4.91): icmp_seq=57 ttl=52 time=171 ms
64 bytes from 203-210-4-091.static.pccw-hkt.com (203.210.4.91): icmp_seq=57 ttl=52 time=172 ms
64 bytes from 203-210-4-091.static.pccw-hkt.com (203.210.4.91): icmp_seq=57 ttl=52 time=171 ms
64 bytes from 203-210-4-091.static.pccw-hkt.com (203.210.4.91): icmp_seq=57 ttl=52 time=171 ms
64 bytes from 203-210-4-091.static.pccw-hkt.com (203.210.4.91): icmp_seq=57 ttl=52 time=171 ms
64 bytes from 203-210-4-091.static.pccw-hkt.com (203.210.4.91): icmp_seq=57 ttl=52 time=171 ms
64 bytes from 203-210-4-091.static.pccw-hkt.com (203.210.4.91): icmp_seq=58 ttl=52 time=172 ms
64 bytes from 203-210-4-091.static.pccw-hkt.com (203.210.4.91): icmp_seq=58 ttl=52 time=171 ms
64 bytes from 203-210-4-091.static.pccw-hkt.com (203.210.4.91): icmp_seq=58 ttl=52 time=171 ms
64 bytes from 203-210-4-091.static.pccw-hkt.com (203.210.4.91): icmp_seq=58 ttl=52 time=172 ms
64 bytes from 203-210-4-091.static.pccw-hkt.com (203.210.4.91): icmp_seq=58 ttl=52 time=172 ms
64 bytes from 203-210-4-091.static.pccw-hkt.com (203.210.4.91): icmp_seq=58 ttl=52 time=172 ms
64 bytes from 203-210-4-091.static.pccw-hkt.com (203.210.4.91): icmp_seq=58 ttl=52 time=172 ms
64 bytes from 203-210-4-091.static.pccw-hkt.com (203.210.4.91): icmp_seq=58 ttl=52 time=172 ms
64 bytes from 203-210-4-091.static.pccw-hkt.com (203.210.4.91): icmp_seq=58 ttl=52 time=172 ms
64 bytes from 203-210-4-091.static.pccw-hkt.com (203.210.4.91): icmp_seq=58 ttl=52 time=172 ms
64 bytes from 203-210-4-091.static.pccw-hkt.com (203.210.4.91): icmp_seq=59 ttl=52 time=171 ms
64 bytes from 203-210-4-091.static.pccw-hkt.com (203.210.4.91): icmp_seq=59 ttl=52 time=172 ms
64 bytes from 203-210-4-091.static.pccw-hkt.com (203.210.4.91): icmp_seq=59 ttl=52 time=171 ms
64 bytes from 203-210-4-091.static.pccw-hkt.com (203.210.4.91): icmp_seq=59 ttl=52 time=172 ms
64 bytes from 203-210-4-091.static.pccw-hkt.com (203.210.4.91): icmp_seq=59 ttl=52 time=172 ms
64 bytes from 203-210-4-091.static.pccw-hkt.com (203.210.4.91): icmp_seq=59 ttl=52 time=172 ms
64 bytes from 203-210-4-091.static.pccw-hkt.com (203.210.4.91): icmp_seq=59 ttl=52 time=172 ms
64 bytes from 203-210-4-091.static.pccw-hkt.com (203.210.4.91): icmp_seq=59 ttl=52 time=172 ms
64 bytes from 203-210-4-091.static.pccw-hkt.com (203.210.4.91): icmp_seq=59 ttl=52 time=172 ms
64 bytes from 203-210-4-091.static.pccw-hkt.com (203.210.4.91): icmp_seq=59 ttl=52 time=172 ms
64 bytes from 203-210-4-091.static.pccw-hkt.com (203.210.4.91): icmp_seq=60 ttl=52 time=172 ms
64 bytes from 203-210-4-091.static.pccw-hkt.com (203.210.4.91): icmp_seq=60 ttl=52 time=172 ms
64 bytes from 203-210-4-091.static.pccw-hkt.com (203.210.4.91): icmp_seq=60 ttl=52 time=172 ms
64 bytes from 203-210-4-091.static.pccw-hkt.com (203.210.4.91): icmp_seq=60 ttl=52 time=172 ms
64 bytes from 203-210-4-091.static.pccw-hkt.com (203.210.4.91): icmp_seq=60 ttl=52 time=172 ms
64 bytes from 203-210-4-091.static.pccw-hkt.com (203.210.4.91): icmp_seq=60 ttl=52 time=172 ms
64 bytes from 203-210-4-091.static.pccw-hkt.com (203.210.4.91): icmp_seq=60 ttl=52 time=172 ms
64 bytes from 203-210-4-091.static.pccw-hkt.com (203.210.4.91): icmp_seq=60 ttl=52 time=172 ms
64 bytes from 203-210-4-091.static.pccw-hkt.com (203.210.4.91): icmp_seq=60 ttl=52 time=172 ms
64 bytes from 203-210-4-091.static.pccw-hkt.com (203.210.4.91): icmp_seq=60 ttl=52 time=172 ms
64 bytes from 203-210-4-091.static.pccw-hkt.com (203.210.4.91): icmp_seq=61 ttl=52 time=172 ms
64 bytes from 203-210-4-091.static.pccw-hkt.com (203.210.4.91): icmp_seq=61 ttl=52 time=172 ms
64 bytes from 203-210-4-091.static.pccw-hkt.com (203.210.4.91): icmp_seq=61 ttl=52 time=172 ms
64 bytes from 203-210-4-091.static.pccw-hkt.com (203.210.4.91): icmp_seq=61 ttl=52 time=172 ms
64 bytes from 203-210-4-091.static.pccw-hkt.com (203.210.4.91): icmp_seq=61 ttl=52 time=172 ms
64 bytes from 203-210-4-091.static.pccw-hkt.com (203.210.4.91): icmp_seq=61 ttl=52 time=172 ms
64 bytes from 203-210-4-091.static.pccw-hkt.com (203.210.4.91): icmp_seq=61 ttl=52 time=172 ms
64 bytes from 203-210-4-091.static.pccw-hkt.com (203.210.4.91): icmp_seq=61 ttl=52 time=172 ms
64 bytes from 203-210-4-091.static.pccw-hkt.com (203.210.4.91): icmp_seq=61 ttl=52 time=172 ms
64 bytes from 203-210-4-091.static.pccw-hkt.com (203.210.4.91): icmp_seq=61 ttl=52 time=172 ms
64 bytes from 203-210-4-091.static.pccw-hkt.com (203.210.4.91): icmp_seq=62 ttl=52 time=172 ms
64 bytes from 203-210-4-091.static.pccw-hkt.com (203.210.4.91): icmp_seq=62 ttl=52 time=172 ms
64 bytes from 203-210-4-091.static.pccw-hkt.com (203.210.4.91): icmp_seq=62 ttl=52 time=172 ms
64 bytes from 203-210-4-091.static.pccw-hkt.com (203.210.4.91): icmp_seq=62 ttl=52 time=172 ms
64 bytes from 203-210-4-091.static.pccw-hkt.com (203.210.4.91): icmp_seq=62 ttl=52 time=172 ms
64 bytes from 203-210-4-091.static.pccw-hkt.com (203.210.4.91): icmp_seq=62 ttl=52 time=172 ms
64 bytes from 203-210-4-091.static.pccw-hkt.com (203.210.4.91): icmp_seq=62 ttl=52 time=172 ms
64 bytes from 203-210-4-091.static.pccw-hkt.com (203.210.4.91): icmp_seq=62 ttl=52 time=172 ms
64 bytes from 203-210-4-091.static.pccw-hkt.com (203.210.4.91): icmp_seq=62 ttl=52 time=172 ms
64 bytes from 203-210-4-091.static.pccw-hkt.com (203.210.4.91): icmp_seq=62 ttl=52 time=171 ms
64 bytes from 203-210-4-091.static.pccw-hkt.com (203.210.4.91): icmp_seq=63 ttl=52 time=172 ms
64 bytes from 203-210-4-091.static.pccw-hkt.com (203.210.4.91): icmp_seq=63 ttl=52 time=172 ms
64 bytes from 203-210-4-091.static.pccw-hkt.com (203.210.4.91): icmp_seq=63 ttl=52 time=172 ms
64 bytes from 203-210-4-091.static.pccw-hkt.com (203.210.4.91): icmp_seq=63 ttl=52 time=172 ms
64 bytes from 203-210-4-091.static.pccw-hkt.com (203.210.4.91): icmp_seq=63 ttl=52 time=172 ms
64 bytes from 203-210-4-091.static.pccw-hkt.com (203.210.4.91): icmp_seq=63 ttl=52 time=172 ms
64 bytes from 203-210-4-091.static.pccw-hkt.com (203.210.4.91): icmp_seq=63 ttl=52 time=172 ms
64 bytes from 203-210-4-091.static.pccw-hkt.com (203.210.4.91): icmp_seq=63 ttl=52 time=172 ms
64 bytes from 203-210-4-091.static.pccw-hkt.com (203.210.4.91): icmp_seq=63 ttl=52 time=172 ms
64 bytes from 203-210-4-091.static.pccw-hkt.com (203.210.4.91): icmp_seq=63 ttl=52 time=172 ms
64 bytes from 203-210-4-091.static.pccw-hkt.com (203.210.4.91): icmp_seq=64 ttl=52 time=172 ms
64 bytes from 203-210-4-091.static.pccw-hkt.com (203.210.4.91): icmp_seq=64 ttl=52 time=172 ms
64 bytes from 203-210-4-091.static.pccw-hkt.com (203.210.4.91): icmp_seq=64 ttl=52 time=172 ms
64 bytes from 203-210-4-091.static.pccw-hkt.com (203.210.4.91): icmp_seq=64 ttl=52 time=172 ms
64 bytes from 203-210-4-091.static.pccw-hkt.com (203.210.4.91): icmp_seq=64 ttl=52 time=172 ms
64 bytes from 203-210-4-091.static.pccw-hkt.com (203.210.4.91): icmp_seq=64 ttl=52 time=172 ms
64 bytes from 203-210-4-091.static.pccw-hkt.com (203.210.4.91): icmp_seq=64 ttl=52 time=172 ms
64 bytes from 203-210-4-091.static.pccw-hkt.com (203.210.4.91): icmp_seq=64 ttl=52 time=172 ms
64 bytes from 203-210-4-091.static.pccw-hkt.com (203.210.4.91): icmp_seq=64 ttl=52 time=172 ms
64 bytes from 203-210-4-091.static.pccw-hkt.com (203.210.4.91): icmp_seq=64 ttl=52 time=172 ms
64 bytes from 203-210-4-091.static.pccw-hkt.com (203.210.4.91): icmp_seq=65 ttl=52 time=172 ms
64 bytes from 203-210-4-091.static.pccw-hkt.com (203.210.4.91): icmp_seq=65 ttl=52 time=172 ms
64 bytes from 203-210-4-091.static.pccw-hkt.com (203.210.4.91): icmp_seq=65 ttl=52 time=172 ms
64 bytes from 203-210-4-091.static.pccw-hkt.com (203.210.4.91): icmp_seq=65 ttl=52 time=172 ms
64 bytes from 203-210-4-091.static.pccw-hkt.com (203.210.4.91): icmp_seq=65 ttl=52 time=172 ms
64 bytes from 203-210-4-091.static.pccw-hkt.com (203.210.4.91): icmp_seq=65 ttl=52 time=172 ms
64 bytes from 203-210-4-091.static.pccw-hkt.com (203.210.4.91): icmp_seq=65 ttl=52 time=172 ms
64 bytes from 203-210-4-091.static.pccw-hkt.com (203.210.4.91): icmp_seq=65 ttl=52 time=172 ms
64 bytes from 203-210-4-091.static.pccw-hkt.com (203.210.4.91): icmp_seq=65 ttl=52 time=172 ms
64 bytes from 203-210-4-091.static.pccw-hkt.com (203.210.4.91): icmp_seq=65 ttl=52 time=171 ms
64 bytes from 203-210-4-091.static.pccw-hkt.com (203.210.4.91): icmp_seq=66 ttl=52 time=172 ms
64 bytes from 203-210-4-091.static.pccw-hkt.com (203.210.4.91): icmp_seq=66 ttl=52 time=172 ms
64 bytes from 203-210-4-091.static.pccw-hkt.com (203.210.4.91): icmp_seq=66 ttl=52 time=172 ms
64 bytes from 203-210-4-091.static.pccw-hkt.com (203.210.4.91): icmp_seq=66 ttl=52 time=172 ms
64 bytes from 203-210-4-091.static.pccw-hkt.com (203.210.4.91): icmp_seq=66 ttl=52 time=172 ms
64 bytes from 203-210-4-091.static.pccw-hkt.com (203.210.4.91): icmp_seq=66 ttl=52 time=172 ms
64 bytes from 203-210-4-091.static.pccw-hkt.com (203.210.4.91): icmp_seq=66 ttl=52 time=172 ms
64 bytes from 203-210-4-091.static.pccw-hkt.com (203.210.4.91): icmp_seq=66 ttl=52 time=172 ms
64 bytes from 203-210-4-091.static.pccw-hkt.com (203.210.4.91): icmp_seq=66 ttl=52 time=172 ms
64 bytes from 203-210-4-091.static.pccw-hkt.com (203.210.4.91): icmp_seq=66 ttl=52 time=172 ms
64 bytes from 203-210-4-091.static.pccw-hkt.com (203.210.4.91): icmp_seq=67 ttl=52 time=172 ms
64 bytes from 203-210-4-091.static.pccw-hkt.com (203.210.4.91): icmp_seq=67 ttl=52 time=172 ms
64 bytes from 203-210-4-091.static.pccw-hkt.com (203.210.4.91): icmp_seq=67 ttl=52 time=172 ms
64 bytes from 203-210-4-091.static.pccw-hkt.com (203.210.4.91): icmp_seq=67 ttl=52 time=172 ms
64 bytes from 203-210-4-091.static.pccw-hkt.com (203.210.4.91): icmp_seq=67 ttl=52 time=172 ms
64 bytes from 203-210-4-091.static.pccw-hkt.com (203.210.4.91): icmp_seq=67 ttl=52 time=172 ms
64 bytes from 203-210-4-091.static.pccw-hkt.com (203.210.4.91): icmp_seq=67 ttl=52 time=172 ms
64 bytes from 203-210-4-091.static.pccw-hkt.com (203.210.4.91): icmp_seq=67 ttl=52 time=172 ms
64 bytes from 203-210-4-091.static.pccw-hkt.com (203.210.4.91): icmp_seq=67 ttl=52 time=172 ms
64 bytes from 203-210-4-091.static.pccw-hkt.com (203.210.4.91): icmp_seq=67 ttl=52 time=172 ms
64 bytes from 203-210-4-091.static.pccw-hkt.com (203.210.4.91): icmp_seq=68 ttl=52 time=173 ms
64 bytes from 203-210-4-091.static.pccw-hkt.com (203.210.4.91): icmp_seq=68 ttl=52 time=173 ms
64 bytes from 203-210-4-091.static.pccw-hkt.com (203.210.4.91): icmp_seq=68 ttl=52 time=173 ms
64 bytes from 203-210-4-091.static.pccw-hkt.com (203.210.4.91): icmp_seq=68 ttl=52 time=173 ms
64 bytes from 203-210-4-091.static.pccw-hkt.com (203.210.4.91): icmp_seq=68 ttl=52 time=173 ms
64 bytes from 203-210-4-091.static.pccw-hkt.com (203.210.4.91): icmp_seq=68 ttl=52 time=173 ms
64 bytes from 203-210-4-091.static.pccw-hkt.com (203.210.4.91): icmp_seq=68 ttl=52 time=173 ms
64 bytes from 203-210-4-091.static.pccw-hkt.com (203.210.4.91): icmp_seq=68 ttl=52 time=173 ms
64 bytes from 203-210-4-091.static.pccw-hkt.com (203.210.4.91): icmp_seq=68 ttl=52 time=172 ms
64 bytes from 203-210-4-091.static.pccw-hkt.com (203.210.4.91): icmp_seq=68 ttl=52 time=173 ms
64 bytes from 203-210-4-091.static.pccw-hkt.com (203.210.4.91): icmp_seq=69 ttl=52 time=172 ms
64 bytes from 203-210-4-091.static.pccw-hkt.com (203.210.4.91): icmp_seq=69 ttl=52 time=172 ms
64 bytes from 203-210-4-091.static.pccw-hkt.com (203.210.4.91): icmp_seq=69 ttl=52 time=172 ms
64 bytes from 203-210-4-091.static.pccw-hkt.com (203.210.4.91): icmp_seq=69 ttl=52 time=172 ms
64 bytes from 203-210-4-091.static.pccw-hkt.com (203.210.4.91): icmp_seq=69 ttl=52 time=172 ms
64 bytes from 203-210-4-091.static.pccw-hkt.com (203.210.4.91): icmp_seq=69 ttl=52 time=172 ms
64 bytes from 203-210-4-091.static.pccw-hkt.com (203.210.4.91): icmp_seq=69 ttl=52 time=172 ms
64 bytes from 203-210-4-091.static.pccw-hkt.com (203.210.4.91): icmp_seq=69 ttl=52 time=172 ms
64 bytes from 203-210-4-091.static.pccw-hkt.com (203.210.4.91): icmp_seq=69 ttl=52 time=172 ms
64 bytes from 203-210-4-091.static.pccw-hkt.com (203.210.4.91): icmp_seq=69 ttl=52 time=172 ms
64 bytes from 203-210-4-091.static.pccw-hkt.com (203.210.4.91): icmp_seq=70 ttl=52 time=172 ms
64 bytes from 203-210-4-091.static.pccw-hkt.com (203.210.4.91): icmp_seq=70 ttl=52 time=172 ms
64 bytes from 203-210-4-091.static.pccw-hkt.com (203.210.4.91): icmp_seq=70 ttl=52 time=172 ms
64 bytes from 203-210-4-091.static.pccw-hkt.com (203.210.4.91): icmp_seq=70 ttl=52 time=172 ms
64 bytes from 203-210-4-091.static.pccw-hkt.com (203.210.4.91): icmp_seq=70 ttl=52 time=172 ms
64 bytes from 203-210-4-091.static.pccw-hkt.com (203.210.4.91): icmp_seq=70 ttl=52 time=172 ms
64 bytes from 203-210-4-091.static.pccw-hkt.com (203.210.4.91): icmp_seq=70 ttl=52 time=172 ms
64 bytes from 203-210-4-091.static.pccw-hkt.com (203.210.4.91): icmp_seq=70 ttl=52 time=172 ms
64 bytes from 203-210-4-091.static.pccw-hkt.com (203.210.4.91): icmp_seq=70 ttl=52 time=172 ms
64 bytes from 203-210-4-091.static.pccw-hkt.com (203.210.4.91): icmp_seq=70 ttl=52 time=172 ms
64 bytes from 203-210-4-091.static.pccw-hkt.com (203.210.4.91): icmp_seq=71 ttl=52 time=172 ms
64 bytes from 203-210-4-091.static.pccw-hkt.com (203.210.4.91): icmp_seq=71 ttl=52 time=172 ms
64 bytes from 203-210-4-091.static.pccw-hkt.com (203.210.4.91): icmp_seq=71 ttl=52 time=172 ms
64 bytes from 203-210-4-091.static.pccw-hkt.com (203.210.4.91): icmp_seq=71 ttl=52 time=172 ms
64 bytes from 203-210-4-091.static.pccw-hkt.com (203.210.4.91): icmp_seq=71 ttl=52 time=172 ms
64 bytes from 203-210-4-091.static.pccw-hkt.com (203.210.4.91): icmp_seq=71 ttl=52 time=172 ms
64 bytes from 203-210-4-091.static.pccw-hkt.com (203.210.4.91): icmp_seq=71 ttl=52 time=172 ms
64 bytes from 203-210-4-091.static.pccw-hkt.com (203.210.4.91): icmp_seq=71 ttl=52 time=172 ms
64 bytes from 203-210-4-091.static.pccw-hkt.com (203.210.4.91): icmp_seq=71 ttl=52 time=172 ms
64 bytes from 203-210-4-091.static.pccw-hkt.com (203.210.4.91): icmp_seq=71 ttl=52 time=172 ms
64 bytes from 203-210-4-091.static.pccw-hkt.com (203.210.4.91): icmp_seq=72 ttl=52 time=172 ms
64 bytes from 203-210-4-091.static.pccw-hkt.com (203.210.4.91): icmp_seq=72 ttl=52 time=172 ms
64 bytes from 203-210-4-091.static.pccw-hkt.com (203.210.4.91): icmp_seq=72 ttl=52 time=172 ms
64 bytes from 203-210-4-091.static.pccw-hkt.com (203.210.4.91): icmp_seq=72 ttl=52 time=172 ms
64 bytes from 203-210-4-091.static.pccw-hkt.com (203.210.4.91): icmp_seq=72 ttl=52 time=172 ms
64 bytes from 203-210-4-091.static.pccw-hkt.com (203.210.4.91): icmp_seq=72 ttl=52 time=172 ms
64 bytes from 203-210-4-091.static.pccw-hkt.com (203.210.4.91): icmp_seq=72 ttl=52 time=172 ms
64 bytes from 203-210-4-091.static.pccw-hkt.com (203.210.4.91): icmp_seq=72 ttl=52 time=172 ms
64 bytes from 203-210-4-091.static.pccw-hkt.com (203.210.4.91): icmp_seq=72 ttl=52 time=172 ms
64 bytes from 203-210-4-091.static.pccw-hkt.com (203.210.4.91): icmp_seq=72 ttl=52 time=172 ms
64 bytes from 203-210-4-091.static.pccw-hkt.com (203.210.4.91): icmp_seq=73 ttl=52 time=172 ms
64 bytes from 203-210-4-091.static.pccw-hkt.com (203.210.4.91): icmp_seq=73 ttl=52 time=172 ms
64 bytes from 203-210-4-091.static.pccw-hkt.com (203.210.4.91): icmp_seq=73 ttl=52 time=172 ms
64 bytes from 203-210-4-091.static.pccw-hkt.com (203.210.4.91): icmp_seq=73 ttl=52 time=172 ms
64 bytes from 203-210-4-091.static.pccw-hkt.com (203.210.4.91): icmp_seq=73 ttl=52 time=172 ms
64 bytes from 203-210-4-091.static.pccw-hkt.com (203.210.4.91): icmp_seq=73 ttl=52 time=172 ms
64 bytes from 203-210-4-091.static.pccw-hkt.com (203.210.4.91): icmp_seq=73 ttl=52 time=172 ms
64 bytes from 203-210-4-091.static.pccw-hkt.com (203.210.4.91): icmp_seq=73 ttl=52 time=172 ms
64 bytes from 203-210-4-091.static.pccw-hkt.com (203.210.4.91): icmp_seq=73 ttl=52 time=172 ms
64 bytes from 203-210-4-091.static.pccw-hkt.com (203.210.4.91): icmp_seq=73 ttl=52 time=172 ms
64 bytes from 203-210-4-091.static.pccw-hkt.com (203.210.4.91): icmp_seq=74 ttl=52 time=172 ms
64 bytes from 203-210-4-091.static.pccw-hkt.com (203.210.4.91): icmp_seq=74 ttl=52 time=172 ms
64 bytes from 203-210-4-091.static.pccw-hkt.com (203.210.4.91): icmp_seq=74 ttl=52 time=172 ms
64 bytes from 203-210-4-091.static.pccw-hkt.com (203.210.4.91): icmp_seq=74 ttl=52 time=172 ms
64 bytes from 203-210-4-091.static.pccw-hkt.com (203.210.4.91): icmp_seq=74 ttl=52 time=172 ms
64 bytes from 203-210-4-091.static.pccw-hkt.com (203.210.4.91): icmp_seq=74 ttl=52 time=172 ms
64 bytes from 203-210-4-091.static.pccw-hkt.com (203.210.4.91): icmp_seq=74 ttl=52 time=171 ms
64 bytes from 203-210-4-091.static.pccw-hkt.com (203.210.4.91): icmp_seq=74 ttl=52 time=171 ms
64 bytes from 203-210-4-091.static.pccw-hkt.com (203.210.4.91): icmp_seq=74 ttl=52 time=172 ms
64 bytes from 203-210-4-091.static.pccw-hkt.com (203.210.4.91): icmp_seq=74 ttl=52 time=172 ms
64 bytes from 203-210-4-091.static.pccw-hkt.com (203.210.4.91): icmp_seq=75 ttl=52 time=172 ms
64 bytes from 203-210-4-091.static.pccw-hkt.com (203.210.4.91): icmp_seq=75 ttl=52 time=172 ms
64 bytes from 203-210-4-091.static.pccw-hkt.com (203.210.4.91): icmp_seq=75 ttl=52 time=172 ms
64 bytes from 203-210-4-091.static.pccw-hkt.com (203.210.4.91): icmp_seq=75 ttl=52 time=172 ms
64 bytes from 203-210-4-091.static.pccw-hkt.com (203.210.4.91): icmp_seq=75 ttl=52 time=172 ms
64 bytes from 203-210-4-091.static.pccw-hkt.com (203.210.4.91): icmp_seq=75 ttl=52 time=172 ms
64 bytes from 203-210-4-091.static.pccw-hkt.com (203.210.4.91): icmp_seq=75 ttl=52 time=172 ms
64 bytes from 203-210-4-091.static.pccw-hkt.com (203.210.4.91): icmp_seq=75 ttl=52 time=172 ms
64 bytes from 203-210-4-091.static.pccw-hkt.com (203.210.4.91): icmp_seq=75 ttl=52 time=172 ms
64 bytes from 203-210-4-091.static.pccw-hkt.com (203.210.4.91): icmp_seq=75 ttl=52 time=172 ms
64 bytes from 203-210-4-091.static.pccw-hkt.com (203.210.4.91): icmp_seq=76 ttl=52 time=172 ms
64 bytes from 203-210-4-091.static.pccw-hkt.com (203.210.4.91): icmp_seq=76 ttl=52 time=172 ms
64 bytes from 203-210-4-091.static.pccw-hkt.com (203.210.4.91): icmp_seq=76 ttl=52 time=172 ms
64 bytes from 203-210-4-091.static.pccw-hkt.com (203.210.4.91): icmp_seq=76 ttl=52 time=172 ms
64 bytes from 203-210-4-091.static.pccw-hkt.com (203.210.4.91): icmp_seq=76 ttl=52 time=172 ms
64 bytes from 203-210-4-091.static.pccw-hkt.com (203.210.4.91): icmp_seq=76 ttl=52 time=172 ms
64 bytes from 203-210-4-091.static.pccw-hkt.com (203.210.4.91): icmp_seq=76 ttl=52 time=172 ms
64 bytes from 203-210-4-091.static.pccw-hkt.com (203.210.4.91): icmp_seq=76 ttl=52 time=172 ms
64 bytes from 203-210-4-091.static.pccw-hkt.com (203.210.4.91): icmp_seq=76 ttl=52 time=172 ms
64 bytes from 203-210-4-091.static.pccw-hkt.com (203.210.4.91): icmp_seq=76 ttl=52 time=171 ms
64 bytes from 203-210-4-091.static.pccw-hkt.com (203.210.4.91): icmp_seq=77 ttl=52 time=172 ms
64 bytes from 203-210-4-091.static.pccw-hkt.com (203.210.4.91): icmp_seq=77 ttl=52 time=172 ms
64 bytes from 203-210-4-091.static.pccw-hkt.com (203.210.4.91): icmp_seq=77 ttl=52 time=172 ms
64 bytes from 203-210-4-091.static.pccw-hkt.com (203.210.4.91): icmp_seq=77 ttl=52 time=172 ms
64 bytes from 203-210-4-091.static.pccw-hkt.com (203.210.4.91): icmp_seq=77 ttl=52 time=172 ms
64 bytes from 203-210-4-091.static.pccw-hkt.com (203.210.4.91): icmp_seq=77 ttl=52 time=171 ms
64 bytes from 203-210-4-091.static.pccw-hkt.com (203.210.4.91): icmp_seq=77 ttl=52 time=172 ms
64 bytes from 203-210-4-091.static.pccw-hkt.com (203.210.4.91): icmp_seq=77 ttl=52 time=172 ms
64 bytes from 203-210-4-091.static.pccw-hkt.com (203.210.4.91): icmp_seq=77 ttl=52 time=172 ms
64 bytes from 203-210-4-091.static.pccw-hkt.com (203.210.4.91): icmp_seq=77 ttl=52 time=172 ms
64 bytes from 203-210-4-091.static.pccw-hkt.com (203.210.4.91): icmp_seq=78 ttl=52 time=172 ms
64 bytes from 203-210-4-091.static.pccw-hkt.com (203.210.4.91): icmp_seq=78 ttl=52 time=172 ms
64 bytes from 203-210-4-091.static.pccw-hkt.com (203.210.4.91): icmp_seq=78 ttl=52 time=172 ms
64 bytes from 203-210-4-091.static.pccw-hkt.com (203.210.4.91): icmp_seq=78 ttl=52 time=172 ms
64 bytes from 203-210-4-091.static.pccw-hkt.com (203.210.4.91): icmp_seq=78 ttl=52 time=172 ms
64 bytes from 203-210-4-091.static.pccw-hkt.com (203.210.4.91): icmp_seq=78 ttl=52 time=172 ms
64 bytes from 203-210-4-091.static.pccw-hkt.com (203.210.4.91): icmp_seq=78 ttl=52 time=172 ms
64 bytes from 203-210-4-091.static.pccw-hkt.com (203.210.4.91): icmp_seq=78 ttl=52 time=172 ms
64 bytes from 203-210-4-091.static.pccw-hkt.com (203.210.4.91): icmp_seq=78 ttl=52 time=172 ms
64 bytes from 203-210-4-091.static.pccw-hkt.com (203.210.4.91): icmp_seq=78 ttl=52 time=172 ms
64 bytes from 203-210-4-091.static.pccw-hkt.com (203.210.4.91): icmp_seq=79 ttl=52 time=172 ms
64 bytes from 203-210-4-091.static.pccw-hkt.com (203.210.4.91): icmp_seq=79 ttl=52 time=172 ms
64 bytes from 203-210-4-091.static.pccw-hkt.com (203.210.4.91): icmp_seq=79 ttl=52 time=172 ms
64 bytes from 203-210-4-091.static.pccw-hkt.com (203.210.4.91): icmp_seq=79 ttl=52 time=172 ms
64 bytes from 203-210-4-091.static.pccw-hkt.com (203.210.4.91): icmp_seq=79 ttl=52 time=172 ms
64 bytes from 203-210-4-091.static.pccw-hkt.com (203.210.4.91): icmp_seq=79 ttl=52 time=172 ms
64 bytes from 203-210-4-091.static.pccw-hkt.com (203.210.4.91): icmp_seq=79 ttl=52 time=172 ms
64 bytes from 203-210-4-091.static.pccw-hkt.com (203.210.4.91): icmp_seq=79 ttl=52 time=172 ms
64 bytes from 203-210-4-091.static.pccw-hkt.com (203.210.4.91): icmp_seq=79 ttl=52 time=172 ms
64 bytes from 203-210-4-091.static.pccw-hkt.com (203.210.4.91): icmp_seq=79 ttl=52 time=172 ms
64 bytes from 203-210-4-091.static.pccw-hkt.com (203.210.4.91): icmp_seq=80 ttl=52 time=172 ms
64 bytes from 203-210-4-091.static.pccw-hkt.com (203.210.4.91): icmp_seq=80 ttl=52 time=172 ms
64 bytes from 203-210-4-091.static.pccw-hkt.com (203.210.4.91): icmp_seq=80 ttl=52 time=172 ms
64 bytes from 203-210-4-091.static.pccw-hkt.com (203.210.4.91): icmp_seq=80 ttl=52 time=172 ms
64 bytes from 203-210-4-091.static.pccw-hkt.com (203.210.4.91): icmp_seq=80 ttl=52 time=172 ms
64 bytes from 203-210-4-091.static.pccw-hkt.com (203.210.4.91): icmp_seq=80 ttl=52 time=172 ms
64 bytes from 203-210-4-091.static.pccw-hkt.com (203.210.4.91): icmp_seq=80 ttl=52 time=172 ms
64 bytes from 203-210-4-091.static.pccw-hkt.com (203.210.4.91): icmp_seq=80 ttl=52 time=172 ms
64 bytes from 203-210-4-091.static.pccw-hkt.com (203.210.4.91): icmp_seq=80 ttl=52 time=172 ms
64 bytes from 203-210-4-091.static.pccw-hkt.com (203.210.4.91): icmp_seq=80 ttl=52 time=172 ms
64 bytes from 203-210-4-091.static.pccw-hkt.com (203.210.4.91): icmp_seq=81 ttl=52 time=172 ms
64 bytes from 203-210-4-091.static.pccw-hkt.com (203.210.4.91): icmp_seq=81 ttl=52 time=172 ms
64 bytes from 203-210-4-091.static.pccw-hkt.com (203.210.4.91): icmp_seq=81 ttl=52 time=172 ms
64 bytes from 203-210-4-091.static.pccw-hkt.com (203.210.4.91): icmp_seq=81 ttl=52 time=172 ms
64 bytes from 203-210-4-091.static.pccw-hkt.com (203.210.4.91): icmp_seq=81 ttl=52 time=172 ms
64 bytes from 203-210-4-091.static.pccw-hkt.com (203.210.4.91): icmp_seq=81 ttl=52 time=172 ms
64 bytes from 203-210-4-091.static.pccw-hkt.com (203.210.4.91): icmp_seq=81 ttl=52 time=172 ms
64 bytes from 203-210-4-091.static.pccw-hkt.com (203.210.4.91): icmp_seq=81 ttl=52 time=172 ms
64 bytes from 203-210-4-091.static.pccw-hkt.com (203.210.4.91): icmp_seq=81 ttl=52 time=172 ms
64 bytes from 203-210-4-091.static.pccw-hkt.com (203.210.4.91): icmp_seq=81 ttl=52 time=172 ms
64 bytes from 203-210-4-091.static.pccw-hkt.com (203.210.4.91): icmp_seq=82 ttl=52 time=172 ms
64 bytes from 203-210-4-091.static.pccw-hkt.com (203.210.4.91): icmp_seq=82 ttl=52 time=172 ms
64 bytes from 203-210-4-091.static.pccw-hkt.com (203.210.4.91): icmp_seq=82 ttl=52 time=172 ms
64 bytes from 203-210-4-091.static.pccw-hkt.com (203.210.4.91): icmp_seq=82 ttl=52 time=172 ms
64 bytes from 203-210-4-091.static.pccw-hkt.com (203.210.4.91): icmp_seq=82 ttl=52 time=172 ms
64 bytes from 203-210-4-091.static.pccw-hkt.com (203.210.4.91): icmp_seq=82 ttl=52 time=172 ms
64 bytes from 203-210-4-091.static.pccw-hkt.com (203.210.4.91): icmp_seq=82 ttl=52 time=172 ms
64 bytes from 203-210-4-091.static.pccw-hkt.com (203.210.4.91): icmp_seq=82 ttl=52 time=172 ms
64 bytes from 203-210-4-091.static.pccw-hkt.com (203.210.4.91): icmp_seq=82 ttl=52 time=172 ms
64 bytes from 203-210-4-091.static.pccw-hkt.com (203.210.4.91): icmp_seq=82 ttl=52 time=171 ms
64 bytes from 203-210-4-091.static.pccw-hkt.com (203.210.4.91): icmp_seq=83 ttl=52 time=172 ms
64 bytes from 203-210-4-091.static.pccw-hkt.com (203.210.4.91): icmp_seq=83 ttl=52 time=172 ms
64 bytes from 203-210-4-091.static.pccw-hkt.com (203.210.4.91): icmp_seq=83 ttl=52 time=172 ms
64 bytes from 203-210-4-091.static.pccw-hkt.com (203.210.4.91): icmp_seq=83 ttl=52 time=172 ms
64 bytes from 203-210-4-091.static.pccw-hkt.com (203.210.4.91): icmp_seq=83 ttl=52 time=172 ms
64 bytes from 203-210-4-091.static.pccw-hkt.com (203.210.4.91): icmp_seq=83 ttl=52 time=172 ms
64 bytes from 203-210-4-091.static.pccw-hkt.com (203.210.4.91): icmp_seq=83 ttl=52 time=172 ms
64 bytes from 203-210-4-091.static.pccw-hkt.com (203.210.4.91): icmp_seq=83 ttl=52 time=172 ms
64 bytes from 203-210-4-091.static.pccw-hkt.com (203.210.4.91): icmp_seq=83 ttl=52 time=171 ms
64 bytes from 203-210-4-091.static.pccw-hkt.com (203.210.4.91): icmp_seq=83 ttl=52 time=172 ms
64 bytes from 203-210-4-091.static.pccw-hkt.com (203.210.4.91): icmp_seq=84 ttl=52 time=172 ms
64 bytes from 203-210-4-091.static.pccw-hkt.com (203.210.4.91): icmp_seq=84 ttl=52 time=172 ms
64 bytes from 203-210-4-091.static.pccw-hkt.com (203.210.4.91): icmp_seq=84 ttl=52 time=172 ms
64 bytes from 203-210-4-091.static.pccw-hkt.com (203.210.4.91): icmp_seq=84 ttl=52 time=172 ms
64 bytes from 203-210-4-091.static.pccw-hkt.com (203.210.4.91): icmp_seq=84 ttl=52 time=172 ms
64 bytes from 203-210-4-091.static.pccw-hkt.com (203.210.4.91): icmp_seq=84 ttl=52 time=172 ms
64 bytes from 203-210-4-091.static.pccw-hkt.com (203.210.4.91): icmp_seq=84 ttl=52 time=172 ms
64 bytes from 203-210-4-091.static.pccw-hkt.com (203.210.4.91): icmp_seq=84 ttl=52 time=172 ms
64 bytes from 203-210-4-091.static.pccw-hkt.com (203.210.4.91): icmp_seq=84 ttl=52 time=172 ms
64 bytes from 203-210-4-091.static.pccw-hkt.com (203.210.4.91): icmp_seq=84 ttl=52 time=172 ms
64 bytes from 203-210-4-091.static.pccw-hkt.com (203.210.4.91): icmp_seq=85 ttl=52 time=172 ms
64 bytes from 203-210-4-091.static.pccw-hkt.com (203.210.4.91): icmp_seq=85 ttl=52 time=172 ms
64 bytes from 203-210-4-091.static.pccw-hkt.com (203.210.4.91): icmp_seq=85 ttl=52 time=172 ms
64 bytes from 203-210-4-091.static.pccw-hkt.com (203.210.4.91): icmp_seq=85 ttl=52 time=172 ms
64 bytes from 203-210-4-091.static.pccw-hkt.com (203.210.4.91): icmp_seq=85 ttl=52 time=173 ms
64 bytes from 203-210-4-091.static.pccw-hkt.com (203.210.4.91): icmp_seq=85 ttl=52 time=172 ms
64 bytes from 203-210-4-091.static.pccw-hkt.com (203.210.4.91): icmp_seq=85 ttl=52 time=172 ms
64 bytes from 203-210-4-091.static.pccw-hkt.com (203.210.4.91): icmp_seq=85 ttl=52 time=172 ms
64 bytes from 203-210-4-091.static.pccw-hkt.com (203.210.4.91): icmp_seq=85 ttl=52 time=172 ms
64 bytes from 203-210-4-091.static.pccw-hkt.com (203.210.4.91): icmp_seq=85 ttl=52 time=173 ms
64 bytes from 203-210-4-091.static.pccw-hkt.com (203.210.4.91): icmp_seq=86 ttl=52 time=172 ms
64 bytes from 203-210-4-091.static.pccw-hkt.com (203.210.4.91): icmp_seq=86 ttl=52 time=172 ms
64 bytes from 203-210-4-091.static.pccw-hkt.com (203.210.4.91): icmp_seq=86 ttl=52 time=172 ms
64 bytes from 203-210-4-091.static.pccw-hkt.com (203.210.4.91): icmp_seq=86 ttl=52 time=172 ms
64 bytes from 203-210-4-091.static.pccw-hkt.com (203.210.4.91): icmp_seq=86 ttl=52 time=172 ms
64 bytes from 203-210-4-091.static.pccw-hkt.com (203.210.4.91): icmp_seq=86 ttl=52 time=172 ms
64 bytes from 203-210-4-091.static.pccw-hkt.com (203.210.4.91): icmp_seq=86 ttl=52 time=172 ms
64 bytes from 203-210-4-091.static.pccw-hkt.com (203.210.4.91): icmp_seq=86 ttl=52 time=172 ms
64 bytes from 203-210-4-091.static.pccw-hkt.com (203.210.4.91): icmp_seq=86 ttl=52 time=172 ms
64 bytes from 203-210-4-091.static.pccw-hkt.com (203.210.4.91): icmp_seq=86 ttl=52 time=172 ms
64 bytes from 203-210-4-091.static.pccw-hkt.com (203.210.4.91): icmp_seq=87 ttl=52 time=172 ms
64 bytes from 203-210-4-091.static.pccw-hkt.com (203.210.4.91): icmp_seq=87 ttl=52 time=173 ms
64 bytes from 203-210-4-091.static.pccw-hkt.com (203.210.4.91): icmp_seq=87 ttl=52 time=172 ms
64 bytes from 203-210-4-091.static.pccw-hkt.com (203.210.4.91): icmp_seq=87 ttl=52 time=172 ms
64 bytes from 203-210-4-091.static.pccw-hkt.com (203.210.4.91): icmp_seq=87 ttl=52 time=172 ms
64 bytes from 203-210-4-091.static.pccw-hkt.com (203.210.4.91): icmp_seq=87 ttl=52 time=172 ms
64 bytes from 203-210-4-091.static.pccw-hkt.com (203.210.4.91): icmp_seq=87 ttl=52 time=173 ms
64 bytes from 203-210-4-091.static.pccw-hkt.com (203.210.4.91): icmp_seq=87 ttl=52 time=172 ms
64 bytes from 203-210-4-091.static.pccw-hkt.com (203.210.4.91): icmp_seq=87 ttl=52 time=173 ms
64 bytes from 203-210-4-091.static.pccw-hkt.com (203.210.4.91): icmp_seq=87 ttl=52 time=172 ms
64 bytes from 203-210-4-091.static.pccw-hkt.com (203.210.4.91): icmp_seq=88 ttl=52 time=172 ms
64 bytes from 203-210-4-091.static.pccw-hkt.com (203.210.4.91): icmp_seq=88 ttl=52 time=172 ms
64 bytes from 203-210-4-091.static.pccw-hkt.com (203.210.4.91): icmp_seq=88 ttl=52 time=172 ms
64 bytes from 203-210-4-091.static.pccw-hkt.com (203.210.4.91): icmp_seq=88 ttl=52 time=172 ms
64 bytes from 203-210-4-091.static.pccw-hkt.com (203.210.4.91): icmp_seq=88 ttl=52 time=172 ms
64 bytes from 203-210-4-091.static.pccw-hkt.com (203.210.4.91): icmp_seq=88 ttl=52 time=172 ms
64 bytes from 203-210-4-091.static.pccw-hkt.com (203.210.4.91): icmp_seq=88 ttl=52 time=172 ms
64 bytes from 203-210-4-091.static.pccw-hkt.com (203.210.4.91): icmp_seq=88 ttl=52 time=172 ms
64 bytes from 203-210-4-091.static.pccw-hkt.com (203.210.4.91): icmp_seq=88 ttl=52 time=172 ms
64 bytes from 203-210-4-091.static.pccw-hkt.com (203.210.4.91): icmp_seq=88 ttl=52 time=171 ms
64 bytes from 203-210-4-091.static.pccw-hkt.com (203.210.4.91): icmp_seq=89 ttl=52 time=171 ms
64 bytes from 203-210-4-091.static.pccw-hkt.com (203.210.4.91): icmp_seq=89 ttl=52 time=172 ms
64 bytes from 203-210-4-091.static.pccw-hkt.com (203.210.4.91): icmp_seq=89 ttl=52 time=171 ms
64 bytes from 203-210-4-091.static.pccw-hkt.com (203.210.4.91): icmp_seq=89 ttl=52 time=171 ms
64 bytes from 203-210-4-091.static.pccw-hkt.com (203.210.4.91): icmp_seq=89 ttl=52 time=172 ms
64 bytes from 203-210-4-091.static.pccw-hkt.com (203.210.4.91): icmp_seq=89 ttl=52 time=172 ms
64 bytes from 203-210-4-091.static.pccw-hkt.com (203.210.4.91): icmp_seq=89 ttl=52 time=171 ms
64 bytes from 203-210-4-091.static.pccw-hkt.com (203.210.4.91): icmp_seq=89 ttl=52 time=172 ms
64 bytes from 203-210-4-091.static.pccw-hkt.com (203.210.4.91): icmp_seq=89 ttl=52 time=171 ms
64 bytes from 203-210-4-091.static.pccw-hkt.com (203.210.4.91): icmp_seq=89 ttl=52 time=171 ms
64 bytes from 203-210-4-091.static.pccw-hkt.com (203.210.4.91): icmp_seq=90 ttl=52 time=172 ms
64 bytes from 203-210-4-091.static.pccw-hkt.com (203.210.4.91): icmp_seq=90 ttl=52 time=172 ms
64 bytes from 203-210-4-091.static.pccw-hkt.com (203.210.4.91): icmp_seq=90 ttl=52 time=172 ms
64 bytes from 203-210-4-091.static.pccw-hkt.com (203.210.4.91): icmp_seq=90 ttl=52 time=172 ms
64 bytes from 203-210-4-091.static.pccw-hkt.com (203.210.4.91): icmp_seq=90 ttl=52 time=172 ms
64 bytes from 203-210-4-091.static.pccw-hkt.com (203.210.4.91): icmp_seq=90 ttl=52 time=172 ms
64 bytes from 203-210-4-091.static.pccw-hkt.com (203.210.4.91): icmp_seq=90 ttl=52 time=172 ms
64 bytes from 203-210-4-091.static.pccw-hkt.com (203.210.4.91): icmp_seq=90 ttl=52 time=172 ms
64 bytes from 203-210-4-091.static.pccw-hkt.com (203.210.4.91): icmp_seq=90 ttl=52 time=172 ms
64 bytes from 203-210-4-091.static.pccw-hkt.com (203.210.4.91): icmp_seq=90 ttl=52 time=172 ms
64 bytes from 203-210-4-091.static.pccw-hkt.com (203.210.4.91): icmp_seq=91 ttl=52 time=172 ms
64 bytes from 203-210-4-091.static.pccw-hkt.com (203.210.4.91): icmp_seq=91 ttl=52 time=172 ms
64 bytes from 203-210-4-091.static.pccw-hkt.com (203.210.4.91): icmp_seq=91 ttl=52 time=172 ms
64 bytes from 203-210-4-091.static.pccw-hkt.com (203.210.4.91): icmp_seq=91 ttl=52 time=172 ms
64 bytes from 203-210-4-091.static.pccw-hkt.com (203.210.4.91): icmp_seq=91 ttl=52 time=172 ms
64 bytes from 203-210-4-091.static.pccw-hkt.com (203.210.4.91): icmp_seq=91 ttl=52 time=172 ms
64 bytes from 203-210-4-091.static.pccw-hkt.com (203.210.4.91): icmp_seq=91 ttl=52 time=172 ms
64 bytes from 203-210-4-091.static.pccw-hkt.com (203.210.4.91): icmp_seq=91 ttl=52 time=172 ms
64 bytes from 203-210-4-091.static.pccw-hkt.com (203.210.4.91): icmp_seq=91 ttl=52 time=172 ms
64 bytes from 203-210-4-091.static.pccw-hkt.com (203.210.4.91): icmp_seq=91 ttl=52 time=172 ms
64 bytes from 203-210-4-091.static.pccw-hkt.com (203.210.4.91): icmp_seq=92 ttl=52 time=172 ms
64 bytes from 203-210-4-091.static.pccw-hkt.com (203.210.4.91): icmp_seq=92 ttl=52 time=172 ms
64 bytes from 203-210-4-091.static.pccw-hkt.com (203.210.4.91): icmp_seq=92 ttl=52 time=172 ms
64 bytes from 203-210-4-091.static.pccw-hkt.com (203.210.4.91): icmp_seq=92 ttl=52 time=172 ms
64 bytes from 203-210-4-091.static.pccw-hkt.com (203.210.4.91): icmp_seq=92 ttl=52 time=172 ms
64 bytes from 203-210-4-091.static.pccw-hkt.com (203.210.4.91): icmp_seq=92 ttl=52 time=172 ms
64 bytes from 203-210-4-091.static.pccw-hkt.com (203.210.4.91): icmp_seq=92 ttl=52 time=172 ms
64 bytes from 203-210-4-091.static.pccw-hkt.com (203.210.4.91): icmp_seq=92 ttl=52 time=172 ms
64 bytes from 203-210-4-091.static.pccw-hkt.com (203.210.4.91): icmp_seq=92 ttl=52 time=172 ms
64 bytes from 203-210-4-091.static.pccw-hkt.com (203.210.4.91): icmp_seq=92 ttl=52 time=171 ms
64 bytes from 203-210-4-091.static.pccw-hkt.com (203.210.4.91): icmp_seq=93 ttl=52 time=172 ms
64 bytes from 203-210-4-091.static.pccw-hkt.com (203.210.4.91): icmp_seq=93 ttl=52 time=172 ms
64 bytes from 203-210-4-091.static.pccw-hkt.com (203.210.4.91): icmp_seq=93 ttl=52 time=172 ms
64 bytes from 203-210-4-091.static.pccw-hkt.com (203.210.4.91): icmp_seq=93 ttl=52 time=172 ms
64 bytes from 203-210-4-091.static.pccw-hkt.com (203.210.4.91): icmp_seq=93 ttl=52 time=172 ms
64 bytes from 203-210-4-091.static.pccw-hkt.com (203.210.4.91): icmp_seq=93 ttl=52 time=172 ms
64 bytes from 203-210-4-091.static.pccw-hkt.com (203.210.4.91): icmp_seq=93 ttl=52 time=172 ms
64 bytes from 203-210-4-091.static.pccw-hkt.com (203.210.4.91): icmp_seq=93 ttl=52 time=172 ms
64 bytes from 203-210-4-091.static.pccw-hkt.com (203.210.4.91): icmp_seq=93 ttl=52 time=172 ms
64 bytes from 203-210-4-091.static.pccw-hkt.com (203.210.4.91): icmp_seq=93 ttl=52 time=172 ms
64 bytes from 203-210-4-091.static.pccw-hkt.com (203.210.4.91): icmp_seq=94 ttl=52 time=172 ms
64 bytes from 203-210-4-091.static.pccw-hkt.com (203.210.4.91): icmp_seq=94 ttl=52 time=172 ms
64 bytes from 203-210-4-091.static.pccw-hkt.com (203.210.4.91): icmp_seq=94 ttl=52 time=172 ms
64 bytes from 203-210-4-091.static.pccw-hkt.com (203.210.4.91): icmp_seq=94 ttl=52 time=172 ms
64 bytes from 203-210-4-091.static.pccw-hkt.com (203.210.4.91): icmp_seq=94 ttl=52 time=172 ms
64 bytes from 203-210-4-091.static.pccw-hkt.com (203.210.4.91): icmp_seq=94 ttl=52 time=172 ms
64 bytes from 203-210-4-091.static.pccw-hkt.com (203.210.4.91): icmp_seq=94 ttl=52 time=172 ms
64 bytes from 203-210-4-091.static.pccw-hkt.com (203.210.4.91): icmp_seq=94 ttl=52 time=172 ms
64 bytes from 203-210-4-091.static.pccw-hkt.com (203.210.4.91): icmp_seq=94 ttl=52 time=172 ms
64 bytes from 203-210-4-091.static.pccw-hkt.com (203.210.4.91): icmp_seq=94 ttl=52 time=172 ms
64 bytes from 203-210-4-091.static.pccw-hkt.com (203.210.4.91): icmp_seq=95 ttl=52 time=172 ms
64 bytes from 203-210-4-091.static.pccw-hkt.com (203.210.4.91): icmp_seq=95 ttl=52 time=172 ms
64 bytes from 203-210-4-091.static.pccw-hkt.com (203.210.4.91): icmp_seq=95 ttl=52 time=172 ms
64 bytes from 203-210-4-091.static.pccw-hkt.com (203.210.4.91): icmp_seq=95 ttl=52 time=172 ms
64 bytes from 203-210-4-091.static.pccw-hkt.com (203.210.4.91): icmp_seq=95 ttl=52 time=172 ms
64 bytes from 203-210-4-091.static.pccw-hkt.com (203.210.4.91): icmp_seq=95 ttl=52 time=172 ms
64 bytes from 203-210-4-091.static.pccw-hkt.com (203.210.4.91): icmp_seq=95 ttl=52 time=172 ms
64 bytes from 203-210-4-091.static.pccw-hkt.com (203.210.4.91): icmp_seq=95 ttl=52 time=172 ms
64 bytes from 203-210-4-091.static.pccw-hkt.com (203.210.4.91): icmp_seq=95 ttl=52 time=172 ms
64 bytes from 203-210-4-091.static.pccw-hkt.com (203.210.4.91): icmp_seq=95 ttl=52 time=172 ms
64 bytes from 203-210-4-091.static.pccw-hkt.com (203.210.4.91): icmp_seq=96 ttl=52 time=173 ms
64 bytes from 203-210-4-091.static.pccw-hkt.com (203.210.4.91): icmp_seq=96 ttl=52 time=173 ms
64 bytes from 203-210-4-091.static.pccw-hkt.com (203.210.4.91): icmp_seq=96 ttl=52 time=173 ms
64 bytes from 203-210-4-091.static.pccw-hkt.com (203.210.4.91): icmp_seq=96 ttl=52 time=173 ms
64 bytes from 203-210-4-091.static.pccw-hkt.com (203.210.4.91): icmp_seq=96 ttl=52 time=173 ms
64 bytes from 203-210-4-091.static.pccw-hkt.com (203.210.4.91): icmp_seq=96 ttl=52 time=173 ms
64 bytes from 203-210-4-091.static.pccw-hkt.com (203.210.4.91): icmp_seq=96 ttl=52 time=173 ms
64 bytes from 203-210-4-091.static.pccw-hkt.com (203.210.4.91): icmp_seq=96 ttl=52 time=173 ms
64 bytes from 203-210-4-091.static.pccw-hkt.com (203.210.4.91): icmp_seq=96 ttl=52 time=173 ms
64 bytes from 203-210-4-091.static.pccw-hkt.com (203.210.4.91): icmp_seq=96 ttl=52 time=173 ms
64 bytes from 203-210-4-091.static.pccw-hkt.com (203.210.4.91): icmp_seq=97 ttl=52 time=172 ms
64 bytes from 203-210-4-091.static.pccw-hkt.com (203.210.4.91): icmp_seq=97 ttl=52 time=172 ms
64 bytes from 203-210-4-091.static.pccw-hkt.com (203.210.4.91): icmp_seq=97 ttl=52 time=172 ms
64 bytes from 203-210-4-091.static.pccw-hkt.com (203.210.4.91): icmp_seq=97 ttl=52 time=172 ms
64 bytes from 203-210-4-091.static.pccw-hkt.com (203.210.4.91): icmp_seq=97 ttl=52 time=172 ms
64 bytes from 203-210-4-091.static.pccw-hkt.com (203.210.4.91): icmp_seq=97 ttl=52 time=172 ms
64 bytes from 203-210-4-091.static.pccw-hkt.com (203.210.4.91): icmp_seq=97 ttl=52 time=172 ms
64 bytes from 203-210-4-091.static.pccw-hkt.com (203.210.4.91): icmp_seq=97 ttl=52 time=172 ms
64 bytes from 203-210-4-091.static.pccw-hkt.com (203.210.4.91): icmp_seq=97 ttl=52 time=172 ms
64 bytes from 203-210-4-091.static.pccw-hkt.com (203.210.4.91): icmp_seq=97 ttl=52 time=172 ms
64 bytes from 203-210-4-091.static.pccw-hkt.com (203.210.4.91): icmp_seq=98 ttl=52 time=172 ms
64 bytes from 203-210-4-091.static.pccw-hkt.com (203.210.4.91): icmp_seq=98 ttl=52 time=172 ms
64 bytes from 203-210-4-091.static.pccw-hkt.com (203.210.4.91): icmp_seq=98 ttl=52 time=172 ms
64 bytes from 203-210-4-091.static.pccw-hkt.com (203.210.4.91): icmp_seq=98 ttl=52 time=172 ms
64 bytes from 203-210-4-091.static.pccw-hkt.com (203.210.4.91): icmp_seq=98 ttl=52 time=172 ms
64 bytes from 203-210-4-091.static.pccw-hkt.com (203.210.4.91): icmp_seq=98 ttl=52 time=172 ms
64 bytes from 203-210-4-091.static.pccw-hkt.com (203.210.4.91): icmp_seq=98 ttl=52 time=172 ms
64 bytes from 203-210-4-091.static.pccw-hkt.com (203.210.4.91): icmp_seq=98 ttl=52 time=172 ms
64 bytes from 203-210-4-091.static.pccw-hkt.com (203.210.4.91): icmp_seq=98 ttl=52 time=172 ms
64 bytes from 203-210-4-091.static.pccw-hkt.com (203.210.4.91): icmp_seq=98 ttl=52 time=171 ms
64 bytes from 203-210-4-091.static.pccw-hkt.com (203.210.4.91): icmp_seq=99 ttl=52 time=172 ms
64 bytes from 203-210-4-091.static.pccw-hkt.com (203.210.4.91): icmp_seq=99 ttl=52 time=172 ms
64 bytes from 203-210-4-091.static.pccw-hkt.com (203.210.4.91): icmp_seq=99 ttl=52 time=172 ms
64 bytes from 203-210-4-091.static.pccw-hkt.com (203.210.4.91): icmp_seq=99 ttl=52 time=172 ms
64 bytes from 203-210-4-091.static.pccw-hkt.com (203.210.4.91): icmp_seq=99 ttl=52 time=172 ms
64 bytes from 203-210-4-091.static.pccw-hkt.com (203.210.4.91): icmp_seq=99 ttl=52 time=172 ms
64 bytes from 203-210-4-091.static.pccw-hkt.com (203.210.4.91): icmp_seq=99 ttl=52 time=172 ms
64 bytes from 203-210-4-091.static.pccw-hkt.com (203.210.4.91): icmp_seq=99 ttl=52 time=172 ms
64 bytes from 203-210-4-091.static.pccw-hkt.com (203.210.4.91): icmp_seq=99 ttl=52 time=172 ms
64 bytes from 203-210-4-091.static.pccw-hkt.com (203.210.4.91): icmp_seq=99 ttl=52 time=172 ms
64 bytes from 203-210-4-091.static.pccw-hkt.com (203.210.4.91): icmp_seq=100 ttl=52 time=172 ms
64 bytes from 203-210-4-091.static.pccw-hkt.com (203.210.4.91): icmp_seq=100 ttl=52 time=172 ms

64 bytes from 203-210-4-091.static.pccw-hkt.com (203.210.4.91): icmp_seq=100 ttl=52 time=172 ms

64 bytes from 203-210-4-091.static.pccw-hkt.com (203.210.4.91): icmp_seq=100 ttl=52 time=172 ms

64 bytes from 203-210-4-091.static.pccw-hkt.com (203.210.4.91): icmp_seq=100 ttl=52 time=172 ms

64 bytes from 203-210-4-091.static.pccw-hkt.com (203.210.4.91): icmp_seq=100 ttl=52 time=172 ms

64 bytes from 203-210-4-091.static.pccw-hkt.com (203.210.4.91): icmp_seq=100 ttl=52 time=172 ms
--- csl2.hkspeedtest.com ping statistics ---
100 packets transmitted, 100 received, 0% packet loss, time 99157ms
rtt min/avg/max/mdev = 171.787/172.483/174.497/0.581 ms

--- csl2.hkspeedtest.com ping statistics ---
100 packets transmitted, 100 received, 0% packet loss, time 99157ms
rtt min/avg/max/mdev = 171.719/172.479/174.491/0.529 ms

--- csl2.hkspeedtest.com ping statistics ---
100 packets transmitted, 100 received, 0% packet loss, time 99157ms
rtt min/avg/max/mdev = 171.724/172.480/174.528/0.610 ms
64 bytes from 203-210-4-091.static.pccw-hkt.com (203.210.4.91): icmp_seq=100 ttl=52 time=172 ms
--- csl2.hkspeedtest.com ping statistics ---
100 packets transmitted, 100 received, 0% packet loss, time 99157ms
rtt min/avg/max/mdev = 171.681/172.488/174.468/0.539 ms
--- csl2.hkspeedtest.com ping statistics ---
100 packets transmitted, 100 received, 0% packet loss, time 99157ms
rtt min/avg/max/mdev = 171.717/172.491/174.422/0.533 ms

--- csl2.hkspeedtest.com ping statistics ---
100 packets transmitted, 100 received, 0% packet loss, time 99157ms
rtt min/avg/max/mdev = 171.791/172.474/174.548/0.551 ms
--- csl2.hkspeedtest.com ping statistics ---
100 packets transmitted, 100 received, 0% packet loss, time 99158ms
rtt min/avg/max/mdev = 171.750/172.487/174.464/0.482 ms
--- csl2.hkspeedtest.com ping statistics ---
100 packets transmitted, 100 received, 0% packet loss, time 99157ms
rtt min/avg/max/mdev = 171.867/172.496/174.419/0.643 ms
64 bytes from 203-210-4-091.static.pccw-hkt.com (203.210.4.91): icmp_seq=100 ttl=52 time=172 ms

--- csl2.hkspeedtest.com ping statistics ---
100 packets transmitted, 100 received, 0% packet loss, time 99157ms
rtt min/avg/max/mdev = 171.702/172.505/174.495/0.626 ms
64 bytes from 203-210-4-091.static.pccw-hkt.com (203.210.4.91): icmp_seq=100 ttl=52 time=171 ms

--- csl2.hkspeedtest.com ping statistics ---
100 packets transmitted, 100 received, 0% packet loss, time 99161ms
rtt min/avg/max/mdev = 171.659/172.384/174.508/0.663 ms
