     1	1404104 
     2	1404104 
     3	1404104 
     4	1964104 
     5	1964104 
     6	1964104 
     7	1593088 
     8	1593088 
     9	1468724 
    10	1468724 
    11	1468724 
    12	1872128 
    13	1872128 
    14	1872128 
    15	1684992 
    16	1684992 
    17	1684992 
    18	1500520 
    19	1500520 
    20	1500520 
    21	1500060 
    22	1500060 
    23	1500060 
    24	1499932 
    25	1499932 
    26	1499932 
    27	1499916 
    28	1499916 
    29	1499916 
    30	1499912 
    31	1499912 
    32	1499912 
    33	1494764 
    34	1494764 
    35	1494764 
    36	1494064 
    37	1494064 
    38	1494064 
    39	1493004 
    40	1493004 
    41	1493004 
    42	1487828 
    43	1487828 
    44	1487828 
    45	1487824 
    46	1487824 
    47	1487824 
    48	1487792 
    49	1487792 
    50	1487792 
    51	1487784 
    52	1487784 
    53	1487784 
    54	1477824 
    55	1477824 
    56	1477824 
    57	1465852 
    58	1465852 
    59	1465852 
    60	1458060 
    61	1458060 
    62	1462264 
    63	1462264 
    64	1462264 
    65	1439932 
    66	1439932 
    67	1439932 
