     1	1442884 
     2	1442884 
     3	1442884 
     4	1443128 
     5	1443128 
     6	1443128 
     7	1443112 
     8	1443112 
     9	1443112 
    10	1443140 
    11	1443140 
    12	1443140 
    13	1443120 
    14	1443120 
    15	1443120 
    16	1443144 
    17	1443144 
    18	1443144 
    19	1443124 
    20	1443124 
    21	1443124 
    22	1443180 
    23	1443180 
    24	1443180 
