PING nyc.speedtest.sbcglobal.net (99.24.18.25) 56(84) bytes of data.
64 bytes from nyc.speedtest.sbcglobal.net (99.24.18.25): icmp_seq=1 ttl=51 time=80.0 ms
PING nyc.speedtest.sbcglobal.net (99.24.18.25) 56(84) bytes of data.
64 bytes from nyc.speedtest.sbcglobal.net (99.24.18.25): icmp_seq=1 ttl=51 time=80.0 ms
PING nyc.speedtest.sbcglobal.net (99.24.18.25) 56(84) bytes of data.
64 bytes from nyc.speedtest.sbcglobal.net (99.24.18.25): icmp_seq=1 ttl=51 time=80.1 ms
PING nyc.speedtest.sbcglobal.net (99.24.18.25) 56(84) bytes of data.
64 bytes from nyc.speedtest.sbcglobal.net (99.24.18.25): icmp_seq=1 ttl=51 time=80.1 ms
PING nyc.speedtest.sbcglobal.net (99.24.18.25) 56(84) bytes of data.
64 bytes from nyc.speedtest.sbcglobal.net (99.24.18.25): icmp_seq=1 ttl=51 time=80.1 ms
PING nyc.speedtest.sbcglobal.net (99.24.18.25) 56(84) bytes of data.
64 bytes from nyc.speedtest.sbcglobal.net (99.24.18.25): icmp_seq=1 ttl=51 time=80.0 ms
PING nyc.speedtest.sbcglobal.net (99.24.18.25) 56(84) bytes of data.
64 bytes from nyc.speedtest.sbcglobal.net (99.24.18.25): icmp_seq=1 ttl=51 time=80.0 ms
PING nyc.speedtest.sbcglobal.net (99.24.18.25) 56(84) bytes of data.
64 bytes from nyc.speedtest.sbcglobal.net (99.24.18.25): icmp_seq=1 ttl=51 time=80.0 ms
PING nyc.speedtest.sbcglobal.net (99.24.18.25) 56(84) bytes of data.
64 bytes from nyc.speedtest.sbcglobal.net (99.24.18.25): icmp_seq=1 ttl=51 time=80.0 ms
PING nyc.speedtest.sbcglobal.net (99.24.18.25) 56(84) bytes of data.
64 bytes from nyc.speedtest.sbcglobal.net (99.24.18.25): icmp_seq=1 ttl=51 time=80.1 ms
64 bytes from nyc.speedtest.sbcglobal.net (99.24.18.25): icmp_seq=2 ttl=51 time=80.2 ms
64 bytes from nyc.speedtest.sbcglobal.net (99.24.18.25): icmp_seq=2 ttl=51 time=80.2 ms
64 bytes from nyc.speedtest.sbcglobal.net (99.24.18.25): icmp_seq=2 ttl=51 time=80.2 ms
64 bytes from nyc.speedtest.sbcglobal.net (99.24.18.25): icmp_seq=2 ttl=51 time=80.1 ms
64 bytes from nyc.speedtest.sbcglobal.net (99.24.18.25): icmp_seq=2 ttl=51 time=80.2 ms
64 bytes from nyc.speedtest.sbcglobal.net (99.24.18.25): icmp_seq=2 ttl=51 time=80.2 ms
64 bytes from nyc.speedtest.sbcglobal.net (99.24.18.25): icmp_seq=2 ttl=51 time=80.1 ms
64 bytes from nyc.speedtest.sbcglobal.net (99.24.18.25): icmp_seq=2 ttl=51 time=80.1 ms
64 bytes from nyc.speedtest.sbcglobal.net (99.24.18.25): icmp_seq=2 ttl=51 time=79.7 ms
64 bytes from nyc.speedtest.sbcglobal.net (99.24.18.25): icmp_seq=2 ttl=51 time=79.9 ms
64 bytes from nyc.speedtest.sbcglobal.net (99.24.18.25): icmp_seq=3 ttl=51 time=80.3 ms
64 bytes from nyc.speedtest.sbcglobal.net (99.24.18.25): icmp_seq=3 ttl=51 time=80.3 ms
64 bytes from nyc.speedtest.sbcglobal.net (99.24.18.25): icmp_seq=3 ttl=51 time=80.3 ms
64 bytes from nyc.speedtest.sbcglobal.net (99.24.18.25): icmp_seq=3 ttl=51 time=80.3 ms
64 bytes from nyc.speedtest.sbcglobal.net (99.24.18.25): icmp_seq=3 ttl=51 time=80.4 ms
64 bytes from nyc.speedtest.sbcglobal.net (99.24.18.25): icmp_seq=3 ttl=51 time=80.4 ms
64 bytes from nyc.speedtest.sbcglobal.net (99.24.18.25): icmp_seq=3 ttl=51 time=80.4 ms
64 bytes from nyc.speedtest.sbcglobal.net (99.24.18.25): icmp_seq=3 ttl=51 time=80.2 ms
64 bytes from nyc.speedtest.sbcglobal.net (99.24.18.25): icmp_seq=3 ttl=51 time=80.3 ms
64 bytes from nyc.speedtest.sbcglobal.net (99.24.18.25): icmp_seq=3 ttl=51 time=80.3 ms
64 bytes from nyc.speedtest.sbcglobal.net (99.24.18.25): icmp_seq=4 ttl=51 time=80.1 ms
64 bytes from nyc.speedtest.sbcglobal.net (99.24.18.25): icmp_seq=4 ttl=51 time=80.2 ms
64 bytes from nyc.speedtest.sbcglobal.net (99.24.18.25): icmp_seq=4 ttl=51 time=80.2 ms
64 bytes from nyc.speedtest.sbcglobal.net (99.24.18.25): icmp_seq=4 ttl=51 time=80.2 ms
64 bytes from nyc.speedtest.sbcglobal.net (99.24.18.25): icmp_seq=4 ttl=51 time=80.2 ms
64 bytes from nyc.speedtest.sbcglobal.net (99.24.18.25): icmp_seq=4 ttl=51 time=80.3 ms
64 bytes from nyc.speedtest.sbcglobal.net (99.24.18.25): icmp_seq=4 ttl=51 time=80.1 ms
64 bytes from nyc.speedtest.sbcglobal.net (99.24.18.25): icmp_seq=4 ttl=51 time=80.2 ms
64 bytes from nyc.speedtest.sbcglobal.net (99.24.18.25): icmp_seq=4 ttl=51 time=80.3 ms
64 bytes from nyc.speedtest.sbcglobal.net (99.24.18.25): icmp_seq=4 ttl=51 time=80.2 ms
64 bytes from nyc.speedtest.sbcglobal.net (99.24.18.25): icmp_seq=5 ttl=51 time=80.4 ms
64 bytes from nyc.speedtest.sbcglobal.net (99.24.18.25): icmp_seq=5 ttl=51 time=80.3 ms
64 bytes from nyc.speedtest.sbcglobal.net (99.24.18.25): icmp_seq=5 ttl=51 time=80.4 ms
64 bytes from nyc.speedtest.sbcglobal.net (99.24.18.25): icmp_seq=5 ttl=51 time=80.4 ms
64 bytes from nyc.speedtest.sbcglobal.net (99.24.18.25): icmp_seq=5 ttl=51 time=80.4 ms
64 bytes from nyc.speedtest.sbcglobal.net (99.24.18.25): icmp_seq=5 ttl=51 time=80.4 ms
64 bytes from nyc.speedtest.sbcglobal.net (99.24.18.25): icmp_seq=5 ttl=51 time=80.2 ms
64 bytes from nyc.speedtest.sbcglobal.net (99.24.18.25): icmp_seq=5 ttl=51 time=80.3 ms
64 bytes from nyc.speedtest.sbcglobal.net (99.24.18.25): icmp_seq=5 ttl=51 time=80.3 ms
64 bytes from nyc.speedtest.sbcglobal.net (99.24.18.25): icmp_seq=5 ttl=51 time=80.4 ms
64 bytes from nyc.speedtest.sbcglobal.net (99.24.18.25): icmp_seq=6 ttl=51 time=80.0 ms
64 bytes from nyc.speedtest.sbcglobal.net (99.24.18.25): icmp_seq=6 ttl=51 time=80.1 ms
64 bytes from nyc.speedtest.sbcglobal.net (99.24.18.25): icmp_seq=6 ttl=51 time=80.0 ms
64 bytes from nyc.speedtest.sbcglobal.net (99.24.18.25): icmp_seq=6 ttl=51 time=80.1 ms
64 bytes from nyc.speedtest.sbcglobal.net (99.24.18.25): icmp_seq=6 ttl=51 time=80.1 ms
64 bytes from nyc.speedtest.sbcglobal.net (99.24.18.25): icmp_seq=6 ttl=51 time=80.1 ms
64 bytes from nyc.speedtest.sbcglobal.net (99.24.18.25): icmp_seq=6 ttl=51 time=80.1 ms
64 bytes from nyc.speedtest.sbcglobal.net (99.24.18.25): icmp_seq=6 ttl=51 time=80.0 ms
64 bytes from nyc.speedtest.sbcglobal.net (99.24.18.25): icmp_seq=6 ttl=51 time=80.0 ms
64 bytes from nyc.speedtest.sbcglobal.net (99.24.18.25): icmp_seq=6 ttl=51 time=80.0 ms
64 bytes from nyc.speedtest.sbcglobal.net (99.24.18.25): icmp_seq=7 ttl=51 time=80.3 ms
64 bytes from nyc.speedtest.sbcglobal.net (99.24.18.25): icmp_seq=7 ttl=51 time=80.3 ms
64 bytes from nyc.speedtest.sbcglobal.net (99.24.18.25): icmp_seq=7 ttl=51 time=80.3 ms
64 bytes from nyc.speedtest.sbcglobal.net (99.24.18.25): icmp_seq=7 ttl=51 time=80.3 ms
64 bytes from nyc.speedtest.sbcglobal.net (99.24.18.25): icmp_seq=7 ttl=51 time=80.3 ms
64 bytes from nyc.speedtest.sbcglobal.net (99.24.18.25): icmp_seq=7 ttl=51 time=80.3 ms
64 bytes from nyc.speedtest.sbcglobal.net (99.24.18.25): icmp_seq=7 ttl=51 time=80.3 ms
64 bytes from nyc.speedtest.sbcglobal.net (99.24.18.25): icmp_seq=7 ttl=51 time=80.3 ms
64 bytes from nyc.speedtest.sbcglobal.net (99.24.18.25): icmp_seq=7 ttl=51 time=80.3 ms
64 bytes from nyc.speedtest.sbcglobal.net (99.24.18.25): icmp_seq=7 ttl=51 time=80.2 ms
64 bytes from nyc.speedtest.sbcglobal.net (99.24.18.25): icmp_seq=8 ttl=51 time=80.1 ms
64 bytes from nyc.speedtest.sbcglobal.net (99.24.18.25): icmp_seq=8 ttl=51 time=80.1 ms
64 bytes from nyc.speedtest.sbcglobal.net (99.24.18.25): icmp_seq=8 ttl=51 time=80.1 ms
64 bytes from nyc.speedtest.sbcglobal.net (99.24.18.25): icmp_seq=8 ttl=51 time=80.2 ms
64 bytes from nyc.speedtest.sbcglobal.net (99.24.18.25): icmp_seq=8 ttl=51 time=80.2 ms
64 bytes from nyc.speedtest.sbcglobal.net (99.24.18.25): icmp_seq=8 ttl=51 time=80.2 ms
64 bytes from nyc.speedtest.sbcglobal.net (99.24.18.25): icmp_seq=8 ttl=51 time=80.2 ms
64 bytes from nyc.speedtest.sbcglobal.net (99.24.18.25): icmp_seq=8 ttl=51 time=80.2 ms
64 bytes from nyc.speedtest.sbcglobal.net (99.24.18.25): icmp_seq=8 ttl=51 time=80.2 ms
64 bytes from nyc.speedtest.sbcglobal.net (99.24.18.25): icmp_seq=8 ttl=51 time=80.0 ms
64 bytes from nyc.speedtest.sbcglobal.net (99.24.18.25): icmp_seq=9 ttl=51 time=79.9 ms
64 bytes from nyc.speedtest.sbcglobal.net (99.24.18.25): icmp_seq=9 ttl=51 time=79.9 ms
64 bytes from nyc.speedtest.sbcglobal.net (99.24.18.25): icmp_seq=9 ttl=51 time=79.9 ms
64 bytes from nyc.speedtest.sbcglobal.net (99.24.18.25): icmp_seq=9 ttl=51 time=79.9 ms
64 bytes from nyc.speedtest.sbcglobal.net (99.24.18.25): icmp_seq=9 ttl=51 time=80.0 ms
64 bytes from nyc.speedtest.sbcglobal.net (99.24.18.25): icmp_seq=9 ttl=51 time=79.9 ms
64 bytes from nyc.speedtest.sbcglobal.net (99.24.18.25): icmp_seq=9 ttl=51 time=80.0 ms
64 bytes from nyc.speedtest.sbcglobal.net (99.24.18.25): icmp_seq=9 ttl=51 time=79.9 ms
64 bytes from nyc.speedtest.sbcglobal.net (99.24.18.25): icmp_seq=9 ttl=51 time=80.0 ms
64 bytes from nyc.speedtest.sbcglobal.net (99.24.18.25): icmp_seq=9 ttl=51 time=79.8 ms
64 bytes from nyc.speedtest.sbcglobal.net (99.24.18.25): icmp_seq=10 ttl=51 time=80.3 ms
64 bytes from nyc.speedtest.sbcglobal.net (99.24.18.25): icmp_seq=10 ttl=51 time=80.4 ms
64 bytes from nyc.speedtest.sbcglobal.net (99.24.18.25): icmp_seq=10 ttl=51 time=80.3 ms
64 bytes from nyc.speedtest.sbcglobal.net (99.24.18.25): icmp_seq=10 ttl=51 time=80.4 ms
64 bytes from nyc.speedtest.sbcglobal.net (99.24.18.25): icmp_seq=10 ttl=51 time=80.4 ms
64 bytes from nyc.speedtest.sbcglobal.net (99.24.18.25): icmp_seq=10 ttl=51 time=80.4 ms
64 bytes from nyc.speedtest.sbcglobal.net (99.24.18.25): icmp_seq=10 ttl=51 time=80.4 ms
64 bytes from nyc.speedtest.sbcglobal.net (99.24.18.25): icmp_seq=10 ttl=51 time=80.2 ms
64 bytes from nyc.speedtest.sbcglobal.net (99.24.18.25): icmp_seq=10 ttl=51 time=80.4 ms
64 bytes from nyc.speedtest.sbcglobal.net (99.24.18.25): icmp_seq=10 ttl=51 time=80.4 ms
64 bytes from nyc.speedtest.sbcglobal.net (99.24.18.25): icmp_seq=11 ttl=51 time=80.0 ms
64 bytes from nyc.speedtest.sbcglobal.net (99.24.18.25): icmp_seq=11 ttl=51 time=79.9 ms
64 bytes from nyc.speedtest.sbcglobal.net (99.24.18.25): icmp_seq=11 ttl=51 time=79.9 ms
64 bytes from nyc.speedtest.sbcglobal.net (99.24.18.25): icmp_seq=11 ttl=51 time=79.9 ms
64 bytes from nyc.speedtest.sbcglobal.net (99.24.18.25): icmp_seq=11 ttl=51 time=79.9 ms
64 bytes from nyc.speedtest.sbcglobal.net (99.24.18.25): icmp_seq=11 ttl=51 time=79.9 ms
64 bytes from nyc.speedtest.sbcglobal.net (99.24.18.25): icmp_seq=11 ttl=51 time=79.9 ms
64 bytes from nyc.speedtest.sbcglobal.net (99.24.18.25): icmp_seq=11 ttl=51 time=79.9 ms
64 bytes from nyc.speedtest.sbcglobal.net (99.24.18.25): icmp_seq=11 ttl=51 time=80.0 ms
64 bytes from nyc.speedtest.sbcglobal.net (99.24.18.25): icmp_seq=11 ttl=51 time=79.8 ms
64 bytes from nyc.speedtest.sbcglobal.net (99.24.18.25): icmp_seq=12 ttl=51 time=80.3 ms
64 bytes from nyc.speedtest.sbcglobal.net (99.24.18.25): icmp_seq=12 ttl=51 time=80.3 ms
64 bytes from nyc.speedtest.sbcglobal.net (99.24.18.25): icmp_seq=12 ttl=51 time=80.3 ms
64 bytes from nyc.speedtest.sbcglobal.net (99.24.18.25): icmp_seq=12 ttl=51 time=80.4 ms
64 bytes from nyc.speedtest.sbcglobal.net (99.24.18.25): icmp_seq=12 ttl=51 time=80.4 ms
64 bytes from nyc.speedtest.sbcglobal.net (99.24.18.25): icmp_seq=12 ttl=51 time=80.3 ms
64 bytes from nyc.speedtest.sbcglobal.net (99.24.18.25): icmp_seq=12 ttl=51 time=80.3 ms
64 bytes from nyc.speedtest.sbcglobal.net (99.24.18.25): icmp_seq=12 ttl=51 time=80.3 ms
64 bytes from nyc.speedtest.sbcglobal.net (99.24.18.25): icmp_seq=12 ttl=51 time=80.4 ms
64 bytes from nyc.speedtest.sbcglobal.net (99.24.18.25): icmp_seq=12 ttl=51 time=80.3 ms
64 bytes from nyc.speedtest.sbcglobal.net (99.24.18.25): icmp_seq=13 ttl=51 time=80.0 ms
64 bytes from nyc.speedtest.sbcglobal.net (99.24.18.25): icmp_seq=13 ttl=51 time=80.0 ms
64 bytes from nyc.speedtest.sbcglobal.net (99.24.18.25): icmp_seq=13 ttl=51 time=80.0 ms
64 bytes from nyc.speedtest.sbcglobal.net (99.24.18.25): icmp_seq=13 ttl=51 time=80.0 ms
64 bytes from nyc.speedtest.sbcglobal.net (99.24.18.25): icmp_seq=13 ttl=51 time=80.0 ms
64 bytes from nyc.speedtest.sbcglobal.net (99.24.18.25): icmp_seq=13 ttl=51 time=80.0 ms
64 bytes from nyc.speedtest.sbcglobal.net (99.24.18.25): icmp_seq=13 ttl=51 time=80.0 ms
64 bytes from nyc.speedtest.sbcglobal.net (99.24.18.25): icmp_seq=13 ttl=51 time=80.0 ms
64 bytes from nyc.speedtest.sbcglobal.net (99.24.18.25): icmp_seq=13 ttl=51 time=79.9 ms
64 bytes from nyc.speedtest.sbcglobal.net (99.24.18.25): icmp_seq=13 ttl=51 time=79.9 ms
64 bytes from nyc.speedtest.sbcglobal.net (99.24.18.25): icmp_seq=14 ttl=51 time=79.9 ms
64 bytes from nyc.speedtest.sbcglobal.net (99.24.18.25): icmp_seq=14 ttl=51 time=79.9 ms
64 bytes from nyc.speedtest.sbcglobal.net (99.24.18.25): icmp_seq=14 ttl=51 time=80.0 ms
64 bytes from nyc.speedtest.sbcglobal.net (99.24.18.25): icmp_seq=14 ttl=51 time=79.9 ms
64 bytes from nyc.speedtest.sbcglobal.net (99.24.18.25): icmp_seq=14 ttl=51 time=80.0 ms
64 bytes from nyc.speedtest.sbcglobal.net (99.24.18.25): icmp_seq=14 ttl=51 time=79.9 ms
64 bytes from nyc.speedtest.sbcglobal.net (99.24.18.25): icmp_seq=14 ttl=51 time=80.0 ms
64 bytes from nyc.speedtest.sbcglobal.net (99.24.18.25): icmp_seq=14 ttl=51 time=80.0 ms
64 bytes from nyc.speedtest.sbcglobal.net (99.24.18.25): icmp_seq=14 ttl=51 time=79.9 ms
64 bytes from nyc.speedtest.sbcglobal.net (99.24.18.25): icmp_seq=14 ttl=51 time=79.9 ms
64 bytes from nyc.speedtest.sbcglobal.net (99.24.18.25): icmp_seq=15 ttl=51 time=83.0 ms
64 bytes from nyc.speedtest.sbcglobal.net (99.24.18.25): icmp_seq=15 ttl=51 time=83.0 ms
64 bytes from nyc.speedtest.sbcglobal.net (99.24.18.25): icmp_seq=15 ttl=51 time=83.0 ms
64 bytes from nyc.speedtest.sbcglobal.net (99.24.18.25): icmp_seq=15 ttl=51 time=83.0 ms
64 bytes from nyc.speedtest.sbcglobal.net (99.24.18.25): icmp_seq=15 ttl=51 time=83.0 ms
64 bytes from nyc.speedtest.sbcglobal.net (99.24.18.25): icmp_seq=15 ttl=51 time=83.0 ms
64 bytes from nyc.speedtest.sbcglobal.net (99.24.18.25): icmp_seq=15 ttl=51 time=83.0 ms
64 bytes from nyc.speedtest.sbcglobal.net (99.24.18.25): icmp_seq=15 ttl=51 time=83.0 ms
64 bytes from nyc.speedtest.sbcglobal.net (99.24.18.25): icmp_seq=15 ttl=51 time=83.0 ms
64 bytes from nyc.speedtest.sbcglobal.net (99.24.18.25): icmp_seq=15 ttl=51 time=83.0 ms
64 bytes from nyc.speedtest.sbcglobal.net (99.24.18.25): icmp_seq=16 ttl=51 time=79.9 ms
64 bytes from nyc.speedtest.sbcglobal.net (99.24.18.25): icmp_seq=16 ttl=51 time=79.9 ms
64 bytes from nyc.speedtest.sbcglobal.net (99.24.18.25): icmp_seq=16 ttl=51 time=79.9 ms
64 bytes from nyc.speedtest.sbcglobal.net (99.24.18.25): icmp_seq=16 ttl=51 time=79.9 ms
64 bytes from nyc.speedtest.sbcglobal.net (99.24.18.25): icmp_seq=16 ttl=51 time=79.9 ms
64 bytes from nyc.speedtest.sbcglobal.net (99.24.18.25): icmp_seq=16 ttl=51 time=79.9 ms
64 bytes from nyc.speedtest.sbcglobal.net (99.24.18.25): icmp_seq=16 ttl=51 time=79.9 ms
64 bytes from nyc.speedtest.sbcglobal.net (99.24.18.25): icmp_seq=16 ttl=51 time=79.8 ms
64 bytes from nyc.speedtest.sbcglobal.net (99.24.18.25): icmp_seq=16 ttl=51 time=79.9 ms
64 bytes from nyc.speedtest.sbcglobal.net (99.24.18.25): icmp_seq=16 ttl=51 time=79.9 ms
64 bytes from nyc.speedtest.sbcglobal.net (99.24.18.25): icmp_seq=17 ttl=51 time=80.1 ms
64 bytes from nyc.speedtest.sbcglobal.net (99.24.18.25): icmp_seq=17 ttl=51 time=80.1 ms
64 bytes from nyc.speedtest.sbcglobal.net (99.24.18.25): icmp_seq=17 ttl=51 time=80.1 ms
64 bytes from nyc.speedtest.sbcglobal.net (99.24.18.25): icmp_seq=17 ttl=51 time=80.2 ms
64 bytes from nyc.speedtest.sbcglobal.net (99.24.18.25): icmp_seq=17 ttl=51 time=80.1 ms
64 bytes from nyc.speedtest.sbcglobal.net (99.24.18.25): icmp_seq=17 ttl=51 time=80.1 ms
64 bytes from nyc.speedtest.sbcglobal.net (99.24.18.25): icmp_seq=17 ttl=51 time=80.2 ms
64 bytes from nyc.speedtest.sbcglobal.net (99.24.18.25): icmp_seq=17 ttl=51 time=80.1 ms
64 bytes from nyc.speedtest.sbcglobal.net (99.24.18.25): icmp_seq=17 ttl=51 time=80.0 ms
64 bytes from nyc.speedtest.sbcglobal.net (99.24.18.25): icmp_seq=17 ttl=51 time=80.1 ms
64 bytes from nyc.speedtest.sbcglobal.net (99.24.18.25): icmp_seq=18 ttl=51 time=80.0 ms
64 bytes from nyc.speedtest.sbcglobal.net (99.24.18.25): icmp_seq=18 ttl=51 time=80.0 ms
64 bytes from nyc.speedtest.sbcglobal.net (99.24.18.25): icmp_seq=18 ttl=51 time=80.0 ms
64 bytes from nyc.speedtest.sbcglobal.net (99.24.18.25): icmp_seq=18 ttl=51 time=80.0 ms
64 bytes from nyc.speedtest.sbcglobal.net (99.24.18.25): icmp_seq=18 ttl=51 time=80.0 ms
64 bytes from nyc.speedtest.sbcglobal.net (99.24.18.25): icmp_seq=18 ttl=51 time=80.0 ms
64 bytes from nyc.speedtest.sbcglobal.net (99.24.18.25): icmp_seq=18 ttl=51 time=80.1 ms
64 bytes from nyc.speedtest.sbcglobal.net (99.24.18.25): icmp_seq=18 ttl=51 time=79.9 ms
64 bytes from nyc.speedtest.sbcglobal.net (99.24.18.25): icmp_seq=18 ttl=51 time=79.9 ms
64 bytes from nyc.speedtest.sbcglobal.net (99.24.18.25): icmp_seq=18 ttl=51 time=80.0 ms
64 bytes from nyc.speedtest.sbcglobal.net (99.24.18.25): icmp_seq=19 ttl=51 time=80.0 ms
64 bytes from nyc.speedtest.sbcglobal.net (99.24.18.25): icmp_seq=19 ttl=51 time=80.0 ms
64 bytes from nyc.speedtest.sbcglobal.net (99.24.18.25): icmp_seq=19 ttl=51 time=80.0 ms
64 bytes from nyc.speedtest.sbcglobal.net (99.24.18.25): icmp_seq=19 ttl=51 time=80.0 ms
64 bytes from nyc.speedtest.sbcglobal.net (99.24.18.25): icmp_seq=19 ttl=51 time=80.1 ms
64 bytes from nyc.speedtest.sbcglobal.net (99.24.18.25): icmp_seq=19 ttl=51 time=80.0 ms
64 bytes from nyc.speedtest.sbcglobal.net (99.24.18.25): icmp_seq=19 ttl=51 time=80.1 ms
64 bytes from nyc.speedtest.sbcglobal.net (99.24.18.25): icmp_seq=19 ttl=51 time=80.1 ms
64 bytes from nyc.speedtest.sbcglobal.net (99.24.18.25): icmp_seq=19 ttl=51 time=80.1 ms
64 bytes from nyc.speedtest.sbcglobal.net (99.24.18.25): icmp_seq=19 ttl=51 time=79.9 ms
64 bytes from nyc.speedtest.sbcglobal.net (99.24.18.25): icmp_seq=20 ttl=51 time=79.8 ms
64 bytes from nyc.speedtest.sbcglobal.net (99.24.18.25): icmp_seq=20 ttl=51 time=79.8 ms
64 bytes from nyc.speedtest.sbcglobal.net (99.24.18.25): icmp_seq=20 ttl=51 time=79.8 ms
64 bytes from nyc.speedtest.sbcglobal.net (99.24.18.25): icmp_seq=20 ttl=51 time=79.9 ms
64 bytes from nyc.speedtest.sbcglobal.net (99.24.18.25): icmp_seq=20 ttl=51 time=79.9 ms
64 bytes from nyc.speedtest.sbcglobal.net (99.24.18.25): icmp_seq=20 ttl=51 time=79.9 ms
64 bytes from nyc.speedtest.sbcglobal.net (99.24.18.25): icmp_seq=20 ttl=51 time=79.9 ms
64 bytes from nyc.speedtest.sbcglobal.net (99.24.18.25): icmp_seq=20 ttl=51 time=79.9 ms
64 bytes from nyc.speedtest.sbcglobal.net (99.24.18.25): icmp_seq=20 ttl=51 time=79.9 ms
64 bytes from nyc.speedtest.sbcglobal.net (99.24.18.25): icmp_seq=20 ttl=51 time=79.7 ms
64 bytes from nyc.speedtest.sbcglobal.net (99.24.18.25): icmp_seq=21 ttl=51 time=80.0 ms
64 bytes from nyc.speedtest.sbcglobal.net (99.24.18.25): icmp_seq=21 ttl=51 time=79.9 ms
64 bytes from nyc.speedtest.sbcglobal.net (99.24.18.25): icmp_seq=21 ttl=51 time=79.9 ms
64 bytes from nyc.speedtest.sbcglobal.net (99.24.18.25): icmp_seq=21 ttl=51 time=80.0 ms
64 bytes from nyc.speedtest.sbcglobal.net (99.24.18.25): icmp_seq=21 ttl=51 time=80.0 ms
64 bytes from nyc.speedtest.sbcglobal.net (99.24.18.25): icmp_seq=21 ttl=51 time=79.9 ms
64 bytes from nyc.speedtest.sbcglobal.net (99.24.18.25): icmp_seq=21 ttl=51 time=79.8 ms
64 bytes from nyc.speedtest.sbcglobal.net (99.24.18.25): icmp_seq=21 ttl=51 time=79.8 ms
64 bytes from nyc.speedtest.sbcglobal.net (99.24.18.25): icmp_seq=21 ttl=51 time=79.7 ms
64 bytes from nyc.speedtest.sbcglobal.net (99.24.18.25): icmp_seq=21 ttl=51 time=79.9 ms
64 bytes from nyc.speedtest.sbcglobal.net (99.24.18.25): icmp_seq=22 ttl=51 time=80.1 ms
64 bytes from nyc.speedtest.sbcglobal.net (99.24.18.25): icmp_seq=22 ttl=51 time=80.1 ms
64 bytes from nyc.speedtest.sbcglobal.net (99.24.18.25): icmp_seq=22 ttl=51 time=80.1 ms
64 bytes from nyc.speedtest.sbcglobal.net (99.24.18.25): icmp_seq=22 ttl=51 time=80.0 ms
64 bytes from nyc.speedtest.sbcglobal.net (99.24.18.25): icmp_seq=22 ttl=51 time=80.1 ms
64 bytes from nyc.speedtest.sbcglobal.net (99.24.18.25): icmp_seq=22 ttl=51 time=80.0 ms
64 bytes from nyc.speedtest.sbcglobal.net (99.24.18.25): icmp_seq=22 ttl=51 time=80.1 ms
64 bytes from nyc.speedtest.sbcglobal.net (99.24.18.25): icmp_seq=22 ttl=51 time=79.8 ms
64 bytes from nyc.speedtest.sbcglobal.net (99.24.18.25): icmp_seq=22 ttl=51 time=79.8 ms
64 bytes from nyc.speedtest.sbcglobal.net (99.24.18.25): icmp_seq=22 ttl=51 time=79.8 ms
64 bytes from nyc.speedtest.sbcglobal.net (99.24.18.25): icmp_seq=23 ttl=51 time=80.0 ms
64 bytes from nyc.speedtest.sbcglobal.net (99.24.18.25): icmp_seq=23 ttl=51 time=80.0 ms
64 bytes from nyc.speedtest.sbcglobal.net (99.24.18.25): icmp_seq=23 ttl=51 time=80.0 ms
64 bytes from nyc.speedtest.sbcglobal.net (99.24.18.25): icmp_seq=23 ttl=51 time=80.1 ms
64 bytes from nyc.speedtest.sbcglobal.net (99.24.18.25): icmp_seq=23 ttl=51 time=80.0 ms
64 bytes from nyc.speedtest.sbcglobal.net (99.24.18.25): icmp_seq=23 ttl=51 time=80.1 ms
64 bytes from nyc.speedtest.sbcglobal.net (99.24.18.25): icmp_seq=23 ttl=51 time=80.1 ms
64 bytes from nyc.speedtest.sbcglobal.net (99.24.18.25): icmp_seq=23 ttl=51 time=80.0 ms
64 bytes from nyc.speedtest.sbcglobal.net (99.24.18.25): icmp_seq=23 ttl=51 time=79.9 ms
64 bytes from nyc.speedtest.sbcglobal.net (99.24.18.25): icmp_seq=23 ttl=51 time=79.7 ms
64 bytes from nyc.speedtest.sbcglobal.net (99.24.18.25): icmp_seq=24 ttl=51 time=80.0 ms
64 bytes from nyc.speedtest.sbcglobal.net (99.24.18.25): icmp_seq=24 ttl=51 time=80.0 ms
64 bytes from nyc.speedtest.sbcglobal.net (99.24.18.25): icmp_seq=24 ttl=51 time=80.0 ms
64 bytes from nyc.speedtest.sbcglobal.net (99.24.18.25): icmp_seq=24 ttl=51 time=80.0 ms
64 bytes from nyc.speedtest.sbcglobal.net (99.24.18.25): icmp_seq=24 ttl=51 time=80.0 ms
64 bytes from nyc.speedtest.sbcglobal.net (99.24.18.25): icmp_seq=24 ttl=51 time=80.0 ms
64 bytes from nyc.speedtest.sbcglobal.net (99.24.18.25): icmp_seq=24 ttl=51 time=80.1 ms
64 bytes from nyc.speedtest.sbcglobal.net (99.24.18.25): icmp_seq=24 ttl=51 time=80.0 ms
64 bytes from nyc.speedtest.sbcglobal.net (99.24.18.25): icmp_seq=24 ttl=51 time=79.9 ms
64 bytes from nyc.speedtest.sbcglobal.net (99.24.18.25): icmp_seq=24 ttl=51 time=79.9 ms
64 bytes from nyc.speedtest.sbcglobal.net (99.24.18.25): icmp_seq=25 ttl=51 time=80.0 ms
64 bytes from nyc.speedtest.sbcglobal.net (99.24.18.25): icmp_seq=25 ttl=51 time=80.0 ms
64 bytes from nyc.speedtest.sbcglobal.net (99.24.18.25): icmp_seq=25 ttl=51 time=80.0 ms
64 bytes from nyc.speedtest.sbcglobal.net (99.24.18.25): icmp_seq=25 ttl=51 time=80.0 ms
64 bytes from nyc.speedtest.sbcglobal.net (99.24.18.25): icmp_seq=25 ttl=51 time=80.1 ms
64 bytes from nyc.speedtest.sbcglobal.net (99.24.18.25): icmp_seq=25 ttl=51 time=80.1 ms
64 bytes from nyc.speedtest.sbcglobal.net (99.24.18.25): icmp_seq=25 ttl=51 time=80.1 ms
64 bytes from nyc.speedtest.sbcglobal.net (99.24.18.25): icmp_seq=25 ttl=51 time=80.0 ms
64 bytes from nyc.speedtest.sbcglobal.net (99.24.18.25): icmp_seq=25 ttl=51 time=80.0 ms
64 bytes from nyc.speedtest.sbcglobal.net (99.24.18.25): icmp_seq=25 ttl=51 time=79.7 ms
64 bytes from nyc.speedtest.sbcglobal.net (99.24.18.25): icmp_seq=26 ttl=51 time=80.2 ms
64 bytes from nyc.speedtest.sbcglobal.net (99.24.18.25): icmp_seq=26 ttl=51 time=80.2 ms
64 bytes from nyc.speedtest.sbcglobal.net (99.24.18.25): icmp_seq=26 ttl=51 time=80.2 ms
64 bytes from nyc.speedtest.sbcglobal.net (99.24.18.25): icmp_seq=26 ttl=51 time=80.3 ms
64 bytes from nyc.speedtest.sbcglobal.net (99.24.18.25): icmp_seq=26 ttl=51 time=80.2 ms
64 bytes from nyc.speedtest.sbcglobal.net (99.24.18.25): icmp_seq=26 ttl=51 time=80.2 ms
64 bytes from nyc.speedtest.sbcglobal.net (99.24.18.25): icmp_seq=26 ttl=51 time=80.3 ms
64 bytes from nyc.speedtest.sbcglobal.net (99.24.18.25): icmp_seq=26 ttl=51 time=80.3 ms
64 bytes from nyc.speedtest.sbcglobal.net (99.24.18.25): icmp_seq=26 ttl=51 time=80.1 ms
64 bytes from nyc.speedtest.sbcglobal.net (99.24.18.25): icmp_seq=26 ttl=51 time=80.0 ms
64 bytes from nyc.speedtest.sbcglobal.net (99.24.18.25): icmp_seq=27 ttl=51 time=80.1 ms
64 bytes from nyc.speedtest.sbcglobal.net (99.24.18.25): icmp_seq=27 ttl=51 time=80.1 ms
64 bytes from nyc.speedtest.sbcglobal.net (99.24.18.25): icmp_seq=27 ttl=51 time=80.1 ms
64 bytes from nyc.speedtest.sbcglobal.net (99.24.18.25): icmp_seq=27 ttl=51 time=80.1 ms
64 bytes from nyc.speedtest.sbcglobal.net (99.24.18.25): icmp_seq=27 ttl=51 time=80.1 ms
64 bytes from nyc.speedtest.sbcglobal.net (99.24.18.25): icmp_seq=27 ttl=51 time=80.1 ms
64 bytes from nyc.speedtest.sbcglobal.net (99.24.18.25): icmp_seq=27 ttl=51 time=80.1 ms
64 bytes from nyc.speedtest.sbcglobal.net (99.24.18.25): icmp_seq=27 ttl=51 time=80.1 ms
64 bytes from nyc.speedtest.sbcglobal.net (99.24.18.25): icmp_seq=27 ttl=51 time=80.0 ms
64 bytes from nyc.speedtest.sbcglobal.net (99.24.18.25): icmp_seq=27 ttl=51 time=79.7 ms
64 bytes from nyc.speedtest.sbcglobal.net (99.24.18.25): icmp_seq=28 ttl=51 time=80.1 ms
64 bytes from nyc.speedtest.sbcglobal.net (99.24.18.25): icmp_seq=28 ttl=51 time=80.1 ms
64 bytes from nyc.speedtest.sbcglobal.net (99.24.18.25): icmp_seq=28 ttl=51 time=80.2 ms
64 bytes from nyc.speedtest.sbcglobal.net (99.24.18.25): icmp_seq=28 ttl=51 time=80.1 ms
64 bytes from nyc.speedtest.sbcglobal.net (99.24.18.25): icmp_seq=28 ttl=51 time=80.1 ms
64 bytes from nyc.speedtest.sbcglobal.net (99.24.18.25): icmp_seq=28 ttl=51 time=80.1 ms
64 bytes from nyc.speedtest.sbcglobal.net (99.24.18.25): icmp_seq=28 ttl=51 time=80.1 ms
64 bytes from nyc.speedtest.sbcglobal.net (99.24.18.25): icmp_seq=28 ttl=51 time=80.1 ms
64 bytes from nyc.speedtest.sbcglobal.net (99.24.18.25): icmp_seq=28 ttl=51 time=80.1 ms
64 bytes from nyc.speedtest.sbcglobal.net (99.24.18.25): icmp_seq=28 ttl=51 time=80.0 ms
64 bytes from nyc.speedtest.sbcglobal.net (99.24.18.25): icmp_seq=29 ttl=51 time=80.2 ms
64 bytes from nyc.speedtest.sbcglobal.net (99.24.18.25): icmp_seq=29 ttl=51 time=80.2 ms
64 bytes from nyc.speedtest.sbcglobal.net (99.24.18.25): icmp_seq=29 ttl=51 time=80.2 ms
64 bytes from nyc.speedtest.sbcglobal.net (99.24.18.25): icmp_seq=29 ttl=51 time=80.3 ms
64 bytes from nyc.speedtest.sbcglobal.net (99.24.18.25): icmp_seq=29 ttl=51 time=80.3 ms
64 bytes from nyc.speedtest.sbcglobal.net (99.24.18.25): icmp_seq=29 ttl=51 time=80.2 ms
64 bytes from nyc.speedtest.sbcglobal.net (99.24.18.25): icmp_seq=29 ttl=51 time=80.3 ms
64 bytes from nyc.speedtest.sbcglobal.net (99.24.18.25): icmp_seq=29 ttl=51 time=80.2 ms
64 bytes from nyc.speedtest.sbcglobal.net (99.24.18.25): icmp_seq=29 ttl=51 time=80.1 ms
64 bytes from nyc.speedtest.sbcglobal.net (99.24.18.25): icmp_seq=29 ttl=51 time=80.1 ms
64 bytes from nyc.speedtest.sbcglobal.net (99.24.18.25): icmp_seq=30 ttl=51 time=80.3 ms
64 bytes from nyc.speedtest.sbcglobal.net (99.24.18.25): icmp_seq=30 ttl=51 time=80.4 ms
64 bytes from nyc.speedtest.sbcglobal.net (99.24.18.25): icmp_seq=30 ttl=51 time=80.4 ms
64 bytes from nyc.speedtest.sbcglobal.net (99.24.18.25): icmp_seq=30 ttl=51 time=80.4 ms
64 bytes from nyc.speedtest.sbcglobal.net (99.24.18.25): icmp_seq=30 ttl=51 time=80.4 ms
64 bytes from nyc.speedtest.sbcglobal.net (99.24.18.25): icmp_seq=30 ttl=51 time=80.5 ms
64 bytes from nyc.speedtest.sbcglobal.net (99.24.18.25): icmp_seq=30 ttl=51 time=80.3 ms
64 bytes from nyc.speedtest.sbcglobal.net (99.24.18.25): icmp_seq=30 ttl=51 time=80.3 ms
64 bytes from nyc.speedtest.sbcglobal.net (99.24.18.25): icmp_seq=30 ttl=51 time=80.4 ms
64 bytes from nyc.speedtest.sbcglobal.net (99.24.18.25): icmp_seq=30 ttl=51 time=79.7 ms
64 bytes from nyc.speedtest.sbcglobal.net (99.24.18.25): icmp_seq=31 ttl=51 time=80.5 ms
64 bytes from nyc.speedtest.sbcglobal.net (99.24.18.25): icmp_seq=31 ttl=51 time=80.6 ms
64 bytes from nyc.speedtest.sbcglobal.net (99.24.18.25): icmp_seq=31 ttl=51 time=80.6 ms
64 bytes from nyc.speedtest.sbcglobal.net (99.24.18.25): icmp_seq=31 ttl=51 time=80.6 ms
64 bytes from nyc.speedtest.sbcglobal.net (99.24.18.25): icmp_seq=31 ttl=51 time=80.7 ms
64 bytes from nyc.speedtest.sbcglobal.net (99.24.18.25): icmp_seq=31 ttl=51 time=80.6 ms
64 bytes from nyc.speedtest.sbcglobal.net (99.24.18.25): icmp_seq=31 ttl=51 time=80.6 ms
64 bytes from nyc.speedtest.sbcglobal.net (99.24.18.25): icmp_seq=31 ttl=51 time=80.5 ms
64 bytes from nyc.speedtest.sbcglobal.net (99.24.18.25): icmp_seq=31 ttl=51 time=80.5 ms
64 bytes from nyc.speedtest.sbcglobal.net (99.24.18.25): icmp_seq=31 ttl=51 time=80.0 ms
64 bytes from nyc.speedtest.sbcglobal.net (99.24.18.25): icmp_seq=32 ttl=51 time=80.2 ms
64 bytes from nyc.speedtest.sbcglobal.net (99.24.18.25): icmp_seq=32 ttl=51 time=80.2 ms
64 bytes from nyc.speedtest.sbcglobal.net (99.24.18.25): icmp_seq=32 ttl=51 time=80.2 ms
64 bytes from nyc.speedtest.sbcglobal.net (99.24.18.25): icmp_seq=32 ttl=51 time=80.3 ms
64 bytes from nyc.speedtest.sbcglobal.net (99.24.18.25): icmp_seq=32 ttl=51 time=80.2 ms
64 bytes from nyc.speedtest.sbcglobal.net (99.24.18.25): icmp_seq=32 ttl=51 time=80.2 ms
64 bytes from nyc.speedtest.sbcglobal.net (99.24.18.25): icmp_seq=32 ttl=51 time=80.3 ms
64 bytes from nyc.speedtest.sbcglobal.net (99.24.18.25): icmp_seq=32 ttl=51 time=80.1 ms
64 bytes from nyc.speedtest.sbcglobal.net (99.24.18.25): icmp_seq=32 ttl=51 time=80.1 ms
64 bytes from nyc.speedtest.sbcglobal.net (99.24.18.25): icmp_seq=32 ttl=51 time=80.1 ms
64 bytes from nyc.speedtest.sbcglobal.net (99.24.18.25): icmp_seq=33 ttl=51 time=80.0 ms
64 bytes from nyc.speedtest.sbcglobal.net (99.24.18.25): icmp_seq=33 ttl=51 time=80.1 ms
64 bytes from nyc.speedtest.sbcglobal.net (99.24.18.25): icmp_seq=33 ttl=51 time=80.0 ms
64 bytes from nyc.speedtest.sbcglobal.net (99.24.18.25): icmp_seq=33 ttl=51 time=80.0 ms
64 bytes from nyc.speedtest.sbcglobal.net (99.24.18.25): icmp_seq=33 ttl=51 time=80.0 ms
64 bytes from nyc.speedtest.sbcglobal.net (99.24.18.25): icmp_seq=33 ttl=51 time=80.0 ms
64 bytes from nyc.speedtest.sbcglobal.net (99.24.18.25): icmp_seq=33 ttl=51 time=80.1 ms
64 bytes from nyc.speedtest.sbcglobal.net (99.24.18.25): icmp_seq=33 ttl=51 time=80.1 ms
64 bytes from nyc.speedtest.sbcglobal.net (99.24.18.25): icmp_seq=33 ttl=51 time=80.0 ms
64 bytes from nyc.speedtest.sbcglobal.net (99.24.18.25): icmp_seq=33 ttl=51 time=80.0 ms
64 bytes from nyc.speedtest.sbcglobal.net (99.24.18.25): icmp_seq=34 ttl=51 time=79.9 ms
64 bytes from nyc.speedtest.sbcglobal.net (99.24.18.25): icmp_seq=34 ttl=51 time=79.9 ms
64 bytes from nyc.speedtest.sbcglobal.net (99.24.18.25): icmp_seq=34 ttl=51 time=79.8 ms
64 bytes from nyc.speedtest.sbcglobal.net (99.24.18.25): icmp_seq=34 ttl=51 time=79.9 ms
64 bytes from nyc.speedtest.sbcglobal.net (99.24.18.25): icmp_seq=34 ttl=51 time=79.8 ms
64 bytes from nyc.speedtest.sbcglobal.net (99.24.18.25): icmp_seq=34 ttl=51 time=79.9 ms
64 bytes from nyc.speedtest.sbcglobal.net (99.24.18.25): icmp_seq=34 ttl=51 time=79.9 ms
64 bytes from nyc.speedtest.sbcglobal.net (99.24.18.25): icmp_seq=34 ttl=51 time=79.8 ms
64 bytes from nyc.speedtest.sbcglobal.net (99.24.18.25): icmp_seq=34 ttl=51 time=79.8 ms
64 bytes from nyc.speedtest.sbcglobal.net (99.24.18.25): icmp_seq=34 ttl=51 time=79.6 ms
64 bytes from nyc.speedtest.sbcglobal.net (99.24.18.25): icmp_seq=35 ttl=51 time=79.8 ms
64 bytes from nyc.speedtest.sbcglobal.net (99.24.18.25): icmp_seq=35 ttl=51 time=79.8 ms
64 bytes from nyc.speedtest.sbcglobal.net (99.24.18.25): icmp_seq=35 ttl=51 time=79.9 ms
64 bytes from nyc.speedtest.sbcglobal.net (99.24.18.25): icmp_seq=35 ttl=51 time=79.9 ms
64 bytes from nyc.speedtest.sbcglobal.net (99.24.18.25): icmp_seq=35 ttl=51 time=79.8 ms
64 bytes from nyc.speedtest.sbcglobal.net (99.24.18.25): icmp_seq=35 ttl=51 time=79.6 ms
64 bytes from nyc.speedtest.sbcglobal.net (99.24.18.25): icmp_seq=35 ttl=51 time=79.8 ms
64 bytes from nyc.speedtest.sbcglobal.net (99.24.18.25): icmp_seq=35 ttl=51 time=79.9 ms
64 bytes from nyc.speedtest.sbcglobal.net (99.24.18.25): icmp_seq=35 ttl=51 time=79.9 ms
64 bytes from nyc.speedtest.sbcglobal.net (99.24.18.25): icmp_seq=35 ttl=51 time=79.8 ms
64 bytes from nyc.speedtest.sbcglobal.net (99.24.18.25): icmp_seq=36 ttl=51 time=80.1 ms
64 bytes from nyc.speedtest.sbcglobal.net (99.24.18.25): icmp_seq=36 ttl=51 time=80.1 ms
64 bytes from nyc.speedtest.sbcglobal.net (99.24.18.25): icmp_seq=36 ttl=51 time=80.1 ms
64 bytes from nyc.speedtest.sbcglobal.net (99.24.18.25): icmp_seq=36 ttl=51 time=79.9 ms
64 bytes from nyc.speedtest.sbcglobal.net (99.24.18.25): icmp_seq=36 ttl=51 time=79.9 ms
64 bytes from nyc.speedtest.sbcglobal.net (99.24.18.25): icmp_seq=36 ttl=51 time=79.9 ms
64 bytes from nyc.speedtest.sbcglobal.net (99.24.18.25): icmp_seq=36 ttl=51 time=79.8 ms
64 bytes from nyc.speedtest.sbcglobal.net (99.24.18.25): icmp_seq=36 ttl=51 time=79.8 ms
64 bytes from nyc.speedtest.sbcglobal.net (99.24.18.25): icmp_seq=36 ttl=51 time=79.7 ms
64 bytes from nyc.speedtest.sbcglobal.net (99.24.18.25): icmp_seq=36 ttl=51 time=80.1 ms
64 bytes from nyc.speedtest.sbcglobal.net (99.24.18.25): icmp_seq=37 ttl=51 time=80.1 ms
64 bytes from nyc.speedtest.sbcglobal.net (99.24.18.25): icmp_seq=37 ttl=51 time=80.3 ms
64 bytes from nyc.speedtest.sbcglobal.net (99.24.18.25): icmp_seq=37 ttl=51 time=80.3 ms
64 bytes from nyc.speedtest.sbcglobal.net (99.24.18.25): icmp_seq=37 ttl=51 time=80.2 ms
64 bytes from nyc.speedtest.sbcglobal.net (99.24.18.25): icmp_seq=37 ttl=51 time=80.1 ms
64 bytes from nyc.speedtest.sbcglobal.net (99.24.18.25): icmp_seq=37 ttl=51 time=80.1 ms
64 bytes from nyc.speedtest.sbcglobal.net (99.24.18.25): icmp_seq=37 ttl=51 time=80.2 ms
64 bytes from nyc.speedtest.sbcglobal.net (99.24.18.25): icmp_seq=37 ttl=51 time=80.2 ms
64 bytes from nyc.speedtest.sbcglobal.net (99.24.18.25): icmp_seq=37 ttl=51 time=80.4 ms
64 bytes from nyc.speedtest.sbcglobal.net (99.24.18.25): icmp_seq=37 ttl=51 time=81.4 ms
64 bytes from nyc.speedtest.sbcglobal.net (99.24.18.25): icmp_seq=38 ttl=51 time=79.6 ms
64 bytes from nyc.speedtest.sbcglobal.net (99.24.18.25): icmp_seq=38 ttl=51 time=79.6 ms
64 bytes from nyc.speedtest.sbcglobal.net (99.24.18.25): icmp_seq=38 ttl=51 time=79.6 ms
64 bytes from nyc.speedtest.sbcglobal.net (99.24.18.25): icmp_seq=38 ttl=51 time=79.6 ms
64 bytes from nyc.speedtest.sbcglobal.net (99.24.18.25): icmp_seq=38 ttl=51 time=79.6 ms
64 bytes from nyc.speedtest.sbcglobal.net (99.24.18.25): icmp_seq=38 ttl=51 time=79.7 ms
64 bytes from nyc.speedtest.sbcglobal.net (99.24.18.25): icmp_seq=38 ttl=51 time=79.6 ms
64 bytes from nyc.speedtest.sbcglobal.net (99.24.18.25): icmp_seq=38 ttl=51 time=79.7 ms
64 bytes from nyc.speedtest.sbcglobal.net (99.24.18.25): icmp_seq=38 ttl=51 time=79.6 ms
64 bytes from nyc.speedtest.sbcglobal.net (99.24.18.25): icmp_seq=38 ttl=51 time=79.6 ms
64 bytes from nyc.speedtest.sbcglobal.net (99.24.18.25): icmp_seq=39 ttl=51 time=80.3 ms
64 bytes from nyc.speedtest.sbcglobal.net (99.24.18.25): icmp_seq=39 ttl=51 time=80.2 ms
64 bytes from nyc.speedtest.sbcglobal.net (99.24.18.25): icmp_seq=39 ttl=51 time=80.3 ms
64 bytes from nyc.speedtest.sbcglobal.net (99.24.18.25): icmp_seq=39 ttl=51 time=80.3 ms
64 bytes from nyc.speedtest.sbcglobal.net (99.24.18.25): icmp_seq=39 ttl=51 time=80.3 ms
64 bytes from nyc.speedtest.sbcglobal.net (99.24.18.25): icmp_seq=39 ttl=51 time=80.3 ms
64 bytes from nyc.speedtest.sbcglobal.net (99.24.18.25): icmp_seq=39 ttl=51 time=80.3 ms
64 bytes from nyc.speedtest.sbcglobal.net (99.24.18.25): icmp_seq=39 ttl=51 time=80.2 ms
64 bytes from nyc.speedtest.sbcglobal.net (99.24.18.25): icmp_seq=39 ttl=51 time=79.7 ms
64 bytes from nyc.speedtest.sbcglobal.net (99.24.18.25): icmp_seq=39 ttl=51 time=80.0 ms
64 bytes from nyc.speedtest.sbcglobal.net (99.24.18.25): icmp_seq=40 ttl=51 time=80.4 ms
64 bytes from nyc.speedtest.sbcglobal.net (99.24.18.25): icmp_seq=40 ttl=51 time=80.5 ms
64 bytes from nyc.speedtest.sbcglobal.net (99.24.18.25): icmp_seq=40 ttl=51 time=80.4 ms
64 bytes from nyc.speedtest.sbcglobal.net (99.24.18.25): icmp_seq=40 ttl=51 time=80.0 ms
64 bytes from nyc.speedtest.sbcglobal.net (99.24.18.25): icmp_seq=40 ttl=51 time=80.5 ms
64 bytes from nyc.speedtest.sbcglobal.net (99.24.18.25): icmp_seq=40 ttl=51 time=80.5 ms
64 bytes from nyc.speedtest.sbcglobal.net (99.24.18.25): icmp_seq=40 ttl=51 time=80.5 ms
64 bytes from nyc.speedtest.sbcglobal.net (99.24.18.25): icmp_seq=40 ttl=51 time=80.3 ms
64 bytes from nyc.speedtest.sbcglobal.net (99.24.18.25): icmp_seq=40 ttl=51 time=80.5 ms
64 bytes from nyc.speedtest.sbcglobal.net (99.24.18.25): icmp_seq=40 ttl=51 time=79.6 ms
64 bytes from nyc.speedtest.sbcglobal.net (99.24.18.25): icmp_seq=41 ttl=51 time=79.7 ms
64 bytes from nyc.speedtest.sbcglobal.net (99.24.18.25): icmp_seq=41 ttl=51 time=79.8 ms
64 bytes from nyc.speedtest.sbcglobal.net (99.24.18.25): icmp_seq=41 ttl=51 time=79.8 ms
64 bytes from nyc.speedtest.sbcglobal.net (99.24.18.25): icmp_seq=41 ttl=51 time=79.8 ms
64 bytes from nyc.speedtest.sbcglobal.net (99.24.18.25): icmp_seq=41 ttl=51 time=79.7 ms
64 bytes from nyc.speedtest.sbcglobal.net (99.24.18.25): icmp_seq=41 ttl=51 time=79.7 ms
64 bytes from nyc.speedtest.sbcglobal.net (99.24.18.25): icmp_seq=41 ttl=51 time=79.7 ms
64 bytes from nyc.speedtest.sbcglobal.net (99.24.18.25): icmp_seq=41 ttl=51 time=79.6 ms
64 bytes from nyc.speedtest.sbcglobal.net (99.24.18.25): icmp_seq=41 ttl=51 time=79.6 ms
64 bytes from nyc.speedtest.sbcglobal.net (99.24.18.25): icmp_seq=41 ttl=51 time=80.0 ms
64 bytes from nyc.speedtest.sbcglobal.net (99.24.18.25): icmp_seq=42 ttl=51 time=80.8 ms
64 bytes from nyc.speedtest.sbcglobal.net (99.24.18.25): icmp_seq=42 ttl=51 time=81.0 ms
64 bytes from nyc.speedtest.sbcglobal.net (99.24.18.25): icmp_seq=42 ttl=51 time=80.9 ms
64 bytes from nyc.speedtest.sbcglobal.net (99.24.18.25): icmp_seq=42 ttl=51 time=81.4 ms
64 bytes from nyc.speedtest.sbcglobal.net (99.24.18.25): icmp_seq=42 ttl=51 time=81.3 ms
64 bytes from nyc.speedtest.sbcglobal.net (99.24.18.25): icmp_seq=42 ttl=51 time=81.3 ms
64 bytes from nyc.speedtest.sbcglobal.net (99.24.18.25): icmp_seq=42 ttl=51 time=81.4 ms
64 bytes from nyc.speedtest.sbcglobal.net (99.24.18.25): icmp_seq=42 ttl=51 time=81.3 ms
64 bytes from nyc.speedtest.sbcglobal.net (99.24.18.25): icmp_seq=42 ttl=51 time=81.3 ms
64 bytes from nyc.speedtest.sbcglobal.net (99.24.18.25): icmp_seq=42 ttl=51 time=81.9 ms
64 bytes from nyc.speedtest.sbcglobal.net (99.24.18.25): icmp_seq=43 ttl=51 time=81.0 ms
64 bytes from nyc.speedtest.sbcglobal.net (99.24.18.25): icmp_seq=43 ttl=51 time=81.1 ms
64 bytes from nyc.speedtest.sbcglobal.net (99.24.18.25): icmp_seq=43 ttl=51 time=81.1 ms
64 bytes from nyc.speedtest.sbcglobal.net (99.24.18.25): icmp_seq=43 ttl=51 time=81.7 ms
64 bytes from nyc.speedtest.sbcglobal.net (99.24.18.25): icmp_seq=43 ttl=51 time=81.7 ms
64 bytes from nyc.speedtest.sbcglobal.net (99.24.18.25): icmp_seq=43 ttl=51 time=81.5 ms
64 bytes from nyc.speedtest.sbcglobal.net (99.24.18.25): icmp_seq=43 ttl=51 time=81.5 ms
64 bytes from nyc.speedtest.sbcglobal.net (99.24.18.25): icmp_seq=43 ttl=51 time=81.5 ms
64 bytes from nyc.speedtest.sbcglobal.net (99.24.18.25): icmp_seq=43 ttl=51 time=81.7 ms
64 bytes from nyc.speedtest.sbcglobal.net (99.24.18.25): icmp_seq=43 ttl=51 time=81.5 ms
64 bytes from nyc.speedtest.sbcglobal.net (99.24.18.25): icmp_seq=44 ttl=51 time=81.9 ms
64 bytes from nyc.speedtest.sbcglobal.net (99.24.18.25): icmp_seq=44 ttl=51 time=81.9 ms
64 bytes from nyc.speedtest.sbcglobal.net (99.24.18.25): icmp_seq=44 ttl=51 time=81.0 ms
64 bytes from nyc.speedtest.sbcglobal.net (99.24.18.25): icmp_seq=44 ttl=51 time=81.0 ms
64 bytes from nyc.speedtest.sbcglobal.net (99.24.18.25): icmp_seq=44 ttl=51 time=81.1 ms
64 bytes from nyc.speedtest.sbcglobal.net (99.24.18.25): icmp_seq=44 ttl=51 time=81.0 ms
64 bytes from nyc.speedtest.sbcglobal.net (99.24.18.25): icmp_seq=44 ttl=51 time=81.8 ms
64 bytes from nyc.speedtest.sbcglobal.net (99.24.18.25): icmp_seq=44 ttl=51 time=81.2 ms
64 bytes from nyc.speedtest.sbcglobal.net (99.24.18.25): icmp_seq=44 ttl=51 time=81.3 ms
64 bytes from nyc.speedtest.sbcglobal.net (99.24.18.25): icmp_seq=44 ttl=51 time=81.3 ms
64 bytes from nyc.speedtest.sbcglobal.net (99.24.18.25): icmp_seq=45 ttl=51 time=82.4 ms
64 bytes from nyc.speedtest.sbcglobal.net (99.24.18.25): icmp_seq=45 ttl=51 time=82.5 ms
64 bytes from nyc.speedtest.sbcglobal.net (99.24.18.25): icmp_seq=45 ttl=51 time=82.4 ms
64 bytes from nyc.speedtest.sbcglobal.net (99.24.18.25): icmp_seq=45 ttl=51 time=82.3 ms
64 bytes from nyc.speedtest.sbcglobal.net (99.24.18.25): icmp_seq=45 ttl=51 time=82.1 ms
64 bytes from nyc.speedtest.sbcglobal.net (99.24.18.25): icmp_seq=45 ttl=51 time=82.1 ms
64 bytes from nyc.speedtest.sbcglobal.net (99.24.18.25): icmp_seq=45 ttl=51 time=82.1 ms
64 bytes from nyc.speedtest.sbcglobal.net (99.24.18.25): icmp_seq=45 ttl=51 time=81.9 ms
64 bytes from nyc.speedtest.sbcglobal.net (99.24.18.25): icmp_seq=45 ttl=51 time=82.0 ms
64 bytes from nyc.speedtest.sbcglobal.net (99.24.18.25): icmp_seq=45 ttl=51 time=82.3 ms
64 bytes from nyc.speedtest.sbcglobal.net (99.24.18.25): icmp_seq=46 ttl=51 time=82.8 ms
64 bytes from nyc.speedtest.sbcglobal.net (99.24.18.25): icmp_seq=46 ttl=51 time=82.8 ms
64 bytes from nyc.speedtest.sbcglobal.net (99.24.18.25): icmp_seq=46 ttl=51 time=82.8 ms
64 bytes from nyc.speedtest.sbcglobal.net (99.24.18.25): icmp_seq=46 ttl=51 time=82.8 ms
64 bytes from nyc.speedtest.sbcglobal.net (99.24.18.25): icmp_seq=46 ttl=51 time=82.7 ms
64 bytes from nyc.speedtest.sbcglobal.net (99.24.18.25): icmp_seq=46 ttl=51 time=82.7 ms
64 bytes from nyc.speedtest.sbcglobal.net (99.24.18.25): icmp_seq=46 ttl=51 time=82.7 ms
64 bytes from nyc.speedtest.sbcglobal.net (99.24.18.25): icmp_seq=46 ttl=51 time=82.6 ms
64 bytes from nyc.speedtest.sbcglobal.net (99.24.18.25): icmp_seq=46 ttl=51 time=81.6 ms
64 bytes from nyc.speedtest.sbcglobal.net (99.24.18.25): icmp_seq=46 ttl=51 time=82.7 ms
64 bytes from nyc.speedtest.sbcglobal.net (99.24.18.25): icmp_seq=47 ttl=51 time=79.9 ms
64 bytes from nyc.speedtest.sbcglobal.net (99.24.18.25): icmp_seq=47 ttl=51 time=79.9 ms
64 bytes from nyc.speedtest.sbcglobal.net (99.24.18.25): icmp_seq=47 ttl=51 time=79.8 ms
64 bytes from nyc.speedtest.sbcglobal.net (99.24.18.25): icmp_seq=47 ttl=51 time=79.9 ms
64 bytes from nyc.speedtest.sbcglobal.net (99.24.18.25): icmp_seq=47 ttl=51 time=79.8 ms
64 bytes from nyc.speedtest.sbcglobal.net (99.24.18.25): icmp_seq=47 ttl=51 time=79.9 ms
64 bytes from nyc.speedtest.sbcglobal.net (99.24.18.25): icmp_seq=47 ttl=51 time=79.8 ms
64 bytes from nyc.speedtest.sbcglobal.net (99.24.18.25): icmp_seq=47 ttl=51 time=79.8 ms
64 bytes from nyc.speedtest.sbcglobal.net (99.24.18.25): icmp_seq=47 ttl=51 time=79.8 ms
64 bytes from nyc.speedtest.sbcglobal.net (99.24.18.25): icmp_seq=47 ttl=51 time=79.9 ms
64 bytes from nyc.speedtest.sbcglobal.net (99.24.18.25): icmp_seq=48 ttl=51 time=80.1 ms
64 bytes from nyc.speedtest.sbcglobal.net (99.24.18.25): icmp_seq=48 ttl=51 time=80.1 ms
64 bytes from nyc.speedtest.sbcglobal.net (99.24.18.25): icmp_seq=48 ttl=51 time=80.1 ms
64 bytes from nyc.speedtest.sbcglobal.net (99.24.18.25): icmp_seq=48 ttl=51 time=80.0 ms
64 bytes from nyc.speedtest.sbcglobal.net (99.24.18.25): icmp_seq=48 ttl=51 time=80.0 ms
64 bytes from nyc.speedtest.sbcglobal.net (99.24.18.25): icmp_seq=48 ttl=51 time=79.7 ms
64 bytes from nyc.speedtest.sbcglobal.net (99.24.18.25): icmp_seq=48 ttl=51 time=79.7 ms
64 bytes from nyc.speedtest.sbcglobal.net (99.24.18.25): icmp_seq=48 ttl=51 time=79.6 ms
64 bytes from nyc.speedtest.sbcglobal.net (99.24.18.25): icmp_seq=48 ttl=51 time=79.7 ms
64 bytes from nyc.speedtest.sbcglobal.net (99.24.18.25): icmp_seq=48 ttl=51 time=79.7 ms
64 bytes from nyc.speedtest.sbcglobal.net (99.24.18.25): icmp_seq=49 ttl=51 time=80.1 ms
64 bytes from nyc.speedtest.sbcglobal.net (99.24.18.25): icmp_seq=49 ttl=51 time=80.1 ms
64 bytes from nyc.speedtest.sbcglobal.net (99.24.18.25): icmp_seq=49 ttl=51 time=80.2 ms
64 bytes from nyc.speedtest.sbcglobal.net (99.24.18.25): icmp_seq=49 ttl=51 time=80.0 ms
64 bytes from nyc.speedtest.sbcglobal.net (99.24.18.25): icmp_seq=49 ttl=51 time=80.2 ms
64 bytes from nyc.speedtest.sbcglobal.net (99.24.18.25): icmp_seq=49 ttl=51 time=79.8 ms
64 bytes from nyc.speedtest.sbcglobal.net (99.24.18.25): icmp_seq=49 ttl=51 time=79.8 ms
64 bytes from nyc.speedtest.sbcglobal.net (99.24.18.25): icmp_seq=49 ttl=51 time=79.8 ms
64 bytes from nyc.speedtest.sbcglobal.net (99.24.18.25): icmp_seq=49 ttl=51 time=79.8 ms
64 bytes from nyc.speedtest.sbcglobal.net (99.24.18.25): icmp_seq=49 ttl=51 time=79.8 ms
64 bytes from nyc.speedtest.sbcglobal.net (99.24.18.25): icmp_seq=50 ttl=51 time=79.9 ms
64 bytes from nyc.speedtest.sbcglobal.net (99.24.18.25): icmp_seq=50 ttl=51 time=79.9 ms
64 bytes from nyc.speedtest.sbcglobal.net (99.24.18.25): icmp_seq=50 ttl=51 time=80.0 ms
64 bytes from nyc.speedtest.sbcglobal.net (99.24.18.25): icmp_seq=50 ttl=51 time=80.0 ms
64 bytes from nyc.speedtest.sbcglobal.net (99.24.18.25): icmp_seq=50 ttl=51 time=80.0 ms
64 bytes from nyc.speedtest.sbcglobal.net (99.24.18.25): icmp_seq=50 ttl=51 time=80.0 ms
64 bytes from nyc.speedtest.sbcglobal.net (99.24.18.25): icmp_seq=50 ttl=51 time=79.9 ms
64 bytes from nyc.speedtest.sbcglobal.net (99.24.18.25): icmp_seq=50 ttl=51 time=79.7 ms
64 bytes from nyc.speedtest.sbcglobal.net (99.24.18.25): icmp_seq=50 ttl=51 time=79.7 ms
64 bytes from nyc.speedtest.sbcglobal.net (99.24.18.25): icmp_seq=50 ttl=51 time=79.7 ms
64 bytes from nyc.speedtest.sbcglobal.net (99.24.18.25): icmp_seq=51 ttl=51 time=80.2 ms
64 bytes from nyc.speedtest.sbcglobal.net (99.24.18.25): icmp_seq=51 ttl=51 time=80.2 ms
64 bytes from nyc.speedtest.sbcglobal.net (99.24.18.25): icmp_seq=51 ttl=51 time=80.2 ms
64 bytes from nyc.speedtest.sbcglobal.net (99.24.18.25): icmp_seq=51 ttl=51 time=80.1 ms
64 bytes from nyc.speedtest.sbcglobal.net (99.24.18.25): icmp_seq=51 ttl=51 time=80.2 ms
64 bytes from nyc.speedtest.sbcglobal.net (99.24.18.25): icmp_seq=51 ttl=51 time=80.1 ms
64 bytes from nyc.speedtest.sbcglobal.net (99.24.18.25): icmp_seq=51 ttl=51 time=79.9 ms
64 bytes from nyc.speedtest.sbcglobal.net (99.24.18.25): icmp_seq=51 ttl=51 time=79.8 ms
64 bytes from nyc.speedtest.sbcglobal.net (99.24.18.25): icmp_seq=51 ttl=51 time=79.8 ms
64 bytes from nyc.speedtest.sbcglobal.net (99.24.18.25): icmp_seq=51 ttl=51 time=79.9 ms
64 bytes from nyc.speedtest.sbcglobal.net (99.24.18.25): icmp_seq=52 ttl=51 time=80.1 ms
64 bytes from nyc.speedtest.sbcglobal.net (99.24.18.25): icmp_seq=52 ttl=51 time=80.2 ms
64 bytes from nyc.speedtest.sbcglobal.net (99.24.18.25): icmp_seq=52 ttl=51 time=80.1 ms
64 bytes from nyc.speedtest.sbcglobal.net (99.24.18.25): icmp_seq=52 ttl=51 time=80.1 ms
64 bytes from nyc.speedtest.sbcglobal.net (99.24.18.25): icmp_seq=52 ttl=51 time=80.1 ms
64 bytes from nyc.speedtest.sbcglobal.net (99.24.18.25): icmp_seq=52 ttl=51 time=80.2 ms
64 bytes from nyc.speedtest.sbcglobal.net (99.24.18.25): icmp_seq=52 ttl=51 time=80.0 ms
64 bytes from nyc.speedtest.sbcglobal.net (99.24.18.25): icmp_seq=52 ttl=51 time=80.0 ms
64 bytes from nyc.speedtest.sbcglobal.net (99.24.18.25): icmp_seq=52 ttl=51 time=80.0 ms
64 bytes from nyc.speedtest.sbcglobal.net (99.24.18.25): icmp_seq=52 ttl=51 time=79.8 ms
64 bytes from nyc.speedtest.sbcglobal.net (99.24.18.25): icmp_seq=53 ttl=51 time=80.2 ms
64 bytes from nyc.speedtest.sbcglobal.net (99.24.18.25): icmp_seq=53 ttl=51 time=80.1 ms
64 bytes from nyc.speedtest.sbcglobal.net (99.24.18.25): icmp_seq=53 ttl=51 time=80.2 ms
64 bytes from nyc.speedtest.sbcglobal.net (99.24.18.25): icmp_seq=53 ttl=51 time=80.2 ms
64 bytes from nyc.speedtest.sbcglobal.net (99.24.18.25): icmp_seq=53 ttl=51 time=80.2 ms
64 bytes from nyc.speedtest.sbcglobal.net (99.24.18.25): icmp_seq=53 ttl=51 time=80.2 ms
64 bytes from nyc.speedtest.sbcglobal.net (99.24.18.25): icmp_seq=53 ttl=51 time=80.1 ms
64 bytes from nyc.speedtest.sbcglobal.net (99.24.18.25): icmp_seq=53 ttl=51 time=80.1 ms
64 bytes from nyc.speedtest.sbcglobal.net (99.24.18.25): icmp_seq=53 ttl=51 time=80.0 ms
64 bytes from nyc.speedtest.sbcglobal.net (99.24.18.25): icmp_seq=53 ttl=51 time=80.1 ms
64 bytes from nyc.speedtest.sbcglobal.net (99.24.18.25): icmp_seq=54 ttl=51 time=80.1 ms
64 bytes from nyc.speedtest.sbcglobal.net (99.24.18.25): icmp_seq=54 ttl=51 time=80.1 ms
64 bytes from nyc.speedtest.sbcglobal.net (99.24.18.25): icmp_seq=54 ttl=51 time=80.1 ms
64 bytes from nyc.speedtest.sbcglobal.net (99.24.18.25): icmp_seq=54 ttl=51 time=80.1 ms
64 bytes from nyc.speedtest.sbcglobal.net (99.24.18.25): icmp_seq=54 ttl=51 time=80.1 ms
64 bytes from nyc.speedtest.sbcglobal.net (99.24.18.25): icmp_seq=54 ttl=51 time=80.0 ms
64 bytes from nyc.speedtest.sbcglobal.net (99.24.18.25): icmp_seq=54 ttl=51 time=80.1 ms
64 bytes from nyc.speedtest.sbcglobal.net (99.24.18.25): icmp_seq=54 ttl=51 time=80.0 ms
64 bytes from nyc.speedtest.sbcglobal.net (99.24.18.25): icmp_seq=54 ttl=51 time=80.1 ms
64 bytes from nyc.speedtest.sbcglobal.net (99.24.18.25): icmp_seq=54 ttl=51 time=80.1 ms
64 bytes from nyc.speedtest.sbcglobal.net (99.24.18.25): icmp_seq=55 ttl=51 time=79.8 ms
64 bytes from nyc.speedtest.sbcglobal.net (99.24.18.25): icmp_seq=55 ttl=51 time=79.9 ms
64 bytes from nyc.speedtest.sbcglobal.net (99.24.18.25): icmp_seq=55 ttl=51 time=79.9 ms
64 bytes from nyc.speedtest.sbcglobal.net (99.24.18.25): icmp_seq=55 ttl=51 time=79.9 ms
64 bytes from nyc.speedtest.sbcglobal.net (99.24.18.25): icmp_seq=55 ttl=51 time=80.0 ms
64 bytes from nyc.speedtest.sbcglobal.net (99.24.18.25): icmp_seq=55 ttl=51 time=80.0 ms
64 bytes from nyc.speedtest.sbcglobal.net (99.24.18.25): icmp_seq=55 ttl=51 time=79.8 ms
64 bytes from nyc.speedtest.sbcglobal.net (99.24.18.25): icmp_seq=55 ttl=51 time=79.8 ms
64 bytes from nyc.speedtest.sbcglobal.net (99.24.18.25): icmp_seq=55 ttl=51 time=79.8 ms
64 bytes from nyc.speedtest.sbcglobal.net (99.24.18.25): icmp_seq=55 ttl=51 time=79.8 ms
64 bytes from nyc.speedtest.sbcglobal.net (99.24.18.25): icmp_seq=56 ttl=51 time=80.7 ms
64 bytes from nyc.speedtest.sbcglobal.net (99.24.18.25): icmp_seq=56 ttl=51 time=80.7 ms
64 bytes from nyc.speedtest.sbcglobal.net (99.24.18.25): icmp_seq=56 ttl=51 time=80.7 ms
64 bytes from nyc.speedtest.sbcglobal.net (99.24.18.25): icmp_seq=56 ttl=51 time=80.8 ms
64 bytes from nyc.speedtest.sbcglobal.net (99.24.18.25): icmp_seq=56 ttl=51 time=80.7 ms
64 bytes from nyc.speedtest.sbcglobal.net (99.24.18.25): icmp_seq=56 ttl=51 time=80.2 ms
64 bytes from nyc.speedtest.sbcglobal.net (99.24.18.25): icmp_seq=56 ttl=51 time=80.6 ms
64 bytes from nyc.speedtest.sbcglobal.net (99.24.18.25): icmp_seq=56 ttl=51 time=80.5 ms
64 bytes from nyc.speedtest.sbcglobal.net (99.24.18.25): icmp_seq=56 ttl=51 time=80.6 ms
64 bytes from nyc.speedtest.sbcglobal.net (99.24.18.25): icmp_seq=56 ttl=51 time=80.6 ms
64 bytes from nyc.speedtest.sbcglobal.net (99.24.18.25): icmp_seq=57 ttl=51 time=80.3 ms
64 bytes from nyc.speedtest.sbcglobal.net (99.24.18.25): icmp_seq=57 ttl=51 time=80.3 ms
64 bytes from nyc.speedtest.sbcglobal.net (99.24.18.25): icmp_seq=57 ttl=51 time=80.3 ms
64 bytes from nyc.speedtest.sbcglobal.net (99.24.18.25): icmp_seq=57 ttl=51 time=80.3 ms
64 bytes from nyc.speedtest.sbcglobal.net (99.24.18.25): icmp_seq=57 ttl=51 time=80.2 ms
64 bytes from nyc.speedtest.sbcglobal.net (99.24.18.25): icmp_seq=57 ttl=51 time=80.4 ms
64 bytes from nyc.speedtest.sbcglobal.net (99.24.18.25): icmp_seq=57 ttl=51 time=80.4 ms
64 bytes from nyc.speedtest.sbcglobal.net (99.24.18.25): icmp_seq=57 ttl=51 time=80.1 ms
64 bytes from nyc.speedtest.sbcglobal.net (99.24.18.25): icmp_seq=57 ttl=51 time=80.0 ms
64 bytes from nyc.speedtest.sbcglobal.net (99.24.18.25): icmp_seq=57 ttl=51 time=80.1 ms
64 bytes from nyc.speedtest.sbcglobal.net (99.24.18.25): icmp_seq=58 ttl=51 time=80.2 ms
64 bytes from nyc.speedtest.sbcglobal.net (99.24.18.25): icmp_seq=58 ttl=51 time=80.2 ms
64 bytes from nyc.speedtest.sbcglobal.net (99.24.18.25): icmp_seq=58 ttl=51 time=80.3 ms
64 bytes from nyc.speedtest.sbcglobal.net (99.24.18.25): icmp_seq=58 ttl=51 time=80.2 ms
64 bytes from nyc.speedtest.sbcglobal.net (99.24.18.25): icmp_seq=58 ttl=51 time=80.1 ms
64 bytes from nyc.speedtest.sbcglobal.net (99.24.18.25): icmp_seq=58 ttl=51 time=80.3 ms
64 bytes from nyc.speedtest.sbcglobal.net (99.24.18.25): icmp_seq=58 ttl=51 time=80.3 ms
64 bytes from nyc.speedtest.sbcglobal.net (99.24.18.25): icmp_seq=58 ttl=51 time=79.8 ms
64 bytes from nyc.speedtest.sbcglobal.net (99.24.18.25): icmp_seq=58 ttl=51 time=79.9 ms
64 bytes from nyc.speedtest.sbcglobal.net (99.24.18.25): icmp_seq=58 ttl=51 time=79.9 ms
64 bytes from nyc.speedtest.sbcglobal.net (99.24.18.25): icmp_seq=59 ttl=51 time=79.8 ms
64 bytes from nyc.speedtest.sbcglobal.net (99.24.18.25): icmp_seq=59 ttl=51 time=79.8 ms
64 bytes from nyc.speedtest.sbcglobal.net (99.24.18.25): icmp_seq=59 ttl=51 time=79.8 ms
64 bytes from nyc.speedtest.sbcglobal.net (99.24.18.25): icmp_seq=59 ttl=51 time=79.8 ms
64 bytes from nyc.speedtest.sbcglobal.net (99.24.18.25): icmp_seq=59 ttl=51 time=79.8 ms
64 bytes from nyc.speedtest.sbcglobal.net (99.24.18.25): icmp_seq=59 ttl=51 time=79.8 ms
64 bytes from nyc.speedtest.sbcglobal.net (99.24.18.25): icmp_seq=59 ttl=51 time=79.8 ms
64 bytes from nyc.speedtest.sbcglobal.net (99.24.18.25): icmp_seq=59 ttl=51 time=79.8 ms
64 bytes from nyc.speedtest.sbcglobal.net (99.24.18.25): icmp_seq=59 ttl=51 time=79.9 ms
64 bytes from nyc.speedtest.sbcglobal.net (99.24.18.25): icmp_seq=59 ttl=51 time=79.7 ms
64 bytes from nyc.speedtest.sbcglobal.net (99.24.18.25): icmp_seq=60 ttl=51 time=80.7 ms
64 bytes from nyc.speedtest.sbcglobal.net (99.24.18.25): icmp_seq=60 ttl=51 time=80.7 ms
64 bytes from nyc.speedtest.sbcglobal.net (99.24.18.25): icmp_seq=60 ttl=51 time=80.7 ms
64 bytes from nyc.speedtest.sbcglobal.net (99.24.18.25): icmp_seq=60 ttl=51 time=80.7 ms
64 bytes from nyc.speedtest.sbcglobal.net (99.24.18.25): icmp_seq=60 ttl=51 time=79.9 ms
64 bytes from nyc.speedtest.sbcglobal.net (99.24.18.25): icmp_seq=60 ttl=51 time=79.9 ms
64 bytes from nyc.speedtest.sbcglobal.net (99.24.18.25): icmp_seq=60 ttl=51 time=80.0 ms
64 bytes from nyc.speedtest.sbcglobal.net (99.24.18.25): icmp_seq=60 ttl=51 time=80.0 ms
64 bytes from nyc.speedtest.sbcglobal.net (99.24.18.25): icmp_seq=60 ttl=51 time=79.9 ms
64 bytes from nyc.speedtest.sbcglobal.net (99.24.18.25): icmp_seq=60 ttl=51 time=80.6 ms
64 bytes from nyc.speedtest.sbcglobal.net (99.24.18.25): icmp_seq=61 ttl=51 time=80.1 ms
64 bytes from nyc.speedtest.sbcglobal.net (99.24.18.25): icmp_seq=61 ttl=51 time=79.6 ms
64 bytes from nyc.speedtest.sbcglobal.net (99.24.18.25): icmp_seq=61 ttl=51 time=79.6 ms
64 bytes from nyc.speedtest.sbcglobal.net (99.24.18.25): icmp_seq=61 ttl=51 time=79.6 ms
64 bytes from nyc.speedtest.sbcglobal.net (99.24.18.25): icmp_seq=61 ttl=51 time=79.6 ms
64 bytes from nyc.speedtest.sbcglobal.net (99.24.18.25): icmp_seq=61 ttl=51 time=79.6 ms
64 bytes from nyc.speedtest.sbcglobal.net (99.24.18.25): icmp_seq=61 ttl=51 time=79.6 ms
64 bytes from nyc.speedtest.sbcglobal.net (99.24.18.25): icmp_seq=61 ttl=51 time=80.1 ms
64 bytes from nyc.speedtest.sbcglobal.net (99.24.18.25): icmp_seq=61 ttl=51 time=79.6 ms
64 bytes from nyc.speedtest.sbcglobal.net (99.24.18.25): icmp_seq=61 ttl=51 time=79.6 ms
64 bytes from nyc.speedtest.sbcglobal.net (99.24.18.25): icmp_seq=62 ttl=51 time=79.9 ms
64 bytes from nyc.speedtest.sbcglobal.net (99.24.18.25): icmp_seq=62 ttl=51 time=79.9 ms
64 bytes from nyc.speedtest.sbcglobal.net (99.24.18.25): icmp_seq=62 ttl=51 time=79.9 ms
64 bytes from nyc.speedtest.sbcglobal.net (99.24.18.25): icmp_seq=62 ttl=51 time=79.9 ms
64 bytes from nyc.speedtest.sbcglobal.net (99.24.18.25): icmp_seq=62 ttl=51 time=79.9 ms
64 bytes from nyc.speedtest.sbcglobal.net (99.24.18.25): icmp_seq=62 ttl=51 time=79.9 ms
64 bytes from nyc.speedtest.sbcglobal.net (99.24.18.25): icmp_seq=62 ttl=51 time=79.9 ms
64 bytes from nyc.speedtest.sbcglobal.net (99.24.18.25): icmp_seq=62 ttl=51 time=79.9 ms
64 bytes from nyc.speedtest.sbcglobal.net (99.24.18.25): icmp_seq=62 ttl=51 time=79.9 ms
64 bytes from nyc.speedtest.sbcglobal.net (99.24.18.25): icmp_seq=62 ttl=51 time=79.9 ms
64 bytes from nyc.speedtest.sbcglobal.net (99.24.18.25): icmp_seq=63 ttl=51 time=79.9 ms
64 bytes from nyc.speedtest.sbcglobal.net (99.24.18.25): icmp_seq=63 ttl=51 time=79.9 ms
64 bytes from nyc.speedtest.sbcglobal.net (99.24.18.25): icmp_seq=63 ttl=51 time=80.0 ms
64 bytes from nyc.speedtest.sbcglobal.net (99.24.18.25): icmp_seq=63 ttl=51 time=80.0 ms
64 bytes from nyc.speedtest.sbcglobal.net (99.24.18.25): icmp_seq=63 ttl=51 time=80.0 ms
64 bytes from nyc.speedtest.sbcglobal.net (99.24.18.25): icmp_seq=63 ttl=51 time=80.0 ms
64 bytes from nyc.speedtest.sbcglobal.net (99.24.18.25): icmp_seq=63 ttl=51 time=80.1 ms
64 bytes from nyc.speedtest.sbcglobal.net (99.24.18.25): icmp_seq=63 ttl=51 time=80.1 ms
64 bytes from nyc.speedtest.sbcglobal.net (99.24.18.25): icmp_seq=63 ttl=51 time=80.1 ms
64 bytes from nyc.speedtest.sbcglobal.net (99.24.18.25): icmp_seq=63 ttl=51 time=79.9 ms
64 bytes from nyc.speedtest.sbcglobal.net (99.24.18.25): icmp_seq=64 ttl=51 time=80.0 ms
64 bytes from nyc.speedtest.sbcglobal.net (99.24.18.25): icmp_seq=64 ttl=51 time=79.9 ms
64 bytes from nyc.speedtest.sbcglobal.net (99.24.18.25): icmp_seq=64 ttl=51 time=80.0 ms
64 bytes from nyc.speedtest.sbcglobal.net (99.24.18.25): icmp_seq=64 ttl=51 time=80.0 ms
64 bytes from nyc.speedtest.sbcglobal.net (99.24.18.25): icmp_seq=64 ttl=51 time=80.0 ms
64 bytes from nyc.speedtest.sbcglobal.net (99.24.18.25): icmp_seq=64 ttl=51 time=80.0 ms
64 bytes from nyc.speedtest.sbcglobal.net (99.24.18.25): icmp_seq=64 ttl=51 time=80.0 ms
64 bytes from nyc.speedtest.sbcglobal.net (99.24.18.25): icmp_seq=64 ttl=51 time=79.9 ms
64 bytes from nyc.speedtest.sbcglobal.net (99.24.18.25): icmp_seq=64 ttl=51 time=80.0 ms
64 bytes from nyc.speedtest.sbcglobal.net (99.24.18.25): icmp_seq=64 ttl=51 time=80.0 ms
64 bytes from nyc.speedtest.sbcglobal.net (99.24.18.25): icmp_seq=65 ttl=51 time=80.0 ms
64 bytes from nyc.speedtest.sbcglobal.net (99.24.18.25): icmp_seq=65 ttl=51 time=80.1 ms
64 bytes from nyc.speedtest.sbcglobal.net (99.24.18.25): icmp_seq=65 ttl=51 time=80.1 ms
64 bytes from nyc.speedtest.sbcglobal.net (99.24.18.25): icmp_seq=65 ttl=51 time=80.0 ms
64 bytes from nyc.speedtest.sbcglobal.net (99.24.18.25): icmp_seq=65 ttl=51 time=80.0 ms
64 bytes from nyc.speedtest.sbcglobal.net (99.24.18.25): icmp_seq=65 ttl=51 time=79.8 ms
64 bytes from nyc.speedtest.sbcglobal.net (99.24.18.25): icmp_seq=65 ttl=51 time=79.8 ms
64 bytes from nyc.speedtest.sbcglobal.net (99.24.18.25): icmp_seq=65 ttl=51 time=79.7 ms
64 bytes from nyc.speedtest.sbcglobal.net (99.24.18.25): icmp_seq=65 ttl=51 time=79.7 ms
64 bytes from nyc.speedtest.sbcglobal.net (99.24.18.25): icmp_seq=65 ttl=51 time=79.8 ms
64 bytes from nyc.speedtest.sbcglobal.net (99.24.18.25): icmp_seq=66 ttl=51 time=79.8 ms
64 bytes from nyc.speedtest.sbcglobal.net (99.24.18.25): icmp_seq=66 ttl=51 time=79.8 ms
64 bytes from nyc.speedtest.sbcglobal.net (99.24.18.25): icmp_seq=66 ttl=51 time=79.8 ms
64 bytes from nyc.speedtest.sbcglobal.net (99.24.18.25): icmp_seq=66 ttl=51 time=79.8 ms
64 bytes from nyc.speedtest.sbcglobal.net (99.24.18.25): icmp_seq=66 ttl=51 time=79.8 ms
64 bytes from nyc.speedtest.sbcglobal.net (99.24.18.25): icmp_seq=66 ttl=51 time=79.9 ms
64 bytes from nyc.speedtest.sbcglobal.net (99.24.18.25): icmp_seq=66 ttl=51 time=79.9 ms
64 bytes from nyc.speedtest.sbcglobal.net (99.24.18.25): icmp_seq=66 ttl=51 time=79.8 ms
64 bytes from nyc.speedtest.sbcglobal.net (99.24.18.25): icmp_seq=66 ttl=51 time=79.8 ms
64 bytes from nyc.speedtest.sbcglobal.net (99.24.18.25): icmp_seq=66 ttl=51 time=79.8 ms
64 bytes from nyc.speedtest.sbcglobal.net (99.24.18.25): icmp_seq=67 ttl=51 time=80.3 ms
64 bytes from nyc.speedtest.sbcglobal.net (99.24.18.25): icmp_seq=67 ttl=51 time=80.3 ms
64 bytes from nyc.speedtest.sbcglobal.net (99.24.18.25): icmp_seq=67 ttl=51 time=80.3 ms
64 bytes from nyc.speedtest.sbcglobal.net (99.24.18.25): icmp_seq=67 ttl=51 time=80.2 ms
64 bytes from nyc.speedtest.sbcglobal.net (99.24.18.25): icmp_seq=67 ttl=51 time=79.6 ms
64 bytes from nyc.speedtest.sbcglobal.net (99.24.18.25): icmp_seq=67 ttl=51 time=79.6 ms
64 bytes from nyc.speedtest.sbcglobal.net (99.24.18.25): icmp_seq=67 ttl=51 time=79.6 ms
64 bytes from nyc.speedtest.sbcglobal.net (99.24.18.25): icmp_seq=67 ttl=51 time=79.5 ms
64 bytes from nyc.speedtest.sbcglobal.net (99.24.18.25): icmp_seq=67 ttl=51 time=79.5 ms
64 bytes from nyc.speedtest.sbcglobal.net (99.24.18.25): icmp_seq=67 ttl=51 time=79.9 ms
64 bytes from nyc.speedtest.sbcglobal.net (99.24.18.25): icmp_seq=68 ttl=51 time=80.2 ms
64 bytes from nyc.speedtest.sbcglobal.net (99.24.18.25): icmp_seq=68 ttl=51 time=80.3 ms
64 bytes from nyc.speedtest.sbcglobal.net (99.24.18.25): icmp_seq=68 ttl=51 time=80.2 ms
64 bytes from nyc.speedtest.sbcglobal.net (99.24.18.25): icmp_seq=68 ttl=51 time=80.2 ms
64 bytes from nyc.speedtest.sbcglobal.net (99.24.18.25): icmp_seq=68 ttl=51 time=80.3 ms
64 bytes from nyc.speedtest.sbcglobal.net (99.24.18.25): icmp_seq=68 ttl=51 time=79.7 ms
64 bytes from nyc.speedtest.sbcglobal.net (99.24.18.25): icmp_seq=68 ttl=51 time=79.7 ms
64 bytes from nyc.speedtest.sbcglobal.net (99.24.18.25): icmp_seq=68 ttl=51 time=79.7 ms
64 bytes from nyc.speedtest.sbcglobal.net (99.24.18.25): icmp_seq=68 ttl=51 time=80.2 ms
64 bytes from nyc.speedtest.sbcglobal.net (99.24.18.25): icmp_seq=68 ttl=51 time=79.8 ms
64 bytes from nyc.speedtest.sbcglobal.net (99.24.18.25): icmp_seq=69 ttl=51 time=80.1 ms
64 bytes from nyc.speedtest.sbcglobal.net (99.24.18.25): icmp_seq=69 ttl=51 time=80.1 ms
64 bytes from nyc.speedtest.sbcglobal.net (99.24.18.25): icmp_seq=69 ttl=51 time=80.1 ms
64 bytes from nyc.speedtest.sbcglobal.net (99.24.18.25): icmp_seq=69 ttl=51 time=80.2 ms
64 bytes from nyc.speedtest.sbcglobal.net (99.24.18.25): icmp_seq=69 ttl=51 time=80.1 ms
64 bytes from nyc.speedtest.sbcglobal.net (99.24.18.25): icmp_seq=69 ttl=51 time=80.2 ms
64 bytes from nyc.speedtest.sbcglobal.net (99.24.18.25): icmp_seq=69 ttl=51 time=79.7 ms
64 bytes from nyc.speedtest.sbcglobal.net (99.24.18.25): icmp_seq=69 ttl=51 time=80.0 ms
64 bytes from nyc.speedtest.sbcglobal.net (99.24.18.25): icmp_seq=69 ttl=51 time=80.1 ms
64 bytes from nyc.speedtest.sbcglobal.net (99.24.18.25): icmp_seq=69 ttl=51 time=80.2 ms
64 bytes from nyc.speedtest.sbcglobal.net (99.24.18.25): icmp_seq=70 ttl=51 time=80.2 ms
64 bytes from nyc.speedtest.sbcglobal.net (99.24.18.25): icmp_seq=70 ttl=51 time=80.2 ms
64 bytes from nyc.speedtest.sbcglobal.net (99.24.18.25): icmp_seq=70 ttl=51 time=80.2 ms
64 bytes from nyc.speedtest.sbcglobal.net (99.24.18.25): icmp_seq=70 ttl=51 time=80.2 ms
64 bytes from nyc.speedtest.sbcglobal.net (99.24.18.25): icmp_seq=70 ttl=51 time=80.2 ms
64 bytes from nyc.speedtest.sbcglobal.net (99.24.18.25): icmp_seq=70 ttl=51 time=80.3 ms
64 bytes from nyc.speedtest.sbcglobal.net (99.24.18.25): icmp_seq=70 ttl=51 time=80.3 ms
64 bytes from nyc.speedtest.sbcglobal.net (99.24.18.25): icmp_seq=70 ttl=51 time=80.1 ms
64 bytes from nyc.speedtest.sbcglobal.net (99.24.18.25): icmp_seq=70 ttl=51 time=80.3 ms
64 bytes from nyc.speedtest.sbcglobal.net (99.24.18.25): icmp_seq=70 ttl=51 time=80.2 ms
64 bytes from nyc.speedtest.sbcglobal.net (99.24.18.25): icmp_seq=71 ttl=51 time=79.9 ms
64 bytes from nyc.speedtest.sbcglobal.net (99.24.18.25): icmp_seq=71 ttl=51 time=79.9 ms
64 bytes from nyc.speedtest.sbcglobal.net (99.24.18.25): icmp_seq=71 ttl=51 time=79.6 ms
64 bytes from nyc.speedtest.sbcglobal.net (99.24.18.25): icmp_seq=71 ttl=51 time=79.6 ms
64 bytes from nyc.speedtest.sbcglobal.net (99.24.18.25): icmp_seq=71 ttl=51 time=79.6 ms
64 bytes from nyc.speedtest.sbcglobal.net (99.24.18.25): icmp_seq=71 ttl=51 time=79.6 ms
64 bytes from nyc.speedtest.sbcglobal.net (99.24.18.25): icmp_seq=71 ttl=51 time=79.6 ms
64 bytes from nyc.speedtest.sbcglobal.net (99.24.18.25): icmp_seq=71 ttl=51 time=79.5 ms
64 bytes from nyc.speedtest.sbcglobal.net (99.24.18.25): icmp_seq=71 ttl=51 time=79.9 ms
64 bytes from nyc.speedtest.sbcglobal.net (99.24.18.25): icmp_seq=71 ttl=51 time=79.5 ms
64 bytes from nyc.speedtest.sbcglobal.net (99.24.18.25): icmp_seq=72 ttl=51 time=79.9 ms
64 bytes from nyc.speedtest.sbcglobal.net (99.24.18.25): icmp_seq=72 ttl=51 time=79.8 ms
64 bytes from nyc.speedtest.sbcglobal.net (99.24.18.25): icmp_seq=72 ttl=51 time=79.8 ms
64 bytes from nyc.speedtest.sbcglobal.net (99.24.18.25): icmp_seq=72 ttl=51 time=79.8 ms
64 bytes from nyc.speedtest.sbcglobal.net (99.24.18.25): icmp_seq=72 ttl=51 time=79.8 ms
64 bytes from nyc.speedtest.sbcglobal.net (99.24.18.25): icmp_seq=72 ttl=51 time=79.8 ms
64 bytes from nyc.speedtest.sbcglobal.net (99.24.18.25): icmp_seq=72 ttl=51 time=79.8 ms
64 bytes from nyc.speedtest.sbcglobal.net (99.24.18.25): icmp_seq=72 ttl=51 time=79.8 ms
64 bytes from nyc.speedtest.sbcglobal.net (99.24.18.25): icmp_seq=72 ttl=51 time=79.8 ms
64 bytes from nyc.speedtest.sbcglobal.net (99.24.18.25): icmp_seq=72 ttl=51 time=79.8 ms
64 bytes from nyc.speedtest.sbcglobal.net (99.24.18.25): icmp_seq=73 ttl=51 time=80.1 ms
64 bytes from nyc.speedtest.sbcglobal.net (99.24.18.25): icmp_seq=73 ttl=51 time=79.7 ms
64 bytes from nyc.speedtest.sbcglobal.net (99.24.18.25): icmp_seq=73 ttl=51 time=79.7 ms
64 bytes from nyc.speedtest.sbcglobal.net (99.24.18.25): icmp_seq=73 ttl=51 time=79.7 ms
64 bytes from nyc.speedtest.sbcglobal.net (99.24.18.25): icmp_seq=73 ttl=51 time=79.7 ms
64 bytes from nyc.speedtest.sbcglobal.net (99.24.18.25): icmp_seq=73 ttl=51 time=79.7 ms
64 bytes from nyc.speedtest.sbcglobal.net (99.24.18.25): icmp_seq=73 ttl=51 time=79.7 ms
64 bytes from nyc.speedtest.sbcglobal.net (99.24.18.25): icmp_seq=73 ttl=51 time=80.0 ms
64 bytes from nyc.speedtest.sbcglobal.net (99.24.18.25): icmp_seq=73 ttl=51 time=79.8 ms
64 bytes from nyc.speedtest.sbcglobal.net (99.24.18.25): icmp_seq=73 ttl=51 time=79.9 ms
64 bytes from nyc.speedtest.sbcglobal.net (99.24.18.25): icmp_seq=74 ttl=51 time=80.2 ms
64 bytes from nyc.speedtest.sbcglobal.net (99.24.18.25): icmp_seq=74 ttl=51 time=80.2 ms
64 bytes from nyc.speedtest.sbcglobal.net (99.24.18.25): icmp_seq=74 ttl=51 time=79.9 ms
64 bytes from nyc.speedtest.sbcglobal.net (99.24.18.25): icmp_seq=74 ttl=51 time=79.9 ms
64 bytes from nyc.speedtest.sbcglobal.net (99.24.18.25): icmp_seq=74 ttl=51 time=79.9 ms
64 bytes from nyc.speedtest.sbcglobal.net (99.24.18.25): icmp_seq=74 ttl=51 time=79.9 ms
64 bytes from nyc.speedtest.sbcglobal.net (99.24.18.25): icmp_seq=74 ttl=51 time=79.8 ms
64 bytes from nyc.speedtest.sbcglobal.net (99.24.18.25): icmp_seq=74 ttl=51 time=79.9 ms
64 bytes from nyc.speedtest.sbcglobal.net (99.24.18.25): icmp_seq=74 ttl=51 time=79.9 ms
64 bytes from nyc.speedtest.sbcglobal.net (99.24.18.25): icmp_seq=74 ttl=51 time=79.9 ms
64 bytes from nyc.speedtest.sbcglobal.net (99.24.18.25): icmp_seq=75 ttl=51 time=79.8 ms
64 bytes from nyc.speedtest.sbcglobal.net (99.24.18.25): icmp_seq=75 ttl=51 time=80.0 ms
64 bytes from nyc.speedtest.sbcglobal.net (99.24.18.25): icmp_seq=75 ttl=51 time=79.8 ms
64 bytes from nyc.speedtest.sbcglobal.net (99.24.18.25): icmp_seq=75 ttl=51 time=80.0 ms
64 bytes from nyc.speedtest.sbcglobal.net (99.24.18.25): icmp_seq=75 ttl=51 time=79.9 ms
64 bytes from nyc.speedtest.sbcglobal.net (99.24.18.25): icmp_seq=75 ttl=51 time=79.8 ms
64 bytes from nyc.speedtest.sbcglobal.net (99.24.18.25): icmp_seq=75 ttl=51 time=79.8 ms
64 bytes from nyc.speedtest.sbcglobal.net (99.24.18.25): icmp_seq=75 ttl=51 time=79.8 ms
64 bytes from nyc.speedtest.sbcglobal.net (99.24.18.25): icmp_seq=75 ttl=51 time=79.9 ms
64 bytes from nyc.speedtest.sbcglobal.net (99.24.18.25): icmp_seq=75 ttl=51 time=79.8 ms
64 bytes from nyc.speedtest.sbcglobal.net (99.24.18.25): icmp_seq=76 ttl=51 time=80.2 ms
64 bytes from nyc.speedtest.sbcglobal.net (99.24.18.25): icmp_seq=76 ttl=51 time=80.2 ms
64 bytes from nyc.speedtest.sbcglobal.net (99.24.18.25): icmp_seq=76 ttl=51 time=80.2 ms
64 bytes from nyc.speedtest.sbcglobal.net (99.24.18.25): icmp_seq=76 ttl=51 time=80.2 ms
64 bytes from nyc.speedtest.sbcglobal.net (99.24.18.25): icmp_seq=76 ttl=51 time=80.1 ms
64 bytes from nyc.speedtest.sbcglobal.net (99.24.18.25): icmp_seq=76 ttl=51 time=80.2 ms
64 bytes from nyc.speedtest.sbcglobal.net (99.24.18.25): icmp_seq=76 ttl=51 time=80.1 ms
64 bytes from nyc.speedtest.sbcglobal.net (99.24.18.25): icmp_seq=76 ttl=51 time=80.1 ms
64 bytes from nyc.speedtest.sbcglobal.net (99.24.18.25): icmp_seq=76 ttl=51 time=80.1 ms
64 bytes from nyc.speedtest.sbcglobal.net (99.24.18.25): icmp_seq=76 ttl=51 time=80.1 ms
64 bytes from nyc.speedtest.sbcglobal.net (99.24.18.25): icmp_seq=77 ttl=51 time=80.0 ms
64 bytes from nyc.speedtest.sbcglobal.net (99.24.18.25): icmp_seq=77 ttl=51 time=80.0 ms
64 bytes from nyc.speedtest.sbcglobal.net (99.24.18.25): icmp_seq=77 ttl=51 time=80.0 ms
64 bytes from nyc.speedtest.sbcglobal.net (99.24.18.25): icmp_seq=77 ttl=51 time=80.0 ms
64 bytes from nyc.speedtest.sbcglobal.net (99.24.18.25): icmp_seq=77 ttl=51 time=80.0 ms
64 bytes from nyc.speedtest.sbcglobal.net (99.24.18.25): icmp_seq=77 ttl=51 time=80.0 ms
64 bytes from nyc.speedtest.sbcglobal.net (99.24.18.25): icmp_seq=77 ttl=51 time=80.0 ms
64 bytes from nyc.speedtest.sbcglobal.net (99.24.18.25): icmp_seq=77 ttl=51 time=80.0 ms
64 bytes from nyc.speedtest.sbcglobal.net (99.24.18.25): icmp_seq=77 ttl=51 time=80.0 ms
64 bytes from nyc.speedtest.sbcglobal.net (99.24.18.25): icmp_seq=77 ttl=51 time=80.0 ms
64 bytes from nyc.speedtest.sbcglobal.net (99.24.18.25): icmp_seq=78 ttl=51 time=80.1 ms
64 bytes from nyc.speedtest.sbcglobal.net (99.24.18.25): icmp_seq=78 ttl=51 time=80.1 ms
64 bytes from nyc.speedtest.sbcglobal.net (99.24.18.25): icmp_seq=78 ttl=51 time=80.1 ms
64 bytes from nyc.speedtest.sbcglobal.net (99.24.18.25): icmp_seq=78 ttl=51 time=80.0 ms
64 bytes from nyc.speedtest.sbcglobal.net (99.24.18.25): icmp_seq=78 ttl=51 time=80.1 ms
64 bytes from nyc.speedtest.sbcglobal.net (99.24.18.25): icmp_seq=78 ttl=51 time=80.1 ms
64 bytes from nyc.speedtest.sbcglobal.net (99.24.18.25): icmp_seq=78 ttl=51 time=80.0 ms
64 bytes from nyc.speedtest.sbcglobal.net (99.24.18.25): icmp_seq=78 ttl=51 time=80.1 ms
64 bytes from nyc.speedtest.sbcglobal.net (99.24.18.25): icmp_seq=78 ttl=51 time=80.0 ms
64 bytes from nyc.speedtest.sbcglobal.net (99.24.18.25): icmp_seq=78 ttl=51 time=80.1 ms
64 bytes from nyc.speedtest.sbcglobal.net (99.24.18.25): icmp_seq=79 ttl=51 time=79.7 ms
64 bytes from nyc.speedtest.sbcglobal.net (99.24.18.25): icmp_seq=79 ttl=51 time=79.7 ms
64 bytes from nyc.speedtest.sbcglobal.net (99.24.18.25): icmp_seq=79 ttl=51 time=79.7 ms
64 bytes from nyc.speedtest.sbcglobal.net (99.24.18.25): icmp_seq=79 ttl=51 time=79.7 ms
64 bytes from nyc.speedtest.sbcglobal.net (99.24.18.25): icmp_seq=79 ttl=51 time=79.8 ms
64 bytes from nyc.speedtest.sbcglobal.net (99.24.18.25): icmp_seq=79 ttl=51 time=79.8 ms
64 bytes from nyc.speedtest.sbcglobal.net (99.24.18.25): icmp_seq=79 ttl=51 time=79.8 ms
64 bytes from nyc.speedtest.sbcglobal.net (99.24.18.25): icmp_seq=79 ttl=51 time=79.8 ms
64 bytes from nyc.speedtest.sbcglobal.net (99.24.18.25): icmp_seq=79 ttl=51 time=79.7 ms
64 bytes from nyc.speedtest.sbcglobal.net (99.24.18.25): icmp_seq=79 ttl=51 time=79.8 ms
64 bytes from nyc.speedtest.sbcglobal.net (99.24.18.25): icmp_seq=80 ttl=51 time=79.9 ms
64 bytes from nyc.speedtest.sbcglobal.net (99.24.18.25): icmp_seq=80 ttl=51 time=79.8 ms
64 bytes from nyc.speedtest.sbcglobal.net (99.24.18.25): icmp_seq=80 ttl=51 time=79.8 ms
64 bytes from nyc.speedtest.sbcglobal.net (99.24.18.25): icmp_seq=80 ttl=51 time=79.8 ms
64 bytes from nyc.speedtest.sbcglobal.net (99.24.18.25): icmp_seq=80 ttl=51 time=79.8 ms
64 bytes from nyc.speedtest.sbcglobal.net (99.24.18.25): icmp_seq=80 ttl=51 time=79.8 ms
64 bytes from nyc.speedtest.sbcglobal.net (99.24.18.25): icmp_seq=80 ttl=51 time=79.8 ms
64 bytes from nyc.speedtest.sbcglobal.net (99.24.18.25): icmp_seq=80 ttl=51 time=79.7 ms
64 bytes from nyc.speedtest.sbcglobal.net (99.24.18.25): icmp_seq=80 ttl=51 time=79.8 ms
64 bytes from nyc.speedtest.sbcglobal.net (99.24.18.25): icmp_seq=80 ttl=51 time=79.8 ms
64 bytes from nyc.speedtest.sbcglobal.net (99.24.18.25): icmp_seq=81 ttl=51 time=80.2 ms
64 bytes from nyc.speedtest.sbcglobal.net (99.24.18.25): icmp_seq=81 ttl=51 time=79.6 ms
64 bytes from nyc.speedtest.sbcglobal.net (99.24.18.25): icmp_seq=81 ttl=51 time=79.6 ms
64 bytes from nyc.speedtest.sbcglobal.net (99.24.18.25): icmp_seq=81 ttl=51 time=79.6 ms
64 bytes from nyc.speedtest.sbcglobal.net (99.24.18.25): icmp_seq=81 ttl=51 time=79.6 ms
64 bytes from nyc.speedtest.sbcglobal.net (99.24.18.25): icmp_seq=81 ttl=51 time=79.6 ms
64 bytes from nyc.speedtest.sbcglobal.net (99.24.18.25): icmp_seq=81 ttl=51 time=79.6 ms
64 bytes from nyc.speedtest.sbcglobal.net (99.24.18.25): icmp_seq=81 ttl=51 time=79.6 ms
64 bytes from nyc.speedtest.sbcglobal.net (99.24.18.25): icmp_seq=81 ttl=51 time=79.6 ms
64 bytes from nyc.speedtest.sbcglobal.net (99.24.18.25): icmp_seq=81 ttl=51 time=79.6 ms
64 bytes from nyc.speedtest.sbcglobal.net (99.24.18.25): icmp_seq=82 ttl=51 time=80.0 ms
64 bytes from nyc.speedtest.sbcglobal.net (99.24.18.25): icmp_seq=82 ttl=51 time=79.9 ms
64 bytes from nyc.speedtest.sbcglobal.net (99.24.18.25): icmp_seq=82 ttl=51 time=79.7 ms
64 bytes from nyc.speedtest.sbcglobal.net (99.24.18.25): icmp_seq=82 ttl=51 time=79.6 ms
64 bytes from nyc.speedtest.sbcglobal.net (99.24.18.25): icmp_seq=82 ttl=51 time=79.7 ms
64 bytes from nyc.speedtest.sbcglobal.net (99.24.18.25): icmp_seq=82 ttl=51 time=79.7 ms
64 bytes from nyc.speedtest.sbcglobal.net (99.24.18.25): icmp_seq=82 ttl=51 time=79.7 ms
64 bytes from nyc.speedtest.sbcglobal.net (99.24.18.25): icmp_seq=82 ttl=51 time=79.6 ms
64 bytes from nyc.speedtest.sbcglobal.net (99.24.18.25): icmp_seq=82 ttl=51 time=79.5 ms
64 bytes from nyc.speedtest.sbcglobal.net (99.24.18.25): icmp_seq=82 ttl=51 time=79.6 ms
64 bytes from nyc.speedtest.sbcglobal.net (99.24.18.25): icmp_seq=83 ttl=51 time=80.1 ms
64 bytes from nyc.speedtest.sbcglobal.net (99.24.18.25): icmp_seq=83 ttl=51 time=80.2 ms
64 bytes from nyc.speedtest.sbcglobal.net (99.24.18.25): icmp_seq=83 ttl=51 time=80.2 ms
64 bytes from nyc.speedtest.sbcglobal.net (99.24.18.25): icmp_seq=83 ttl=51 time=79.7 ms
64 bytes from nyc.speedtest.sbcglobal.net (99.24.18.25): icmp_seq=83 ttl=51 time=79.7 ms
64 bytes from nyc.speedtest.sbcglobal.net (99.24.18.25): icmp_seq=83 ttl=51 time=79.7 ms
64 bytes from nyc.speedtest.sbcglobal.net (99.24.18.25): icmp_seq=83 ttl=51 time=79.7 ms
64 bytes from nyc.speedtest.sbcglobal.net (99.24.18.25): icmp_seq=83 ttl=51 time=79.7 ms
64 bytes from nyc.speedtest.sbcglobal.net (99.24.18.25): icmp_seq=83 ttl=51 time=79.7 ms
64 bytes from nyc.speedtest.sbcglobal.net (99.24.18.25): icmp_seq=83 ttl=51 time=79.7 ms
64 bytes from nyc.speedtest.sbcglobal.net (99.24.18.25): icmp_seq=84 ttl=51 time=80.3 ms
64 bytes from nyc.speedtest.sbcglobal.net (99.24.18.25): icmp_seq=84 ttl=51 time=80.2 ms
64 bytes from nyc.speedtest.sbcglobal.net (99.24.18.25): icmp_seq=84 ttl=51 time=80.3 ms
64 bytes from nyc.speedtest.sbcglobal.net (99.24.18.25): icmp_seq=84 ttl=51 time=79.9 ms
64 bytes from nyc.speedtest.sbcglobal.net (99.24.18.25): icmp_seq=84 ttl=51 time=79.9 ms
64 bytes from nyc.speedtest.sbcglobal.net (99.24.18.25): icmp_seq=84 ttl=51 time=79.9 ms
64 bytes from nyc.speedtest.sbcglobal.net (99.24.18.25): icmp_seq=84 ttl=51 time=80.0 ms
64 bytes from nyc.speedtest.sbcglobal.net (99.24.18.25): icmp_seq=84 ttl=51 time=80.0 ms
64 bytes from nyc.speedtest.sbcglobal.net (99.24.18.25): icmp_seq=84 ttl=51 time=79.8 ms
64 bytes from nyc.speedtest.sbcglobal.net (99.24.18.25): icmp_seq=84 ttl=51 time=79.9 ms
64 bytes from nyc.speedtest.sbcglobal.net (99.24.18.25): icmp_seq=85 ttl=51 time=80.0 ms
64 bytes from nyc.speedtest.sbcglobal.net (99.24.18.25): icmp_seq=85 ttl=51 time=79.7 ms
64 bytes from nyc.speedtest.sbcglobal.net (99.24.18.25): icmp_seq=85 ttl=51 time=80.0 ms
64 bytes from nyc.speedtest.sbcglobal.net (99.24.18.25): icmp_seq=85 ttl=51 time=79.9 ms
64 bytes from nyc.speedtest.sbcglobal.net (99.24.18.25): icmp_seq=85 ttl=51 time=79.9 ms
64 bytes from nyc.speedtest.sbcglobal.net (99.24.18.25): icmp_seq=85 ttl=51 time=80.0 ms
64 bytes from nyc.speedtest.sbcglobal.net (99.24.18.25): icmp_seq=85 ttl=51 time=79.8 ms
64 bytes from nyc.speedtest.sbcglobal.net (99.24.18.25): icmp_seq=85 ttl=51 time=79.7 ms
64 bytes from nyc.speedtest.sbcglobal.net (99.24.18.25): icmp_seq=85 ttl=51 time=79.9 ms
64 bytes from nyc.speedtest.sbcglobal.net (99.24.18.25): icmp_seq=85 ttl=51 time=79.7 ms
64 bytes from nyc.speedtest.sbcglobal.net (99.24.18.25): icmp_seq=86 ttl=51 time=80.1 ms
64 bytes from nyc.speedtest.sbcglobal.net (99.24.18.25): icmp_seq=86 ttl=51 time=80.2 ms
64 bytes from nyc.speedtest.sbcglobal.net (99.24.18.25): icmp_seq=86 ttl=51 time=80.2 ms
64 bytes from nyc.speedtest.sbcglobal.net (99.24.18.25): icmp_seq=86 ttl=51 time=80.1 ms
64 bytes from nyc.speedtest.sbcglobal.net (99.24.18.25): icmp_seq=86 ttl=51 time=80.2 ms
64 bytes from nyc.speedtest.sbcglobal.net (99.24.18.25): icmp_seq=86 ttl=51 time=80.2 ms
64 bytes from nyc.speedtest.sbcglobal.net (99.24.18.25): icmp_seq=86 ttl=51 time=80.2 ms
64 bytes from nyc.speedtest.sbcglobal.net (99.24.18.25): icmp_seq=86 ttl=51 time=80.2 ms
64 bytes from nyc.speedtest.sbcglobal.net (99.24.18.25): icmp_seq=86 ttl=51 time=80.1 ms
64 bytes from nyc.speedtest.sbcglobal.net (99.24.18.25): icmp_seq=86 ttl=51 time=80.2 ms
64 bytes from nyc.speedtest.sbcglobal.net (99.24.18.25): icmp_seq=87 ttl=51 time=80.1 ms
64 bytes from nyc.speedtest.sbcglobal.net (99.24.18.25): icmp_seq=87 ttl=51 time=80.1 ms
64 bytes from nyc.speedtest.sbcglobal.net (99.24.18.25): icmp_seq=87 ttl=51 time=80.2 ms
64 bytes from nyc.speedtest.sbcglobal.net (99.24.18.25): icmp_seq=87 ttl=51 time=80.2 ms
64 bytes from nyc.speedtest.sbcglobal.net (99.24.18.25): icmp_seq=87 ttl=51 time=80.1 ms
64 bytes from nyc.speedtest.sbcglobal.net (99.24.18.25): icmp_seq=87 ttl=51 time=80.2 ms
64 bytes from nyc.speedtest.sbcglobal.net (99.24.18.25): icmp_seq=87 ttl=51 time=80.2 ms
64 bytes from nyc.speedtest.sbcglobal.net (99.24.18.25): icmp_seq=87 ttl=51 time=80.0 ms
64 bytes from nyc.speedtest.sbcglobal.net (99.24.18.25): icmp_seq=87 ttl=51 time=80.1 ms
64 bytes from nyc.speedtest.sbcglobal.net (99.24.18.25): icmp_seq=87 ttl=51 time=80.1 ms
64 bytes from nyc.speedtest.sbcglobal.net (99.24.18.25): icmp_seq=88 ttl=51 time=80.1 ms
64 bytes from nyc.speedtest.sbcglobal.net (99.24.18.25): icmp_seq=88 ttl=51 time=80.1 ms
64 bytes from nyc.speedtest.sbcglobal.net (99.24.18.25): icmp_seq=88 ttl=51 time=80.1 ms
64 bytes from nyc.speedtest.sbcglobal.net (99.24.18.25): icmp_seq=88 ttl=51 time=80.1 ms
64 bytes from nyc.speedtest.sbcglobal.net (99.24.18.25): icmp_seq=88 ttl=51 time=80.2 ms
64 bytes from nyc.speedtest.sbcglobal.net (99.24.18.25): icmp_seq=88 ttl=51 time=80.2 ms
64 bytes from nyc.speedtest.sbcglobal.net (99.24.18.25): icmp_seq=88 ttl=51 time=80.2 ms
64 bytes from nyc.speedtest.sbcglobal.net (99.24.18.25): icmp_seq=88 ttl=51 time=80.1 ms
64 bytes from nyc.speedtest.sbcglobal.net (99.24.18.25): icmp_seq=88 ttl=51 time=80.0 ms
64 bytes from nyc.speedtest.sbcglobal.net (99.24.18.25): icmp_seq=88 ttl=51 time=80.1 ms
64 bytes from nyc.speedtest.sbcglobal.net (99.24.18.25): icmp_seq=89 ttl=51 time=80.1 ms
64 bytes from nyc.speedtest.sbcglobal.net (99.24.18.25): icmp_seq=89 ttl=51 time=80.0 ms
64 bytes from nyc.speedtest.sbcglobal.net (99.24.18.25): icmp_seq=89 ttl=51 time=80.0 ms
64 bytes from nyc.speedtest.sbcglobal.net (99.24.18.25): icmp_seq=89 ttl=51 time=80.0 ms
64 bytes from nyc.speedtest.sbcglobal.net (99.24.18.25): icmp_seq=89 ttl=51 time=80.1 ms
64 bytes from nyc.speedtest.sbcglobal.net (99.24.18.25): icmp_seq=89 ttl=51 time=80.0 ms
64 bytes from nyc.speedtest.sbcglobal.net (99.24.18.25): icmp_seq=89 ttl=51 time=80.0 ms
64 bytes from nyc.speedtest.sbcglobal.net (99.24.18.25): icmp_seq=89 ttl=51 time=80.0 ms
64 bytes from nyc.speedtest.sbcglobal.net (99.24.18.25): icmp_seq=89 ttl=51 time=80.0 ms
64 bytes from nyc.speedtest.sbcglobal.net (99.24.18.25): icmp_seq=89 ttl=51 time=80.0 ms
64 bytes from nyc.speedtest.sbcglobal.net (99.24.18.25): icmp_seq=90 ttl=51 time=80.3 ms
64 bytes from nyc.speedtest.sbcglobal.net (99.24.18.25): icmp_seq=90 ttl=51 time=80.3 ms
64 bytes from nyc.speedtest.sbcglobal.net (99.24.18.25): icmp_seq=90 ttl=51 time=80.3 ms
64 bytes from nyc.speedtest.sbcglobal.net (99.24.18.25): icmp_seq=90 ttl=51 time=80.4 ms
64 bytes from nyc.speedtest.sbcglobal.net (99.24.18.25): icmp_seq=90 ttl=51 time=80.3 ms
64 bytes from nyc.speedtest.sbcglobal.net (99.24.18.25): icmp_seq=90 ttl=51 time=80.4 ms
64 bytes from nyc.speedtest.sbcglobal.net (99.24.18.25): icmp_seq=90 ttl=51 time=80.2 ms
64 bytes from nyc.speedtest.sbcglobal.net (99.24.18.25): icmp_seq=90 ttl=51 time=80.2 ms
64 bytes from nyc.speedtest.sbcglobal.net (99.24.18.25): icmp_seq=90 ttl=51 time=80.4 ms
64 bytes from nyc.speedtest.sbcglobal.net (99.24.18.25): icmp_seq=90 ttl=51 time=80.2 ms
64 bytes from nyc.speedtest.sbcglobal.net (99.24.18.25): icmp_seq=91 ttl=51 time=80.1 ms
64 bytes from nyc.speedtest.sbcglobal.net (99.24.18.25): icmp_seq=91 ttl=51 time=80.1 ms
64 bytes from nyc.speedtest.sbcglobal.net (99.24.18.25): icmp_seq=91 ttl=51 time=80.2 ms
64 bytes from nyc.speedtest.sbcglobal.net (99.24.18.25): icmp_seq=91 ttl=51 time=80.1 ms
64 bytes from nyc.speedtest.sbcglobal.net (99.24.18.25): icmp_seq=91 ttl=51 time=80.2 ms
64 bytes from nyc.speedtest.sbcglobal.net (99.24.18.25): icmp_seq=91 ttl=51 time=80.2 ms
64 bytes from nyc.speedtest.sbcglobal.net (99.24.18.25): icmp_seq=91 ttl=51 time=80.2 ms
64 bytes from nyc.speedtest.sbcglobal.net (99.24.18.25): icmp_seq=91 ttl=51 time=80.2 ms
64 bytes from nyc.speedtest.sbcglobal.net (99.24.18.25): icmp_seq=91 ttl=51 time=80.2 ms
64 bytes from nyc.speedtest.sbcglobal.net (99.24.18.25): icmp_seq=91 ttl=51 time=80.0 ms
64 bytes from nyc.speedtest.sbcglobal.net (99.24.18.25): icmp_seq=92 ttl=51 time=80.2 ms
64 bytes from nyc.speedtest.sbcglobal.net (99.24.18.25): icmp_seq=92 ttl=51 time=80.2 ms
64 bytes from nyc.speedtest.sbcglobal.net (99.24.18.25): icmp_seq=92 ttl=51 time=80.3 ms
64 bytes from nyc.speedtest.sbcglobal.net (99.24.18.25): icmp_seq=92 ttl=51 time=80.3 ms
64 bytes from nyc.speedtest.sbcglobal.net (99.24.18.25): icmp_seq=92 ttl=51 time=80.2 ms
64 bytes from nyc.speedtest.sbcglobal.net (99.24.18.25): icmp_seq=92 ttl=51 time=80.3 ms
64 bytes from nyc.speedtest.sbcglobal.net (99.24.18.25): icmp_seq=92 ttl=51 time=80.2 ms
64 bytes from nyc.speedtest.sbcglobal.net (99.24.18.25): icmp_seq=92 ttl=51 time=80.2 ms
64 bytes from nyc.speedtest.sbcglobal.net (99.24.18.25): icmp_seq=92 ttl=51 time=80.1 ms
64 bytes from nyc.speedtest.sbcglobal.net (99.24.18.25): icmp_seq=92 ttl=51 time=80.3 ms
64 bytes from nyc.speedtest.sbcglobal.net (99.24.18.25): icmp_seq=93 ttl=51 time=80.1 ms
64 bytes from nyc.speedtest.sbcglobal.net (99.24.18.25): icmp_seq=93 ttl=51 time=80.2 ms
64 bytes from nyc.speedtest.sbcglobal.net (99.24.18.25): icmp_seq=93 ttl=51 time=80.2 ms
64 bytes from nyc.speedtest.sbcglobal.net (99.24.18.25): icmp_seq=93 ttl=51 time=80.2 ms
64 bytes from nyc.speedtest.sbcglobal.net (99.24.18.25): icmp_seq=93 ttl=51 time=80.2 ms
64 bytes from nyc.speedtest.sbcglobal.net (99.24.18.25): icmp_seq=93 ttl=51 time=80.2 ms
64 bytes from nyc.speedtest.sbcglobal.net (99.24.18.25): icmp_seq=93 ttl=51 time=80.2 ms
64 bytes from nyc.speedtest.sbcglobal.net (99.24.18.25): icmp_seq=93 ttl=51 time=80.1 ms
64 bytes from nyc.speedtest.sbcglobal.net (99.24.18.25): icmp_seq=93 ttl=51 time=80.2 ms
64 bytes from nyc.speedtest.sbcglobal.net (99.24.18.25): icmp_seq=93 ttl=51 time=80.2 ms
64 bytes from nyc.speedtest.sbcglobal.net (99.24.18.25): icmp_seq=94 ttl=51 time=80.4 ms
64 bytes from nyc.speedtest.sbcglobal.net (99.24.18.25): icmp_seq=94 ttl=51 time=80.3 ms
64 bytes from nyc.speedtest.sbcglobal.net (99.24.18.25): icmp_seq=94 ttl=51 time=80.4 ms
64 bytes from nyc.speedtest.sbcglobal.net (99.24.18.25): icmp_seq=94 ttl=51 time=80.4 ms
64 bytes from nyc.speedtest.sbcglobal.net (99.24.18.25): icmp_seq=94 ttl=51 time=80.4 ms
64 bytes from nyc.speedtest.sbcglobal.net (99.24.18.25): icmp_seq=94 ttl=51 time=80.4 ms
64 bytes from nyc.speedtest.sbcglobal.net (99.24.18.25): icmp_seq=94 ttl=51 time=80.4 ms
64 bytes from nyc.speedtest.sbcglobal.net (99.24.18.25): icmp_seq=94 ttl=51 time=80.3 ms
64 bytes from nyc.speedtest.sbcglobal.net (99.24.18.25): icmp_seq=94 ttl=51 time=80.4 ms
64 bytes from nyc.speedtest.sbcglobal.net (99.24.18.25): icmp_seq=94 ttl=51 time=80.4 ms
64 bytes from nyc.speedtest.sbcglobal.net (99.24.18.25): icmp_seq=95 ttl=51 time=80.3 ms
64 bytes from nyc.speedtest.sbcglobal.net (99.24.18.25): icmp_seq=95 ttl=51 time=80.4 ms
64 bytes from nyc.speedtest.sbcglobal.net (99.24.18.25): icmp_seq=95 ttl=51 time=80.3 ms
64 bytes from nyc.speedtest.sbcglobal.net (99.24.18.25): icmp_seq=95 ttl=51 time=80.3 ms
64 bytes from nyc.speedtest.sbcglobal.net (99.24.18.25): icmp_seq=95 ttl=51 time=80.3 ms
64 bytes from nyc.speedtest.sbcglobal.net (99.24.18.25): icmp_seq=95 ttl=51 time=80.4 ms
64 bytes from nyc.speedtest.sbcglobal.net (99.24.18.25): icmp_seq=95 ttl=51 time=80.3 ms
64 bytes from nyc.speedtest.sbcglobal.net (99.24.18.25): icmp_seq=95 ttl=51 time=80.2 ms
64 bytes from nyc.speedtest.sbcglobal.net (99.24.18.25): icmp_seq=95 ttl=51 time=80.4 ms
64 bytes from nyc.speedtest.sbcglobal.net (99.24.18.25): icmp_seq=95 ttl=51 time=80.3 ms
64 bytes from nyc.speedtest.sbcglobal.net (99.24.18.25): icmp_seq=96 ttl=51 time=80.2 ms
64 bytes from nyc.speedtest.sbcglobal.net (99.24.18.25): icmp_seq=96 ttl=51 time=80.2 ms
64 bytes from nyc.speedtest.sbcglobal.net (99.24.18.25): icmp_seq=96 ttl=51 time=80.2 ms
64 bytes from nyc.speedtest.sbcglobal.net (99.24.18.25): icmp_seq=96 ttl=51 time=80.3 ms
64 bytes from nyc.speedtest.sbcglobal.net (99.24.18.25): icmp_seq=96 ttl=51 time=80.2 ms
64 bytes from nyc.speedtest.sbcglobal.net (99.24.18.25): icmp_seq=96 ttl=51 time=80.2 ms
64 bytes from nyc.speedtest.sbcglobal.net (99.24.18.25): icmp_seq=96 ttl=51 time=80.2 ms
64 bytes from nyc.speedtest.sbcglobal.net (99.24.18.25): icmp_seq=96 ttl=51 time=80.1 ms
64 bytes from nyc.speedtest.sbcglobal.net (99.24.18.25): icmp_seq=96 ttl=51 time=80.1 ms
64 bytes from nyc.speedtest.sbcglobal.net (99.24.18.25): icmp_seq=96 ttl=51 time=80.1 ms
64 bytes from nyc.speedtest.sbcglobal.net (99.24.18.25): icmp_seq=97 ttl=51 time=80.1 ms
64 bytes from nyc.speedtest.sbcglobal.net (99.24.18.25): icmp_seq=97 ttl=51 time=80.1 ms
64 bytes from nyc.speedtest.sbcglobal.net (99.24.18.25): icmp_seq=97 ttl=51 time=80.1 ms
64 bytes from nyc.speedtest.sbcglobal.net (99.24.18.25): icmp_seq=97 ttl=51 time=80.1 ms
64 bytes from nyc.speedtest.sbcglobal.net (99.24.18.25): icmp_seq=97 ttl=51 time=80.1 ms
64 bytes from nyc.speedtest.sbcglobal.net (99.24.18.25): icmp_seq=97 ttl=51 time=80.2 ms
64 bytes from nyc.speedtest.sbcglobal.net (99.24.18.25): icmp_seq=97 ttl=51 time=80.2 ms
64 bytes from nyc.speedtest.sbcglobal.net (99.24.18.25): icmp_seq=97 ttl=51 time=80.1 ms
64 bytes from nyc.speedtest.sbcglobal.net (99.24.18.25): icmp_seq=97 ttl=51 time=80.1 ms
64 bytes from nyc.speedtest.sbcglobal.net (99.24.18.25): icmp_seq=97 ttl=51 time=80.2 ms
64 bytes from nyc.speedtest.sbcglobal.net (99.24.18.25): icmp_seq=98 ttl=51 time=80.0 ms
64 bytes from nyc.speedtest.sbcglobal.net (99.24.18.25): icmp_seq=98 ttl=51 time=80.0 ms
64 bytes from nyc.speedtest.sbcglobal.net (99.24.18.25): icmp_seq=98 ttl=51 time=80.0 ms
64 bytes from nyc.speedtest.sbcglobal.net (99.24.18.25): icmp_seq=98 ttl=51 time=80.0 ms
64 bytes from nyc.speedtest.sbcglobal.net (99.24.18.25): icmp_seq=98 ttl=51 time=80.1 ms
64 bytes from nyc.speedtest.sbcglobal.net (99.24.18.25): icmp_seq=98 ttl=51 time=80.1 ms
64 bytes from nyc.speedtest.sbcglobal.net (99.24.18.25): icmp_seq=98 ttl=51 time=80.1 ms
64 bytes from nyc.speedtest.sbcglobal.net (99.24.18.25): icmp_seq=98 ttl=51 time=80.0 ms
64 bytes from nyc.speedtest.sbcglobal.net (99.24.18.25): icmp_seq=98 ttl=51 time=80.1 ms
64 bytes from nyc.speedtest.sbcglobal.net (99.24.18.25): icmp_seq=98 ttl=51 time=80.1 ms
64 bytes from nyc.speedtest.sbcglobal.net (99.24.18.25): icmp_seq=99 ttl=51 time=80.0 ms
64 bytes from nyc.speedtest.sbcglobal.net (99.24.18.25): icmp_seq=99 ttl=51 time=80.0 ms
64 bytes from nyc.speedtest.sbcglobal.net (99.24.18.25): icmp_seq=99 ttl=51 time=80.0 ms
64 bytes from nyc.speedtest.sbcglobal.net (99.24.18.25): icmp_seq=99 ttl=51 time=80.0 ms
64 bytes from nyc.speedtest.sbcglobal.net (99.24.18.25): icmp_seq=99 ttl=51 time=80.0 ms
64 bytes from nyc.speedtest.sbcglobal.net (99.24.18.25): icmp_seq=99 ttl=51 time=80.0 ms
64 bytes from nyc.speedtest.sbcglobal.net (99.24.18.25): icmp_seq=99 ttl=51 time=80.0 ms
64 bytes from nyc.speedtest.sbcglobal.net (99.24.18.25): icmp_seq=99 ttl=51 time=79.9 ms
64 bytes from nyc.speedtest.sbcglobal.net (99.24.18.25): icmp_seq=99 ttl=51 time=80.0 ms
64 bytes from nyc.speedtest.sbcglobal.net (99.24.18.25): icmp_seq=99 ttl=51 time=80.0 ms
64 bytes from nyc.speedtest.sbcglobal.net (99.24.18.25): icmp_seq=100 ttl=51 time=80.4 ms
64 bytes from nyc.speedtest.sbcglobal.net (99.24.18.25): icmp_seq=100 ttl=51 time=80.4 ms
64 bytes from nyc.speedtest.sbcglobal.net (99.24.18.25): icmp_seq=100 ttl=51 time=80.4 ms
64 bytes from nyc.speedtest.sbcglobal.net (99.24.18.25): icmp_seq=100 ttl=51 time=80.4 ms
64 bytes from nyc.speedtest.sbcglobal.net (99.24.18.25): icmp_seq=100 ttl=51 time=80.4 ms
64 bytes from nyc.speedtest.sbcglobal.net (99.24.18.25): icmp_seq=100 ttl=51 time=80.4 ms




64 bytes from nyc.speedtest.sbcglobal.net (99.24.18.25): icmp_seq=100 ttl=51 time=80.3 ms



--- nyc.speedtest.sbcglobal.net ping statistics ---
100 packets transmitted, 100 received, 0% packet loss, time 99148ms
rtt min/avg/max/mdev = 79.652/80.202/83.001/0.571 ms
64 bytes from nyc.speedtest.sbcglobal.net (99.24.18.25): icmp_seq=100 ttl=51 time=80.3 ms
--- nyc.speedtest.sbcglobal.net ping statistics ---
100 packets transmitted, 100 received, 0% packet loss, time 99148ms
rtt min/avg/max/mdev = 79.587/80.219/83.065/0.650 ms

--- nyc.speedtest.sbcglobal.net ping statistics ---
100 packets transmitted, 100 received, 0% packet loss, time 99148ms
rtt min/avg/max/mdev = 79.582/80.203/83.065/0.641 ms
--- nyc.speedtest.sbcglobal.net ping statistics ---
100 packets transmitted, 100 received, 0% packet loss, time 99148ms
rtt min/avg/max/mdev = 79.615/80.227/83.075/0.634 ms
--- nyc.speedtest.sbcglobal.net ping statistics ---
100 packets transmitted, 100 received, 0% packet loss, time 99148ms
rtt min/avg/max/mdev = 79.701/80.263/83.083/0.618 ms
--- nyc.speedtest.sbcglobal.net ping statistics ---
100 packets transmitted, 100 received, 0% packet loss, time 99148ms
rtt min/avg/max/mdev = 79.628/80.207/83.083/0.615 ms
--- nyc.speedtest.sbcglobal.net ping statistics ---
100 packets transmitted, 100 received, 0% packet loss, time 99148ms
rtt min/avg/max/mdev = 79.584/80.211/83.007/0.639 ms
--- nyc.speedtest.sbcglobal.net ping statistics ---
100 packets transmitted, 100 received, 0% packet loss, time 99148ms
rtt min/avg/max/mdev = 79.562/80.203/83.071/0.609 ms
64 bytes from nyc.speedtest.sbcglobal.net (99.24.18.25): icmp_seq=100 ttl=51 time=80.3 ms

--- nyc.speedtest.sbcglobal.net ping statistics ---
100 packets transmitted, 100 received, 0% packet loss, time 99148ms
rtt min/avg/max/mdev = 79.610/80.217/83.043/0.561 ms
64 bytes from nyc.speedtest.sbcglobal.net (99.24.18.25): icmp_seq=100 ttl=51 time=80.3 ms

--- nyc.speedtest.sbcglobal.net ping statistics ---
100 packets transmitted, 100 received, 0% packet loss, time 99148ms
rtt min/avg/max/mdev = 79.635/80.144/83.050/0.630 ms
