5 packets transmitted, 4 received, 20% packet loss, time 4006ms
5 packets transmitted, 4 received, 20% packet loss, time 4004ms
5 packets transmitted, 4 received, 20% packet loss, time 4026ms
5 packets transmitted, 4 received, 20% packet loss, time 4026ms
5 packets transmitted, 2 received, 60% packet loss, time 4032ms
5 packets transmitted, 1 received, 80% packet loss, time 4022ms
5 packets transmitted, 1 received, 80% packet loss, time 4048ms
5 packets transmitted, 1 received, 80% packet loss, time 4081ms
5 packets transmitted, 1 received, 80% packet loss, time 4093ms
5 packets transmitted, 1 received, 80% packet loss, time 4093ms
5 packets transmitted, 1 received, 80% packet loss, time 4094ms
5 packets transmitted, 1 received, 80% packet loss, time 4095ms
5 packets transmitted, 0 received, 100% packet loss, time 4052ms
5 packets transmitted, 0 received, 100% packet loss, time 4055ms
5 packets transmitted, 0 received, 100% packet loss, time 4059ms
5 packets transmitted, 0 received, 100% packet loss, time 4060ms
5 packets transmitted, 0 received, 100% packet loss, time 4054ms
5 packets transmitted, 0 received, 100% packet loss, time 4053ms
5 packets transmitted, 0 received, 100% packet loss, time 4052ms
5 packets transmitted, 0 received, 100% packet loss, time 4054ms
5 packets transmitted, 0 received, 100% packet loss, time 4059ms
5 packets transmitted, 0 received, 100% packet loss, time 4057ms
5 packets transmitted, 0 received, 100% packet loss, time 4053ms
5 packets transmitted, 0 received, 100% packet loss, time 4050ms
5 packets transmitted, 0 received, 100% packet loss, time 4051ms
5 packets transmitted, 0 received, 100% packet loss, time 4055ms
5 packets transmitted, 0 received, 100% packet loss, time 4057ms
5 packets transmitted, 0 received, 100% packet loss, time 4052ms
5 packets transmitted, 0 received, 100% packet loss, time 4052ms
5 packets transmitted, 0 received, 100% packet loss, time 4055ms
5 packets transmitted, 0 received, 100% packet loss, time 4052ms
5 packets transmitted, 0 received, 100% packet loss, time 4057ms
5 packets transmitted, 0 received, 100% packet loss, time 4050ms
5 packets transmitted, 0 received, 100% packet loss, time 4056ms
5 packets transmitted, 0 received, 100% packet loss, time 4058ms
5 packets transmitted, 0 received, 100% packet loss, time 4055ms
5 packets transmitted, 0 received, 100% packet loss, time 4057ms
5 packets transmitted, 0 received, 100% packet loss, time 4058ms
5 packets transmitted, 0 received, 100% packet loss, time 4050ms
5 packets transmitted, 0 received, 100% packet loss, time 4055ms
5 packets transmitted, 0 received, 100% packet loss, time 4055ms
5 packets transmitted, 0 received, 100% packet loss, time 4054ms
5 packets transmitted, 0 received, 100% packet loss, time 4053ms
5 packets transmitted, 0 received, 100% packet loss, time 4058ms
5 packets transmitted, 0 received, 100% packet loss, time 4056ms
5 packets transmitted, 0 received, 100% packet loss, time 4058ms
5 packets transmitted, 0 received, 100% packet loss, time 4065ms
5 packets transmitted, 0 received, 100% packet loss, time 4066ms
5 packets transmitted, 0 received, 100% packet loss, time 4067ms
5 packets transmitted, 0 received, 100% packet loss, time 4070ms
5 packets transmitted, 0 received, 100% packet loss, time 4054ms
5 packets transmitted, 0 received, 100% packet loss, time 4063ms
5 packets transmitted, 0 received, 100% packet loss, time 4075ms
5 packets transmitted, 0 received, 100% packet loss, time 4069ms
5 packets transmitted, 0 received, 100% packet loss, time 4062ms
5 packets transmitted, 0 received, 100% packet loss, time 4055ms
5 packets transmitted, 0 received, 100% packet loss, time 4057ms
5 packets transmitted, 0 received, 100% packet loss, time 4064ms
5 packets transmitted, 0 received, 100% packet loss, time 4065ms
5 packets transmitted, 0 received, 100% packet loss, time 4069ms
5 packets transmitted, 0 received, 100% packet loss, time 4093ms
5 packets transmitted, 0 received, 100% packet loss, time 4064ms
5 packets transmitted, 0 received, 100% packet loss, time 4063ms
5 packets transmitted, 0 received, 100% packet loss, time 4058ms
5 packets transmitted, 0 received, 100% packet loss, time 4055ms
5 packets transmitted, 0 received, 100% packet loss, time 4067ms
5 packets transmitted, 0 received, 100% packet loss, time 4067ms
5 packets transmitted, 0 received, 100% packet loss, time 4070ms
5 packets transmitted, 0 received, 100% packet loss, time 4059ms
5 packets transmitted, 0 received, 100% packet loss, time 4056ms
5 packets transmitted, 0 received, 100% packet loss, time 4065ms
5 packets transmitted, 0 received, 100% packet loss, time 4059ms
5 packets transmitted, 0 received, 100% packet loss, time 4056ms
5 packets transmitted, 0 received, 100% packet loss, time 4070ms
5 packets transmitted, 0 received, 100% packet loss, time 4060ms
5 packets transmitted, 0 received, 100% packet loss, time 4082ms
5 packets transmitted, 0 received, 100% packet loss, time 4060ms
5 packets transmitted, 0 received, 100% packet loss, time 4066ms
5 packets transmitted, 0 received, 100% packet loss, time 4056ms
5 packets transmitted, 0 received, 100% packet loss, time 4067ms
5 packets transmitted, 0 received, 100% packet loss, time 4060ms
5 packets transmitted, 0 received, 100% packet loss, time 4079ms
5 packets transmitted, 0 received, 100% packet loss, time 4071ms
5 packets transmitted, 0 received, 100% packet loss, time 4061ms
5 packets transmitted, 0 received, 100% packet loss, time 4059ms
5 packets transmitted, 0 received, 100% packet loss, time 4062ms
5 packets transmitted, 0 received, 100% packet loss, time 4058ms
5 packets transmitted, 0 received, 100% packet loss, time 4069ms
5 packets transmitted, 0 received, 100% packet loss, time 4056ms
5 packets transmitted, 0 received, 100% packet loss, time 4060ms
5 packets transmitted, 0 received, 100% packet loss, time 4057ms
5 packets transmitted, 0 received, 100% packet loss, time 4061ms
5 packets transmitted, 0 received, 100% packet loss, time 4068ms
5 packets transmitted, 0 received, 100% packet loss, time 4077ms
5 packets transmitted, 0 received, 100% packet loss, time 4067ms
5 packets transmitted, 0 received, 100% packet loss, time 4062ms
5 packets transmitted, 0 received, 100% packet loss, time 4081ms
5 packets transmitted, 0 received, 100% packet loss, time 4059ms
5 packets transmitted, 0 received, 100% packet loss, time 4080ms
5 packets transmitted, 0 received, 100% packet loss, time 4060ms
5 packets transmitted, 0 received, 100% packet loss, time 4058ms
5 packets transmitted, 0 received, 100% packet loss, time 4064ms
5 packets transmitted, 0 received, 100% packet loss, time 4080ms
5 packets transmitted, 0 received, 100% packet loss, time 4078ms
5 packets transmitted, 0 received, 100% packet loss, time 4068ms
5 packets transmitted, 0 received, 100% packet loss, time 4056ms
5 packets transmitted, 0 received, 100% packet loss, time 4057ms
5 packets transmitted, 0 received, 100% packet loss, time 4068ms
5 packets transmitted, 0 received, 100% packet loss, time 4054ms
5 packets transmitted, 0 received, 100% packet loss, time 4062ms
5 packets transmitted, 0 received, 100% packet loss, time 4055ms
5 packets transmitted, 0 received, 100% packet loss, time 4054ms
5 packets transmitted, 0 received, 100% packet loss, time 4059ms
5 packets transmitted, 0 received, 100% packet loss, time 4057ms
5 packets transmitted, 0 received, 100% packet loss, time 4078ms
5 packets transmitted, 0 received, 100% packet loss, time 4074ms
5 packets transmitted, 0 received, 100% packet loss, time 4061ms
5 packets transmitted, 0 received, 100% packet loss, time 4073ms
5 packets transmitted, 0 received, 100% packet loss, time 4070ms
5 packets transmitted, 0 received, 100% packet loss, time 4056ms
5 packets transmitted, 0 received, 100% packet loss, time 4066ms
5 packets transmitted, 0 received, 100% packet loss, time 4078ms
5 packets transmitted, 0 received, 100% packet loss, time 4060ms
5 packets transmitted, 0 received, 100% packet loss, time 4077ms
5 packets transmitted, 0 received, 100% packet loss, time 4073ms
5 packets transmitted, 0 received, 100% packet loss, time 4063ms
5 packets transmitted, 0 received, 100% packet loss, time 4058ms
5 packets transmitted, 0 received, 100% packet loss, time 4074ms
5 packets transmitted, 0 received, 100% packet loss, time 4074ms
5 packets transmitted, 0 received, 100% packet loss, time 4063ms
5 packets transmitted, 0 received, 100% packet loss, time 4072ms
5 packets transmitted, 0 received, 100% packet loss, time 4062ms
5 packets transmitted, 0 received, 100% packet loss, time 4059ms
5 packets transmitted, 0 received, 100% packet loss, time 4074ms
5 packets transmitted, 0 received, 100% packet loss, time 4061ms
5 packets transmitted, 0 received, 100% packet loss, time 4077ms
5 packets transmitted, 0 received, 100% packet loss, time 4056ms
5 packets transmitted, 0 received, 100% packet loss, time 4072ms
5 packets transmitted, 0 received, 100% packet loss, time 4077ms
5 packets transmitted, 0 received, 100% packet loss, time 4064ms
5 packets transmitted, 0 received, 100% packet loss, time 4054ms
5 packets transmitted, 0 received, 100% packet loss, time 4065ms
5 packets transmitted, 0 received, 100% packet loss, time 4059ms
5 packets transmitted, 0 received, 100% packet loss, time 4077ms
5 packets transmitted, 0 received, 100% packet loss, time 4056ms
5 packets transmitted, 0 received, 100% packet loss, time 4057ms
5 packets transmitted, 0 received, 100% packet loss, time 4080ms
5 packets transmitted, 0 received, 100% packet loss, time 4057ms
5 packets transmitted, 0 received, 100% packet loss, time 4062ms
5 packets transmitted, 0 received, 100% packet loss, time 4061ms
5 packets transmitted, 0 received, 100% packet loss, time 4058ms
5 packets transmitted, 0 received, 100% packet loss, time 4058ms
5 packets transmitted, 0 received, 100% packet loss, time 4055ms
5 packets transmitted, 0 received, 100% packet loss, time 4068ms
5 packets transmitted, 0 received, 100% packet loss, time 4079ms
5 packets transmitted, 0 received, 100% packet loss, time 4062ms
5 packets transmitted, 0 received, 100% packet loss, time 4060ms
5 packets transmitted, 0 received, 100% packet loss, time 4064ms
5 packets transmitted, 0 received, 100% packet loss, time 4057ms
5 packets transmitted, 0 received, 100% packet loss, time 4064ms
5 packets transmitted, 0 received, 100% packet loss, time 4056ms
5 packets transmitted, 0 received, 100% packet loss, time 4074ms
5 packets transmitted, 0 received, 100% packet loss, time 4073ms
5 packets transmitted, 0 received, 100% packet loss, time 4062ms
5 packets transmitted, 0 received, 100% packet loss, time 4069ms
5 packets transmitted, 0 received, 100% packet loss, time 4081ms
5 packets transmitted, 0 received, 100% packet loss, time 4059ms
5 packets transmitted, 0 received, 100% packet loss, time 4066ms
5 packets transmitted, 0 received, 100% packet loss, time 4075ms
5 packets transmitted, 1 received, 80% packet loss, time 4063ms
5 packets transmitted, 0 received, 100% packet loss, time 4079ms
5 packets transmitted, 0 received, 100% packet loss, time 4070ms
5 packets transmitted, 0 received, 100% packet loss, time 4062ms
5 packets transmitted, 0 received, 100% packet loss, time 4056ms
5 packets transmitted, 0 received, 100% packet loss, time 4070ms
5 packets transmitted, 0 received, 100% packet loss, time 4077ms
5 packets transmitted, 0 received, 100% packet loss, time 4055ms
5 packets transmitted, 0 received, 100% packet loss, time 4063ms
5 packets transmitted, 0 received, 100% packet loss, time 4069ms
5 packets transmitted, 0 received, 100% packet loss, time 4055ms
5 packets transmitted, 0 received, 100% packet loss, time 4071ms
5 packets transmitted, 0 received, 100% packet loss, time 4062ms
5 packets transmitted, 0 received, 100% packet loss, time 4074ms
5 packets transmitted, 0 received, 100% packet loss, time 4055ms
5 packets transmitted, 0 received, 100% packet loss, time 4076ms
5 packets transmitted, 0 received, 100% packet loss, time 4071ms
5 packets transmitted, 0 received, 100% packet loss, time 4071ms
5 packets transmitted, 0 received, 100% packet loss, time 4065ms
5 packets transmitted, 0 received, 100% packet loss, time 4073ms
5 packets transmitted, 0 received, 100% packet loss, time 4056ms
5 packets transmitted, 0 received, 100% packet loss, time 4056ms
5 packets transmitted, 0 received, 100% packet loss, time 4073ms
5 packets transmitted, 0 received, 100% packet loss, time 4066ms
5 packets transmitted, 0 received, 100% packet loss, time 4062ms
5 packets transmitted, 0 received, 100% packet loss, time 4060ms
5 packets transmitted, 0 received, 100% packet loss, time 4059ms
5 packets transmitted, 0 received, 100% packet loss, time 4074ms
5 packets transmitted, 0 received, 100% packet loss, time 4062ms
5 packets transmitted, 0 received, 100% packet loss, time 4060ms
5 packets transmitted, 0 received, 100% packet loss, time 4062ms
