PING 128.223.32.36 (128.223.32.36) 56(84) bytes of data.
64 bytes from 128.223.32.36: icmp_seq=1 ttl=63 time=0.466 ms
PING 128.223.32.36 (128.223.32.36) 56(84) bytes of data.
64 bytes from 128.223.32.36: icmp_seq=1 ttl=63 time=0.386 ms
PING 128.223.32.36 (128.223.32.36) 56(84) bytes of data.
64 bytes from 128.223.32.36: icmp_seq=1 ttl=63 time=0.323 ms
PING 128.223.32.36 (128.223.32.36) 56(84) bytes of data.
64 bytes from 128.223.32.36: icmp_seq=1 ttl=63 time=0.396 ms
PING 128.223.32.36 (128.223.32.36) 56(84) bytes of data.
64 bytes from 128.223.32.36: icmp_seq=1 ttl=63 time=0.362 ms
PING 128.223.32.36 (128.223.32.36) 56(84) bytes of data.
64 bytes from 128.223.32.36: icmp_seq=2 ttl=63 time=0.761 ms
PING 128.223.32.36 (128.223.32.36) 56(84) bytes of data.
64 bytes from 128.223.32.36: icmp_seq=2 ttl=63 time=0.582 ms
PING 128.223.32.36 (128.223.32.36) 56(84) bytes of data.
64 bytes from 128.223.32.36: icmp_seq=2 ttl=63 time=0.522 ms
PING 128.223.32.36 (128.223.32.36) 56(84) bytes of data.
64 bytes from 128.223.32.36: icmp_seq=2 ttl=63 time=0.420 ms
PING 128.223.32.36 (128.223.32.36) 56(84) bytes of data.
64 bytes from 128.223.32.36: icmp_seq=2 ttl=63 time=0.335 ms
64 bytes from 128.223.32.36: icmp_seq=3 ttl=63 time=0.440 ms
64 bytes from 128.223.32.36: icmp_seq=3 ttl=63 time=0.564 ms
64 bytes from 128.223.32.36: icmp_seq=3 ttl=63 time=0.418 ms
64 bytes from 128.223.32.36: icmp_seq=3 ttl=63 time=0.550 ms
PING 128.223.32.36 (128.223.32.36) 56(84) bytes of data.
64 bytes from 128.223.32.36: icmp_seq=3 ttl=63 time=0.498 ms
64 bytes from 128.223.32.36: icmp_seq=4 ttl=63 time=0.439 ms
64 bytes from 128.223.32.36: icmp_seq=4 ttl=63 time=0.686 ms
64 bytes from 128.223.32.36: icmp_seq=4 ttl=63 time=0.466 ms
64 bytes from 128.223.32.36: icmp_seq=4 ttl=63 time=0.858 ms
PING 128.223.32.36 (128.223.32.36) 56(84) bytes of data.
64 bytes from 128.223.32.36: icmp_seq=4 ttl=63 time=0.534 ms
64 bytes from 128.223.32.36: icmp_seq=5 ttl=63 time=0.613 ms
64 bytes from 128.223.32.36: icmp_seq=5 ttl=63 time=1.00 ms
64 bytes from 128.223.32.36: icmp_seq=5 ttl=63 time=0.697 ms
64 bytes from 128.223.32.36: icmp_seq=5 ttl=63 time=1.09 ms
64 bytes from 128.223.32.36: icmp_seq=5 ttl=63 time=0.692 ms
PING 128.223.32.36 (128.223.32.36) 56(84) bytes of data.
64 bytes from 128.223.32.36: icmp_seq=5 ttl=63 time=0.600 ms


--- 128.223.32.36 ping statistics ---
5 packets transmitted, 4 received, 20% packet loss, time 4006ms
rtt min/avg/max/mdev = 0.440/0.608/0.858/0.157 ms
--- 128.223.32.36 ping statistics ---
5 packets transmitted, 4 received, 20% packet loss, time 4004ms
rtt min/avg/max/mdev = 0.420/0.613/1.005/0.233 ms

--- 128.223.32.36 ping statistics ---
5 packets transmitted, 4 received, 20% packet loss, time 4026ms
rtt min/avg/max/mdev = 0.550/0.728/1.094/0.217 ms

--- 128.223.32.36 ping statistics ---
5 packets transmitted, 4 received, 20% packet loss, time 4026ms
rtt min/avg/max/mdev = 0.418/0.578/0.761/0.154 ms

--- 128.223.32.36 ping statistics ---
5 packets transmitted, 2 received, 60% packet loss, time 4032ms
rtt min/avg/max/mdev = 0.534/0.613/0.692/0.079 ms

--- 128.223.32.36 ping statistics ---
5 packets transmitted, 1 received, 80% packet loss, time 4022ms
rtt min/avg/max/mdev = 0.498/0.498/0.498/0.000 ms

--- 128.223.32.36 ping statistics ---
5 packets transmitted, 1 received, 80% packet loss, time 4048ms
rtt min/avg/max/mdev = 0.362/0.362/0.362/0.000 ms



--- 128.223.32.36 ping statistics ---
5 packets transmitted, 1 received, 80% packet loss, time 4081ms
rtt min/avg/max/mdev = 0.335/0.335/0.335/0.000 ms
--- 128.223.32.36 ping statistics ---
5 packets transmitted, 1 received, 80% packet loss, time 4093ms
rtt min/avg/max/mdev = 0.323/0.323/0.323/0.000 ms
--- 128.223.32.36 ping statistics ---
5 packets transmitted, 1 received, 80% packet loss, time 4093ms
rtt min/avg/max/mdev = 0.396/0.396/0.396/0.000 ms

--- 128.223.32.36 ping statistics ---
5 packets transmitted, 1 received, 80% packet loss, time 4094ms
rtt min/avg/max/mdev = 0.386/0.386/0.386/0.000 ms

--- 128.223.32.36 ping statistics ---
5 packets transmitted, 1 received, 80% packet loss, time 4095ms
rtt min/avg/max/mdev = 0.466/0.466/0.466/0.000 ms
PING 128.223.32.36 (128.223.32.36) 56(84) bytes of data.

PING 128.223.32.36 (128.223.32.36) 56(84) bytes of data.

PING 128.223.32.36 (128.223.32.36) 56(84) bytes of data.

PING 128.223.32.36 (128.223.32.36) 56(84) bytes of data.

PING 128.223.32.36 (128.223.32.36) 56(84) bytes of data.

PING 128.223.32.36 (128.223.32.36) 56(84) bytes of data.

PING 128.223.32.36 (128.223.32.36) 56(84) bytes of data.

PING 128.223.32.36 (128.223.32.36) 56(84) bytes of data.

--- 128.223.32.36 ping statistics ---
5 packets transmitted, 0 received, 100% packet loss, time 4052ms

--- 128.223.32.36 ping statistics ---
5 packets transmitted, 0 received, 100% packet loss, time 4055ms

--- 128.223.32.36 ping statistics ---
5 packets transmitted, 0 received, 100% packet loss, time 4059ms

--- 128.223.32.36 ping statistics ---
5 packets transmitted, 0 received, 100% packet loss, time 4060ms

--- 128.223.32.36 ping statistics ---
5 packets transmitted, 0 received, 100% packet loss, time 4054ms

--- 128.223.32.36 ping statistics ---
5 packets transmitted, 0 received, 100% packet loss, time 4053ms

--- 128.223.32.36 ping statistics ---
5 packets transmitted, 0 received, 100% packet loss, time 4052ms

--- 128.223.32.36 ping statistics ---
5 packets transmitted, 0 received, 100% packet loss, time 4054ms

PING 128.223.32.36 (128.223.32.36) 56(84) bytes of data.

PING 128.223.32.36 (128.223.32.36) 56(84) bytes of data.

PING 128.223.32.36 (128.223.32.36) 56(84) bytes of data.

PING 128.223.32.36 (128.223.32.36) 56(84) bytes of data.

PING 128.223.32.36 (128.223.32.36) 56(84) bytes of data.

PING 128.223.32.36 (128.223.32.36) 56(84) bytes of data.

--- 128.223.32.36 ping statistics ---
5 packets transmitted, 0 received, 100% packet loss, time 4059ms

PING 128.223.32.36 (128.223.32.36) 56(84) bytes of data.

--- 128.223.32.36 ping statistics ---
5 packets transmitted, 0 received, 100% packet loss, time 4057ms

--- 128.223.32.36 ping statistics ---
5 packets transmitted, 0 received, 100% packet loss, time 4053ms

--- 128.223.32.36 ping statistics ---
5 packets transmitted, 0 received, 100% packet loss, time 4050ms

--- 128.223.32.36 ping statistics ---
5 packets transmitted, 0 received, 100% packet loss, time 4051ms

--- 128.223.32.36 ping statistics ---
5 packets transmitted, 0 received, 100% packet loss, time 4055ms

--- 128.223.32.36 ping statistics ---
5 packets transmitted, 0 received, 100% packet loss, time 4057ms

PING 128.223.32.36 (128.223.32.36) 56(84) bytes of data.

--- 128.223.32.36 ping statistics ---
5 packets transmitted, 0 received, 100% packet loss, time 4052ms

PING 128.223.32.36 (128.223.32.36) 56(84) bytes of data.

PING 128.223.32.36 (128.223.32.36) 56(84) bytes of data.

PING 128.223.32.36 (128.223.32.36) 56(84) bytes of data.

PING 128.223.32.36 (128.223.32.36) 56(84) bytes of data.

--- 128.223.32.36 ping statistics ---
5 packets transmitted, 0 received, 100% packet loss, time 4052ms

PING 128.223.32.36 (128.223.32.36) 56(84) bytes of data.

--- 128.223.32.36 ping statistics ---
5 packets transmitted, 0 received, 100% packet loss, time 4055ms

--- 128.223.32.36 ping statistics ---
5 packets transmitted, 0 received, 100% packet loss, time 4052ms

PING 128.223.32.36 (128.223.32.36) 56(84) bytes of data.

PING 128.223.32.36 (128.223.32.36) 56(84) bytes of data.

--- 128.223.32.36 ping statistics ---
5 packets transmitted, 0 received, 100% packet loss, time 4057ms

--- 128.223.32.36 ping statistics ---
5 packets transmitted, 0 received, 100% packet loss, time 4050ms

--- 128.223.32.36 ping statistics ---
5 packets transmitted, 0 received, 100% packet loss, time 4056ms

--- 128.223.32.36 ping statistics ---
5 packets transmitted, 0 received, 100% packet loss, time 4058ms

PING 128.223.32.36 (128.223.32.36) 56(84) bytes of data.

--- 128.223.32.36 ping statistics ---
5 packets transmitted, 0 received, 100% packet loss, time 4055ms

PING 128.223.32.36 (128.223.32.36) 56(84) bytes of data.

PING 128.223.32.36 (128.223.32.36) 56(84) bytes of data.

PING 128.223.32.36 (128.223.32.36) 56(84) bytes of data.

PING 128.223.32.36 (128.223.32.36) 56(84) bytes of data.

--- 128.223.32.36 ping statistics ---
5 packets transmitted, 0 received, 100% packet loss, time 4057ms

--- 128.223.32.36 ping statistics ---
5 packets transmitted, 0 received, 100% packet loss, time 4058ms

PING 128.223.32.36 (128.223.32.36) 56(84) bytes of data.

PING 128.223.32.36 (128.223.32.36) 56(84) bytes of data.

--- 128.223.32.36 ping statistics ---
5 packets transmitted, 0 received, 100% packet loss, time 4050ms

--- 128.223.32.36 ping statistics ---
5 packets transmitted, 0 received, 100% packet loss, time 4055ms

--- 128.223.32.36 ping statistics ---
5 packets transmitted, 0 received, 100% packet loss, time 4055ms

--- 128.223.32.36 ping statistics ---
5 packets transmitted, 0 received, 100% packet loss, time 4054ms

PING 128.223.32.36 (128.223.32.36) 56(84) bytes of data.

--- 128.223.32.36 ping statistics ---
5 packets transmitted, 0 received, 100% packet loss, time 4053ms

PING 128.223.32.36 (128.223.32.36) 56(84) bytes of data.

--- 128.223.32.36 ping statistics ---
5 packets transmitted, 0 received, 100% packet loss, time 4058ms

PING 128.223.32.36 (128.223.32.36) 56(84) bytes of data.

PING 128.223.32.36 (128.223.32.36) 56(84) bytes of data.

--- 128.223.32.36 ping statistics ---
5 packets transmitted, 0 received, 100% packet loss, time 4056ms

--- 128.223.32.36 ping statistics ---
5 packets transmitted, 0 received, 100% packet loss, time 4058ms

PING 128.223.32.36 (128.223.32.36) 56(84) bytes of data.

PING 128.223.32.36 (128.223.32.36) 56(84) bytes of data.

PING 128.223.32.36 (128.223.32.36) 56(84) bytes of data.

PING 128.223.32.36 (128.223.32.36) 56(84) bytes of data.

PING 128.223.32.36 (128.223.32.36) 56(84) bytes of data.

PING 128.223.32.36 (128.223.32.36) 56(84) bytes of data.

PING 128.223.32.36 (128.223.32.36) 56(84) bytes of data.

PING 128.223.32.36 (128.223.32.36) 56(84) bytes of data.

--- 128.223.32.36 ping statistics ---
5 packets transmitted, 0 received, 100% packet loss, time 4065ms

--- 128.223.32.36 ping statistics ---
5 packets transmitted, 0 received, 100% packet loss, time 4066ms

--- 128.223.32.36 ping statistics ---
5 packets transmitted, 0 received, 100% packet loss, time 4067ms

--- 128.223.32.36 ping statistics ---
5 packets transmitted, 0 received, 100% packet loss, time 4070ms

--- 128.223.32.36 ping statistics ---
5 packets transmitted, 0 received, 100% packet loss, time 4054ms

--- 128.223.32.36 ping statistics ---
5 packets transmitted, 0 received, 100% packet loss, time 4063ms

--- 128.223.32.36 ping statistics ---
5 packets transmitted, 0 received, 100% packet loss, time 4075ms

--- 128.223.32.36 ping statistics ---
5 packets transmitted, 0 received, 100% packet loss, time 4069ms

PING 128.223.32.36 (128.223.32.36) 56(84) bytes of data.

PING 128.223.32.36 (128.223.32.36) 56(84) bytes of data.

PING 128.223.32.36 (128.223.32.36) 56(84) bytes of data.

PING 128.223.32.36 (128.223.32.36) 56(84) bytes of data.

PING 128.223.32.36 (128.223.32.36) 56(84) bytes of data.

PING 128.223.32.36 (128.223.32.36) 56(84) bytes of data.

PING 128.223.32.36 (128.223.32.36) 56(84) bytes of data.

PING 128.223.32.36 (128.223.32.36) 56(84) bytes of data.

--- 128.223.32.36 ping statistics ---
5 packets transmitted, 0 received, 100% packet loss, time 4062ms

--- 128.223.32.36 ping statistics ---
5 packets transmitted, 0 received, 100% packet loss, time 4055ms

--- 128.223.32.36 ping statistics ---
5 packets transmitted, 0 received, 100% packet loss, time 4057ms

--- 128.223.32.36 ping statistics ---
5 packets transmitted, 0 received, 100% packet loss, time 4064ms

--- 128.223.32.36 ping statistics ---
5 packets transmitted, 0 received, 100% packet loss, time 4065ms

--- 128.223.32.36 ping statistics ---
5 packets transmitted, 0 received, 100% packet loss, time 4069ms

--- 128.223.32.36 ping statistics ---
5 packets transmitted, 0 received, 100% packet loss, time 4093ms

--- 128.223.32.36 ping statistics ---
5 packets transmitted, 0 received, 100% packet loss, time 4064ms

PING 128.223.32.36 (128.223.32.36) 56(84) bytes of data.

--- 128.223.32.36 ping statistics ---
5 packets transmitted, 0 received, 100% packet loss, time 4063ms

PING 128.223.32.36 (128.223.32.36) 56(84) bytes of data.

PING 128.223.32.36 (128.223.32.36) 56(84) bytes of data.

PING 128.223.32.36 (128.223.32.36) 56(84) bytes of data.

PING 128.223.32.36 (128.223.32.36) 56(84) bytes of data.

PING 128.223.32.36 (128.223.32.36) 56(84) bytes of data.

PING 128.223.32.36 (128.223.32.36) 56(84) bytes of data.

--- 128.223.32.36 ping statistics ---
5 packets transmitted, 0 received, 100% packet loss, time 4058ms

--- 128.223.32.36 ping statistics ---
5 packets transmitted, 0 received, 100% packet loss, time 4055ms

PING 128.223.32.36 (128.223.32.36) 56(84) bytes of data.

--- 128.223.32.36 ping statistics ---
5 packets transmitted, 0 received, 100% packet loss, time 4067ms

--- 128.223.32.36 ping statistics ---
5 packets transmitted, 0 received, 100% packet loss, time 4067ms

--- 128.223.32.36 ping statistics ---
5 packets transmitted, 0 received, 100% packet loss, time 4070ms

--- 128.223.32.36 ping statistics ---
5 packets transmitted, 0 received, 100% packet loss, time 4059ms

--- 128.223.32.36 ping statistics ---
5 packets transmitted, 0 received, 100% packet loss, time 4056ms

PING 128.223.32.36 (128.223.32.36) 56(84) bytes of data.

--- 128.223.32.36 ping statistics ---
5 packets transmitted, 0 received, 100% packet loss, time 4065ms

PING 128.223.32.36 (128.223.32.36) 56(84) bytes of data.

PING 128.223.32.36 (128.223.32.36) 56(84) bytes of data.

--- 128.223.32.36 ping statistics ---
5 packets transmitted, 0 received, 100% packet loss, time 4059ms

--- 128.223.32.36 ping statistics ---
5 packets transmitted, 0 received, 100% packet loss, time 4056ms

PING 128.223.32.36 (128.223.32.36) 56(84) bytes of data.

PING 128.223.32.36 (128.223.32.36) 56(84) bytes of data.

PING 128.223.32.36 (128.223.32.36) 56(84) bytes of data.

PING 128.223.32.36 (128.223.32.36) 56(84) bytes of data.

PING 128.223.32.36 (128.223.32.36) 56(84) bytes of data.

--- 128.223.32.36 ping statistics ---
5 packets transmitted, 0 received, 100% packet loss, time 4070ms

--- 128.223.32.36 ping statistics ---
5 packets transmitted, 0 received, 100% packet loss, time 4060ms

--- 128.223.32.36 ping statistics ---
5 packets transmitted, 0 received, 100% packet loss, time 4082ms

--- 128.223.32.36 ping statistics ---
5 packets transmitted, 0 received, 100% packet loss, time 4060ms

--- 128.223.32.36 ping statistics ---
5 packets transmitted, 0 received, 100% packet loss, time 4066ms

PING 128.223.32.36 (128.223.32.36) 56(84) bytes of data.

--- 128.223.32.36 ping statistics ---
5 packets transmitted, 0 received, 100% packet loss, time 4056ms

PING 128.223.32.36 (128.223.32.36) 56(84) bytes of data.

PING 128.223.32.36 (128.223.32.36) 56(84) bytes of data.

--- 128.223.32.36 ping statistics ---
5 packets transmitted, 0 received, 100% packet loss, time 4067ms

--- 128.223.32.36 ping statistics ---
5 packets transmitted, 0 received, 100% packet loss, time 4060ms

PING 128.223.32.36 (128.223.32.36) 56(84) bytes of data.

PING 128.223.32.36 (128.223.32.36) 56(84) bytes of data.

PING 128.223.32.36 (128.223.32.36) 56(84) bytes of data.

PING 128.223.32.36 (128.223.32.36) 56(84) bytes of data.

--- 128.223.32.36 ping statistics ---
5 packets transmitted, 0 received, 100% packet loss, time 4079ms

PING 128.223.32.36 (128.223.32.36) 56(84) bytes of data.

--- 128.223.32.36 ping statistics ---
5 packets transmitted, 0 received, 100% packet loss, time 4071ms

--- 128.223.32.36 ping statistics ---
5 packets transmitted, 0 received, 100% packet loss, time 4061ms

--- 128.223.32.36 ping statistics ---
5 packets transmitted, 0 received, 100% packet loss, time 4059ms

--- 128.223.32.36 ping statistics ---
5 packets transmitted, 0 received, 100% packet loss, time 4062ms

PING 128.223.32.36 (128.223.32.36) 56(84) bytes of data.

--- 128.223.32.36 ping statistics ---
5 packets transmitted, 0 received, 100% packet loss, time 4058ms

PING 128.223.32.36 (128.223.32.36) 56(84) bytes of data.

PING 128.223.32.36 (128.223.32.36) 56(84) bytes of data.

--- 128.223.32.36 ping statistics ---
5 packets transmitted, 0 received, 100% packet loss, time 4069ms

--- 128.223.32.36 ping statistics ---
5 packets transmitted, 0 received, 100% packet loss, time 4056ms

PING 128.223.32.36 (128.223.32.36) 56(84) bytes of data.

PING 128.223.32.36 (128.223.32.36) 56(84) bytes of data.

PING 128.223.32.36 (128.223.32.36) 56(84) bytes of data.

PING 128.223.32.36 (128.223.32.36) 56(84) bytes of data.

--- 128.223.32.36 ping statistics ---
5 packets transmitted, 0 received, 100% packet loss, time 4060ms

--- 128.223.32.36 ping statistics ---
5 packets transmitted, 0 received, 100% packet loss, time 4057ms

PING 128.223.32.36 (128.223.32.36) 56(84) bytes of data.

PING 128.223.32.36 (128.223.32.36) 56(84) bytes of data.

--- 128.223.32.36 ping statistics ---
5 packets transmitted, 0 received, 100% packet loss, time 4061ms

--- 128.223.32.36 ping statistics ---
5 packets transmitted, 0 received, 100% packet loss, time 4068ms

--- 128.223.32.36 ping statistics ---
5 packets transmitted, 0 received, 100% packet loss, time 4077ms

--- 128.223.32.36 ping statistics ---
5 packets transmitted, 0 received, 100% packet loss, time 4067ms

PING 128.223.32.36 (128.223.32.36) 56(84) bytes of data.

PING 128.223.32.36 (128.223.32.36) 56(84) bytes of data.

--- 128.223.32.36 ping statistics ---
5 packets transmitted, 0 received, 100% packet loss, time 4062ms

--- 128.223.32.36 ping statistics ---
5 packets transmitted, 0 received, 100% packet loss, time 4081ms

PING 128.223.32.36 (128.223.32.36) 56(84) bytes of data.

PING 128.223.32.36 (128.223.32.36) 56(84) bytes of data.

PING 128.223.32.36 (128.223.32.36) 56(84) bytes of data.

PING 128.223.32.36 (128.223.32.36) 56(84) bytes of data.

--- 128.223.32.36 ping statistics ---
5 packets transmitted, 0 received, 100% packet loss, time 4059ms

PING 128.223.32.36 (128.223.32.36) 56(84) bytes of data.

PING 128.223.32.36 (128.223.32.36) 56(84) bytes of data.

--- 128.223.32.36 ping statistics ---
5 packets transmitted, 0 received, 100% packet loss, time 4080ms

--- 128.223.32.36 ping statistics ---
5 packets transmitted, 0 received, 100% packet loss, time 4060ms

--- 128.223.32.36 ping statistics ---
5 packets transmitted, 0 received, 100% packet loss, time 4058ms

--- 128.223.32.36 ping statistics ---
5 packets transmitted, 0 received, 100% packet loss, time 4064ms

--- 128.223.32.36 ping statistics ---
5 packets transmitted, 0 received, 100% packet loss, time 4080ms

PING 128.223.32.36 (128.223.32.36) 56(84) bytes of data.

PING 128.223.32.36 (128.223.32.36) 56(84) bytes of data.

--- 128.223.32.36 ping statistics ---
5 packets transmitted, 0 received, 100% packet loss, time 4078ms

--- 128.223.32.36 ping statistics ---
5 packets transmitted, 0 received, 100% packet loss, time 4068ms

PING 128.223.32.36 (128.223.32.36) 56(84) bytes of data.

PING 128.223.32.36 (128.223.32.36) 56(84) bytes of data.

--- 128.223.32.36 ping statistics ---
5 packets transmitted, 0 received, 100% packet loss, time 4056ms

--- 128.223.32.36 ping statistics ---
5 packets transmitted, 0 received, 100% packet loss, time 4057ms

PING 128.223.32.36 (128.223.32.36) 56(84) bytes of data.

PING 128.223.32.36 (128.223.32.36) 56(84) bytes of data.

PING 128.223.32.36 (128.223.32.36) 56(84) bytes of data.

PING 128.223.32.36 (128.223.32.36) 56(84) bytes of data.

--- 128.223.32.36 ping statistics ---
5 packets transmitted, 0 received, 100% packet loss, time 4068ms

--- 128.223.32.36 ping statistics ---
5 packets transmitted, 0 received, 100% packet loss, time 4054ms

--- 128.223.32.36 ping statistics ---
5 packets transmitted, 0 received, 100% packet loss, time 4062ms

--- 128.223.32.36 ping statistics ---
5 packets transmitted, 0 received, 100% packet loss, time 4055ms

PING 128.223.32.36 (128.223.32.36) 56(84) bytes of data.

PING 128.223.32.36 (128.223.32.36) 56(84) bytes of data.

--- 128.223.32.36 ping statistics ---
5 packets transmitted, 0 received, 100% packet loss, time 4054ms

--- 128.223.32.36 ping statistics ---
5 packets transmitted, 0 received, 100% packet loss, time 4059ms

PING 128.223.32.36 (128.223.32.36) 56(84) bytes of data.

PING 128.223.32.36 (128.223.32.36) 56(84) bytes of data.

--- 128.223.32.36 ping statistics ---
5 packets transmitted, 0 received, 100% packet loss, time 4057ms

--- 128.223.32.36 ping statistics ---
5 packets transmitted, 0 received, 100% packet loss, time 4078ms

PING 128.223.32.36 (128.223.32.36) 56(84) bytes of data.

PING 128.223.32.36 (128.223.32.36) 56(84) bytes of data.

PING 128.223.32.36 (128.223.32.36) 56(84) bytes of data.

--- 128.223.32.36 ping statistics ---
5 packets transmitted, 0 received, 100% packet loss, time 4074ms

--- 128.223.32.36 ping statistics ---
5 packets transmitted, 0 received, 100% packet loss, time 4061ms

PING 128.223.32.36 (128.223.32.36) 56(84) bytes of data.

--- 128.223.32.36 ping statistics ---
5 packets transmitted, 0 received, 100% packet loss, time 4073ms

--- 128.223.32.36 ping statistics ---
5 packets transmitted, 0 received, 100% packet loss, time 4070ms

PING 128.223.32.36 (128.223.32.36) 56(84) bytes of data.

PING 128.223.32.36 (128.223.32.36) 56(84) bytes of data.

--- 128.223.32.36 ping statistics ---
5 packets transmitted, 0 received, 100% packet loss, time 4056ms

--- 128.223.32.36 ping statistics ---
5 packets transmitted, 0 received, 100% packet loss, time 4066ms

PING 128.223.32.36 (128.223.32.36) 56(84) bytes of data.

PING 128.223.32.36 (128.223.32.36) 56(84) bytes of data.

--- 128.223.32.36 ping statistics ---
5 packets transmitted, 0 received, 100% packet loss, time 4078ms

--- 128.223.32.36 ping statistics ---
5 packets transmitted, 0 received, 100% packet loss, time 4060ms

PING 128.223.32.36 (128.223.32.36) 56(84) bytes of data.

PING 128.223.32.36 (128.223.32.36) 56(84) bytes of data.

PING 128.223.32.36 (128.223.32.36) 56(84) bytes of data.

PING 128.223.32.36 (128.223.32.36) 56(84) bytes of data.

--- 128.223.32.36 ping statistics ---
5 packets transmitted, 0 received, 100% packet loss, time 4077ms

--- 128.223.32.36 ping statistics ---
5 packets transmitted, 0 received, 100% packet loss, time 4073ms

--- 128.223.32.36 ping statistics ---
5 packets transmitted, 0 received, 100% packet loss, time 4063ms

--- 128.223.32.36 ping statistics ---
5 packets transmitted, 0 received, 100% packet loss, time 4058ms

PING 128.223.32.36 (128.223.32.36) 56(84) bytes of data.

PING 128.223.32.36 (128.223.32.36) 56(84) bytes of data.

--- 128.223.32.36 ping statistics ---
5 packets transmitted, 0 received, 100% packet loss, time 4074ms

--- 128.223.32.36 ping statistics ---
5 packets transmitted, 0 received, 100% packet loss, time 4074ms

PING 128.223.32.36 (128.223.32.36) 56(84) bytes of data.

PING 128.223.32.36 (128.223.32.36) 56(84) bytes of data.

--- 128.223.32.36 ping statistics ---
5 packets transmitted, 0 received, 100% packet loss, time 4063ms

--- 128.223.32.36 ping statistics ---
5 packets transmitted, 0 received, 100% packet loss, time 4072ms

PING 128.223.32.36 (128.223.32.36) 56(84) bytes of data.

PING 128.223.32.36 (128.223.32.36) 56(84) bytes of data.

PING 128.223.32.36 (128.223.32.36) 56(84) bytes of data.

PING 128.223.32.36 (128.223.32.36) 56(84) bytes of data.

--- 128.223.32.36 ping statistics ---
5 packets transmitted, 0 received, 100% packet loss, time 4062ms

--- 128.223.32.36 ping statistics ---
5 packets transmitted, 0 received, 100% packet loss, time 4059ms

--- 128.223.32.36 ping statistics ---
5 packets transmitted, 0 received, 100% packet loss, time 4074ms

--- 128.223.32.36 ping statistics ---
5 packets transmitted, 0 received, 100% packet loss, time 4061ms

PING 128.223.32.36 (128.223.32.36) 56(84) bytes of data.

PING 128.223.32.36 (128.223.32.36) 56(84) bytes of data.

--- 128.223.32.36 ping statistics ---
5 packets transmitted, 0 received, 100% packet loss, time 4077ms

--- 128.223.32.36 ping statistics ---
5 packets transmitted, 0 received, 100% packet loss, time 4056ms

PING 128.223.32.36 (128.223.32.36) 56(84) bytes of data.

PING 128.223.32.36 (128.223.32.36) 56(84) bytes of data.

--- 128.223.32.36 ping statistics ---
5 packets transmitted, 0 received, 100% packet loss, time 4072ms

--- 128.223.32.36 ping statistics ---
5 packets transmitted, 0 received, 100% packet loss, time 4077ms

PING 128.223.32.36 (128.223.32.36) 56(84) bytes of data.

PING 128.223.32.36 (128.223.32.36) 56(84) bytes of data.

PING 128.223.32.36 (128.223.32.36) 56(84) bytes of data.

--- 128.223.32.36 ping statistics ---
5 packets transmitted, 0 received, 100% packet loss, time 4064ms

--- 128.223.32.36 ping statistics ---
5 packets transmitted, 0 received, 100% packet loss, time 4054ms

PING 128.223.32.36 (128.223.32.36) 56(84) bytes of data.

--- 128.223.32.36 ping statistics ---
5 packets transmitted, 0 received, 100% packet loss, time 4065ms

--- 128.223.32.36 ping statistics ---
5 packets transmitted, 0 received, 100% packet loss, time 4059ms

PING 128.223.32.36 (128.223.32.36) 56(84) bytes of data.

PING 128.223.32.36 (128.223.32.36) 56(84) bytes of data.

--- 128.223.32.36 ping statistics ---
5 packets transmitted, 0 received, 100% packet loss, time 4077ms

--- 128.223.32.36 ping statistics ---
5 packets transmitted, 0 received, 100% packet loss, time 4056ms

PING 128.223.32.36 (128.223.32.36) 56(84) bytes of data.

PING 128.223.32.36 (128.223.32.36) 56(84) bytes of data.

--- 128.223.32.36 ping statistics ---
5 packets transmitted, 0 received, 100% packet loss, time 4057ms

--- 128.223.32.36 ping statistics ---
5 packets transmitted, 0 received, 100% packet loss, time 4080ms

PING 128.223.32.36 (128.223.32.36) 56(84) bytes of data.

PING 128.223.32.36 (128.223.32.36) 56(84) bytes of data.

PING 128.223.32.36 (128.223.32.36) 56(84) bytes of data.

--- 128.223.32.36 ping statistics ---
5 packets transmitted, 0 received, 100% packet loss, time 4057ms

PING 128.223.32.36 (128.223.32.36) 56(84) bytes of data.

--- 128.223.32.36 ping statistics ---
5 packets transmitted, 0 received, 100% packet loss, time 4062ms

--- 128.223.32.36 ping statistics ---
5 packets transmitted, 0 received, 100% packet loss, time 4061ms

--- 128.223.32.36 ping statistics ---
5 packets transmitted, 0 received, 100% packet loss, time 4058ms

PING 128.223.32.36 (128.223.32.36) 56(84) bytes of data.

PING 128.223.32.36 (128.223.32.36) 56(84) bytes of data.

--- 128.223.32.36 ping statistics ---
5 packets transmitted, 0 received, 100% packet loss, time 4058ms

--- 128.223.32.36 ping statistics ---
5 packets transmitted, 0 received, 100% packet loss, time 4055ms

PING 128.223.32.36 (128.223.32.36) 56(84) bytes of data.

PING 128.223.32.36 (128.223.32.36) 56(84) bytes of data.

--- 128.223.32.36 ping statistics ---
5 packets transmitted, 0 received, 100% packet loss, time 4068ms

--- 128.223.32.36 ping statistics ---
5 packets transmitted, 0 received, 100% packet loss, time 4079ms

PING 128.223.32.36 (128.223.32.36) 56(84) bytes of data.

PING 128.223.32.36 (128.223.32.36) 56(84) bytes of data.

PING 128.223.32.36 (128.223.32.36) 56(84) bytes of data.

PING 128.223.32.36 (128.223.32.36) 56(84) bytes of data.

--- 128.223.32.36 ping statistics ---
5 packets transmitted, 0 received, 100% packet loss, time 4062ms

--- 128.223.32.36 ping statistics ---
5 packets transmitted, 0 received, 100% packet loss, time 4060ms

--- 128.223.32.36 ping statistics ---
5 packets transmitted, 0 received, 100% packet loss, time 4064ms

--- 128.223.32.36 ping statistics ---
5 packets transmitted, 0 received, 100% packet loss, time 4057ms

PING 128.223.32.36 (128.223.32.36) 56(84) bytes of data.

PING 128.223.32.36 (128.223.32.36) 56(84) bytes of data.

--- 128.223.32.36 ping statistics ---
5 packets transmitted, 0 received, 100% packet loss, time 4064ms

--- 128.223.32.36 ping statistics ---
5 packets transmitted, 0 received, 100% packet loss, time 4056ms

PING 128.223.32.36 (128.223.32.36) 56(84) bytes of data.

PING 128.223.32.36 (128.223.32.36) 56(84) bytes of data.

--- 128.223.32.36 ping statistics ---
5 packets transmitted, 0 received, 100% packet loss, time 4074ms

--- 128.223.32.36 ping statistics ---
5 packets transmitted, 0 received, 100% packet loss, time 4073ms

PING 128.223.32.36 (128.223.32.36) 56(84) bytes of data.

PING 128.223.32.36 (128.223.32.36) 56(84) bytes of data.

PING 128.223.32.36 (128.223.32.36) 56(84) bytes of data.

--- 128.223.32.36 ping statistics ---
5 packets transmitted, 0 received, 100% packet loss, time 4062ms

--- 128.223.32.36 ping statistics ---
5 packets transmitted, 0 received, 100% packet loss, time 4069ms

--- 128.223.32.36 ping statistics ---
5 packets transmitted, 0 received, 100% packet loss, time 4081ms

PING 128.223.32.36 (128.223.32.36) 56(84) bytes of data.

PING 128.223.32.36 (128.223.32.36) 56(84) bytes of data.

--- 128.223.32.36 ping statistics ---
5 packets transmitted, 0 received, 100% packet loss, time 4059ms

--- 128.223.32.36 ping statistics ---
5 packets transmitted, 0 received, 100% packet loss, time 4066ms

PING 128.223.32.36 (128.223.32.36) 56(84) bytes of data.


--- 128.223.32.36 ping statistics ---
5 packets transmitted, 0 received, 100% packet loss, time 4075ms

--- 128.223.32.36 ping statistics ---
5 packets transmitted, 1 received, 80% packet loss, time 4063ms
rtt min/avg/max/mdev = 0.600/0.600/0.600/0.000 ms
PING 128.223.32.36 (128.223.32.36) 56(84) bytes of data.

PING 128.223.32.36 (128.223.32.36) 56(84) bytes of data.

PING 128.223.32.36 (128.223.32.36) 56(84) bytes of data.

--- 128.223.32.36 ping statistics ---
5 packets transmitted, 0 received, 100% packet loss, time 4079ms

--- 128.223.32.36 ping statistics ---
5 packets transmitted, 0 received, 100% packet loss, time 4070ms

--- 128.223.32.36 ping statistics ---
5 packets transmitted, 0 received, 100% packet loss, time 4062ms

PING 128.223.32.36 (128.223.32.36) 56(84) bytes of data.

PING 128.223.32.36 (128.223.32.36) 56(84) bytes of data.

--- 128.223.32.36 ping statistics ---
5 packets transmitted, 0 received, 100% packet loss, time 4056ms

--- 128.223.32.36 ping statistics ---
5 packets transmitted, 0 received, 100% packet loss, time 4070ms

PING 128.223.32.36 (128.223.32.36) 56(84) bytes of data.

PING 128.223.32.36 (128.223.32.36) 56(84) bytes of data.

--- 128.223.32.36 ping statistics ---
5 packets transmitted, 0 received, 100% packet loss, time 4077ms

--- 128.223.32.36 ping statistics ---
5 packets transmitted, 0 received, 100% packet loss, time 4055ms

PING 128.223.32.36 (128.223.32.36) 56(84) bytes of data.

PING 128.223.32.36 (128.223.32.36) 56(84) bytes of data.

PING 128.223.32.36 (128.223.32.36) 56(84) bytes of data.

--- 128.223.32.36 ping statistics ---
5 packets transmitted, 0 received, 100% packet loss, time 4063ms

--- 128.223.32.36 ping statistics ---
5 packets transmitted, 0 received, 100% packet loss, time 4069ms

--- 128.223.32.36 ping statistics ---
5 packets transmitted, 0 received, 100% packet loss, time 4055ms

PING 128.223.32.36 (128.223.32.36) 56(84) bytes of data.

PING 128.223.32.36 (128.223.32.36) 56(84) bytes of data.

--- 128.223.32.36 ping statistics ---
5 packets transmitted, 0 received, 100% packet loss, time 4071ms

--- 128.223.32.36 ping statistics ---
5 packets transmitted, 0 received, 100% packet loss, time 4062ms

PING 128.223.32.36 (128.223.32.36) 56(84) bytes of data.

PING 128.223.32.36 (128.223.32.36) 56(84) bytes of data.

--- 128.223.32.36 ping statistics ---
5 packets transmitted, 0 received, 100% packet loss, time 4074ms

--- 128.223.32.36 ping statistics ---
5 packets transmitted, 0 received, 100% packet loss, time 4055ms

PING 128.223.32.36 (128.223.32.36) 56(84) bytes of data.

PING 128.223.32.36 (128.223.32.36) 56(84) bytes of data.

PING 128.223.32.36 (128.223.32.36) 56(84) bytes of data.

--- 128.223.32.36 ping statistics ---
5 packets transmitted, 0 received, 100% packet loss, time 4076ms

--- 128.223.32.36 ping statistics ---
5 packets transmitted, 0 received, 100% packet loss, time 4071ms

--- 128.223.32.36 ping statistics ---
5 packets transmitted, 0 received, 100% packet loss, time 4071ms

PING 128.223.32.36 (128.223.32.36) 56(84) bytes of data.

PING 128.223.32.36 (128.223.32.36) 56(84) bytes of data.

--- 128.223.32.36 ping statistics ---
5 packets transmitted, 0 received, 100% packet loss, time 4065ms

PING 128.223.32.36 (128.223.32.36) 56(84) bytes of data.

--- 128.223.32.36 ping statistics ---
5 packets transmitted, 0 received, 100% packet loss, time 4073ms

PING 128.223.32.36 (128.223.32.36) 56(84) bytes of data.

--- 128.223.32.36 ping statistics ---
5 packets transmitted, 0 received, 100% packet loss, time 4056ms

PING 128.223.32.36 (128.223.32.36) 56(84) bytes of data.

--- 128.223.32.36 ping statistics ---
5 packets transmitted, 0 received, 100% packet loss, time 4056ms

--- 128.223.32.36 ping statistics ---
5 packets transmitted, 0 received, 100% packet loss, time 4073ms

PING 128.223.32.36 (128.223.32.36) 56(84) bytes of data.

PING 128.223.32.36 (128.223.32.36) 56(84) bytes of data.

--- 128.223.32.36 ping statistics ---
5 packets transmitted, 0 received, 100% packet loss, time 4066ms

--- 128.223.32.36 ping statistics ---
5 packets transmitted, 0 received, 100% packet loss, time 4062ms

PING 128.223.32.36 (128.223.32.36) 56(84) bytes of data.

PING 128.223.32.36 (128.223.32.36) 56(84) bytes of data.

--- 128.223.32.36 ping statistics ---
5 packets transmitted, 0 received, 100% packet loss, time 4060ms

--- 128.223.32.36 ping statistics ---
5 packets transmitted, 0 received, 100% packet loss, time 4059ms

PING 128.223.32.36 (128.223.32.36) 56(84) bytes of data.

--- 128.223.32.36 ping statistics ---
5 packets transmitted, 0 received, 100% packet loss, time 4074ms

PING 128.223.32.36 (128.223.32.36) 56(84) bytes of data.

PING 128.223.32.36 (128.223.32.36) 56(84) bytes of data.

PING 128.223.32.36 (128.223.32.36) 56(84) bytes of data.

--- 128.223.32.36 ping statistics ---
5 packets transmitted, 0 received, 100% packet loss, time 4062ms

--- 128.223.32.36 ping statistics ---
5 packets transmitted, 0 received, 100% packet loss, time 4060ms

--- 128.223.32.36 ping statistics ---
5 packets transmitted, 0 received, 100% packet loss, time 4062ms

