     1	1412664 
     2	1412664 
     3	1412664 
     4	1412884 
     5	1412884 
     6	1412844 
     7	1412844 
     8	1412844 
     9	1412856 
    10	1412856 
    11	1412856 
    12	1412876 
    13	1412876 
    14	1412876 
    15	1412892 
    16	1412892 
    17	1412892 
    18	1412880 
    19	1412880 
    20	1412880 
    21	1412908 
    22	1412908 
    23	1412908 
    24	1412900 
