top - 23:22:23 up  2:38,  1 user,  load average: 0.07, 0.74, 1.64
Tasks: 315 total,   1 running, 254 sleeping,   0 stopped,   0 zombie
%Cpu(s):  3.5 us,  1.8 sy,  0.0 ni, 94.7 id,  0.1 wa,  0.0 hi,  0.0 si,  0.0 st
KiB Mem : 16278768 total, 11915420 free,  1412664 used,  2950684 buff/cache
KiB Swap: 16630780 total, 16630780 free,        0 used. 14415784 avail Mem 

  PID USER      PR  NI    VIRT    RES    SHR S  %CPU %MEM     TIME+ COMMAND
14684 kenenth   20   0   41908   3820   3164 R  17.6  0.0   0:00.03 top
  703 systemd+  20   0   71176   6764   5524 S   5.9  0.0   0:06.75 systemd-re+
 1985 kenenth   20   0 3540348 243700  96104 S   5.9  1.5   5:09.10 gnome-shell
22835 kenenth   20   0  794668  37412  28120 S   5.9  0.2   0:02.96 gnome-term+

top - 23:22:24 up  2:38,  1 user,  load average: 0.07, 0.74, 1.64
Tasks: 315 total,   1 running, 254 sleeping,   0 stopped,   0 zombie
%Cpu(s):  0.4 us,  0.2 sy,  0.0 ni, 99.4 id,  0.0 wa,  0.0 hi,  0.0 si,  0.0 st
KiB Mem : 16278768 total, 11915420 free,  1412664 used,  2950684 buff/cache
KiB Swap: 16630780 total, 16630780 free,        0 used. 14415784 avail Mem 

  PID USER      PR  NI    VIRT    RES    SHR S  %CPU %MEM     TIME+ COMMAND
14684 kenenth   20   0   41908   3820   3164 R   1.9  0.0   0:00.05 top
 1780 root      20   0  433932  94760  61668 S   1.0  0.6   1:51.32 Xorg
 1781 root     -51   0       0      0      0 S   1.0  0.0   0:13.49 irq/135-nv+

top - 23:22:25 up  2:38,  1 user,  load average: 0.07, 0.73, 1.63
Tasks: 315 total,   1 running, 254 sleeping,   0 stopped,   0 zombie
%Cpu(s):  0.2 us,  0.2 sy,  0.0 ni, 99.5 id,  0.0 wa,  0.0 hi,  0.0 si,  0.0 st
KiB Mem : 16278768 total, 11915420 free,  1412664 used,  2950684 buff/cache
KiB Swap: 16630780 total, 16630780 free,        0 used. 14415784 avail Mem 

  PID USER      PR  NI    VIRT    RES    SHR S  %CPU %MEM     TIME+ COMMAND
 1129 root      20   0 5005772  38064  25972 S   1.0  0.2   0:45.16 containerd
 1780 root      20   0  433932  94760  61668 S   1.0  0.6   1:51.33 Xorg
 1985 kenenth   20   0 3540348 243700  96104 S   1.0  1.5   5:09.11 gnome-shell
 2098 kenenth   20   0  448120  13192   8100 S   1.0  0.1   0:44.43 gsd-sharing
14684 kenenth   20   0   41908   3820   3164 R   1.0  0.0   0:00.06 top

top - 23:22:27 up  2:38,  1 user,  load average: 0.07, 0.73, 1.63
Tasks: 315 total,   1 running, 254 sleeping,   0 stopped,   0 zombie
%Cpu(s):  0.2 us,  0.2 sy,  0.0 ni, 99.4 id,  0.1 wa,  0.0 hi,  0.0 si,  0.0 st
KiB Mem : 16278768 total, 11915192 free,  1412884 used,  2950692 buff/cache
KiB Swap: 16630780 total, 16630780 free,        0 used. 14415564 avail Mem 

  PID USER      PR  NI    VIRT    RES    SHR S  %CPU %MEM     TIME+ COMMAND
14684 kenenth   20   0   41908   3820   3164 R   1.0  0.0   0:00.07 top

top - 23:22:28 up  2:38,  1 user,  load average: 0.07, 0.73, 1.63
Tasks: 315 total,   1 running, 254 sleeping,   0 stopped,   0 zombie
%Cpu(s):  0.2 us,  0.2 sy,  0.0 ni, 99.5 id,  0.0 wa,  0.0 hi,  0.0 si,  0.0 st
KiB Mem : 16278768 total, 11915192 free,  1412884 used,  2950692 buff/cache
KiB Swap: 16630780 total, 16630780 free,        0 used. 14415564 avail Mem 

  PID USER      PR  NI    VIRT    RES    SHR S  %CPU %MEM     TIME+ COMMAND
14684 kenenth   20   0   41908   3820   3164 R   2.0  0.0   0:00.09 top
 1780 root      20   0  433932  94760  61668 S   1.0  0.6   1:51.34 Xorg
 1985 kenenth   20   0 3540348 243700  96104 S   1.0  1.5   5:09.12 gnome-shell

top - 23:22:29 up  2:38,  1 user,  load average: 0.07, 0.73, 1.63
Tasks: 315 total,   1 running, 254 sleeping,   0 stopped,   0 zombie
%Cpu(s):  0.1 us,  0.2 sy,  0.0 ni, 99.6 id,  0.0 wa,  0.0 hi,  0.0 si,  0.0 st
KiB Mem : 16278768 total, 11915224 free,  1412844 used,  2950700 buff/cache
KiB Swap: 16630780 total, 16630780 free,        0 used. 14415604 avail Mem 

  PID USER      PR  NI    VIRT    RES    SHR S  %CPU %MEM     TIME+ COMMAND
 1781 root     -51   0       0      0      0 S   1.0  0.0   0:13.50 irq/135-nv+
14684 kenenth   20   0   41908   3820   3164 R   1.0  0.0   0:00.10 top

top - 23:22:30 up  2:38,  1 user,  load average: 0.07, 0.73, 1.63
Tasks: 315 total,   1 running, 254 sleeping,   0 stopped,   0 zombie
%Cpu(s):  0.4 us,  0.1 sy,  0.0 ni, 99.5 id,  0.0 wa,  0.0 hi,  0.0 si,  0.0 st
KiB Mem : 16278768 total, 11915224 free,  1412844 used,  2950700 buff/cache
KiB Swap: 16630780 total, 16630780 free,        0 used. 14415604 avail Mem 

  PID USER      PR  NI    VIRT    RES    SHR S  %CPU %MEM     TIME+ COMMAND
 1780 root      20   0  433932  94760  61668 S   1.0  0.6   1:51.35 Xorg
 1985 kenenth   20   0 3540348 243700  96104 S   1.0  1.5   5:09.13 gnome-shell
14684 kenenth   20   0   41908   3820   3164 R   1.0  0.0   0:00.11 top

top - 23:22:31 up  2:38,  1 user,  load average: 0.06, 0.72, 1.62
Tasks: 315 total,   1 running, 254 sleeping,   0 stopped,   0 zombie
%Cpu(s):  0.2 us,  0.1 sy,  0.0 ni, 99.6 id,  0.0 wa,  0.0 hi,  0.0 si,  0.0 st
KiB Mem : 16278768 total, 11915224 free,  1412844 used,  2950700 buff/cache
KiB Swap: 16630780 total, 16630780 free,        0 used. 14415604 avail Mem 

  PID USER      PR  NI    VIRT    RES    SHR S  %CPU %MEM     TIME+ COMMAND
 1780 root      20   0  433932  94760  61668 S   1.0  0.6   1:51.36 Xorg
 1985 kenenth   20   0 3540348 243700  96104 S   1.0  1.5   5:09.14 gnome-shell
14684 kenenth   20   0   41908   3820   3164 R   1.0  0.0   0:00.12 top

top - 23:22:32 up  2:38,  1 user,  load average: 0.06, 0.72, 1.62
Tasks: 315 total,   1 running, 254 sleeping,   0 stopped,   0 zombie
%Cpu(s):  0.1 us,  0.2 sy,  0.0 ni, 99.6 id,  0.0 wa,  0.0 hi,  0.0 si,  0.0 st
KiB Mem : 16278768 total, 11915192 free,  1412856 used,  2950720 buff/cache
KiB Swap: 16630780 total, 16630780 free,        0 used. 14415576 avail Mem 

  PID USER      PR  NI    VIRT    RES    SHR S  %CPU %MEM     TIME+ COMMAND
14684 kenenth   20   0   41908   3820   3164 R   2.0  0.0   0:00.14 top
  972 root      20   0  565028  23704  13716 S   1.0  0.1   1:13.29 NetworkMan+
 1780 root      20   0  433932  94760  61668 S   1.0  0.6   1:51.37 Xorg

top - 23:22:33 up  2:39,  1 user,  load average: 0.06, 0.72, 1.62
Tasks: 315 total,   1 running, 254 sleeping,   0 stopped,   0 zombie
%Cpu(s):  0.1 us,  0.2 sy,  0.0 ni, 99.6 id,  0.0 wa,  0.0 hi,  0.0 si,  0.0 st
KiB Mem : 16278768 total, 11915192 free,  1412856 used,  2950720 buff/cache
KiB Swap: 16630780 total, 16630780 free,        0 used. 14415576 avail Mem 

  PID USER      PR  NI    VIRT    RES    SHR S  %CPU %MEM     TIME+ COMMAND
 1985 kenenth   20   0 3540348 243700  96104 S   2.0  1.5   5:09.16 gnome-shell
 1129 root      20   0 5005772  38064  25972 S   1.0  0.2   0:45.17 containerd
 1781 root     -51   0       0      0      0 S   1.0  0.0   0:13.51 irq/135-nv+
14684 kenenth   20   0   41908   3820   3164 R   1.0  0.0   0:00.15 top

top - 23:22:34 up  2:39,  1 user,  load average: 0.06, 0.72, 1.62
Tasks: 315 total,   1 running, 254 sleeping,   0 stopped,   0 zombie
%Cpu(s):  0.1 us,  0.1 sy,  0.0 ni, 99.8 id,  0.0 wa,  0.0 hi,  0.0 si,  0.0 st
KiB Mem : 16278768 total, 11915192 free,  1412856 used,  2950720 buff/cache
KiB Swap: 16630780 total, 16630780 free,        0 used. 14415576 avail Mem 

  PID USER      PR  NI    VIRT    RES    SHR S  %CPU %MEM     TIME+ COMMAND
 1780 root      20   0  433932  94760  61668 S   1.0  0.6   1:51.38 Xorg
14684 kenenth   20   0   41908   3820   3164 R   1.0  0.0   0:00.16 top

top - 23:22:35 up  2:39,  1 user,  load average: 0.06, 0.72, 1.62
Tasks: 315 total,   1 running, 254 sleeping,   0 stopped,   0 zombie
%Cpu(s):  0.9 us,  0.1 sy,  0.0 ni, 99.0 id,  0.0 wa,  0.0 hi,  0.0 si,  0.0 st
KiB Mem : 16278768 total, 11915160 free,  1412876 used,  2950732 buff/cache
KiB Swap: 16630780 total, 16630780 free,        0 used. 14415548 avail Mem 

  PID USER      PR  NI    VIRT    RES    SHR S  %CPU %MEM     TIME+ COMMAND
 2332 root      20   0 6056052 105464  39168 S   5.9  0.6   2:35.72 dockerd
14684 kenenth   20   0   41908   3820   3164 R   2.0  0.0   0:00.18 top
 1780 root      20   0  433932  94760  61668 S   1.0  0.6   1:51.39 Xorg
 1985 kenenth   20   0 3540348 243700  96104 S   1.0  1.5   5:09.17 gnome-shell

top - 23:22:36 up  2:39,  1 user,  load average: 0.06, 0.71, 1.61
Tasks: 315 total,   1 running, 254 sleeping,   0 stopped,   0 zombie
%Cpu(s):  0.1 us,  0.2 sy,  0.0 ni, 99.6 id,  0.0 wa,  0.0 hi,  0.0 si,  0.0 st
KiB Mem : 16278768 total, 11915160 free,  1412876 used,  2950732 buff/cache
KiB Swap: 16630780 total, 16630780 free,        0 used. 14415548 avail Mem 

  PID USER      PR  NI    VIRT    RES    SHR S  %CPU %MEM     TIME+ COMMAND
14684 kenenth   20   0   41908   3820   3164 R   1.0  0.0   0:00.19 top
21575 root      20   0       0      0      0 I   1.0  0.0   0:00.26 kworker/5:2

top - 23:22:37 up  2:39,  1 user,  load average: 0.06, 0.71, 1.61
Tasks: 315 total,   1 running, 254 sleeping,   0 stopped,   0 zombie
%Cpu(s):  0.6 us,  0.2 sy,  0.0 ni, 99.1 id,  0.0 wa,  0.0 hi,  0.0 si,  0.0 st
KiB Mem : 16278768 total, 11915160 free,  1412876 used,  2950732 buff/cache
KiB Swap: 16630780 total, 16630780 free,        0 used. 14415548 avail Mem 

  PID USER      PR  NI    VIRT    RES    SHR S  %CPU %MEM     TIME+ COMMAND
 1129 root      20   0 5005772  38064  25972 S   2.0  0.2   0:45.19 containerd
14684 kenenth   20   0   41908   3820   3164 R   2.0  0.0   0:00.21 top

top - 23:22:38 up  2:39,  1 user,  load average: 0.06, 0.71, 1.61
Tasks: 315 total,   1 running, 254 sleeping,   0 stopped,   0 zombie
%Cpu(s):  0.2 us,  0.6 sy,  0.0 ni, 99.1 id,  0.0 wa,  0.0 hi,  0.0 si,  0.0 st
KiB Mem : 16278768 total, 11915128 free,  1412892 used,  2950748 buff/cache
KiB Swap: 16630780 total, 16630780 free,        0 used. 14415524 avail Mem 

  PID USER      PR  NI    VIRT    RES    SHR S  %CPU %MEM     TIME+ COMMAND
 1780 root      20   0  433932  94760  61668 S   1.0  0.6   1:51.40 Xorg
14684 kenenth   20   0   41908   3820   3164 R   1.0  0.0   0:00.22 top

top - 23:22:39 up  2:39,  1 user,  load average: 0.06, 0.71, 1.61
Tasks: 315 total,   1 running, 254 sleeping,   0 stopped,   0 zombie
%Cpu(s):  0.2 us,  0.4 sy,  0.0 ni, 99.4 id,  0.0 wa,  0.0 hi,  0.0 si,  0.0 st
KiB Mem : 16278768 total, 11915128 free,  1412892 used,  2950748 buff/cache
KiB Swap: 16630780 total, 16630780 free,        0 used. 14415524 avail Mem 

  PID USER      PR  NI    VIRT    RES    SHR S  %CPU %MEM     TIME+ COMMAND
14684 kenenth   20   0   41908   3820   3164 R   1.0  0.0   0:00.23 top

top - 23:22:40 up  2:39,  1 user,  load average: 0.06, 0.71, 1.61
Tasks: 315 total,   1 running, 254 sleeping,   0 stopped,   0 zombie
%Cpu(s):  0.0 us,  0.1 sy,  0.0 ni, 99.9 id,  0.0 wa,  0.0 hi,  0.0 si,  0.0 st
KiB Mem : 16278768 total, 11915128 free,  1412892 used,  2950748 buff/cache
KiB Swap: 16630780 total, 16630780 free,        0 used. 14415524 avail Mem 

  PID USER      PR  NI    VIRT    RES    SHR S  %CPU %MEM     TIME+ COMMAND
14684 kenenth   20   0   41908   3820   3164 R   2.0  0.0   0:00.25 top
   28 root      20   0       0      0      0 S   1.0  0.0   0:01.59 ksoftirqd/3
  945 root      20   0  269688   5956   5196 S   1.0  0.0   0:01.71 iio-sensor+
 1129 root      20   0 5005772  38064  25972 S   1.0  0.2   0:45.20 containerd
 1780 root      20   0  433932  94760  61668 S   1.0  0.6   1:51.41 Xorg

top - 23:22:41 up  2:39,  1 user,  load average: 0.05, 0.69, 1.60
Tasks: 315 total,   1 running, 254 sleeping,   0 stopped,   0 zombie
%Cpu(s):  0.1 us,  0.4 sy,  0.0 ni, 99.5 id,  0.0 wa,  0.0 hi,  0.0 si,  0.0 st
KiB Mem : 16278768 total, 11915128 free,  1412880 used,  2950760 buff/cache
KiB Swap: 16630780 total, 16630780 free,        0 used. 14415528 avail Mem 

  PID USER      PR  NI    VIRT    RES    SHR S  %CPU %MEM     TIME+ COMMAND
14684 kenenth   20   0   41908   3820   3164 R   1.0  0.0   0:00.26 top

top - 23:22:42 up  2:39,  1 user,  load average: 0.05, 0.69, 1.60
Tasks: 315 total,   1 running, 254 sleeping,   0 stopped,   0 zombie
%Cpu(s):  0.1 us,  0.1 sy,  0.0 ni, 99.6 id,  0.1 wa,  0.0 hi,  0.0 si,  0.0 st
KiB Mem : 16278768 total, 11915128 free,  1412880 used,  2950760 buff/cache
KiB Swap: 16630780 total, 16630780 free,        0 used. 14415528 avail Mem 

  PID USER      PR  NI    VIRT    RES    SHR S  %CPU %MEM     TIME+ COMMAND
14684 kenenth   20   0   41908   3820   3164 R   2.0  0.0   0:00.28 top
  950 message+  20   0   51840   6208   3852 S   1.0  0.0   2:13.60 dbus-daemon
 1302 gdm       20   0 3332456 122260  66292 S   1.0  0.8   1:46.07 gnome-shell

top - 23:22:43 up  2:39,  1 user,  load average: 0.05, 0.69, 1.60
Tasks: 315 total,   1 running, 254 sleeping,   0 stopped,   0 zombie
%Cpu(s):  0.1 us,  0.2 sy,  0.0 ni, 99.6 id,  0.0 wa,  0.0 hi,  0.0 si,  0.0 st
KiB Mem : 16278768 total, 11915128 free,  1412880 used,  2950760 buff/cache
KiB Swap: 16630780 total, 16630780 free,        0 used. 14415528 avail Mem 

  PID USER      PR  NI    VIRT    RES    SHR S  %CPU %MEM     TIME+ COMMAND
 1780 root      20   0  433932  94760  61668 S   1.0  0.6   1:51.42 Xorg

top - 23:22:44 up  2:39,  1 user,  load average: 0.05, 0.69, 1.60
Tasks: 315 total,   1 running, 254 sleeping,   0 stopped,   0 zombie
%Cpu(s):  0.1 us,  0.4 sy,  0.0 ni, 99.4 id,  0.0 wa,  0.0 hi,  0.1 si,  0.0 st
KiB Mem : 16278768 total, 11915088 free,  1412908 used,  2950772 buff/cache
KiB Swap: 16630780 total, 16630780 free,        0 used. 14415488 avail Mem 

  PID USER      PR  NI    VIRT    RES    SHR S  %CPU %MEM     TIME+ COMMAND
14684 kenenth   20   0   41908   3820   3164 R   2.0  0.0   0:00.30 top

top - 23:22:45 up  2:39,  1 user,  load average: 0.05, 0.69, 1.60
Tasks: 315 total,   1 running, 254 sleeping,   0 stopped,   0 zombie
%Cpu(s):  0.0 us,  0.2 sy,  0.0 ni, 99.8 id,  0.0 wa,  0.0 hi,  0.0 si,  0.0 st
KiB Mem : 16278768 total, 11915088 free,  1412908 used,  2950772 buff/cache
KiB Swap: 16630780 total, 16630780 free,        0 used. 14415488 avail Mem 

  PID USER      PR  NI    VIRT    RES    SHR S  %CPU %MEM     TIME+ COMMAND
 1780 root      20   0  433932  94760  61668 S   1.0  0.6   1:51.43 Xorg
14684 kenenth   20   0   41908   3820   3164 R   1.0  0.0   0:00.31 top

top - 23:22:46 up  2:39,  1 user,  load average: 0.05, 0.68, 1.59
Tasks: 315 total,   1 running, 254 sleeping,   0 stopped,   0 zombie
%Cpu(s):  0.1 us,  0.1 sy,  0.0 ni, 99.6 id,  0.0 wa,  0.0 hi,  0.1 si,  0.0 st
KiB Mem : 16278768 total, 11915088 free,  1412908 used,  2950772 buff/cache
KiB Swap: 16630780 total, 16630780 free,        0 used. 14415488 avail Mem 

  PID USER      PR  NI    VIRT    RES    SHR S  %CPU %MEM     TIME+ COMMAND
14684 kenenth   20   0   41908   3820   3164 R   2.0  0.0   0:00.33 top
 1129 root      20   0 5005772  38064  25972 S   1.0  0.2   0:45.21 containerd

top - 23:22:47 up  2:39,  1 user,  load average: 0.05, 0.68, 1.59
Tasks: 315 total,   1 running, 254 sleeping,   0 stopped,   0 zombie
%Cpu(s):  0.2 us,  0.2 sy,  0.0 ni, 99.5 id,  0.0 wa,  0.0 hi,  0.0 si,  0.0 st
KiB Mem : 16278768 total, 11915088 free,  1412900 used,  2950780 buff/cache
KiB Swap: 16630780 total, 16630780 free,        0 used. 14415488 avail Mem 

  PID USER      PR  NI    VIRT    RES    SHR S  %CPU %MEM     TIME+ COMMAND
  255 root      20   0       0      0      0 S   1.0  0.0   0:02.97 jbd2/nvme0+
14684 kenenth   20   0   41908   3820   3164 R   1.0  0.0   0:00.34 top