PING 128.223.32.36 (128.223.32.36) 56(84) bytes of data.
64 bytes from 128.223.32.36: icmp_seq=1 ttl=63 time=0.371 ms
PING 128.223.32.36 (128.223.32.36) 56(84) bytes of data.
64 bytes from 128.223.32.36: icmp_seq=1 ttl=63 time=0.390 ms
PING 128.223.32.36 (128.223.32.36) 56(84) bytes of data.
64 bytes from 128.223.32.36: icmp_seq=1 ttl=63 time=0.352 ms
PING 128.223.32.36 (128.223.32.36) 56(84) bytes of data.
64 bytes from 128.223.32.36: icmp_seq=1 ttl=63 time=0.411 ms
PING 128.223.32.36 (128.223.32.36) 56(84) bytes of data.
64 bytes from 128.223.32.36: icmp_seq=1 ttl=63 time=0.433 ms
64 bytes from 128.223.32.36: icmp_seq=2 ttl=63 time=0.690 ms
PING 128.223.32.36 (128.223.32.36) 56(84) bytes of data.
64 bytes from 128.223.32.36: icmp_seq=2 ttl=63 time=0.511 ms
PING 128.223.32.36 (128.223.32.36) 56(84) bytes of data.
64 bytes from 128.223.32.36: icmp_seq=2 ttl=63 time=0.573 ms
PING 128.223.32.36 (128.223.32.36) 56(84) bytes of data.
64 bytes from 128.223.32.36: icmp_seq=2 ttl=63 time=0.559 ms
PING 128.223.32.36 (128.223.32.36) 56(84) bytes of data.
64 bytes from 128.223.32.36: icmp_seq=2 ttl=63 time=0.654 ms
64 bytes from 128.223.32.36: icmp_seq=3 ttl=63 time=0.766 ms
64 bytes from 128.223.32.36: icmp_seq=3 ttl=63 time=0.749 ms
64 bytes from 128.223.32.36: icmp_seq=3 ttl=63 time=0.682 ms
64 bytes from 128.223.32.36: icmp_seq=3 ttl=63 time=0.632 ms
64 bytes from 128.223.32.36: icmp_seq=3 ttl=63 time=0.621 ms
64 bytes from 128.223.32.36: icmp_seq=4 ttl=63 time=0.726 ms
64 bytes from 128.223.32.36: icmp_seq=4 ttl=63 time=0.807 ms
64 bytes from 128.223.32.36: icmp_seq=4 ttl=63 time=0.791 ms
64 bytes from 128.223.32.36: icmp_seq=4 ttl=63 time=0.675 ms
64 bytes from 128.223.32.36: icmp_seq=4 ttl=63 time=0.696 ms
64 bytes from 128.223.32.36: icmp_seq=5 ttl=63 time=0.456 ms
64 bytes from 128.223.32.36: icmp_seq=5 ttl=63 time=0.489 ms
64 bytes from 128.223.32.36: icmp_seq=5 ttl=63 time=0.504 ms
64 bytes from 128.223.32.36: icmp_seq=5 ttl=63 time=0.490 ms
64 bytes from 128.223.32.36: icmp_seq=5 ttl=63 time=0.438 ms
64 bytes from 128.223.32.36: icmp_seq=6 ttl=63 time=0.568 ms
64 bytes from 128.223.32.36: icmp_seq=6 ttl=63 time=0.637 ms
64 bytes from 128.223.32.36: icmp_seq=6 ttl=63 time=0.652 ms
64 bytes from 128.223.32.36: icmp_seq=6 ttl=63 time=0.664 ms
64 bytes from 128.223.32.36: icmp_seq=6 ttl=63 time=0.697 ms
64 bytes from 128.223.32.36: icmp_seq=7 ttl=63 time=0.719 ms
64 bytes from 128.223.32.36: icmp_seq=7 ttl=63 time=0.641 ms
64 bytes from 128.223.32.36: icmp_seq=7 ttl=63 time=0.737 ms
64 bytes from 128.223.32.36: icmp_seq=7 ttl=63 time=0.626 ms
64 bytes from 128.223.32.36: icmp_seq=7 ttl=63 time=0.742 ms
64 bytes from 128.223.32.36: icmp_seq=8 ttl=63 time=0.662 ms
64 bytes from 128.223.32.36: icmp_seq=8 ttl=63 time=0.739 ms
64 bytes from 128.223.32.36: icmp_seq=8 ttl=63 time=0.759 ms
64 bytes from 128.223.32.36: icmp_seq=8 ttl=63 time=0.656 ms
64 bytes from 128.223.32.36: icmp_seq=8 ttl=63 time=0.661 ms
64 bytes from 128.223.32.36: icmp_seq=9 ttl=63 time=0.658 ms
64 bytes from 128.223.32.36: icmp_seq=9 ttl=63 time=0.724 ms
64 bytes from 128.223.32.36: icmp_seq=9 ttl=63 time=0.742 ms
64 bytes from 128.223.32.36: icmp_seq=9 ttl=63 time=0.700 ms
64 bytes from 128.223.32.36: icmp_seq=9 ttl=63 time=0.515 ms
64 bytes from 128.223.32.36: icmp_seq=10 ttl=63 time=0.762 ms
64 bytes from 128.223.32.36: icmp_seq=10 ttl=63 time=0.692 ms
64 bytes from 128.223.32.36: icmp_seq=10 ttl=63 time=0.778 ms
64 bytes from 128.223.32.36: icmp_seq=10 ttl=63 time=0.676 ms
64 bytes from 128.223.32.36: icmp_seq=10 ttl=63 time=0.730 ms
64 bytes from 128.223.32.36: icmp_seq=11 ttl=63 time=0.488 ms
64 bytes from 128.223.32.36: icmp_seq=11 ttl=63 time=0.521 ms
64 bytes from 128.223.32.36: icmp_seq=11 ttl=63 time=0.533 ms
64 bytes from 128.223.32.36: icmp_seq=11 ttl=63 time=0.703 ms
64 bytes from 128.223.32.36: icmp_seq=11 ttl=63 time=0.577 ms
64 bytes from 128.223.32.36: icmp_seq=12 ttl=63 time=0.716 ms
64 bytes from 128.223.32.36: icmp_seq=12 ttl=63 time=0.658 ms
64 bytes from 128.223.32.36: icmp_seq=12 ttl=63 time=0.750 ms
64 bytes from 128.223.32.36: icmp_seq=12 ttl=63 time=0.669 ms
64 bytes from 128.223.32.36: icmp_seq=12 ttl=63 time=0.698 ms
64 bytes from 128.223.32.36: icmp_seq=13 ttl=63 time=0.706 ms
64 bytes from 128.223.32.36: icmp_seq=13 ttl=63 time=0.782 ms
64 bytes from 128.223.32.36: icmp_seq=13 ttl=63 time=0.800 ms
64 bytes from 128.223.32.36: icmp_seq=13 ttl=63 time=0.700 ms
64 bytes from 128.223.32.36: icmp_seq=14 ttl=63 time=0.587 ms
64 bytes from 128.223.32.36: icmp_seq=14 ttl=63 time=0.512 ms
64 bytes from 128.223.32.36: icmp_seq=14 ttl=63 time=0.603 ms
64 bytes from 128.223.32.36: icmp_seq=14 ttl=63 time=0.686 ms
64 bytes from 128.223.32.36: icmp_seq=14 ttl=63 time=0.700 ms
64 bytes from 128.223.32.36: icmp_seq=15 ttl=63 time=0.528 ms
64 bytes from 128.223.32.36: icmp_seq=15 ttl=63 time=0.521 ms
64 bytes from 128.223.32.36: icmp_seq=15 ttl=63 time=0.529 ms
64 bytes from 128.223.32.36: icmp_seq=15 ttl=63 time=0.485 ms
64 bytes from 128.223.32.36: icmp_seq=15 ttl=63 time=0.650 ms
64 bytes from 128.223.32.36: icmp_seq=16 ttl=63 time=0.741 ms
64 bytes from 128.223.32.36: icmp_seq=16 ttl=63 time=0.664 ms
64 bytes from 128.223.32.36: icmp_seq=16 ttl=63 time=0.761 ms
64 bytes from 128.223.32.36: icmp_seq=16 ttl=63 time=0.693 ms
64 bytes from 128.223.32.36: icmp_seq=16 ttl=63 time=0.498 ms
64 bytes from 128.223.32.36: icmp_seq=17 ttl=63 time=0.719 ms
64 bytes from 128.223.32.36: icmp_seq=17 ttl=63 time=0.782 ms
64 bytes from 128.223.32.36: icmp_seq=17 ttl=63 time=0.820 ms
64 bytes from 128.223.32.36: icmp_seq=17 ttl=63 time=0.654 ms
64 bytes from 128.223.32.36: icmp_seq=17 ttl=63 time=0.691 ms
64 bytes from 128.223.32.36: icmp_seq=18 ttl=63 time=0.670 ms
64 bytes from 128.223.32.36: icmp_seq=18 ttl=63 time=0.651 ms
64 bytes from 128.223.32.36: icmp_seq=18 ttl=63 time=0.722 ms
64 bytes from 128.223.32.36: icmp_seq=18 ttl=63 time=0.657 ms
64 bytes from 128.223.32.36: icmp_seq=18 ttl=63 time=0.428 ms
64 bytes from 128.223.32.36: icmp_seq=18 ttl=63 time=0.448 ms
64 bytes from 128.223.32.36: icmp_seq=19 ttl=63 time=0.722 ms
64 bytes from 128.223.32.36: icmp_seq=19 ttl=63 time=0.687 ms
64 bytes from 128.223.32.36: icmp_seq=19 ttl=63 time=0.757 ms
64 bytes from 128.223.32.36: icmp_seq=19 ttl=63 time=0.496 ms
64 bytes from 128.223.32.36: icmp_seq=19 ttl=63 time=0.561 ms
64 bytes from 128.223.32.36: icmp_seq=19 ttl=63 time=0.585 ms
64 bytes from 128.223.32.36: icmp_seq=20 ttl=63 time=0.683 ms
64 bytes from 128.223.32.36: icmp_seq=20 ttl=63 time=0.694 ms
64 bytes from 128.223.32.36: icmp_seq=20 ttl=63 time=0.765 ms
64 bytes from 128.223.32.36: icmp_seq=20 ttl=63 time=0.681 ms
64 bytes from 128.223.32.36: icmp_seq=20 ttl=63 time=0.667 ms
PING 128.223.32.36 (128.223.32.36) 56(84) bytes of data.
64 bytes from 128.223.32.36: icmp_seq=20 ttl=63 time=0.759 ms
64 bytes from 128.223.32.36: icmp_seq=21 ttl=63 time=0.689 ms
64 bytes from 128.223.32.36: icmp_seq=21 ttl=63 time=0.708 ms
64 bytes from 128.223.32.36: icmp_seq=21 ttl=63 time=0.784 ms
64 bytes from 128.223.32.36: icmp_seq=21 ttl=63 time=0.416 ms
64 bytes from 128.223.32.36: icmp_seq=21 ttl=63 time=0.688 ms
64 bytes from 128.223.32.36: icmp_seq=21 ttl=63 time=0.737 ms
64 bytes from 128.223.32.36: icmp_seq=22 ttl=63 time=0.676 ms
64 bytes from 128.223.32.36: icmp_seq=22 ttl=63 time=0.678 ms
64 bytes from 128.223.32.36: icmp_seq=22 ttl=63 time=0.756 ms
64 bytes from 128.223.32.36: icmp_seq=22 ttl=63 time=0.698 ms
64 bytes from 128.223.32.36: icmp_seq=22 ttl=63 time=0.675 ms
64 bytes from 128.223.32.36: icmp_seq=22 ttl=63 time=0.721 ms
64 bytes from 128.223.32.36: icmp_seq=23 ttl=63 time=0.755 ms
64 bytes from 128.223.32.36: icmp_seq=23 ttl=63 time=0.694 ms
64 bytes from 128.223.32.36: icmp_seq=23 ttl=63 time=0.772 ms
64 bytes from 128.223.32.36: icmp_seq=23 ttl=63 time=0.702 ms
64 bytes from 128.223.32.36: icmp_seq=23 ttl=63 time=0.788 ms
64 bytes from 128.223.32.36: icmp_seq=23 ttl=63 time=0.721 ms
64 bytes from 128.223.32.36: icmp_seq=24 ttl=63 time=0.497 ms
64 bytes from 128.223.32.36: icmp_seq=24 ttl=63 time=0.388 ms
64 bytes from 128.223.32.36: icmp_seq=24 ttl=63 time=0.384 ms
64 bytes from 128.223.32.36: icmp_seq=24 ttl=63 time=0.735 ms
64 bytes from 128.223.32.36: icmp_seq=24 ttl=63 time=0.666 ms
64 bytes from 128.223.32.36: icmp_seq=24 ttl=63 time=0.698 ms
64 bytes from 128.223.32.36: icmp_seq=25 ttl=63 time=0.678 ms
64 bytes from 128.223.32.36: icmp_seq=25 ttl=63 time=0.706 ms
64 bytes from 128.223.32.36: icmp_seq=25 ttl=63 time=0.748 ms
64 bytes from 128.223.32.36: icmp_seq=25 ttl=63 time=0.667 ms
64 bytes from 128.223.32.36: icmp_seq=25 ttl=63 time=0.512 ms
64 bytes from 128.223.32.36: icmp_seq=25 ttl=63 time=0.561 ms
64 bytes from 128.223.32.36: icmp_seq=26 ttl=63 time=0.692 ms
64 bytes from 128.223.32.36: icmp_seq=26 ttl=63 time=0.656 ms
64 bytes from 128.223.32.36: icmp_seq=26 ttl=63 time=0.704 ms
64 bytes from 128.223.32.36: icmp_seq=26 ttl=63 time=0.596 ms
64 bytes from 128.223.32.36: icmp_seq=26 ttl=63 time=0.695 ms
64 bytes from 128.223.32.36: icmp_seq=26 ttl=63 time=0.768 ms
64 bytes from 128.223.32.36: icmp_seq=27 ttl=63 time=0.417 ms
64 bytes from 128.223.32.36: icmp_seq=27 ttl=63 time=0.648 ms
64 bytes from 128.223.32.36: icmp_seq=27 ttl=63 time=0.715 ms
64 bytes from 128.223.32.36: icmp_seq=27 ttl=63 time=0.652 ms
64 bytes from 128.223.32.36: icmp_seq=27 ttl=63 time=0.662 ms
64 bytes from 128.223.32.36: icmp_seq=27 ttl=63 time=0.732 ms
64 bytes from 128.223.32.36: icmp_seq=28 ttl=63 time=0.720 ms
64 bytes from 128.223.32.36: icmp_seq=28 ttl=63 time=0.663 ms
64 bytes from 128.223.32.36: icmp_seq=28 ttl=63 time=0.717 ms
64 bytes from 128.223.32.36: icmp_seq=28 ttl=63 time=0.677 ms
64 bytes from 128.223.32.36: icmp_seq=28 ttl=63 time=0.711 ms
64 bytes from 128.223.32.36: icmp_seq=29 ttl=63 time=0.694 ms
64 bytes from 128.223.32.36: icmp_seq=29 ttl=63 time=0.682 ms
64 bytes from 128.223.32.36: icmp_seq=29 ttl=63 time=0.752 ms
64 bytes from 128.223.32.36: icmp_seq=29 ttl=63 time=0.676 ms
64 bytes from 128.223.32.36: icmp_seq=29 ttl=63 time=0.604 ms
64 bytes from 128.223.32.36: icmp_seq=29 ttl=63 time=0.689 ms
64 bytes from 128.223.32.36: icmp_seq=30 ttl=63 time=0.668 ms
64 bytes from 128.223.32.36: icmp_seq=30 ttl=63 time=0.538 ms
64 bytes from 128.223.32.36: icmp_seq=30 ttl=63 time=0.614 ms
64 bytes from 128.223.32.36: icmp_seq=30 ttl=63 time=0.675 ms
64 bytes from 128.223.32.36: icmp_seq=30 ttl=63 time=0.697 ms
64 bytes from 128.223.32.36: icmp_seq=30 ttl=63 time=0.768 ms
64 bytes from 128.223.32.36: icmp_seq=31 ttl=63 time=0.676 ms
64 bytes from 128.223.32.36: icmp_seq=31 ttl=63 time=0.684 ms
64 bytes from 128.223.32.36: icmp_seq=31 ttl=63 time=0.754 ms
64 bytes from 128.223.32.36: icmp_seq=31 ttl=63 time=0.693 ms
64 bytes from 128.223.32.36: icmp_seq=31 ttl=63 time=0.699 ms
64 bytes from 128.223.32.36: icmp_seq=31 ttl=63 time=0.772 ms
64 bytes from 128.223.32.36: icmp_seq=32 ttl=63 time=0.666 ms
64 bytes from 128.223.32.36: icmp_seq=32 ttl=63 time=0.686 ms
64 bytes from 128.223.32.36: icmp_seq=32 ttl=63 time=0.756 ms
64 bytes from 128.223.32.36: icmp_seq=32 ttl=63 time=0.680 ms
64 bytes from 128.223.32.36: icmp_seq=32 ttl=63 time=0.702 ms
64 bytes from 128.223.32.36: icmp_seq=32 ttl=63 time=0.766 ms
64 bytes from 128.223.32.36: icmp_seq=33 ttl=63 time=0.676 ms
64 bytes from 128.223.32.36: icmp_seq=33 ttl=63 time=0.679 ms
64 bytes from 128.223.32.36: icmp_seq=33 ttl=63 time=0.748 ms
64 bytes from 128.223.32.36: icmp_seq=33 ttl=63 time=0.683 ms
64 bytes from 128.223.32.36: icmp_seq=33 ttl=63 time=0.706 ms
64 bytes from 128.223.32.36: icmp_seq=33 ttl=63 time=0.773 ms
64 bytes from 128.223.32.36: icmp_seq=34 ttl=63 time=0.678 ms
64 bytes from 128.223.32.36: icmp_seq=34 ttl=63 time=0.680 ms
64 bytes from 128.223.32.36: icmp_seq=34 ttl=63 time=0.750 ms
64 bytes from 128.223.32.36: icmp_seq=34 ttl=63 time=0.675 ms
64 bytes from 128.223.32.36: icmp_seq=34 ttl=63 time=0.705 ms
64 bytes from 128.223.32.36: icmp_seq=34 ttl=63 time=0.771 ms
64 bytes from 128.223.32.36: icmp_seq=35 ttl=63 time=0.682 ms
64 bytes from 128.223.32.36: icmp_seq=35 ttl=63 time=0.675 ms
64 bytes from 128.223.32.36: icmp_seq=35 ttl=63 time=0.807 ms
64 bytes from 128.223.32.36: icmp_seq=35 ttl=63 time=0.714 ms
64 bytes from 128.223.32.36: icmp_seq=35 ttl=63 time=0.784 ms
64 bytes from 128.223.32.36: icmp_seq=35 ttl=63 time=0.805 ms
64 bytes from 128.223.32.36: icmp_seq=36 ttl=63 time=0.643 ms
64 bytes from 128.223.32.36: icmp_seq=36 ttl=63 time=0.660 ms
64 bytes from 128.223.32.36: icmp_seq=36 ttl=63 time=0.674 ms
64 bytes from 128.223.32.36: icmp_seq=36 ttl=63 time=0.705 ms
64 bytes from 128.223.32.36: icmp_seq=36 ttl=63 time=0.775 ms
64 bytes from 128.223.32.36: icmp_seq=36 ttl=63 time=0.789 ms
64 bytes from 128.223.32.36: icmp_seq=37 ttl=63 time=0.675 ms
64 bytes from 128.223.32.36: icmp_seq=37 ttl=63 time=0.676 ms
64 bytes from 128.223.32.36: icmp_seq=37 ttl=63 time=0.711 ms
64 bytes from 128.223.32.36: icmp_seq=37 ttl=63 time=0.689 ms
64 bytes from 128.223.32.36: icmp_seq=37 ttl=63 time=0.709 ms
64 bytes from 128.223.32.36: icmp_seq=37 ttl=63 time=0.778 ms
64 bytes from 128.223.32.36: icmp_seq=38 ttl=63 time=0.677 ms
64 bytes from 128.223.32.36: icmp_seq=38 ttl=63 time=0.673 ms
64 bytes from 128.223.32.36: icmp_seq=38 ttl=63 time=0.706 ms
64 bytes from 128.223.32.36: icmp_seq=39 ttl=63 time=0.683 ms
64 bytes from 128.223.32.36: icmp_seq=39 ttl=63 time=0.676 ms
64 bytes from 128.223.32.36: icmp_seq=39 ttl=63 time=0.714 ms
64 bytes from 128.223.32.36: icmp_seq=39 ttl=63 time=0.675 ms
64 bytes from 128.223.32.36: icmp_seq=39 ttl=63 time=0.502 ms
64 bytes from 128.223.32.36: icmp_seq=39 ttl=63 time=0.560 ms
64 bytes from 128.223.32.36: icmp_seq=40 ttl=63 time=0.626 ms
64 bytes from 128.223.32.36: icmp_seq=40 ttl=63 time=0.687 ms
64 bytes from 128.223.32.36: icmp_seq=40 ttl=63 time=0.716 ms
64 bytes from 128.223.32.36: icmp_seq=40 ttl=63 time=0.612 ms
64 bytes from 128.223.32.36: icmp_seq=40 ttl=63 time=0.687 ms
64 bytes from 128.223.32.36: icmp_seq=40 ttl=63 time=0.768 ms
64 bytes from 128.223.32.36: icmp_seq=41 ttl=63 time=0.496 ms
64 bytes from 128.223.32.36: icmp_seq=41 ttl=63 time=0.554 ms
64 bytes from 128.223.32.36: icmp_seq=41 ttl=63 time=0.585 ms
64 bytes from 128.223.32.36: icmp_seq=41 ttl=63 time=0.489 ms
64 bytes from 128.223.32.36: icmp_seq=41 ttl=63 time=0.434 ms
64 bytes from 128.223.32.36: icmp_seq=41 ttl=63 time=0.909 ms
64 bytes from 128.223.32.36: icmp_seq=42 ttl=63 time=0.689 ms
64 bytes from 128.223.32.36: icmp_seq=42 ttl=63 time=0.483 ms
64 bytes from 128.223.32.36: icmp_seq=42 ttl=63 time=0.659 ms
64 bytes from 128.223.32.36: icmp_seq=42 ttl=63 time=0.700 ms
64 bytes from 128.223.32.36: icmp_seq=42 ttl=63 time=0.767 ms
64 bytes from 128.223.32.36: icmp_seq=43 ttl=63 time=0.677 ms
64 bytes from 128.223.32.36: icmp_seq=43 ttl=63 time=0.689 ms
64 bytes from 128.223.32.36: icmp_seq=43 ttl=63 time=0.759 ms
64 bytes from 128.223.32.36: icmp_seq=43 ttl=63 time=0.678 ms
64 bytes from 128.223.32.36: icmp_seq=43 ttl=63 time=0.686 ms
64 bytes from 128.223.32.36: icmp_seq=44 ttl=63 time=0.676 ms
64 bytes from 128.223.32.36: icmp_seq=44 ttl=63 time=0.591 ms
64 bytes from 128.223.32.36: icmp_seq=44 ttl=63 time=0.643 ms
64 bytes from 128.223.32.36: icmp_seq=44 ttl=63 time=0.494 ms
64 bytes from 128.223.32.36: icmp_seq=44 ttl=63 time=0.509 ms
64 bytes from 128.223.32.36: icmp_seq=45 ttl=63 time=0.427 ms
64 bytes from 128.223.32.36: icmp_seq=45 ttl=63 time=0.374 ms
64 bytes from 128.223.32.36: icmp_seq=45 ttl=63 time=0.370 ms
64 bytes from 128.223.32.36: icmp_seq=45 ttl=63 time=0.408 ms
64 bytes from 128.223.32.36: icmp_seq=45 ttl=63 time=0.444 ms
64 bytes from 128.223.32.36: icmp_seq=46 ttl=63 time=0.586 ms
64 bytes from 128.223.32.36: icmp_seq=46 ttl=63 time=0.700 ms
64 bytes from 128.223.32.36: icmp_seq=46 ttl=63 time=0.504 ms
64 bytes from 128.223.32.36: icmp_seq=46 ttl=63 time=0.680 ms
64 bytes from 128.223.32.36: icmp_seq=47 ttl=63 time=0.435 ms
64 bytes from 128.223.32.36: icmp_seq=47 ttl=63 time=0.364 ms
64 bytes from 128.223.32.36: icmp_seq=47 ttl=63 time=0.658 ms
64 bytes from 128.223.32.36: icmp_seq=47 ttl=63 time=0.547 ms
64 bytes from 128.223.32.36: icmp_seq=48 ttl=63 time=0.440 ms
64 bytes from 128.223.32.36: icmp_seq=48 ttl=63 time=0.434 ms
64 bytes from 128.223.32.36: icmp_seq=48 ttl=63 time=0.432 ms
64 bytes from 128.223.32.36: icmp_seq=48 ttl=63 time=0.444 ms
64 bytes from 128.223.32.36: icmp_seq=48 ttl=63 time=0.591 ms
64 bytes from 128.223.32.36: icmp_seq=48 ttl=63 time=0.546 ms
64 bytes from 128.223.32.36: icmp_seq=49 ttl=63 time=0.473 ms
64 bytes from 128.223.32.36: icmp_seq=49 ttl=63 time=0.470 ms
64 bytes from 128.223.32.36: icmp_seq=49 ttl=63 time=0.464 ms
64 bytes from 128.223.32.36: icmp_seq=49 ttl=63 time=0.454 ms
64 bytes from 128.223.32.36: icmp_seq=49 ttl=63 time=0.464 ms
64 bytes from 128.223.32.36: icmp_seq=49 ttl=63 time=0.470 ms
64 bytes from 128.223.32.36: icmp_seq=50 ttl=63 time=0.424 ms
64 bytes from 128.223.32.36: icmp_seq=50 ttl=63 time=0.395 ms
64 bytes from 128.223.32.36: icmp_seq=50 ttl=63 time=0.372 ms
64 bytes from 128.223.32.36: icmp_seq=50 ttl=63 time=0.432 ms
64 bytes from 128.223.32.36: icmp_seq=50 ttl=63 time=0.442 ms
64 bytes from 128.223.32.36: icmp_seq=50 ttl=63 time=0.421 ms
64 bytes from 128.223.32.36: icmp_seq=51 ttl=63 time=0.419 ms
64 bytes from 128.223.32.36: icmp_seq=51 ttl=63 time=0.475 ms
64 bytes from 128.223.32.36: icmp_seq=51 ttl=63 time=0.412 ms
64 bytes from 128.223.32.36: icmp_seq=51 ttl=63 time=0.576 ms
64 bytes from 128.223.32.36: icmp_seq=51 ttl=63 time=0.628 ms
64 bytes from 128.223.32.36: icmp_seq=51 ttl=63 time=0.660 ms
64 bytes from 128.223.32.36: icmp_seq=52 ttl=63 time=0.485 ms
64 bytes from 128.223.32.36: icmp_seq=52 ttl=63 time=0.450 ms
64 bytes from 128.223.32.36: icmp_seq=52 ttl=63 time=0.479 ms
64 bytes from 128.223.32.36: icmp_seq=52 ttl=63 time=0.430 ms
64 bytes from 128.223.32.36: icmp_seq=52 ttl=63 time=0.434 ms
64 bytes from 128.223.32.36: icmp_seq=52 ttl=63 time=0.473 ms
64 bytes from 128.223.32.36: icmp_seq=53 ttl=63 time=0.621 ms
64 bytes from 128.223.32.36: icmp_seq=53 ttl=63 time=0.586 ms
64 bytes from 128.223.32.36: icmp_seq=53 ttl=63 time=0.674 ms
64 bytes from 128.223.32.36: icmp_seq=53 ttl=63 time=0.642 ms
64 bytes from 128.223.32.36: icmp_seq=53 ttl=63 time=0.681 ms
64 bytes from 128.223.32.36: icmp_seq=53 ttl=63 time=0.753 ms
64 bytes from 128.223.32.36: icmp_seq=54 ttl=63 time=0.482 ms
64 bytes from 128.223.32.36: icmp_seq=54 ttl=63 time=0.527 ms
64 bytes from 128.223.32.36: icmp_seq=54 ttl=63 time=0.467 ms
64 bytes from 128.223.32.36: icmp_seq=54 ttl=63 time=0.447 ms
64 bytes from 128.223.32.36: icmp_seq=54 ttl=63 time=0.472 ms
64 bytes from 128.223.32.36: icmp_seq=55 ttl=63 time=0.415 ms
64 bytes from 128.223.32.36: icmp_seq=55 ttl=63 time=0.426 ms
64 bytes from 128.223.32.36: icmp_seq=55 ttl=63 time=0.376 ms
64 bytes from 128.223.32.36: icmp_seq=55 ttl=63 time=0.386 ms
64 bytes from 128.223.32.36: icmp_seq=55 ttl=63 time=0.420 ms
64 bytes from 128.223.32.36: icmp_seq=56 ttl=63 time=0.692 ms
64 bytes from 128.223.32.36: icmp_seq=56 ttl=63 time=0.774 ms
64 bytes from 128.223.32.36: icmp_seq=56 ttl=63 time=0.699 ms
64 bytes from 128.223.32.36: icmp_seq=56 ttl=63 time=0.671 ms
64 bytes from 128.223.32.36: icmp_seq=56 ttl=63 time=0.748 ms
64 bytes from 128.223.32.36: icmp_seq=57 ttl=63 time=0.684 ms
64 bytes from 128.223.32.36: icmp_seq=57 ttl=63 time=0.760 ms
64 bytes from 128.223.32.36: icmp_seq=57 ttl=63 time=0.667 ms
64 bytes from 128.223.32.36: icmp_seq=57 ttl=63 time=0.704 ms
64 bytes from 128.223.32.36: icmp_seq=57 ttl=63 time=0.782 ms
64 bytes from 128.223.32.36: icmp_seq=58 ttl=63 time=0.693 ms
64 bytes from 128.223.32.36: icmp_seq=58 ttl=63 time=0.781 ms
64 bytes from 128.223.32.36: icmp_seq=58 ttl=63 time=0.856 ms
64 bytes from 128.223.32.36: icmp_seq=58 ttl=63 time=0.671 ms
64 bytes from 128.223.32.36: icmp_seq=58 ttl=63 time=0.724 ms
64 bytes from 128.223.32.36: icmp_seq=58 ttl=63 time=0.801 ms
64 bytes from 128.223.32.36: icmp_seq=59 ttl=63 time=0.581 ms
64 bytes from 128.223.32.36: icmp_seq=59 ttl=63 time=0.692 ms
64 bytes from 128.223.32.36: icmp_seq=59 ttl=63 time=0.680 ms
64 bytes from 128.223.32.36: icmp_seq=59 ttl=63 time=0.602 ms
64 bytes from 128.223.32.36: icmp_seq=59 ttl=63 time=0.319 ms
64 bytes from 128.223.32.36: icmp_seq=59 ttl=63 time=0.474 ms
64 bytes from 128.223.32.36: icmp_seq=60 ttl=63 time=0.625 ms
64 bytes from 128.223.32.36: icmp_seq=60 ttl=63 time=0.678 ms
64 bytes from 128.223.32.36: icmp_seq=60 ttl=63 time=0.642 ms
64 bytes from 128.223.32.36: icmp_seq=60 ttl=63 time=0.614 ms
64 bytes from 128.223.32.36: icmp_seq=60 ttl=63 time=0.677 ms
64 bytes from 128.223.32.36: icmp_seq=60 ttl=63 time=0.694 ms
64 bytes from 128.223.32.36: icmp_seq=61 ttl=63 time=0.702 ms
64 bytes from 128.223.32.36: icmp_seq=61 ttl=63 time=0.777 ms
64 bytes from 128.223.32.36: icmp_seq=61 ttl=63 time=0.683 ms
64 bytes from 128.223.32.36: icmp_seq=61 ttl=63 time=0.647 ms
64 bytes from 128.223.32.36: icmp_seq=61 ttl=63 time=0.708 ms
64 bytes from 128.223.32.36: icmp_seq=61 ttl=63 time=0.792 ms
64 bytes from 128.223.32.36: icmp_seq=62 ttl=63 time=0.647 ms
64 bytes from 128.223.32.36: icmp_seq=62 ttl=63 time=0.664 ms
64 bytes from 128.223.32.36: icmp_seq=62 ttl=63 time=0.672 ms
64 bytes from 128.223.32.36: icmp_seq=62 ttl=63 time=0.672 ms
64 bytes from 128.223.32.36: icmp_seq=62 ttl=63 time=0.721 ms
64 bytes from 128.223.32.36: icmp_seq=62 ttl=63 time=0.807 ms
64 bytes from 128.223.32.36: icmp_seq=63 ttl=63 time=0.673 ms
64 bytes from 128.223.32.36: icmp_seq=63 ttl=63 time=0.612 ms
64 bytes from 128.223.32.36: icmp_seq=63 ttl=63 time=0.629 ms
64 bytes from 128.223.32.36: icmp_seq=63 ttl=63 time=0.637 ms
64 bytes from 128.223.32.36: icmp_seq=63 ttl=63 time=0.676 ms
64 bytes from 128.223.32.36: icmp_seq=63 ttl=63 time=0.723 ms
64 bytes from 128.223.32.36: icmp_seq=64 ttl=63 time=0.517 ms
64 bytes from 128.223.32.36: icmp_seq=64 ttl=63 time=0.562 ms
64 bytes from 128.223.32.36: icmp_seq=64 ttl=63 time=0.480 ms
64 bytes from 128.223.32.36: icmp_seq=64 ttl=63 time=0.472 ms
64 bytes from 128.223.32.36: icmp_seq=64 ttl=63 time=0.743 ms
64 bytes from 128.223.32.36: icmp_seq=64 ttl=63 time=0.681 ms
64 bytes from 128.223.32.36: icmp_seq=65 ttl=63 time=0.610 ms
64 bytes from 128.223.32.36: icmp_seq=65 ttl=63 time=0.678 ms
64 bytes from 128.223.32.36: icmp_seq=65 ttl=63 time=0.641 ms
64 bytes from 128.223.32.36: icmp_seq=65 ttl=63 time=0.686 ms
64 bytes from 128.223.32.36: icmp_seq=65 ttl=63 time=0.628 ms
64 bytes from 128.223.32.36: icmp_seq=66 ttl=63 time=0.509 ms
64 bytes from 128.223.32.36: icmp_seq=66 ttl=63 time=0.545 ms
64 bytes from 128.223.32.36: icmp_seq=66 ttl=63 time=0.442 ms
64 bytes from 128.223.32.36: icmp_seq=66 ttl=63 time=0.588 ms
64 bytes from 128.223.32.36: icmp_seq=66 ttl=63 time=0.745 ms
64 bytes from 128.223.32.36: icmp_seq=67 ttl=63 time=0.512 ms
64 bytes from 128.223.32.36: icmp_seq=67 ttl=63 time=0.559 ms
64 bytes from 128.223.32.36: icmp_seq=67 ttl=63 time=0.624 ms
64 bytes from 128.223.32.36: icmp_seq=67 ttl=63 time=0.631 ms
64 bytes from 128.223.32.36: icmp_seq=67 ttl=63 time=0.640 ms
64 bytes from 128.223.32.36: icmp_seq=67 ttl=63 time=0.702 ms
64 bytes from 128.223.32.36: icmp_seq=68 ttl=63 time=0.631 ms
64 bytes from 128.223.32.36: icmp_seq=68 ttl=63 time=0.701 ms
64 bytes from 128.223.32.36: icmp_seq=68 ttl=63 time=0.683 ms
64 bytes from 128.223.32.36: icmp_seq=68 ttl=63 time=0.602 ms
64 bytes from 128.223.32.36: icmp_seq=68 ttl=63 time=0.514 ms
64 bytes from 128.223.32.36: icmp_seq=68 ttl=63 time=0.564 ms
64 bytes from 128.223.32.36: icmp_seq=69 ttl=63 time=0.512 ms
64 bytes from 128.223.32.36: icmp_seq=69 ttl=63 time=0.566 ms
64 bytes from 128.223.32.36: icmp_seq=69 ttl=63 time=0.478 ms
64 bytes from 128.223.32.36: icmp_seq=69 ttl=63 time=0.484 ms
64 bytes from 128.223.32.36: icmp_seq=69 ttl=63 time=0.556 ms
64 bytes from 128.223.32.36: icmp_seq=69 ttl=63 time=0.567 ms
64 bytes from 128.223.32.36: icmp_seq=70 ttl=63 time=0.513 ms
64 bytes from 128.223.32.36: icmp_seq=70 ttl=63 time=0.559 ms
64 bytes from 128.223.32.36: icmp_seq=70 ttl=63 time=0.481 ms
64 bytes from 128.223.32.36: icmp_seq=70 ttl=63 time=0.479 ms
64 bytes from 128.223.32.36: icmp_seq=70 ttl=63 time=0.581 ms
64 bytes from 128.223.32.36: icmp_seq=70 ttl=63 time=0.651 ms
64 bytes from 128.223.32.36: icmp_seq=71 ttl=63 time=0.609 ms
64 bytes from 128.223.32.36: icmp_seq=71 ttl=63 time=0.678 ms
64 bytes from 128.223.32.36: icmp_seq=71 ttl=63 time=0.619 ms
64 bytes from 128.223.32.36: icmp_seq=71 ttl=63 time=0.692 ms
64 bytes from 128.223.32.36: icmp_seq=71 ttl=63 time=0.719 ms
64 bytes from 128.223.32.36: icmp_seq=71 ttl=63 time=0.636 ms
64 bytes from 128.223.32.36: icmp_seq=72 ttl=63 time=0.514 ms
64 bytes from 128.223.32.36: icmp_seq=72 ttl=63 time=0.568 ms
64 bytes from 128.223.32.36: icmp_seq=72 ttl=63 time=0.483 ms
64 bytes from 128.223.32.36: icmp_seq=72 ttl=63 time=0.486 ms
64 bytes from 128.223.32.36: icmp_seq=72 ttl=63 time=0.556 ms
64 bytes from 128.223.32.36: icmp_seq=73 ttl=63 time=0.510 ms
64 bytes from 128.223.32.36: icmp_seq=73 ttl=63 time=0.558 ms
64 bytes from 128.223.32.36: icmp_seq=73 ttl=63 time=0.481 ms
64 bytes from 128.223.32.36: icmp_seq=73 ttl=63 time=0.476 ms
64 bytes from 128.223.32.36: icmp_seq=73 ttl=63 time=0.627 ms
64 bytes from 128.223.32.36: icmp_seq=73 ttl=63 time=0.699 ms
64 bytes from 128.223.32.36: icmp_seq=74 ttl=63 time=0.701 ms
64 bytes from 128.223.32.36: icmp_seq=74 ttl=63 time=0.779 ms
64 bytes from 128.223.32.36: icmp_seq=74 ttl=63 time=0.640 ms
64 bytes from 128.223.32.36: icmp_seq=74 ttl=63 time=0.696 ms
64 bytes from 128.223.32.36: icmp_seq=74 ttl=63 time=0.533 ms
64 bytes from 128.223.32.36: icmp_seq=74 ttl=63 time=0.587 ms
64 bytes from 128.223.32.36: icmp_seq=75 ttl=63 time=0.449 ms
64 bytes from 128.223.32.36: icmp_seq=75 ttl=63 time=0.450 ms
64 bytes from 128.223.32.36: icmp_seq=75 ttl=63 time=0.482 ms
64 bytes from 128.223.32.36: icmp_seq=75 ttl=63 time=0.482 ms
64 bytes from 128.223.32.36: icmp_seq=75 ttl=63 time=0.641 ms
64 bytes from 128.223.32.36: icmp_seq=76 ttl=63 time=0.544 ms
64 bytes from 128.223.32.36: icmp_seq=76 ttl=63 time=0.573 ms
64 bytes from 128.223.32.36: icmp_seq=76 ttl=63 time=0.482 ms
64 bytes from 128.223.32.36: icmp_seq=76 ttl=63 time=0.481 ms
64 bytes from 128.223.32.36: icmp_seq=76 ttl=63 time=0.550 ms
64 bytes from 128.223.32.36: icmp_seq=76 ttl=63 time=0.588 ms
64 bytes from 128.223.32.36: icmp_seq=77 ttl=63 time=0.716 ms
64 bytes from 128.223.32.36: icmp_seq=77 ttl=63 time=0.803 ms
64 bytes from 128.223.32.36: icmp_seq=77 ttl=63 time=0.638 ms
64 bytes from 128.223.32.36: icmp_seq=77 ttl=63 time=0.512 ms
64 bytes from 128.223.32.36: icmp_seq=77 ttl=63 time=0.512 ms
64 bytes from 128.223.32.36: icmp_seq=77 ttl=63 time=0.553 ms
64 bytes from 128.223.32.36: icmp_seq=78 ttl=63 time=0.659 ms
64 bytes from 128.223.32.36: icmp_seq=78 ttl=63 time=0.734 ms
64 bytes from 128.223.32.36: icmp_seq=78 ttl=63 time=0.540 ms
64 bytes from 128.223.32.36: icmp_seq=78 ttl=63 time=0.488 ms
64 bytes from 128.223.32.36: icmp_seq=78 ttl=63 time=0.530 ms
64 bytes from 128.223.32.36: icmp_seq=78 ttl=63 time=0.564 ms
64 bytes from 128.223.32.36: icmp_seq=79 ttl=63 time=0.539 ms
64 bytes from 128.223.32.36: icmp_seq=79 ttl=63 time=0.598 ms
64 bytes from 128.223.32.36: icmp_seq=79 ttl=63 time=0.484 ms
64 bytes from 128.223.32.36: icmp_seq=79 ttl=63 time=0.478 ms
64 bytes from 128.223.32.36: icmp_seq=79 ttl=63 time=0.680 ms
64 bytes from 128.223.32.36: icmp_seq=79 ttl=63 time=0.743 ms
64 bytes from 128.223.32.36: icmp_seq=80 ttl=63 time=0.706 ms
64 bytes from 128.223.32.36: icmp_seq=80 ttl=63 time=0.781 ms
64 bytes from 128.223.32.36: icmp_seq=80 ttl=63 time=0.692 ms
64 bytes from 128.223.32.36: icmp_seq=80 ttl=63 time=0.692 ms
64 bytes from 128.223.32.36: icmp_seq=80 ttl=63 time=0.728 ms
64 bytes from 128.223.32.36: icmp_seq=80 ttl=63 time=0.793 ms
64 bytes from 128.223.32.36: icmp_seq=81 ttl=63 time=0.672 ms
64 bytes from 128.223.32.36: icmp_seq=81 ttl=63 time=0.744 ms
64 bytes from 128.223.32.36: icmp_seq=81 ttl=63 time=0.661 ms
64 bytes from 128.223.32.36: icmp_seq=81 ttl=63 time=0.672 ms
64 bytes from 128.223.32.36: icmp_seq=81 ttl=63 time=0.747 ms
64 bytes from 128.223.32.36: icmp_seq=81 ttl=63 time=0.828 ms
64 bytes from 128.223.32.36: icmp_seq=82 ttl=63 time=0.629 ms
64 bytes from 128.223.32.36: icmp_seq=82 ttl=63 time=0.707 ms
64 bytes from 128.223.32.36: icmp_seq=82 ttl=63 time=0.664 ms
64 bytes from 128.223.32.36: icmp_seq=82 ttl=63 time=0.629 ms
64 bytes from 128.223.32.36: icmp_seq=82 ttl=63 time=0.623 ms
64 bytes from 128.223.32.36: icmp_seq=83 ttl=63 time=0.497 ms
64 bytes from 128.223.32.36: icmp_seq=83 ttl=63 time=0.674 ms
64 bytes from 128.223.32.36: icmp_seq=84 ttl=63 time=0.693 ms
64 bytes from 128.223.32.36: icmp_seq=84 ttl=63 time=0.733 ms
64 bytes from 128.223.32.36: icmp_seq=84 ttl=63 time=0.701 ms
64 bytes from 128.223.32.36: icmp_seq=84 ttl=63 time=0.688 ms
64 bytes from 128.223.32.36: icmp_seq=84 ttl=63 time=0.508 ms
64 bytes from 128.223.32.36: icmp_seq=84 ttl=63 time=0.549 ms
64 bytes from 128.223.32.36: icmp_seq=85 ttl=63 time=0.694 ms
64 bytes from 128.223.32.36: icmp_seq=85 ttl=63 time=0.762 ms
64 bytes from 128.223.32.36: icmp_seq=85 ttl=63 time=0.676 ms
64 bytes from 128.223.32.36: icmp_seq=85 ttl=63 time=0.675 ms
64 bytes from 128.223.32.36: icmp_seq=85 ttl=63 time=0.655 ms
64 bytes from 128.223.32.36: icmp_seq=85 ttl=63 time=0.720 ms
64 bytes from 128.223.32.36: icmp_seq=86 ttl=63 time=0.666 ms
64 bytes from 128.223.32.36: icmp_seq=86 ttl=63 time=0.686 ms
64 bytes from 128.223.32.36: icmp_seq=86 ttl=63 time=0.676 ms
64 bytes from 128.223.32.36: icmp_seq=86 ttl=63 time=0.679 ms
64 bytes from 128.223.32.36: icmp_seq=86 ttl=63 time=0.694 ms
64 bytes from 128.223.32.36: icmp_seq=86 ttl=63 time=0.758 ms
64 bytes from 128.223.32.36: icmp_seq=87 ttl=63 time=0.662 ms
64 bytes from 128.223.32.36: icmp_seq=87 ttl=63 time=0.717 ms
64 bytes from 128.223.32.36: icmp_seq=87 ttl=63 time=0.654 ms
64 bytes from 128.223.32.36: icmp_seq=87 ttl=63 time=0.683 ms
64 bytes from 128.223.32.36: icmp_seq=87 ttl=63 time=0.698 ms
64 bytes from 128.223.32.36: icmp_seq=87 ttl=63 time=0.762 ms
64 bytes from 128.223.32.36: icmp_seq=88 ttl=63 time=0.693 ms
64 bytes from 128.223.32.36: icmp_seq=88 ttl=63 time=0.743 ms
64 bytes from 128.223.32.36: icmp_seq=88 ttl=63 time=0.682 ms
64 bytes from 128.223.32.36: icmp_seq=88 ttl=63 time=0.680 ms
64 bytes from 128.223.32.36: icmp_seq=88 ttl=63 time=0.689 ms
64 bytes from 128.223.32.36: icmp_seq=88 ttl=63 time=0.774 ms
64 bytes from 128.223.32.36: icmp_seq=89 ttl=63 time=0.688 ms
64 bytes from 128.223.32.36: icmp_seq=89 ttl=63 time=0.756 ms
64 bytes from 128.223.32.36: icmp_seq=89 ttl=63 time=0.708 ms
64 bytes from 128.223.32.36: icmp_seq=89 ttl=63 time=0.518 ms
64 bytes from 128.223.32.36: icmp_seq=89 ttl=63 time=0.457 ms
64 bytes from 128.223.32.36: icmp_seq=90 ttl=63 time=0.691 ms
64 bytes from 128.223.32.36: icmp_seq=90 ttl=63 time=0.759 ms
64 bytes from 128.223.32.36: icmp_seq=90 ttl=63 time=0.677 ms
64 bytes from 128.223.32.36: icmp_seq=90 ttl=63 time=0.684 ms
64 bytes from 128.223.32.36: icmp_seq=90 ttl=63 time=0.513 ms
64 bytes from 128.223.32.36: icmp_seq=90 ttl=63 time=0.532 ms
64 bytes from 128.223.32.36: icmp_seq=91 ttl=63 time=0.703 ms
64 bytes from 128.223.32.36: icmp_seq=91 ttl=63 time=0.771 ms
64 bytes from 128.223.32.36: icmp_seq=91 ttl=63 time=0.499 ms
64 bytes from 128.223.32.36: icmp_seq=91 ttl=63 time=0.484 ms
64 bytes from 128.223.32.36: icmp_seq=91 ttl=63 time=0.454 ms
64 bytes from 128.223.32.36: icmp_seq=91 ttl=63 time=0.458 ms
64 bytes from 128.223.32.36: icmp_seq=92 ttl=63 time=0.683 ms
64 bytes from 128.223.32.36: icmp_seq=92 ttl=63 time=0.749 ms
64 bytes from 128.223.32.36: icmp_seq=92 ttl=63 time=0.656 ms
64 bytes from 128.223.32.36: icmp_seq=92 ttl=63 time=0.656 ms
64 bytes from 128.223.32.36: icmp_seq=92 ttl=63 time=0.666 ms
64 bytes from 128.223.32.36: icmp_seq=92 ttl=63 time=0.718 ms
64 bytes from 128.223.32.36: icmp_seq=93 ttl=63 time=0.677 ms
64 bytes from 128.223.32.36: icmp_seq=93 ttl=63 time=0.755 ms
64 bytes from 128.223.32.36: icmp_seq=93 ttl=63 time=0.683 ms
64 bytes from 128.223.32.36: icmp_seq=93 ttl=63 time=0.686 ms
64 bytes from 128.223.32.36: icmp_seq=93 ttl=63 time=0.738 ms
64 bytes from 128.223.32.36: icmp_seq=93 ttl=63 time=0.817 ms
64 bytes from 128.223.32.36: icmp_seq=94 ttl=63 time=0.682 ms
64 bytes from 128.223.32.36: icmp_seq=94 ttl=63 time=0.750 ms
64 bytes from 128.223.32.36: icmp_seq=94 ttl=63 time=0.677 ms
64 bytes from 128.223.32.36: icmp_seq=94 ttl=63 time=0.673 ms
64 bytes from 128.223.32.36: icmp_seq=94 ttl=63 time=0.710 ms
64 bytes from 128.223.32.36: icmp_seq=94 ttl=63 time=0.781 ms
64 bytes from 128.223.32.36: icmp_seq=95 ttl=63 time=0.608 ms
64 bytes from 128.223.32.36: icmp_seq=95 ttl=63 time=0.682 ms
64 bytes from 128.223.32.36: icmp_seq=95 ttl=63 time=0.670 ms
64 bytes from 128.223.32.36: icmp_seq=95 ttl=63 time=0.671 ms
64 bytes from 128.223.32.36: icmp_seq=95 ttl=63 time=0.678 ms
64 bytes from 128.223.32.36: icmp_seq=95 ttl=63 time=0.756 ms
64 bytes from 128.223.32.36: icmp_seq=96 ttl=63 time=0.711 ms
64 bytes from 128.223.32.36: icmp_seq=96 ttl=63 time=0.769 ms
64 bytes from 128.223.32.36: icmp_seq=96 ttl=63 time=0.692 ms
64 bytes from 128.223.32.36: icmp_seq=96 ttl=63 time=0.687 ms
64 bytes from 128.223.32.36: icmp_seq=96 ttl=63 time=0.526 ms
64 bytes from 128.223.32.36: icmp_seq=96 ttl=63 time=0.585 ms
64 bytes from 128.223.32.36: icmp_seq=97 ttl=63 time=0.647 ms
64 bytes from 128.223.32.36: icmp_seq=97 ttl=63 time=0.725 ms
64 bytes from 128.223.32.36: icmp_seq=97 ttl=63 time=0.661 ms
64 bytes from 128.223.32.36: icmp_seq=97 ttl=63 time=0.656 ms
64 bytes from 128.223.32.36: icmp_seq=97 ttl=63 time=0.723 ms
64 bytes from 128.223.32.36: icmp_seq=97 ttl=63 time=0.800 ms
64 bytes from 128.223.32.36: icmp_seq=98 ttl=63 time=0.680 ms
64 bytes from 128.223.32.36: icmp_seq=98 ttl=63 time=0.751 ms
64 bytes from 128.223.32.36: icmp_seq=98 ttl=63 time=0.672 ms
64 bytes from 128.223.32.36: icmp_seq=98 ttl=63 time=0.677 ms
64 bytes from 128.223.32.36: icmp_seq=98 ttl=63 time=0.704 ms
64 bytes from 128.223.32.36: icmp_seq=98 ttl=63 time=0.768 ms
64 bytes from 128.223.32.36: icmp_seq=99 ttl=63 time=0.684 ms
64 bytes from 128.223.32.36: icmp_seq=99 ttl=63 time=0.753 ms
64 bytes from 128.223.32.36: icmp_seq=99 ttl=63 time=0.721 ms
64 bytes from 128.223.32.36: icmp_seq=99 ttl=63 time=0.675 ms
64 bytes from 128.223.32.36: icmp_seq=99 ttl=63 time=0.612 ms
64 bytes from 128.223.32.36: icmp_seq=99 ttl=63 time=0.675 ms
64 bytes from 128.223.32.36: icmp_seq=100 ttl=63 time=0.689 ms
64 bytes from 128.223.32.36: icmp_seq=100 ttl=63 time=0.759 ms
64 bytes from 128.223.32.36: icmp_seq=100 ttl=63 time=0.675 ms
64 bytes from 128.223.32.36: icmp_seq=100 ttl=63 time=0.673 ms
64 bytes from 128.223.32.36: icmp_seq=100 ttl=63 time=0.665 ms
64 bytes from 128.223.32.36: icmp_seq=100 ttl=63 time=0.728 ms


--- 128.223.32.36 ping statistics ---
100 packets transmitted, 94 received, 6% packet loss, time 101284ms
rtt min/avg/max/mdev = 0.417/0.649/0.820/0.108 ms
--- 128.223.32.36 ping statistics ---
100 packets transmitted, 94 received, 6% packet loss, time 101283ms
rtt min/avg/max/mdev = 0.364/0.642/0.856/0.106 ms

--- 128.223.32.36 ping statistics ---
100 packets transmitted, 93 received, 7% packet loss, time 101315ms
rtt min/avg/max/mdev = 0.370/0.631/0.807/0.106 ms

--- 128.223.32.36 ping statistics ---
100 packets transmitted, 99 received, 1% packet loss, time 101348ms
rtt min/avg/max/mdev = 0.376/0.611/0.735/0.098 ms






--- 128.223.32.36 ping statistics ---
100 packets transmitted, 34 received, 66% packet loss, time 101380ms
rtt min/avg/max/mdev = 0.390/0.649/0.828/0.110 ms
--- 128.223.32.36 ping statistics ---
100 packets transmitted, 27 received, 73% packet loss, time 101380ms
rtt min/avg/max/mdev = 0.420/0.664/0.909/0.134 ms
--- 128.223.32.36 ping statistics ---
100 packets transmitted, 27 received, 73% packet loss, time 101380ms
rtt min/avg/max/mdev = 0.371/0.612/0.817/0.128 ms
--- 128.223.32.36 ping statistics ---
100 packets transmitted, 30 received, 70% packet loss, time 101380ms
rtt min/avg/max/mdev = 0.428/0.667/0.807/0.105 ms
--- 128.223.32.36 ping statistics ---
100 packets transmitted, 27 received, 73% packet loss, time 101380ms
rtt min/avg/max/mdev = 0.319/0.623/0.792/0.131 ms
--- 128.223.32.36 ping statistics ---
100 packets transmitted, 31 received, 69% packet loss, time 101380ms
rtt min/avg/max/mdev = 0.352/0.631/0.807/0.109 ms
