ping_25 | round-trip min/avg/max = 21.349/21.741/22.804 ms
ping_26 | round-trip min/avg/max = 21.358/21.905/24.764 ms
ping_38 | round-trip min/avg/max = 21.377/21.818/22.472 ms
ping_5  | round-trip min/avg/max = 21.434/21.628/21.912 ms
ping_24 | round-trip min/avg/max = 21.381/21.670/21.935 ms
ping_35 | round-trip min/avg/max = 21.401/21.649/21.864 ms
ping_19 | round-trip min/avg/max = 21.399/21.534/21.948 ms
ping_1  | round-trip min/avg/max = 21.401/21.603/22.048 ms
ping_39 | round-trip min/avg/max = 21.433/21.641/21.839 ms
ping_11 | round-trip min/avg/max = 21.412/21.559/21.867 ms
ping_23 | round-trip min/avg/max = 21.375/21.697/22.655 ms
ping_10 | round-trip min/avg/max = 21.374/21.665/22.223 ms
ping_34 | round-trip min/avg/max = 21.371/21.672/22.099 ms
ping_17 | round-trip min/avg/max = 21.382/21.494/21.629 ms
ping_20 | round-trip min/avg/max = 21.407/21.578/21.979 ms
ping_29 | round-trip min/avg/max = 21.363/21.601/22.140 ms
ping_9  | round-trip min/avg/max = 21.450/21.596/21.689 ms
ping_4  | round-trip min/avg/max = 21.381/21.764/22.965 ms
ping_7  | round-trip min/avg/max = 21.418/21.618/21.961 ms
ping_31 | round-trip min/avg/max = 21.415/21.634/21.951 ms
ping_14 | round-trip min/avg/max = 21.400/21.601/21.718 ms
ping_22 | round-trip min/avg/max = 21.512/21.584/21.651 ms
ping_40 | round-trip min/avg/max = 21.434/21.846/23.063 ms
ping_16 | round-trip min/avg/max = 21.414/21.564/21.785 ms
ping_28 | round-trip min/avg/max = 21.414/21.514/21.765 ms
ping_3  | round-trip min/avg/max = 21.400/21.468/21.591 ms
ping_36 | round-trip min/avg/max = 21.481/22.592/27.966 ms
ping_2  | round-trip min/avg/max = 21.370/21.541/21.967 ms
ping_13 | round-trip min/avg/max = 21.365/21.436/21.561 ms
ping_30 | round-trip min/avg/max = 21.424/21.582/21.897 ms
ping_37 | round-trip min/avg/max = 21.361/21.516/21.718 ms
ping_18 | round-trip min/avg/max = 21.411/21.599/22.094 ms
ping_21 | round-trip min/avg/max = 21.392/21.527/21.771 ms
ping_27 | round-trip min/avg/max = 21.383/21.590/22.062 ms
ping_12 | round-trip min/avg/max = 21.313/21.470/21.637 ms
ping_15 | round-trip min/avg/max = 21.386/21.539/21.869 ms
ping_90 | round-trip min/avg/max = 21.439/21.739/22.270 ms
ping_6  | round-trip min/avg/max = 21.387/21.570/22.386 ms
ping_8  | round-trip min/avg/max = 21.349/21.719/23.013 ms
ping_49 | round-trip min/avg/max = 21.385/21.586/21.944 ms
ping_33 | round-trip min/avg/max = 21.372/22.263/26.494 ms
ping_45 | round-trip min/avg/max = 21.477/21.769/22.459 ms
ping_32 | round-trip min/avg/max = 21.378/21.805/23.450 ms
ping_65 | round-trip min/avg/max = 21.429/21.579/21.912 ms
ping_69 | round-trip min/avg/max = 21.379/21.585/21.857 ms
ping_52 | round-trip min/avg/max = 21.479/21.938/24.782 ms
ping_94 | round-trip min/avg/max = 21.423/21.599/21.931 ms
ping_68 | round-trip min/avg/max = 21.491/21.945/25.085 ms
ping_86 | round-trip min/avg/max = 21.396/21.589/22.090 ms
ping_44 | round-trip min/avg/max = 21.395/21.678/22.007 ms
ping_96 | round-trip min/avg/max = 21.382/21.692/21.989 ms
ping_50 | round-trip min/avg/max = 21.497/21.729/21.996 ms
ping_80 | round-trip min/avg/max = 21.381/21.708/21.993 ms
ping_55 | round-trip min/avg/max = 21.411/21.643/21.992 ms
ping_79 | round-trip min/avg/max = 21.369/21.908/24.368 ms
ping_67 | round-trip min/avg/max = 21.365/21.874/24.700 ms
ping_56 | round-trip min/avg/max = 21.397/21.570/21.901 ms
ping_43 | round-trip min/avg/max = 21.442/21.984/24.756 ms
ping_48 | round-trip min/avg/max = 21.452/21.610/21.899 ms
ping_57 | round-trip min/avg/max = 21.386/21.629/22.010 ms
ping_99 | round-trip min/avg/max = 21.501/21.714/22.081 ms
ping_98 | round-trip min/avg/max = 21.389/21.643/22.025 ms
ping_47 | round-trip min/avg/max = 21.375/21.578/21.895 ms
ping_83 | round-trip min/avg/max = 21.405/21.626/22.019 ms
ping_51 | round-trip min/avg/max = 21.556/21.688/21.998 ms
ping_87 | round-trip min/avg/max = 21.437/21.653/21.939 ms
ping_95 | round-trip min/avg/max = 21.386/21.646/21.980 ms
ping_82 | round-trip min/avg/max = 21.349/21.615/21.960 ms
ping_85 | round-trip min/avg/max = 21.404/21.555/21.959 ms
ping_42 | round-trip min/avg/max = 21.376/21.619/21.945 ms
ping_62 | round-trip min/avg/max = 21.400/21.753/23.202 ms
ping_53 | round-trip min/avg/max = 21.363/21.557/21.829 ms
ping_100 | round-trip min/avg/max = 21.393/22.044/24.153 ms
ping_89 | round-trip min/avg/max = 21.504/21.692/22.143 ms
ping_64 | round-trip min/avg/max = 21.464/21.675/21.979 ms
ping_71 | round-trip min/avg/max = 21.346/21.550/21.695 ms
ping_58 | round-trip min/avg/max = 21.385/21.670/21.989 ms
ping_97 | round-trip min/avg/max = 21.512/21.680/21.968 ms
ping_92 | round-trip min/avg/max = 21.420/21.652/22.081 ms
ping_63 | round-trip min/avg/max = 21.413/21.563/21.832 ms
ping_76 | round-trip min/avg/max = 21.391/21.531/21.664 ms
ping_72 | round-trip min/avg/max = 21.371/21.509/21.675 ms
ping_70 | round-trip min/avg/max = 21.467/21.803/22.457 ms
ping_60 | round-trip min/avg/max = 21.432/21.606/21.798 ms
ping_88 | round-trip min/avg/max = 21.394/21.651/21.985 ms
ping_59 | round-trip min/avg/max = 21.373/21.489/21.691 ms
ping_93 | round-trip min/avg/max = 21.371/21.663/22.117 ms
ping_81 | round-trip min/avg/max = 21.381/21.636/21.875 ms
ping_75 | round-trip min/avg/max = 21.370/21.759/22.243 ms
ping_54 | round-trip min/avg/max = 21.401/21.593/21.942 ms
ping_84 | round-trip min/avg/max = 21.430/21.705/22.007 ms
ping_78 | round-trip min/avg/max = 21.375/21.625/22.007 ms
ping_74 | round-trip min/avg/max = 21.385/21.619/21.955 ms
ping_77 | round-trip min/avg/max = 21.447/21.783/22.076 ms
ping_41 | round-trip min/avg/max = 21.617/22.006/22.539 ms
ping_46 | round-trip min/avg/max = 21.429/21.730/22.011 ms
ping_91 | round-trip min/avg/max = 21.386/21.659/21.857 ms
ping_61 | round-trip min/avg/max = 21.384/21.599/21.924 ms
ping_73 | round-trip min/avg/max = 21.488/21.820/22.092 ms
ping_66 | round-trip min/avg/max = 21.407/21.709/22.205 ms
