top - 00:01:11 up  3:17,  1 user,  load average: 0.14, 0.88, 1.56
Tasks: 297 total,   1 running, 235 sleeping,   0 stopped,   0 zombie
%Cpu(s):  3.4 us,  1.7 sy,  0.0 ni, 94.7 id,  0.1 wa,  0.0 hi,  0.0 si,  0.0 st
KiB Mem : 16278768 total, 11555192 free,  1429012 used,  3294564 buff/cache
KiB Swap: 16630780 total, 16630780 free,        0 used. 14399396 avail Mem 

  PID USER      PR  NI    VIRT    RES    SHR S  %CPU %MEM     TIME+ COMMAND
11762 kenenth   20   0   41908   3832   3172 R  12.5  0.0   0:00.02 top
 1780 root      20   0  433932  94764  61672 S   6.2  0.6   2:19.65 Xorg
 1985 kenenth   20   0 3550084 250868  96108 S   6.2  1.5   6:15.10 gnome-shell

top - 00:01:12 up  3:17,  1 user,  load average: 0.14, 0.88, 1.56
Tasks: 297 total,   1 running, 235 sleeping,   0 stopped,   0 zombie
%Cpu(s):  0.1 us,  0.1 sy,  0.0 ni, 99.8 id,  0.0 wa,  0.0 hi,  0.0 si,  0.0 st
KiB Mem : 16278768 total, 11555192 free,  1429012 used,  3294564 buff/cache
KiB Swap: 16630780 total, 16630780 free,        0 used. 14399396 avail Mem 

  PID USER      PR  NI    VIRT    RES    SHR S  %CPU %MEM     TIME+ COMMAND
  255 root      20   0       0      0      0 S   1.0  0.0   0:03.68 jbd2/nvme0+
 1985 kenenth   20   0 3550084 250868  96108 S   1.0  1.5   6:15.11 gnome-shell
11762 kenenth   20   0   41908   3832   3172 R   1.0  0.0   0:00.03 top
16843 kenenth   20   0  792204  37248  28120 S   1.0  0.2   0:00.93 gnome-term+

top - 00:01:13 up  3:17,  1 user,  load average: 0.13, 0.87, 1.55
Tasks: 297 total,   1 running, 235 sleeping,   0 stopped,   0 zombie
%Cpu(s):  0.1 us,  0.2 sy,  0.0 ni, 99.6 id,  0.0 wa,  0.0 hi,  0.0 si,  0.0 st
KiB Mem : 16278768 total, 11555192 free,  1429012 used,  3294564 buff/cache
KiB Swap: 16630780 total, 16630780 free,        0 used. 14399396 avail Mem 

  PID USER      PR  NI    VIRT    RES    SHR S  %CPU %MEM     TIME+ COMMAND
 1780 root      20   0  433932  94764  61672 S   1.0  0.6   2:19.66 Xorg
 1781 root     -51   0       0      0      0 S   1.0  0.0   0:16.72 irq/135-nv+
11762 kenenth   20   0   41908   3832   3172 R   1.0  0.0   0:00.04 top

top - 00:01:14 up  3:17,  1 user,  load average: 0.13, 0.87, 1.55
Tasks: 297 total,   1 running, 235 sleeping,   0 stopped,   0 zombie
%Cpu(s):  0.1 us,  0.2 sy,  0.0 ni, 99.6 id,  0.0 wa,  0.0 hi,  0.0 si,  0.0 st
KiB Mem : 16278768 total, 11555144 free,  1429116 used,  3294508 buff/cache
KiB Swap: 16630780 total, 16630780 free,        0 used. 14399320 avail Mem 

  PID USER      PR  NI    VIRT    RES    SHR S  %CPU %MEM     TIME+ COMMAND
11762 kenenth   20   0   41908   3832   3172 R   2.0  0.0   0:00.06 top
 1780 root      20   0  433932  94764  61672 S   1.0  0.6   2:19.67 Xorg
 1985 kenenth   20   0 3550084 250868  96108 S   1.0  1.5   6:15.12 gnome-shell

top - 00:01:15 up  3:17,  1 user,  load average: 0.13, 0.87, 1.55
Tasks: 297 total,   1 running, 235 sleeping,   0 stopped,   0 zombie
%Cpu(s):  0.2 us,  0.2 sy,  0.0 ni, 99.5 id,  0.0 wa,  0.0 hi,  0.0 si,  0.0 st
KiB Mem : 16278768 total, 11555144 free,  1429116 used,  3294508 buff/cache
KiB Swap: 16630780 total, 16630780 free,        0 used. 14399320 avail Mem 

  PID USER      PR  NI    VIRT    RES    SHR S  %CPU %MEM     TIME+ COMMAND
 1985 kenenth   20   0 3550084 250868  96108 S   1.0  1.5   6:15.13 gnome-shell
11762 kenenth   20   0   41908   3832   3172 R   1.0  0.0   0:00.07 top

top - 00:01:16 up  3:17,  1 user,  load average: 0.13, 0.87, 1.55
Tasks: 297 total,   1 running, 235 sleeping,   0 stopped,   0 zombie
%Cpu(s):  0.1 us,  0.2 sy,  0.0 ni, 99.6 id,  0.0 wa,  0.0 hi,  0.0 si,  0.0 st
KiB Mem : 16278768 total, 11555144 free,  1429116 used,  3294508 buff/cache
KiB Swap: 16630780 total, 16630780 free,        0 used. 14399320 avail Mem 

  PID USER      PR  NI    VIRT    RES    SHR S  %CPU %MEM     TIME+ COMMAND
11762 kenenth   20   0   41908   3832   3172 R   2.0  0.0   0:00.09 top

top - 00:01:17 up  3:17,  1 user,  load average: 0.13, 0.87, 1.55
Tasks: 297 total,   1 running, 235 sleeping,   0 stopped,   0 zombie
%Cpu(s):  0.1 us,  0.2 sy,  0.0 ni, 99.5 id,  0.1 wa,  0.0 hi,  0.0 si,  0.0 st
KiB Mem : 16278768 total, 11555088 free,  1429172 used,  3294508 buff/cache
KiB Swap: 16630780 total, 16630780 free,        0 used. 14399264 avail Mem 

  PID USER      PR  NI    VIRT    RES    SHR S  %CPU %MEM     TIME+ COMMAND
 1780 root      20   0  433932  94764  61672 S   2.0  0.6   2:19.69 Xorg
 1129 root      20   0 5005772  37056  26124 S   1.0  0.2   0:55.78 containerd
 1781 root     -51   0       0      0      0 S   1.0  0.0   0:16.73 irq/135-nv+
 1985 kenenth   20   0 3550084 250868  96108 S   1.0  1.5   6:15.14 gnome-shell
11762 kenenth   20   0   41908   3832   3172 R   1.0  0.0   0:00.10 top

top - 00:01:18 up  3:17,  1 user,  load average: 0.12, 0.85, 1.54
Tasks: 297 total,   1 running, 235 sleeping,   0 stopped,   0 zombie
%Cpu(s):  0.1 us,  0.2 sy,  0.0 ni, 99.6 id,  0.0 wa,  0.0 hi,  0.0 si,  0.0 st
KiB Mem : 16278768 total, 11555088 free,  1429172 used,  3294508 buff/cache
KiB Swap: 16630780 total, 16630780 free,        0 used. 14399264 avail Mem 

  PID USER      PR  NI    VIRT    RES    SHR S  %CPU %MEM     TIME+ COMMAND
 1985 kenenth   20   0 3550084 250868  96108 S   1.0  1.5   6:15.15 gnome-shell
11762 kenenth   20   0   41908   3832   3172 R   1.0  0.0   0:00.11 top

top - 00:01:19 up  3:17,  1 user,  load average: 0.12, 0.85, 1.54
Tasks: 297 total,   1 running, 235 sleeping,   0 stopped,   0 zombie
%Cpu(s):  0.1 us,  0.1 sy,  0.0 ni, 99.8 id,  0.0 wa,  0.0 hi,  0.0 si,  0.0 st
KiB Mem : 16278768 total, 11555088 free,  1429172 used,  3294508 buff/cache
KiB Swap: 16630780 total, 16630780 free,        0 used. 14399264 avail Mem 

  PID USER      PR  NI    VIRT    RES    SHR S  %CPU %MEM     TIME+ COMMAND
11762 kenenth   20   0   41908   3832   3172 R   1.0  0.0   0:00.12 top

top - 00:01:20 up  3:17,  1 user,  load average: 0.12, 0.85, 1.54
Tasks: 297 total,   1 running, 235 sleeping,   0 stopped,   0 zombie
%Cpu(s):  0.1 us,  0.4 sy,  0.0 ni, 99.5 id,  0.0 wa,  0.0 hi,  0.0 si,  0.0 st
KiB Mem : 16278768 total, 11555112 free,  1429144 used,  3294512 buff/cache
KiB Swap: 16630780 total, 16630780 free,        0 used. 14399288 avail Mem 

  PID USER      PR  NI    VIRT    RES    SHR S  %CPU %MEM     TIME+ COMMAND
11762 kenenth   20   0   41908   3832   3172 R   2.0  0.0   0:00.14 top
  950 message+  20   0   51840   6208   3852 S   1.0  0.0   2:46.03 dbus-daemon
 1780 root      20   0  433932  94764  61672 S   1.0  0.6   2:19.70 Xorg
 1985 kenenth   20   0 3550084 250868  96108 S   1.0  1.5   6:15.16 gnome-shell
16843 kenenth   20   0  792204  37248  28120 S   1.0  0.2   0:00.94 gnome-term+

top - 00:01:21 up  3:17,  1 user,  load average: 0.12, 0.85, 1.54
Tasks: 297 total,   1 running, 235 sleeping,   0 stopped,   0 zombie
%Cpu(s):  0.2 us,  0.2 sy,  0.0 ni, 99.5 id,  0.0 wa,  0.0 hi,  0.0 si,  0.0 st
KiB Mem : 16278768 total, 11555112 free,  1429144 used,  3294512 buff/cache
KiB Swap: 16630780 total, 16630780 free,        0 used. 14399288 avail Mem 

  PID USER      PR  NI    VIRT    RES    SHR S  %CPU %MEM     TIME+ COMMAND
 1780 root      20   0  433932  94764  61672 S   1.0  0.6   2:19.71 Xorg
 1781 root     -51   0       0      0      0 S   1.0  0.0   0:16.74 irq/135-nv+
 1985 kenenth   20   0 3550084 250868  96108 S   1.0  1.5   6:15.17 gnome-shell

top - 00:01:22 up  3:17,  1 user,  load average: 0.11, 0.84, 1.53
Tasks: 297 total,   1 running, 235 sleeping,   0 stopped,   0 zombie
%Cpu(s):  0.0 us,  0.1 sy,  0.0 ni, 99.9 id,  0.0 wa,  0.0 hi,  0.0 si,  0.0 st
KiB Mem : 16278768 total, 11555112 free,  1429144 used,  3294512 buff/cache
KiB Swap: 16630780 total, 16630780 free,        0 used. 14399288 avail Mem 

  PID USER      PR  NI    VIRT    RES    SHR S  %CPU %MEM     TIME+ COMMAND
11762 kenenth   20   0   41908   3832   3172 R   2.0  0.0   0:00.16 top

top - 00:01:23 up  3:17,  1 user,  load average: 0.11, 0.84, 1.53
Tasks: 297 total,   1 running, 235 sleeping,   0 stopped,   0 zombie
%Cpu(s):  0.1 us,  0.1 sy,  0.0 ni, 99.8 id,  0.0 wa,  0.0 hi,  0.0 si,  0.0 st
KiB Mem : 16278768 total, 11555048 free,  1429200 used,  3294520 buff/cache
KiB Swap: 16630780 total, 16630780 free,        0 used. 14399224 avail Mem 

  PID USER      PR  NI    VIRT    RES    SHR S  %CPU %MEM     TIME+ COMMAND
 1780 root      20   0  433932  94764  61672 S   1.0  0.6   2:19.72 Xorg
11762 kenenth   20   0   41908   3832   3172 R   1.0  0.0   0:00.17 top

top - 00:01:24 up  3:17,  1 user,  load average: 0.11, 0.84, 1.53
Tasks: 297 total,   1 running, 235 sleeping,   0 stopped,   0 zombie
%Cpu(s):  0.2 us,  0.1 sy,  0.0 ni, 99.6 id,  0.0 wa,  0.0 hi,  0.0 si,  0.0 st
KiB Mem : 16278768 total, 11555048 free,  1429200 used,  3294520 buff/cache
KiB Swap: 16630780 total, 16630780 free,        0 used. 14399224 avail Mem 

  PID USER      PR  NI    VIRT    RES    SHR S  %CPU %MEM     TIME+ COMMAND
 1129 root      20   0 5005772  37056  26124 S   1.0  0.2   0:55.79 containerd
 1780 root      20   0  433932  94764  61672 S   1.0  0.6   2:19.73 Xorg
11762 kenenth   20   0   41908   3832   3172 R   1.0  0.0   0:00.18 top

top - 00:01:25 up  3:17,  1 user,  load average: 0.11, 0.84, 1.53
Tasks: 297 total,   1 running, 235 sleeping,   0 stopped,   0 zombie
%Cpu(s):  0.1 us,  0.1 sy,  0.0 ni, 99.8 id,  0.0 wa,  0.0 hi,  0.0 si,  0.0 st
KiB Mem : 16278768 total, 11555048 free,  1429200 used,  3294520 buff/cache
KiB Swap: 16630780 total, 16630780 free,        0 used. 14399224 avail Mem 

  PID USER      PR  NI    VIRT    RES    SHR S  %CPU %MEM     TIME+ COMMAND
11762 kenenth   20   0   41908   3832   3172 R   2.0  0.0   0:00.20 top

top - 00:01:26 up  3:17,  1 user,  load average: 0.11, 0.84, 1.53
Tasks: 297 total,   1 running, 235 sleeping,   0 stopped,   0 zombie
%Cpu(s):  0.1 us,  0.1 sy,  0.0 ni, 99.8 id,  0.0 wa,  0.0 hi,  0.0 si,  0.0 st
KiB Mem : 16278768 total, 11555040 free,  1429204 used,  3294524 buff/cache
KiB Swap: 16630780 total, 16630780 free,        0 used. 14399228 avail Mem 

  PID USER      PR  NI    VIRT    RES    SHR S  %CPU %MEM     TIME+ COMMAND
 1302 gdm       20   0 3332456 123072  66292 S   1.0  0.8   2:11.61 gnome-shell
11762 kenenth   20   0   41908   3832   3172 R   1.0  0.0   0:00.21 top

top - 00:01:27 up  3:17,  1 user,  load average: 0.10, 0.82, 1.52
Tasks: 297 total,   1 running, 235 sleeping,   0 stopped,   0 zombie
%Cpu(s):  0.0 us,  0.2 sy,  0.0 ni, 99.8 id,  0.0 wa,  0.0 hi,  0.0 si,  0.0 st
KiB Mem : 16278768 total, 11555040 free,  1429204 used,  3294524 buff/cache
KiB Swap: 16630780 total, 16630780 free,        0 used. 14399228 avail Mem 

  PID USER      PR  NI    VIRT    RES    SHR S  %CPU %MEM     TIME+ COMMAND
11762 kenenth   20   0   41908   3832   3172 R   1.0  0.0   0:00.22 top

top - 00:01:28 up  3:17,  1 user,  load average: 0.10, 0.82, 1.52
Tasks: 297 total,   1 running, 235 sleeping,   0 stopped,   0 zombie
%Cpu(s):  0.1 us,  0.1 sy,  0.0 ni, 99.8 id,  0.0 wa,  0.0 hi,  0.0 si,  0.0 st
KiB Mem : 16278768 total, 11555040 free,  1429204 used,  3294524 buff/cache
KiB Swap: 16630780 total, 16630780 free,        0 used. 14399228 avail Mem 

  PID USER      PR  NI    VIRT    RES    SHR S  %CPU %MEM     TIME+ COMMAND
11762 kenenth   20   0   41908   3832   3172 R   2.0  0.0   0:00.24 top
  944 root      20   0  110512   3520   3184 S   1.0  0.0   0:01.99 irqbalance
 1780 root      20   0  433932  94764  61672 S   1.0  0.6   2:19.74 Xorg
 2332 root      20   0 6056052 105596  39040 S   1.0  0.6   3:13.43 dockerd

top - 00:01:29 up  3:17,  1 user,  load average: 0.10, 0.82, 1.52
Tasks: 297 total,   1 running, 235 sleeping,   0 stopped,   0 zombie
%Cpu(s):  0.1 us,  0.2 sy,  0.0 ni, 99.6 id,  0.0 wa,  0.0 hi,  0.0 si,  0.0 st
KiB Mem : 16278768 total, 11555040 free,  1429204 used,  3294524 buff/cache
KiB Swap: 16630780 total, 16630780 free,        0 used. 14399228 avail Mem 

  PID USER      PR  NI    VIRT    RES    SHR S  %CPU %MEM     TIME+ COMMAND
11762 kenenth   20   0   41908   3832   3172 R   1.0  0.0   0:00.25 top

top - 00:01:30 up  3:17,  1 user,  load average: 0.10, 0.82, 1.52
Tasks: 297 total,   1 running, 235 sleeping,   0 stopped,   0 zombie
%Cpu(s):  0.0 us,  0.1 sy,  0.0 ni, 99.9 id,  0.0 wa,  0.0 hi,  0.0 si,  0.0 st
KiB Mem : 16278768 total, 11555040 free,  1429204 used,  3294524 buff/cache
KiB Swap: 16630780 total, 16630780 free,        0 used. 14399228 avail Mem 

  PID USER      PR  NI    VIRT    RES    SHR S  %CPU %MEM     TIME+ COMMAND
 1780 root      20   0  433932  94764  61672 S   1.0  0.6   2:19.75 Xorg
11762 kenenth   20   0   41908   3832   3172 R   1.0  0.0   0:00.26 top

top - 00:01:31 up  3:17,  1 user,  load average: 0.10, 0.82, 1.52
Tasks: 297 total,   1 running, 235 sleeping,   0 stopped,   0 zombie
%Cpu(s):  0.1 us,  0.1 sy,  0.0 ni, 99.8 id,  0.0 wa,  0.0 hi,  0.0 si,  0.0 st
KiB Mem : 16278768 total, 11555040 free,  1429204 used,  3294524 buff/cache
KiB Swap: 16630780 total, 16630780 free,        0 used. 14399228 avail Mem 

  PID USER      PR  NI    VIRT    RES    SHR S  %CPU %MEM     TIME+ COMMAND
 1780 root      20   0  433932  94764  61672 S   1.0  0.6   2:19.76 Xorg
11762 kenenth   20   0   41908   3832   3172 R   1.0  0.0   0:00.27 top
18509 root      20   0       0      0      0 I   1.0  0.0   0:00.32 kworker/5:0

top - 00:01:32 up  3:17,  1 user,  load average: 0.09, 0.81, 1.51
Tasks: 297 total,   1 running, 235 sleeping,   0 stopped,   0 zombie
%Cpu(s):  0.1 us,  0.2 sy,  0.0 ni, 99.5 id,  0.1 wa,  0.0 hi,  0.0 si,  0.0 st
KiB Mem : 16278768 total, 11555008 free,  1429232 used,  3294528 buff/cache
KiB Swap: 16630780 total, 16630780 free,        0 used. 14399196 avail Mem 

  PID USER      PR  NI    VIRT    RES    SHR S  %CPU %MEM     TIME+ COMMAND
  995 avahi     20   0   48328   4916   3344 S   1.0  0.0   0:14.18 avahi-daem+
11762 kenenth   20   0   41908   3832   3172 R   1.0  0.0   0:00.28 top

top - 00:01:33 up  3:18,  1 user,  load average: 0.09, 0.81, 1.51
Tasks: 297 total,   1 running, 235 sleeping,   0 stopped,   0 zombie
%Cpu(s):  0.1 us,  0.1 sy,  0.0 ni, 99.8 id,  0.0 wa,  0.0 hi,  0.0 si,  0.0 st
KiB Mem : 16278768 total, 11555008 free,  1429232 used,  3294528 buff/cache
KiB Swap: 16630780 total, 16630780 free,        0 used. 14399196 avail Mem 

  PID USER      PR  NI    VIRT    RES    SHR S  %CPU %MEM     TIME+ COMMAND
 1780 root      20   0  433932  94764  61672 S   1.0  0.6   2:19.77 Xorg
11762 kenenth   20   0   41908   3832   3172 R   1.0  0.0   0:00.29 top

top - 00:01:34 up  3:18,  1 user,  load average: 0.09, 0.81, 1.51
Tasks: 297 total,   1 running, 235 sleeping,   0 stopped,   0 zombie
%Cpu(s):  0.0 us,  0.1 sy,  0.0 ni, 99.9 id,  0.0 wa,  0.0 hi,  0.0 si,  0.0 st
KiB Mem : 16278768 total, 11555008 free,  1429232 used,  3294528 buff/cache
KiB Swap: 16630780 total, 16630780 free,        0 used. 14399196 avail Mem 

  PID USER      PR  NI    VIRT    RES    SHR S  %CPU %MEM     TIME+ COMMAND
11762 kenenth   20   0   41908   3832   3172 R   2.0  0.0   0:00.31 top

top - 00:01:35 up  3:18,  1 user,  load average: 0.09, 0.81, 1.51
Tasks: 297 total,   1 running, 235 sleeping,   0 stopped,   0 zombie
%Cpu(s):  0.0 us,  0.1 sy,  0.0 ni, 99.9 id,  0.0 wa,  0.0 hi,  0.0 si,  0.0 st
KiB Mem : 16278768 total, 11554952 free,  1429288 used,  3294528 buff/cache
KiB Swap: 16630780 total, 16630780 free,        0 used. 14399140 avail Mem 

  PID USER      PR  NI    VIRT    RES    SHR S  %CPU %MEM     TIME+ COMMAND
 1129 root      20   0 5005772  37056  26124 S   2.0  0.2   0:55.81 containerd
11762 kenenth   20   0   41908   3832   3172 R   1.0  0.0   0:00.32 top

top - 00:01:36 up  3:18,  1 user,  load average: 0.09, 0.81, 1.51
Tasks: 297 total,   1 running, 235 sleeping,   0 stopped,   0 zombie
%Cpu(s):  0.1 us,  0.1 sy,  0.0 ni, 99.8 id,  0.0 wa,  0.0 hi,  0.0 si,  0.0 st
KiB Mem : 16278768 total, 11554952 free,  1429288 used,  3294528 buff/cache
KiB Swap: 16630780 total, 16630780 free,        0 used. 14399140 avail Mem 

  PID USER      PR  NI    VIRT    RES    SHR S  %CPU %MEM     TIME+ COMMAND
11762 kenenth   20   0   41908   3832   3172 R   1.0  0.0   0:00.33 top

top - 00:01:37 up  3:18,  1 user,  load average: 0.08, 0.80, 1.51
Tasks: 297 total,   1 running, 235 sleeping,   0 stopped,   0 zombie
%Cpu(s):  0.1 us,  0.1 sy,  0.0 ni, 99.8 id,  0.0 wa,  0.0 hi,  0.0 si,  0.0 st
KiB Mem : 16278768 total, 11554952 free,  1429288 used,  3294528 buff/cache
KiB Swap: 16630780 total, 16630780 free,        0 used. 14399140 avail Mem 

  PID USER      PR  NI    VIRT    RES    SHR S  %CPU %MEM     TIME+ COMMAND
11762 kenenth   20   0   41908   3832   3172 R   1.0  0.0   0:00.34 top

top - 00:01:38 up  3:18,  1 user,  load average: 0.08, 0.80, 1.51
Tasks: 297 total,   1 running, 235 sleeping,   0 stopped,   0 zombie
%Cpu(s):  0.2 us,  0.2 sy,  0.0 ni, 99.5 id,  0.0 wa,  0.0 hi,  0.0 si,  0.0 st
KiB Mem : 16278768 total, 11554944 free,  1429284 used,  3294540 buff/cache
KiB Swap: 16630780 total, 16630780 free,        0 used. 14399132 avail Mem 

  PID USER      PR  NI    VIRT    RES    SHR S  %CPU %MEM     TIME+ COMMAND
 1780 root      20   0  433932  94764  61672 S   1.0  0.6   2:19.78 Xorg
11762 kenenth   20   0   41908   3832   3172 R   1.0  0.0   0:00.35 top

top - 00:01:39 up  3:18,  1 user,  load average: 0.08, 0.80, 1.51
Tasks: 297 total,   1 running, 235 sleeping,   0 stopped,   0 zombie
%Cpu(s):  0.0 us,  0.1 sy,  0.0 ni, 99.9 id,  0.0 wa,  0.0 hi,  0.0 si,  0.0 st
KiB Mem : 16278768 total, 11554944 free,  1429284 used,  3294540 buff/cache
KiB Swap: 16630780 total, 16630780 free,        0 used. 14399132 avail Mem 

  PID USER      PR  NI    VIRT    RES    SHR S  %CPU %MEM     TIME+ COMMAND
11762 kenenth   20   0   41908   3832   3172 R   2.0  0.0   0:00.37 top
    8 root      20   0       0      0      0 I   1.0  0.0   0:07.53 rcu_sched
 1534 gdm       20   0  816144  32524  24488 S   1.0  0.2   0:00.30 gsd-power
 1780 root      20   0  433932  94764  61672 S   1.0  0.6   2:19.79 Xorg
 1985 kenenth   20   0 3550084 250868  96108 S   1.0  1.5   6:15.18 gnome-shell
 2137 kenenth   20   0  661116  23020  17816 S   1.0  0.1   0:01.42 gsd-color

top - 00:01:40 up  3:18,  1 user,  load average: 0.08, 0.80, 1.51
Tasks: 297 total,   1 running, 235 sleeping,   0 stopped,   0 zombie
%Cpu(s):  0.1 us,  0.1 sy,  0.0 ni, 99.8 id,  0.0 wa,  0.0 hi,  0.0 si,  0.0 st
KiB Mem : 16278768 total, 11554944 free,  1429284 used,  3294540 buff/cache
KiB Swap: 16630780 total, 16630780 free,        0 used. 14399132 avail Mem 

  PID USER      PR  NI    VIRT    RES    SHR S  %CPU %MEM     TIME+ COMMAND
  945 root      20   0  269688   5956   5196 S   1.0  0.0   0:02.12 iio-sensor+
 1780 root      20   0  433932  94764  61672 S   1.0  0.6   2:19.80 Xorg
11762 kenenth   20   0   41908   3832   3172 R   1.0  0.0   0:00.38 top

top - 00:01:41 up  3:18,  1 user,  load average: 0.08, 0.80, 1.51
Tasks: 297 total,   1 running, 235 sleeping,   0 stopped,   0 zombie
%Cpu(s):  0.0 us,  0.2 sy,  0.0 ni, 99.8 id,  0.0 wa,  0.0 hi,  0.0 si,  0.0 st
KiB Mem : 16278768 total, 11554920 free,  1429308 used,  3294540 buff/cache
KiB Swap: 16630780 total, 16630780 free,        0 used. 14399108 avail Mem 

  PID USER      PR  NI    VIRT    RES    SHR S  %CPU %MEM     TIME+ COMMAND
11762 kenenth   20   0   41908   3832   3172 R   2.0  0.0   0:00.40 top
  972 root      20   0  565024  23700  13716 S   1.0  0.1   1:31.29 NetworkMan+

top - 00:01:42 up  3:18,  1 user,  load average: 0.08, 0.78, 1.50
Tasks: 297 total,   1 running, 235 sleeping,   0 stopped,   0 zombie
%Cpu(s):  0.1 us,  0.1 sy,  0.0 ni, 99.8 id,  0.0 wa,  0.0 hi,  0.0 si,  0.0 st
KiB Mem : 16278768 total, 11554920 free,  1429308 used,  3294540 buff/cache
KiB Swap: 16630780 total, 16630780 free,        0 used. 14399108 avail Mem 

  PID USER      PR  NI    VIRT    RES    SHR S  %CPU %MEM     TIME+ COMMAND
 1514 gdm       20   0  803904  30996  23380 S   1.0  0.2   0:01.42 gsd-color
11762 kenenth   20   0   41908   3832   3172 R   1.0  0.0   0:00.41 top

top - 00:01:43 up  3:18,  1 user,  load average: 0.08, 0.78, 1.50
Tasks: 297 total,   1 running, 235 sleeping,   0 stopped,   0 zombie
%Cpu(s):  0.0 us,  0.2 sy,  0.0 ni, 99.8 id,  0.0 wa,  0.0 hi,  0.0 si,  0.0 st
KiB Mem : 16278768 total, 11554920 free,  1429308 used,  3294540 buff/cache
KiB Swap: 16630780 total, 16630780 free,        0 used. 14399108 avail Mem 

  PID USER      PR  NI    VIRT    RES    SHR S  %CPU %MEM     TIME+ COMMAND
11762 kenenth   20   0   41908   3832   3172 R   1.0  0.0   0:00.42 top

top - 00:01:44 up  3:18,  1 user,  load average: 0.08, 0.78, 1.50
Tasks: 297 total,   1 running, 235 sleeping,   0 stopped,   0 zombie
%Cpu(s):  0.0 us,  0.1 sy,  0.0 ni, 99.9 id,  0.0 wa,  0.0 hi,  0.0 si,  0.0 st
KiB Mem : 16278768 total, 11554912 free,  1429316 used,  3294540 buff/cache
KiB Swap: 16630780 total, 16630780 free,        0 used. 14399100 avail Mem 

  PID USER      PR  NI    VIRT    RES    SHR S  %CPU %MEM     TIME+ COMMAND
11762 kenenth   20   0   41908   3832   3172 R   2.0  0.0   0:00.44 top
 1780 root      20   0  433932  94764  61672 S   1.0  0.6   2:19.81 Xorg

top - 00:01:45 up  3:18,  1 user,  load average: 0.08, 0.78, 1.50
Tasks: 297 total,   1 running, 235 sleeping,   0 stopped,   0 zombie
%Cpu(s):  0.0 us,  0.2 sy,  0.0 ni, 99.8 id,  0.0 wa,  0.0 hi,  0.0 si,  0.0 st
KiB Mem : 16278768 total, 11554912 free,  1429316 used,  3294540 buff/cache
KiB Swap: 16630780 total, 16630780 free,        0 used. 14399100 avail Mem 

  PID USER      PR  NI    VIRT    RES    SHR S  %CPU %MEM     TIME+ COMMAND
 1129 root      20   0 5005772  37056  26124 S   1.0  0.2   0:55.82 containerd
 1331 root      20   0  315344   8564   7280 S   1.0  0.1   0:00.54 upowerd
 1780 root      20   0  433932  94764  61672 S   1.0  0.6   2:19.82 Xorg
 2354 kernoops  20   0   56936    424      0 S   1.0  0.0   0:00.52 kerneloops
11762 kenenth   20   0   41908   3832   3172 R   1.0  0.0   0:00.45 top

top - 00:01:46 up  3:18,  1 user,  load average: 0.08, 0.78, 1.50
Tasks: 297 total,   1 running, 235 sleeping,   0 stopped,   0 zombie
%Cpu(s):  0.2 us,  0.1 sy,  0.0 ni, 99.6 id,  0.0 wa,  0.0 hi,  0.0 si,  0.0 st
KiB Mem : 16278768 total, 11554912 free,  1429316 used,  3294540 buff/cache
KiB Swap: 16630780 total, 16630780 free,        0 used. 14399100 avail Mem 

  PID USER      PR  NI    VIRT    RES    SHR S  %CPU %MEM     TIME+ COMMAND

top - 00:01:47 up  3:18,  1 user,  load average: 0.07, 0.77, 1.49
Tasks: 297 total,   1 running, 235 sleeping,   0 stopped,   0 zombie
%Cpu(s):  0.0 us,  0.2 sy,  0.0 ni, 99.8 id,  0.0 wa,  0.0 hi,  0.0 si,  0.0 st
KiB Mem : 16278768 total, 11554912 free,  1429312 used,  3294544 buff/cache
KiB Swap: 16630780 total, 16630780 free,        0 used. 14399100 avail Mem 

  PID USER      PR  NI    VIRT    RES    SHR S  %CPU %MEM     TIME+ COMMAND
11762 kenenth   20   0   41908   3832   3172 R   2.0  0.0   0:00.47 top
 1781 root     -51   0       0      0      0 S   1.0  0.0   0:16.75 irq/135-nv+

top - 00:01:48 up  3:18,  1 user,  load average: 0.07, 0.77, 1.49
Tasks: 297 total,   1 running, 235 sleeping,   0 stopped,   0 zombie
%Cpu(s):  0.0 us,  0.2 sy,  0.0 ni, 99.8 id,  0.0 wa,  0.0 hi,  0.0 si,  0.0 st
KiB Mem : 16278768 total, 11554912 free,  1429312 used,  3294544 buff/cache
KiB Swap: 16630780 total, 16630780 free,        0 used. 14399100 avail Mem 

  PID USER      PR  NI    VIRT    RES    SHR S  %CPU %MEM     TIME+ COMMAND
 1780 root      20   0  433932  94764  61672 S   1.0  0.6   2:19.83 Xorg
11762 kenenth   20   0   41908   3832   3172 R   1.0  0.0   0:00.48 top
11773 kenenth   20   0   16392   1088    980 S   1.0  0.0   0:00.01 ping

top - 00:01:49 up  3:18,  1 user,  load average: 0.07, 0.77, 1.49
Tasks: 297 total,   1 running, 235 sleeping,   0 stopped,   0 zombie
%Cpu(s):  0.1 us,  0.1 sy,  0.0 ni, 99.8 id,  0.0 wa,  0.0 hi,  0.0 si,  0.0 st
KiB Mem : 16278768 total, 11554912 free,  1429312 used,  3294544 buff/cache
KiB Swap: 16630780 total, 16630780 free,        0 used. 14399100 avail Mem 

  PID USER      PR  NI    VIRT    RES    SHR S  %CPU %MEM     TIME+ COMMAND
11762 kenenth   20   0   41908   3832   3172 R   2.0  0.0   0:00.50 top
 1129 root      20   0 5005772  37056  26124 S   1.0  0.2   0:55.83 containerd

top - 00:01:50 up  3:18,  1 user,  load average: 0.07, 0.77, 1.49
Tasks: 297 total,   1 running, 235 sleeping,   0 stopped,   0 zombie
%Cpu(s):  0.2 us,  0.1 sy,  0.0 ni, 99.6 id,  0.0 wa,  0.0 hi,  0.0 si,  0.0 st
KiB Mem : 16278768 total, 11554880 free,  1429340 used,  3294548 buff/cache
KiB Swap: 16630780 total, 16630780 free,        0 used. 14399068 avail Mem 

  PID USER      PR  NI    VIRT    RES    SHR S  %CPU %MEM     TIME+ COMMAND
 1780 root      20   0  433932  94764  61672 S   1.0  0.6   2:19.84 Xorg
11762 kenenth   20   0   41908   3832   3172 R   1.0  0.0   0:00.51 top
11770 kenenth   20   0   16392   1188   1080 S   1.0  0.0   0:00.01 ping

top - 00:01:51 up  3:18,  1 user,  load average: 0.07, 0.77, 1.49
Tasks: 297 total,   1 running, 235 sleeping,   0 stopped,   0 zombie
%Cpu(s):  0.0 us,  0.1 sy,  0.0 ni, 99.9 id,  0.0 wa,  0.0 hi,  0.0 si,  0.0 st
KiB Mem : 16278768 total, 11554880 free,  1429340 used,  3294548 buff/cache
KiB Swap: 16630780 total, 16630780 free,        0 used. 14399068 avail Mem 

  PID USER      PR  NI    VIRT    RES    SHR S  %CPU %MEM     TIME+ COMMAND
11762 kenenth   20   0   41908   3832   3172 R   1.0  0.0   0:00.52 top
11781 kenenth   20   0   16392   1104    996 S   1.0  0.0   0:00.01 ping
11784 kenenth   20   0   16392   1208   1100 S   1.0  0.0   0:00.01 ping

top - 00:01:52 up  3:18,  1 user,  load average: 0.06, 0.76, 1.48
Tasks: 297 total,   1 running, 235 sleeping,   0 stopped,   0 zombie
%Cpu(s):  0.1 us,  0.1 sy,  0.0 ni, 99.8 id,  0.0 wa,  0.0 hi,  0.0 si,  0.0 st
KiB Mem : 16278768 total, 11554880 free,  1429340 used,  3294548 buff/cache
KiB Swap: 16630780 total, 16630780 free,        0 used. 14399068 avail Mem 

  PID USER      PR  NI    VIRT    RES    SHR S  %CPU %MEM     TIME+ COMMAND
 1780 root      20   0  433932  94764  61672 S   1.0  0.6   2:19.85 Xorg
11762 kenenth   20   0   41908   3832   3172 R   1.0  0.0   0:00.53 top

top - 00:01:53 up  3:18,  1 user,  load average: 0.06, 0.76, 1.48
Tasks: 297 total,   1 running, 235 sleeping,   0 stopped,   0 zombie
%Cpu(s):  0.1 us,  0.1 sy,  0.0 ni, 99.8 id,  0.0 wa,  0.0 hi,  0.0 si,  0.0 st
KiB Mem : 16278768 total, 11554848 free,  1429368 used,  3294552 buff/cache
KiB Swap: 16630780 total, 16630780 free,        0 used. 14399036 avail Mem 

  PID USER      PR  NI    VIRT    RES    SHR S  %CPU %MEM     TIME+ COMMAND
11762 kenenth   20   0   41908   3832   3172 R   1.0  0.0   0:00.54 top

top - 00:01:54 up  3:18,  1 user,  load average: 0.06, 0.76, 1.48
Tasks: 297 total,   1 running, 235 sleeping,   0 stopped,   0 zombie
%Cpu(s):  0.1 us,  0.1 sy,  0.0 ni, 99.8 id,  0.0 wa,  0.0 hi,  0.0 si,  0.0 st
KiB Mem : 16278768 total, 11554848 free,  1429368 used,  3294552 buff/cache
KiB Swap: 16630780 total, 16630780 free,        0 used. 14399036 avail Mem 

  PID USER      PR  NI    VIRT    RES    SHR S  %CPU %MEM     TIME+ COMMAND
11762 kenenth   20   0   41908   3832   3172 R   2.0  0.0   0:00.56 top
 1780 root      20   0  433932  94764  61672 S   1.0  0.6   2:19.86 Xorg
11771 kenenth   20   0   16392   1108   1000 S   1.0  0.0   0:00.01 ping

top - 00:01:55 up  3:18,  1 user,  load average: 0.06, 0.76, 1.48
Tasks: 297 total,   1 running, 235 sleeping,   0 stopped,   0 zombie
%Cpu(s):  0.1 us,  0.1 sy,  0.0 ni, 99.8 id,  0.0 wa,  0.0 hi,  0.0 si,  0.0 st
KiB Mem : 16278768 total, 11554848 free,  1429368 used,  3294552 buff/cache
KiB Swap: 16630780 total, 16630780 free,        0 used. 14399036 avail Mem 

  PID USER      PR  NI    VIRT    RES    SHR S  %CPU %MEM     TIME+ COMMAND
11762 kenenth   20   0   41908   3832   3172 R   1.0  0.0   0:00.57 top

top - 00:01:56 up  3:18,  1 user,  load average: 0.06, 0.76, 1.48
Tasks: 297 total,   1 running, 235 sleeping,   0 stopped,   0 zombie
%Cpu(s):  0.0 us,  0.1 sy,  0.0 ni, 99.9 id,  0.0 wa,  0.0 hi,  0.0 si,  0.0 st
KiB Mem : 16278768 total, 11554848 free,  1429368 used,  3294552 buff/cache
KiB Swap: 16630780 total, 16630780 free,        0 used. 14399036 avail Mem 

  PID USER      PR  NI    VIRT    RES    SHR S  %CPU %MEM     TIME+ COMMAND
  972 root      20   0  565024  23700  13716 S   1.0  0.1   1:31.30 NetworkMan+
11762 kenenth   20   0   41908   3832   3172 R   1.0  0.0   0:00.58 top

top - 00:01:57 up  3:18,  1 user,  load average: 0.06, 0.74, 1.47
Tasks: 297 total,   1 running, 235 sleeping,   0 stopped,   0 zombie
%Cpu(s):  0.1 us,  0.1 sy,  0.0 ni, 99.8 id,  0.0 wa,  0.0 hi,  0.0 si,  0.0 st
KiB Mem : 16278768 total, 11554848 free,  1429368 used,  3294552 buff/cache
KiB Swap: 16630780 total, 16630780 free,        0 used. 14399036 avail Mem 

  PID USER      PR  NI    VIRT    RES    SHR S  %CPU %MEM     TIME+ COMMAND
 1780 root      20   0  433932  94764  61672 S   1.0  0.6   2:19.87 Xorg
11762 kenenth   20   0   41908   3832   3172 R   1.0  0.0   0:00.59 top

top - 00:01:58 up  3:18,  1 user,  load average: 0.06, 0.74, 1.47
Tasks: 297 total,   1 running, 235 sleeping,   0 stopped,   0 zombie
%Cpu(s):  0.0 us,  0.1 sy,  0.0 ni, 99.8 id,  0.1 wa,  0.0 hi,  0.0 si,  0.0 st
KiB Mem : 16278768 total, 11554848 free,  1429368 used,  3294552 buff/cache
KiB Swap: 16630780 total, 16630780 free,        0 used. 14399036 avail Mem 

  PID USER      PR  NI    VIRT    RES    SHR S  %CPU %MEM     TIME+ COMMAND
11762 kenenth   20   0   41908   3832   3172 R   2.0  0.0   0:00.61 top

top - 00:01:59 up  3:18,  1 user,  load average: 0.06, 0.74, 1.47
Tasks: 297 total,   1 running, 235 sleeping,   0 stopped,   0 zombie
%Cpu(s):  0.2 us,  0.1 sy,  0.0 ni, 99.6 id,  0.0 wa,  0.0 hi,  0.0 si,  0.0 st
KiB Mem : 16278768 total, 11554792 free,  1429420 used,  3294556 buff/cache
KiB Swap: 16630780 total, 16630780 free,        0 used. 14398980 avail Mem 

  PID USER      PR  NI    VIRT    RES    SHR S  %CPU %MEM     TIME+ COMMAND
 1129 root      20   0 5005772  37056  26124 S   1.0  0.2   0:55.84 containerd
11762 kenenth   20   0   41908   3832   3172 R   1.0  0.0   0:00.62 top

top - 00:02:00 up  3:18,  1 user,  load average: 0.06, 0.74, 1.47
Tasks: 297 total,   1 running, 235 sleeping,   0 stopped,   0 zombie
%Cpu(s):  0.1 us,  0.1 sy,  0.0 ni, 99.8 id,  0.0 wa,  0.0 hi,  0.0 si,  0.0 st
KiB Mem : 16278768 total, 11554792 free,  1429420 used,  3294556 buff/cache
KiB Swap: 16630780 total, 16630780 free,        0 used. 14398980 avail Mem 

  PID USER      PR  NI    VIRT    RES    SHR S  %CPU %MEM     TIME+ COMMAND
 1780 root      20   0  433932  94764  61672 S   1.0  0.6   2:19.88 Xorg
 1985 kenenth   20   0 3550084 250868  96108 S   1.0  1.5   6:15.19 gnome-shell
11762 kenenth   20   0   41908   3832   3172 R   1.0  0.0   0:00.63 top

top - 00:02:01 up  3:18,  1 user,  load average: 0.06, 0.74, 1.47
Tasks: 297 total,   1 running, 235 sleeping,   0 stopped,   0 zombie
%Cpu(s):  0.0 us,  0.1 sy,  0.0 ni, 99.9 id,  0.0 wa,  0.0 hi,  0.0 si,  0.0 st
KiB Mem : 16278768 total, 11554792 free,  1429420 used,  3294556 buff/cache
KiB Swap: 16630780 total, 16630780 free,        0 used. 14398980 avail Mem 

  PID USER      PR  NI    VIRT    RES    SHR S  %CPU %MEM     TIME+ COMMAND
11762 kenenth   20   0   41908   3832   3172 R   2.0  0.0   0:00.65 top
 1780 root      20   0  433932  94764  61672 S   1.0  0.6   2:19.89 Xorg

top - 00:02:02 up  3:18,  1 user,  load average: 0.05, 0.73, 1.46
Tasks: 283 total,   1 running, 221 sleeping,   0 stopped,   0 zombie
%Cpu(s):  0.1 us,  0.1 sy,  0.0 ni, 99.8 id,  0.0 wa,  0.0 hi,  0.0 si,  0.0 st
KiB Mem : 16278768 total, 11557108 free,  1427100 used,  3294560 buff/cache
KiB Swap: 16630780 total, 16630780 free,        0 used. 14401332 avail Mem 

  PID USER      PR  NI    VIRT    RES    SHR S  %CPU %MEM     TIME+ COMMAND
11762 kenenth   20   0   41908   3832   3172 R   1.0  0.0   0:00.66 top
