     1	 94.7 
     2	 99.4 
     3	 99.6 
     4	 99.4 
     5	 99.4 
     6	 99.5 
     7	 99.5 
     8	 99.6 
     9	 99.6 
    10	 99.4 
    11	 99.4 
    12	 99.1 
    13	 99.8 
    14	 99.5 
    15	 99.6 
    16	 99.8 
    17	 99.6 
    18	 99.5 
    19	 99.8 
    20	 99.8 
    21	 99.6 
    22	 99.6 
    23	 99.6 
    24	 99.8 
    25	 99.8 
    26	 99.6 
    27	 99.8 
    28	 99.4 
    29	 99.8 
    30	 99.8 
    31	 99.6 
    32	 99.9 
    33	 99.3 
    34	 99.8 
    35	 99.6 
    36	 99.8 
    37	 99.5 
    38	 99.6 
    39	100.0 
    40	 99.6 
    41	 99.6 
    42	 99.8 
    43	 99.4 
    44	 99.9 
    45	 98.8 
    46	 99.8 
    47	 99.6 
    48	 99.5 
    49	 99.8 
