100 packets transmitted, 100 received, 0% packet loss, time 99166ms
100 packets transmitted, 100 received, 0% packet loss, time 99166ms
100 packets transmitted, 100 received, 0% packet loss, time 99170ms
100 packets transmitted, 100 received, 0% packet loss, time 99170ms
100 packets transmitted, 100 received, 0% packet loss, time 99170ms
100 packets transmitted, 100 received, 0% packet loss, time 99174ms
100 packets transmitted, 100 received, 0% packet loss, time 99174ms
100 packets transmitted, 100 received, 0% packet loss, time 99174ms
100 packets transmitted, 100 received, 0% packet loss, time 99179ms
100 packets transmitted, 100 received, 0% packet loss, time 99183ms
