     1	 97.9 
     2	 97.5 
     3	 80.5 
     4	 96.0 
     5	 48.5 
     6	 82.1 
     7	 93.1 
     8	 92.6 
     9	 95.9 
    10	 96.5 
    11	 98.5 
    12	 99.1 
    13	 99.1 
    14	 99.5 
    15	 99.1 
    16	 99.6 
    17	 99.6 
    18	 99.6 
    19	 99.5 
    20	 99.6 
    21	 99.4 
    22	 99.3 
    23	 99.5 
    24	 99.5 
    25	 99.5 
    26	 99.4 
    27	 99.5 
    28	 99.5 
    29	 99.1 
    30	 99.5 
    31	 99.8 
    32	 99.1 
    33	 99.5 
    34	 99.3 
    35	 99.3 
    36	 99.5 
    37	 99.5 
    38	 99.4 
    39	 99.4 
    40	 99.5 
    41	 99.4 
    42	 99.4 
    43	 99.5 
    44	 99.5 
    45	 99.4 
    46	 99.8 
    47	 99.6 
    48	 99.3 
    49	 99.3 
    50	 99.6 
    51	 99.8 
    52	 99.5 
    53	 99.5 
    54	 99.6 
    55	 99.5 
    56	 99.3 
    57	 99.4 
    58	 99.6 
    59	 99.5 
    60	 99.4 
    61	 99.6 
    62	 99.6 
    63	 99.5 
    64	 99.6 
    65	 99.5 
    66	 99.6 
    67	 99.5 
    68	 99.3 
    69	 99.1 
    70	 99.5 
    71	 99.4 
    72	 99.6 
    73	 99.5 
    74	 99.5 
    75	 99.4 
    76	 99.6 
    77	 99.4 
    78	 99.6 
    79	 99.5 
    80	 99.3 
    81	 99.5 
    82	 99.6 
    83	 99.3 
    84	 99.5 
    85	 99.5 
    86	 99.5 
    87	 99.8 
    88	 99.6 
    89	 99.3 
    90	 99.3 
    91	 99.5 
    92	 99.5 
    93	 99.4 
    94	 99.5 
    95	 99.5 
    96	 99.4 
    97	 99.4 
    98	 99.4 
    99	 99.3 
   100	 99.6 
   101	 98.9 
   102	 95.3 
   103	 94.3 
   104	 88.7 
   105	 87.5 
