     1	1178408 
     2	1178408 
     3	1178408 
     4	1221288 
     5	1221288 
     6	1221288 
     7	1500464 
     8	1500464 
     9	1500464 
    10	1252548 
    11	1252548 
    12	1252548 
    13	1252468 
    14	1252468 
    15	1252468 
    16	1252460 
    17	1252460 
    18	1252460 
    19	1252452 
    20	1252452 
    21	1252452 
    22	1252440 
    23	1252440 
    24	1252440 
    25	1252436 
    26	1252436 
    27	1252436 
    28	1252392 
    29	1252392 
    30	1252392 
    31	1252624 
    32	1252624 
    33	1251508 
    34	1251508 
    35	1251508 
    36	1247268 
    37	1247268 
    38	1247268 
    39	1247256 
    40	1247256 
    41	1247256 
    42	1247224 
    43	1247224 
    44	1247224 
    45	1247228 
    46	1247228 
    47	1247228 
    48	1247088 
    49	1247088 
    50	1247088 
    51	1247104 
    52	1247104 
    53	1247104 
    54	1247072 
    55	1247072 
    56	1247072 
    57	1246836 
    58	1246836 
    59	1246836 
    60	1246800 
    61	1246800 
    62	1246800 
    63	1246820 
    64	1246820 
    65	1246820 
    66	1246784 
    67	1246784 
    68	1246784 
    69	1246784 
    70	1246784 
    71	1246784 
    72	1246724 
    73	1246724 
    74	1246724 
    75	1246736 
    76	1246736 
    77	1246736 
    78	1246708 
    79	1246708 
    80	1246708 
    81	1246720 
    82	1246720 
    83	1246720 
    84	1246688 
    85	1246688 
    86	1246688 
    87	1246704 
    88	1246704 
    89	1246704 
    90	1246660 
    91	1246660 
    92	1246660 
    93	1246684 
    94	1246684 
    95	1246684 
    96	1246896 
    97	1246896 
    98	1246896 
    99	1246900 
   100	1246900 
   101	1246900 
   102	1246424 
   103	1246424 
   104	1239024 
   105	1239024 
