     1	290 
     2	291 
     3	324 
     4	401 
     5	424 
     6	415 
     7	406 
     8	395 
     9	388 
    10	380 
    11	376 
    12	372 
    13	368 
    14	364 
    15	360 
    16	356 
    17	352 
    18	405 
    19	482 
    20	480 
    21	474 
    22	468 
    23	464 
    24	460 
    25	454 
    26	452 
    27	446 
    28	438 
    29	432 
    30	422 
    31	410 
    32	405 
    33	387 
    34	375 
    35	371 
    36	368 
    37	365 
    38	362 
    39	359 
    40	356 
    41	353 
    42	353 
    43	350 
    44	344 
    45	338 
    46	335 
    47	329 
    48	326 
    49	323 
    50	322 
    51	324 
    52	314 
    53	311 
    54	309 
    55	308 
    56	305 
    57	302 
    58	295 
