     1	.9 
     2	.3 
     3	.4 
     4	.7 
     5	.3 
     6	.7 
     7	.5 
     8	.5 
     9	.0 
    10	.8 
    11	.6 
    12	.4 
    13	.3 
    14	.8 
    15	.5 
    16	.2 
    17	.2 
    18	.7 
    19	.3 
    20	.3 
    21	.1 
    22	.0 
    23	.9 
    24	.4 
    25	.3 
    26	.3 
    27	.5 
    28	.8 
    29	.3 
    30	.7 
    31	.4 
    32	.9 
    33	.9 
    34	.3 
    35	.3 
    36	.9 
    37	.5 
    38	.6 
    39	.3 
    40	.1 
    41	.7 
    42	.2 
    43	.0 
    44	.6 
    45	.3 
    46	.6 
    47	.1 
    48	.8 
    49	.5 
    50	.3 
    51	.6 
    52	.5 
    53	.6 
    54	.5 
    55	.5 
    56	.6 
    57	.8 
    58	.5 
    59	.6 
    60	.8 
    61	.6 
    62	.8 
    63	.9 
    64	.8 
    65	.9 
