     1	 94.7 
     2	 99.6 
     3	 99.6 
     4	 99.6 
     5	 99.8 
     6	 99.5 
     7	 99.8 
     8	 98.9 
     9	 99.5 
    10	 99.5 
    11	 99.8 
    12	 99.6 
    13	 99.9 
    14	 99.4 
    15	 99.8 
    16	 99.5 
    17	 99.5 
    18	100.0 
    19	 99.5 
    20	 99.5 
    21	 99.8 
    22	 99.5 
    23	 99.4 
    24	 99.8 
