25 packets transmitted, 25 received, 0% packet loss, time 24035ms
25 packets transmitted, 25 received, 0% packet loss, time 24035ms
25 packets transmitted, 25 received, 0% packet loss, time 24033ms
25 packets transmitted, 25 received, 0% packet loss, time 24030ms
25 packets transmitted, 25 received, 0% packet loss, time 24033ms
25 packets transmitted, 25 received, 0% packet loss, time 24034ms
25 packets transmitted, 25 received, 0% packet loss, time 24032ms
25 packets transmitted, 25 received, 0% packet loss, time 24033ms
25 packets transmitted, 25 received, 0% packet loss, time 24037ms
25 packets transmitted, 25 received, 0% packet loss, time 24035ms
25 packets transmitted, 25 received, 0% packet loss, time 24032ms
25 packets transmitted, 25 received, 0% packet loss, time 24037ms
25 packets transmitted, 25 received, 0% packet loss, time 24037ms
25 packets transmitted, 25 received, 0% packet loss, time 24035ms
25 packets transmitted, 25 received, 0% packet loss, time 24035ms
25 packets transmitted, 25 received, 0% packet loss, time 24036ms
25 packets transmitted, 25 received, 0% packet loss, time 24034ms
25 packets transmitted, 25 received, 0% packet loss, time 24034ms
25 packets transmitted, 25 received, 0% packet loss, time 24037ms
25 packets transmitted, 25 received, 0% packet loss, time 24034ms
25 packets transmitted, 25 received, 0% packet loss, time 24034ms
25 packets transmitted, 25 received, 0% packet loss, time 24036ms
25 packets transmitted, 25 received, 0% packet loss, time 24037ms
25 packets transmitted, 25 received, 0% packet loss, time 24034ms
25 packets transmitted, 25 received, 0% packet loss, time 24035ms
25 packets transmitted, 25 received, 0% packet loss, time 24034ms
25 packets transmitted, 25 received, 0% packet loss, time 24034ms
25 packets transmitted, 25 received, 0% packet loss, time 24034ms
25 packets transmitted, 25 received, 0% packet loss, time 24036ms
25 packets transmitted, 25 received, 0% packet loss, time 24035ms
25 packets transmitted, 25 received, 0% packet loss, time 24037ms
25 packets transmitted, 25 received, 0% packet loss, time 24035ms
25 packets transmitted, 25 received, 0% packet loss, time 24038ms
25 packets transmitted, 25 received, 0% packet loss, time 24035ms
25 packets transmitted, 25 received, 0% packet loss, time 24035ms
25 packets transmitted, 25 received, 0% packet loss, time 24039ms
25 packets transmitted, 25 received, 0% packet loss, time 24039ms
25 packets transmitted, 25 received, 0% packet loss, time 24039ms
25 packets transmitted, 25 received, 0% packet loss, time 24039ms
25 packets transmitted, 25 received, 0% packet loss, time 24041ms
