     1	 94.7 
     2	 99.4 
     3	 99.6 
     4	 99.5 
     5	 99.5 
     6	 99.5 
     7	 99.3 
     8	 99.8 
     9	 99.6 
    10	 99.3 
    11	 99.4 
    12	 99.6 
    13	 99.6 
    14	 99.5 
    15	 99.4 
    16	 99.6 
    17	 99.8 
    18	 99.6 
    19	 99.9 
    20	 99.8 
    21	 99.8 
    22	 99.8 
    23	 99.5 
    24	 99.5 
