     1	279 
     2	280 
     3	281 
     4	282 
     5	294 
     6	291 
     7	291 
     8	291 
     9	291 
    10	290 
    11	290 
    12	290 
    13	290 
    14	290 
    15	290 
    16	290 
    17	290 
    18	290 
    19	290 
    20	290 
    21	290 
    22	290 
    23	290 
    24	290 
    25	290 
    26	290 
    27	290 
    28	290 
    29	290 
    30	290 
    31	290 
    32	290 
    33	290 
    34	290 
    35	290 
    36	290 
    37	290 
    38	290 
    39	290 
    40	290 
    41	290 
    42	290 
    43	290 
    44	290 
    45	290 
    46	290 
    47	290 
    48	290 
    49	290 
    50	290 
    51	290 
    52	290 
    53	290 
    54	290 
    55	290 
    56	290 
    57	290 
    58	290 
    59	290 
    60	290 
    61	290 
    62	290 
    63	290 
    64	290 
    65	290 
    66	290 
    67	290 
    68	290 
    69	290 
    70	290 
    71	290 
    72	290 
    73	290 
    74	290 
    75	290 
    76	290 
    77	290 
    78	290 
    79	290 
    80	290 
    81	290 
    82	290 
    83	290 
    84	290 
    85	290 
    86	290 
    87	290 
    88	290 
    89	290 
    90	290 
    91	290 
    92	290 
    93	290 
    94	290 
    95	290 
    96	290 
    97	290 
    98	290 
    99	290 
   100	290 
   101	290 
   102	290 
   103	290 
   104	290 
   105	290 
   106	290 
   107	290 
   108	290 
   109	290 
   110	290 
   111	290 
   112	290 
   113	290 
   114	290 
   115	290 
   116	290 
   117	290 
   118	290 
   119	290 
   120	290 
   121	290 
   122	290 
   123	290 
   124	290 
   125	290 
   126	290 
   127	290 
   128	290 
   129	290 
   130	290 
   131	290 
   132	290 
   133	290 
   134	290 
   135	290 
   136	290 
   137	290 
   138	290 
   139	290 
   140	290 
   141	290 
   142	290 
   143	290 
   144	290 
   145	290 
   146	290 
   147	290 
   148	290 
   149	290 
   150	290 
   151	290 
   152	290 
   153	290 
   154	290 
   155	290 
   156	290 
   157	290 
   158	289 
   159	289 
   160	289 
   161	289 
   162	289 
   163	289 
   164	289 
   165	289 
   166	289 
   167	289 
   168	289 
   169	289 
   170	289 
   171	289 
   172	289 
   173	289 
   174	289 
   175	289 
   176	289 
   177	289 
   178	289 
   179	289 
   180	289 
   181	289 
   182	289 
   183	289 
   184	289 
   185	289 
   186	289 
   187	289 
   188	289 
   189	289 
   190	289 
   191	289 
   192	289 
   193	289 
   194	289 
   195	289 
   196	289 
   197	289 
   198	289 
   199	289 
   200	289 
   201	289 
   202	289 
   203	289 
   204	289 
   205	289 
   206	289 
   207	289 
   208	289 
   209	289 
   210	289 
   211	289 
   212	289 
   213	289 
   214	289 
   215	289 
   216	289 
   217	289 
   218	289 
   219	289 
   220	289 
   221	289 
   222	289 
   223	289 
   224	289 
   225	289 
   226	289 
   227	289 
   228	289 
   229	289 
   230	289 
   231	289 
   232	289 
   233	289 
   234	289 
   235	289 
   236	289 
   237	289 
   238	289 
   239	289 
   240	289 
   241	289 
   242	289 
   243	289 
   244	289 
   245	289 
   246	289 
   247	289 
   248	289 
   249	289 
   250	289 
   251	289 
   252	289 
   253	289 
   254	289 
   255	289 
   256	289 
   257	289 
   258	289 
   259	289 
   260	289 
   261	289 
   262	289 
   263	289 
   264	289 
   265	289 
   266	289 
   267	289 
   268	289 
   269	289 
   270	289 
   271	289 
   272	289 
   273	289 
   274	289 
   275	289 
   276	289 
   277	289 
   278	289 
   279	289 
   280	289 
   281	289 
   282	289 
   283	289 
   284	289 
   285	289 
   286	289 
   287	287 
   288	287 
   289	287 
   290	287 
   291	287 
   292	287 
   293	287 
   294	287 
   295	287 
   296	287 
   297	287 
   298	287 
   299	287 
   300	287 
   301	287 
   302	287 
   303	282 
   304	282 
   305	282 
   306	282 
   307	282 
   308	281 
   309	281 
   310	281 
   311	281 
   312	281 
   313	281 
   314	281 
   315	281 
   316	281 
   317	281 
   318	281 
   319	281 
   320	281 
   321	281 
   322	281 
   323	281 
   324	281 
   325	281 
   326	281 
   327	281 
   328	281 
   329	281 
   330	281 
   331	281 
   332	281 
   333	281 
   334	281 
   335	281 
   336	281 
   337	281 
   338	281 
   339	281 
   340	281 
   341	281 
   342	281 
   343	281 
   344	281 
   345	281 
   346	281 
   347	281 
   348	281 
   349	281 
   350	281 
   351	281 
   352	281 
   353	281 
   354	281 
   355	281 
   356	281 
   357	281 
   358	281 
   359	281 
   360	281 
   361	281 
   362	281 
   363	281 
   364	281 
   365	281 
   366	281 
   367	281 
   368	281 
   369	281 
   370	281 
   371	281 
   372	281 
   373	281 
   374	281 
   375	281 
   376	281 
   377	281 
   378	281 
   379	281 
   380	281 
   381	281 
   382	281 
   383	281 
   384	281 
   385	281 
   386	281 
   387	281 
   388	281 
   389	281 
   390	281 
   391	281 
   392	281 
   393	281 
   394	281 
   395	281 
   396	281 
   397	281 
   398	281 
   399	282 
   400	282 
   401	282 
   402	282 
   403	282 
   404	282 
   405	282 
   406	282 
   407	282 
   408	282 
   409	282 
   410	282 
   411	282 
   412	282 
   413	282 
   414	282 
   415	282 
   416	282 
   417	282 
   418	282 
   419	282 
   420	282 
   421	282 
   422	282 
   423	282 
   424	282 
   425	282 
   426	282 
   427	282 
   428	282 
   429	282 
   430	282 
   431	282 
   432	282 
   433	282 
   434	282 
   435	282 
   436	282 
   437	282 
   438	282 
   439	282 
   440	282 
   441	282 
   442	282 
   443	282 
   444	282 
   445	282 
   446	282 
   447	282 
   448	282 
   449	282 
   450	282 
   451	282 
   452	282 
   453	282 
   454	282 
   455	282 
   456	282 
   457	282 
   458	282 
   459	282 
   460	282 
   461	282 
   462	282 
   463	282 
   464	282 
   465	282 
   466	282 
   467	282 
   468	282 
   469	282 
   470	282 
   471	282 
   472	282 
   473	282 
   474	282 
   475	282 
   476	282 
   477	282 
   478	282 
   479	282 
   480	282 
   481	282 
   482	282 
   483	282 
   484	282 
   485	282 
   486	282 
   487	282 
   488	282 
   489	282 
   490	282 
   491	282 
   492	282 
   493	282 
   494	282 
   495	282 
   496	282 
   497	282 
   498	282 
   499	281 
