     1	280 
     2	281 
     3	293 
     4	289 
     5	340 
     6	342 
     7	335 
     8	330 
     9	326 
    10	322 
    11	318 
    12	314 
    13	314 
    14	314 
    15	314 
    16	314 
    17	314 
    18	314 
    19	314 
    20	314 
    21	314 
    22	314 
    23	314 
    24	314 
    25	314 
    26	314 
    27	314 
    28	314 
    29	314 
    30	314 
    31	314 
    32	314 
    33	314 
    34	314 
    35	314 
    36	314 
    37	314 
    38	314 
    39	314 
    40	314 
    41	314 
    42	314 
    43	314 
    44	314 
    45	314 
    46	314 
    47	314 
    48	315 
    49	315 
    50	315 
    51	315 
    52	315 
    53	315 
    54	315 
    55	315 
    56	315 
    57	315 
    58	315 
    59	315 
    60	315 
    61	315 
    62	315 
    63	315 
    64	315 
    65	315 
    66	315 
    67	315 
    68	315 
    69	315 
    70	315 
    71	315 
    72	315 
    73	315 
    74	315 
    75	315 
    76	315 
    77	315 
    78	315 
    79	315 
    80	315 
    81	315 
    82	315 
    83	315 
    84	315 
    85	315 
    86	315 
    87	315 
    88	315 
    89	315 
    90	315 
    91	315 
    92	315 
    93	315 
    94	315 
    95	315 
    96	315 
    97	315 
    98	315 
    99	315 
   100	315 
   101	314 
   102	309 
   103	309 
   104	306 
   105	302 
