ping_15 | round-trip min/avg/max = 0.457/2.598/15.993 ms
ping_11 | round-trip min/avg/max = 0.445/1.019/4.001 ms
ping_39 | round-trip min/avg/max = 0.426/0.665/0.898 ms
ping_28 | round-trip min/avg/max = 0.488/0.693/0.912 ms
ping_27 | round-trip min/avg/max = 0.435/0.515/0.633 ms
ping_6  | round-trip min/avg/max = 0.450/0.698/0.927 ms
ping_22 | round-trip min/avg/max = 0.375/0.591/0.920 ms
ping_32 | round-trip min/avg/max = 0.442/0.741/0.963 ms
ping_10 | round-trip min/avg/max = 0.507/0.708/0.910 ms
ping_30 | round-trip min/avg/max = 0.456/0.456/0.456 ms
ping_1  | round-trip min/avg/max = 0.435/0.565/0.835 ms
ping_23 | round-trip min/avg/max = 0.522/0.589/0.639 ms
ping_35 | round-trip min/avg/max = 0.419/0.587/0.928 ms
ping_21 | round-trip min/avg/max = 0.414/0.554/0.667 ms
ping_36 | round-trip min/avg/max = 0.426/0.732/1.596 ms
ping_7  | round-trip min/avg/max = 0.430/0.611/0.950 ms
ping_12 | round-trip min/avg/max = 0.402/0.585/0.843 ms
ping_29 | round-trip min/avg/max = 0.611/0.825/0.950 ms
ping_18 | round-trip min/avg/max = 0.571/0.629/0.688 ms
ping_19 | round-trip min/avg/max = 0.429/0.634/0.891 ms
ping_20 | round-trip min/avg/max = 0.430/0.670/0.919 ms
ping_25 | round-trip min/avg/max = 0.427/0.610/0.781 ms
ping_2  | round-trip min/avg/max = 0.415/0.539/0.769 ms
ping_33 | round-trip min/avg/max = 0.413/0.616/0.864 ms
ping_34 | round-trip min/avg/max = 0.448/0.638/0.869 ms
ping_17 | round-trip min/avg/max = 0.428/0.616/0.907 ms
ping_40 | round-trip min/avg/max = 0.449/0.602/0.893 ms
ping_5  | round-trip min/avg/max = 0.447/0.655/0.907 ms
ping_8  | round-trip min/avg/max = 0.415/0.449/0.554 ms
ping_9  | round-trip min/avg/max = 0.430/0.718/1.659 ms
ping_24 | round-trip min/avg/max = 0.442/0.625/1.207 ms
ping_26 | round-trip min/avg/max = 0.424/0.544/0.909 ms
ping_14 | round-trip min/avg/max = 0.442/0.532/0.751 ms
ping_16 | round-trip min/avg/max = 0.410/0.541/0.809 ms
ping_4  | round-trip min/avg/max = 0.427/1.224/4.116 ms
ping_13 | round-trip min/avg/max = 0.453/0.633/1.188 ms
ping_3  | round-trip min/avg/max = 0.434/0.514/0.845 ms
ping_37 | round-trip min/avg/max = 0.424/0.896/4.006 ms
ping_31 | round-trip min/avg/max = 0.417/0.890/4.006 ms
ping_38 | round-trip min/avg/max = 0.441/0.860/3.485 ms
ping_54 | round-trip min/avg/max = 0.460/0.565/0.862 ms
ping_66 | round-trip min/avg/max = 0.452/0.725/1.881 ms
ping_82 | round-trip min/avg/max = 0.450/0.537/0.688 ms
ping_76 | round-trip min/avg/max = 0.468/0.833/1.848 ms
ping_57 | round-trip min/avg/max = 0.451/0.577/0.718 ms
ping_60 | round-trip min/avg/max = 0.410/0.641/0.820 ms
ping_46 | round-trip min/avg/max = 0.483/0.671/0.886 ms
ping_44 | round-trip min/avg/max = 0.509/0.668/0.888 ms
ping_99 | round-trip min/avg/max = 0.461/0.614/0.698 ms
ping_98 | round-trip min/avg/max = 0.402/0.644/0.824 ms
ping_67 | round-trip min/avg/max = 0.411/0.588/0.783 ms
ping_88 | round-trip min/avg/max = 0.520/0.718/0.911 ms
ping_58 | round-trip min/avg/max = 0.514/0.594/0.661 ms
ping_69 | round-trip min/avg/max = 0.507/0.507/0.507 ms
ping_86 | round-trip min/avg/max = 0.436/0.592/0.809 ms
ping_91 | round-trip min/avg/max = 0.386/0.585/0.863 ms
ping_81 | round-trip min/avg/max = 0.403/0.649/0.935 ms
ping_56 | round-trip min/avg/max = 0.409/0.617/0.820 ms
ping_93 | round-trip min/avg/max = 0.472/0.677/0.816 ms
ping_89 | round-trip min/avg/max = 0.530/0.530/0.530 ms
ping_50 | round-trip min/avg/max = 0.408/0.538/0.753 ms
ping_70 | round-trip min/avg/max = 0.383/0.575/0.808 ms
ping_95 | round-trip min/avg/max = 0.401/0.486/0.631 ms
ping_97 | round-trip min/avg/max = 0.472/0.650/0.836 ms
ping_87 | round-trip min/avg/max = 0.412/0.574/0.905 ms
ping_100 | round-trip min/avg/max = 0.462/0.647/0.904 ms
ping_83 | round-trip min/avg/max = 0.462/0.462/0.462 ms
ping_77 | round-trip min/avg/max = 0.473/0.604/0.935 ms
ping_55 | round-trip min/avg/max = 0.459/0.654/0.903 ms
ping_64 | round-trip min/avg/max = 0.411/0.595/0.937 ms
ping_85 | round-trip min/avg/max = 0.449/0.566/0.851 ms
ping_49 | round-trip min/avg/max = 0.411/0.519/0.691 ms
ping_78 | round-trip min/avg/max = 0.538/0.680/0.813 ms
ping_90 | round-trip min/avg/max = 0.437/0.609/0.785 ms
ping_47 | round-trip min/avg/max = 0.513/0.647/0.834 ms
ping_80 | round-trip min/avg/max = 0.468/0.726/1.326 ms
ping_71 | round-trip min/avg/max = 0.415/0.603/0.926 ms
ping_74 | round-trip min/avg/max = 0.429/0.535/0.642 ms
ping_53 | round-trip min/avg/max = 0.455/0.634/0.831 ms
ping_73 | round-trip min/avg/max = 0.534/0.693/0.909 ms
ping_63 | round-trip min/avg/max = 0.391/0.602/0.991 ms
ping_45 | round-trip min/avg/max = 0.434/0.624/0.885 ms
ping_96 | round-trip min/avg/max = 0.546/0.546/0.546 ms
ping_59 | round-trip min/avg/max = 0.509/0.620/0.840 ms
ping_79 | round-trip min/avg/max = 0.545/0.744/0.908 ms
ping_52 | round-trip min/avg/max = 0.416/0.625/0.914 ms
ping_94 | round-trip min/avg/max = 0.431/0.599/0.961 ms
ping_72 | round-trip min/avg/max = 0.498/0.761/0.953 ms
ping_41 | round-trip min/avg/max = 0.508/0.750/0.949 ms
ping_42 | round-trip min/avg/max = 0.551/0.663/0.844 ms
ping_43 | round-trip min/avg/max = 0.444/0.624/0.873 ms
ping_92 | round-trip min/avg/max = 0.414/0.667/0.874 ms
ping_48 | round-trip min/avg/max = 0.453/0.668/0.965 ms
ping_62 | round-trip min/avg/max = 0.441/0.655/0.850 ms
ping_61 | round-trip min/avg/max = 0.453/0.453/0.453 ms
ping_75 | round-trip min/avg/max = 0.560/0.560/0.560 ms
