     1	1327888 
     2	1327888 
     3	1327888 
     4	1328260 
     5	1328260 
     6	1328260 
     7	1328260 
     8	1328260 
     9	1328260 
    10	1328260 
    11	1328260 
    12	1328260 
    13	1328444 
    14	1328444 
    15	1328444 
    16	1328444 
    17	1328444 
    18	1328444 
    19	1328440 
    20	1328440 
    21	1328440 
    22	1328464 
    23	1328464 
    24	1328464 
    25	1328496 
    26	1328496 
    27	1328496 
