PING 128.223.32.36 (128.223.32.36) 56(84) bytes of data.
64 bytes from 128.223.32.36: icmp_seq=1 ttl=63 time=0.298 ms
PING 128.223.32.36 (128.223.32.36) 56(84) bytes of data.
64 bytes from 128.223.32.36: icmp_seq=1 ttl=63 time=0.419 ms
PING 128.223.32.36 (128.223.32.36) 56(84) bytes of data.
64 bytes from 128.223.32.36: icmp_seq=1 ttl=63 time=0.338 ms
PING 128.223.32.36 (128.223.32.36) 56(84) bytes of data.
64 bytes from 128.223.32.36: icmp_seq=1 ttl=63 time=0.372 ms
PING 128.223.32.36 (128.223.32.36) 56(84) bytes of data.
64 bytes from 128.223.32.36: icmp_seq=1 ttl=63 time=0.394 ms
64 bytes from 128.223.32.36: icmp_seq=2 ttl=63 time=0.973 ms
64 bytes from 128.223.32.36: icmp_seq=2 ttl=63 time=0.809 ms
PING 128.223.32.36 (128.223.32.36) 56(84) bytes of data.
64 bytes from 128.223.32.36: icmp_seq=2 ttl=63 time=0.506 ms
PING 128.223.32.36 (128.223.32.36) 56(84) bytes of data.
64 bytes from 128.223.32.36: icmp_seq=2 ttl=63 time=0.910 ms
PING 128.223.32.36 (128.223.32.36) 56(84) bytes of data.
64 bytes from 128.223.32.36: icmp_seq=2 ttl=63 time=1.07 ms
64 bytes from 128.223.32.36: icmp_seq=3 ttl=63 time=0.686 ms
64 bytes from 128.223.32.36: icmp_seq=3 ttl=63 time=0.725 ms
PING 128.223.32.36 (128.223.32.36) 56(84) bytes of data.
64 bytes from 128.223.32.36: icmp_seq=3 ttl=63 time=0.580 ms
PING 128.223.32.36 (128.223.32.36) 56(84) bytes of data.
64 bytes from 128.223.32.36: icmp_seq=3 ttl=63 time=0.794 ms
64 bytes from 128.223.32.36: icmp_seq=4 ttl=63 time=0.637 ms
PING 128.223.32.36 (128.223.32.36) 56(84) bytes of data.
64 bytes from 128.223.32.36: icmp_seq=4 ttl=63 time=0.591 ms
PING 128.223.32.36 (128.223.32.36) 56(84) bytes of data.
64 bytes from 128.223.32.36: icmp_seq=4 ttl=63 time=0.667 ms
64 bytes from 128.223.32.36: icmp_seq=4 ttl=63 time=0.672 ms
PING 128.223.32.36 (128.223.32.36) 56(84) bytes of data.
64 bytes from 128.223.32.36: icmp_seq=4 ttl=63 time=0.500 ms
64 bytes from 128.223.32.36: icmp_seq=5 ttl=63 time=0.634 ms
PING 128.223.32.36 (128.223.32.36) 56(84) bytes of data.
64 bytes from 128.223.32.36: icmp_seq=5 ttl=63 time=0.708 ms
64 bytes from 128.223.32.36: icmp_seq=5 ttl=63 time=0.736 ms
PING 128.223.32.36 (128.223.32.36) 56(84) bytes of data.
64 bytes from 128.223.32.36: icmp_seq=5 ttl=63 time=0.726 ms
PING 128.223.32.36 (128.223.32.36) 56(84) bytes of data.
64 bytes from 128.223.32.36: icmp_seq=5 ttl=63 time=0.552 ms
64 bytes from 128.223.32.36: icmp_seq=6 ttl=63 time=0.704 ms
64 bytes from 128.223.32.36: icmp_seq=6 ttl=63 time=0.733 ms
64 bytes from 128.223.32.36: icmp_seq=6 ttl=63 time=0.765 ms
64 bytes from 128.223.32.36: icmp_seq=6 ttl=63 time=0.835 ms
PING 128.223.32.36 (128.223.32.36) 56(84) bytes of data.
64 bytes from 128.223.32.36: icmp_seq=6 ttl=63 time=0.584 ms
64 bytes from 128.223.32.36: icmp_seq=7 ttl=63 time=0.692 ms
64 bytes from 128.223.32.36: icmp_seq=7 ttl=63 time=0.656 ms
PING 128.223.32.36 (128.223.32.36) 56(84) bytes of data.
64 bytes from 128.223.32.36: icmp_seq=7 ttl=63 time=0.562 ms
64 bytes from 128.223.32.36: icmp_seq=7 ttl=63 time=1.01 ms
64 bytes from 128.223.32.36: icmp_seq=7 ttl=63 time=1.08 ms
64 bytes from 128.223.32.36: icmp_seq=8 ttl=63 time=0.622 ms
64 bytes from 128.223.32.36: icmp_seq=8 ttl=63 time=0.607 ms
64 bytes from 128.223.32.36: icmp_seq=8 ttl=63 time=0.660 ms
64 bytes from 128.223.32.36: icmp_seq=8 ttl=63 time=0.704 ms
PING 128.223.32.36 (128.223.32.36) 56(84) bytes of data.
64 bytes from 128.223.32.36: icmp_seq=8 ttl=63 time=0.554 ms
64 bytes from 128.223.32.36: icmp_seq=9 ttl=63 time=0.401 ms
64 bytes from 128.223.32.36: icmp_seq=9 ttl=63 time=0.452 ms
64 bytes from 128.223.32.36: icmp_seq=9 ttl=63 time=0.452 ms
64 bytes from 128.223.32.36: icmp_seq=9 ttl=63 time=0.416 ms
64 bytes from 128.223.32.36: icmp_seq=9 ttl=63 time=0.395 ms
PING 128.223.32.36 (128.223.32.36) 56(84) bytes of data.
64 bytes from 128.223.32.36: icmp_seq=9 ttl=63 time=0.399 ms
64 bytes from 128.223.32.36: icmp_seq=10 ttl=63 time=0.486 ms
64 bytes from 128.223.32.36: icmp_seq=10 ttl=63 time=0.495 ms
PING 128.223.32.36 (128.223.32.36) 56(84) bytes of data.
64 bytes from 128.223.32.36: icmp_seq=10 ttl=63 time=0.479 ms
64 bytes from 128.223.32.36: icmp_seq=10 ttl=63 time=0.400 ms
PING 128.223.32.36 (128.223.32.36) 56(84) bytes of data.
64 bytes from 128.223.32.36: icmp_seq=10 ttl=63 time=0.566 ms
64 bytes from 128.223.32.36: icmp_seq=11 ttl=63 time=0.717 ms
64 bytes from 128.223.32.36: icmp_seq=11 ttl=63 time=0.635 ms
64 bytes from 128.223.32.36: icmp_seq=11 ttl=63 time=0.685 ms
64 bytes from 128.223.32.36: icmp_seq=11 ttl=63 time=0.523 ms
64 bytes from 128.223.32.36: icmp_seq=12 ttl=63 time=0.839 ms
64 bytes from 128.223.32.36: icmp_seq=12 ttl=63 time=0.706 ms
64 bytes from 128.223.32.36: icmp_seq=12 ttl=63 time=0.644 ms
PING 128.223.32.36 (128.223.32.36) 56(84) bytes of data.
64 bytes from 128.223.32.36: icmp_seq=12 ttl=63 time=0.549 ms
64 bytes from 128.223.32.36: icmp_seq=13 ttl=63 time=0.641 ms
64 bytes from 128.223.32.36: icmp_seq=13 ttl=63 time=0.678 ms
PING 128.223.32.36 (128.223.32.36) 56(84) bytes of data.
64 bytes from 128.223.32.36: icmp_seq=13 ttl=63 time=0.755 ms
64 bytes from 128.223.32.36: icmp_seq=13 ttl=63 time=0.549 ms
64 bytes from 128.223.32.36: icmp_seq=13 ttl=63 time=0.755 ms
64 bytes from 128.223.32.36: icmp_seq=14 ttl=63 time=0.653 ms
64 bytes from 128.223.32.36: icmp_seq=14 ttl=63 time=0.688 ms
64 bytes from 128.223.32.36: icmp_seq=14 ttl=63 time=0.645 ms
64 bytes from 128.223.32.36: icmp_seq=14 ttl=63 time=0.648 ms
64 bytes from 128.223.32.36: icmp_seq=14 ttl=63 time=0.512 ms
PING 128.223.32.36 (128.223.32.36) 56(84) bytes of data.
64 bytes from 128.223.32.36: icmp_seq=14 ttl=63 time=0.683 ms
64 bytes from 128.223.32.36: icmp_seq=15 ttl=63 time=0.675 ms
64 bytes from 128.223.32.36: icmp_seq=15 ttl=63 time=0.672 ms
64 bytes from 128.223.32.36: icmp_seq=15 ttl=63 time=0.720 ms
64 bytes from 128.223.32.36: icmp_seq=15 ttl=63 time=0.740 ms
PING 128.223.32.36 (128.223.32.36) 56(84) bytes of data.
64 bytes from 128.223.32.36: icmp_seq=15 ttl=63 time=0.555 ms
64 bytes from 128.223.32.36: icmp_seq=16 ttl=63 time=0.464 ms
64 bytes from 128.223.32.36: icmp_seq=16 ttl=63 time=0.467 ms
64 bytes from 128.223.32.36: icmp_seq=16 ttl=63 time=0.520 ms
64 bytes from 128.223.32.36: icmp_seq=16 ttl=63 time=0.423 ms
64 bytes from 128.223.32.36: icmp_seq=16 ttl=63 time=0.351 ms
64 bytes from 128.223.32.36: icmp_seq=17 ttl=63 time=0.502 ms
64 bytes from 128.223.32.36: icmp_seq=17 ttl=63 time=0.588 ms
64 bytes from 128.223.32.36: icmp_seq=17 ttl=63 time=0.623 ms
64 bytes from 128.223.32.36: icmp_seq=17 ttl=63 time=0.629 ms
64 bytes from 128.223.32.36: icmp_seq=17 ttl=63 time=0.538 ms
PING 128.223.32.36 (128.223.32.36) 56(84) bytes of data.
64 bytes from 128.223.32.36: icmp_seq=17 ttl=63 time=0.732 ms
64 bytes from 128.223.32.36: icmp_seq=18 ttl=63 time=0.490 ms
PING 128.223.32.36 (128.223.32.36) 56(84) bytes of data.
64 bytes from 128.223.32.36: icmp_seq=18 ttl=63 time=0.503 ms
64 bytes from 128.223.32.36: icmp_seq=18 ttl=63 time=0.579 ms
64 bytes from 128.223.32.36: icmp_seq=18 ttl=63 time=0.556 ms
64 bytes from 128.223.32.36: icmp_seq=18 ttl=63 time=0.455 ms
64 bytes from 128.223.32.36: icmp_seq=19 ttl=63 time=0.703 ms
PING 128.223.32.36 (128.223.32.36) 56(84) bytes of data.
64 bytes from 128.223.32.36: icmp_seq=19 ttl=63 time=0.491 ms
64 bytes from 128.223.32.36: icmp_seq=19 ttl=63 time=0.447 ms
PING 128.223.32.36 (128.223.32.36) 56(84) bytes of data.
64 bytes from 128.223.32.36: icmp_seq=19 ttl=63 time=0.526 ms
64 bytes from 128.223.32.36: icmp_seq=19 ttl=63 time=0.543 ms
64 bytes from 128.223.32.36: icmp_seq=19 ttl=63 time=0.719 ms
64 bytes from 128.223.32.36: icmp_seq=20 ttl=63 time=0.778 ms
64 bytes from 128.223.32.36: icmp_seq=20 ttl=63 time=0.646 ms
64 bytes from 128.223.32.36: icmp_seq=20 ttl=63 time=0.515 ms
PING 128.223.32.36 (128.223.32.36) 56(84) bytes of data.
64 bytes from 128.223.32.36: icmp_seq=20 ttl=63 time=0.492 ms
64 bytes from 128.223.32.36: icmp_seq=20 ttl=63 time=0.483 ms
PING 128.223.32.36 (128.223.32.36) 56(84) bytes of data.
64 bytes from 128.223.32.36: icmp_seq=20 ttl=63 time=0.636 ms
64 bytes from 128.223.32.36: icmp_seq=21 ttl=63 time=0.504 ms
64 bytes from 128.223.32.36: icmp_seq=21 ttl=63 time=0.583 ms
64 bytes from 128.223.32.36: icmp_seq=21 ttl=63 time=0.435 ms
PING 128.223.32.36 (128.223.32.36) 56(84) bytes of data.
64 bytes from 128.223.32.36: icmp_seq=21 ttl=63 time=0.501 ms
PING 128.223.32.36 (128.223.32.36) 56(84) bytes of data.
64 bytes from 128.223.32.36: icmp_seq=21 ttl=63 time=0.507 ms
PING 128.223.32.36 (128.223.32.36) 56(84) bytes of data.
64 bytes from 128.223.32.36: icmp_seq=21 ttl=63 time=0.731 ms
64 bytes from 128.223.32.36: icmp_seq=22 ttl=63 time=0.523 ms
64 bytes from 128.223.32.36: icmp_seq=22 ttl=63 time=0.614 ms
64 bytes from 128.223.32.36: icmp_seq=22 ttl=63 time=0.632 ms
64 bytes from 128.223.32.36: icmp_seq=22 ttl=63 time=0.551 ms
64 bytes from 128.223.32.36: icmp_seq=22 ttl=63 time=0.666 ms
64 bytes from 128.223.32.36: icmp_seq=22 ttl=63 time=0.489 ms
64 bytes from 128.223.32.36: icmp_seq=23 ttl=63 time=0.717 ms
64 bytes from 128.223.32.36: icmp_seq=23 ttl=63 time=0.699 ms
64 bytes from 128.223.32.36: icmp_seq=23 ttl=63 time=0.610 ms
PING 128.223.32.36 (128.223.32.36) 56(84) bytes of data.
64 bytes from 128.223.32.36: icmp_seq=23 ttl=63 time=0.615 ms
PING 128.223.32.36 (128.223.32.36) 56(84) bytes of data.
64 bytes from 128.223.32.36: icmp_seq=23 ttl=63 time=0.505 ms
64 bytes from 128.223.32.36: icmp_seq=23 ttl=63 time=0.412 ms
64 bytes from 128.223.32.36: icmp_seq=24 ttl=63 time=0.463 ms
64 bytes from 128.223.32.36: icmp_seq=24 ttl=63 time=0.473 ms
64 bytes from 128.223.32.36: icmp_seq=24 ttl=63 time=0.475 ms
64 bytes from 128.223.32.36: icmp_seq=24 ttl=63 time=0.435 ms
64 bytes from 128.223.32.36: icmp_seq=24 ttl=63 time=0.540 ms
64 bytes from 128.223.32.36: icmp_seq=24 ttl=63 time=0.795 ms
64 bytes from 128.223.32.36: icmp_seq=25 ttl=63 time=0.408 ms
64 bytes from 128.223.32.36: icmp_seq=25 ttl=63 time=0.490 ms
64 bytes from 128.223.32.36: icmp_seq=25 ttl=63 time=0.509 ms
PING 128.223.32.36 (128.223.32.36) 56(84) bytes of data.
64 bytes from 128.223.32.36: icmp_seq=25 ttl=63 time=0.494 ms
64 bytes from 128.223.32.36: icmp_seq=25 ttl=63 time=0.555 ms


--- 128.223.32.36 ping statistics ---
25 packets transmitted, 11 received, 56% packet loss, time 24481ms
rtt min/avg/max/mdev = 0.452/0.606/0.717/0.084 ms
--- 128.223.32.36 ping statistics ---
25 packets transmitted, 14 received, 44% packet loss, time 24481ms
rtt min/avg/max/mdev = 0.401/0.666/1.083/0.210 ms

--- 128.223.32.36 ping statistics ---
25 packets transmitted, 7 received, 72% packet loss, time 24514ms
rtt min/avg/max/mdev = 0.623/0.724/1.014/0.122 ms




--- 128.223.32.36 ping statistics ---
25 packets transmitted, 3 received, 88% packet loss, time 24546ms
rtt min/avg/max/mdev = 0.435/0.476/0.505/0.039 ms
--- 128.223.32.36 ping statistics ---
25 packets transmitted, 6 received, 76% packet loss, time 24548ms
rtt min/avg/max/mdev = 0.408/0.539/0.725/0.120 ms




--- 128.223.32.36 ping statistics ---
25 packets transmitted, 9 received, 64% packet loss, time 24549ms
rtt min/avg/max/mdev = 0.416/0.637/0.973/0.168 ms
--- 128.223.32.36 ping statistics ---
25 packets transmitted, 3 received, 88% packet loss, time 24546ms
rtt min/avg/max/mdev = 0.492/0.537/0.610/0.052 ms
--- 128.223.32.36 ping statistics ---
25 packets transmitted, 3 received, 88% packet loss, time 24547ms
rtt min/avg/max/mdev = 0.447/0.501/0.566/0.049 ms
--- 128.223.32.36 ping statistics ---
25 packets transmitted, 2 received, 92% packet loss, time 24546ms
rtt min/avg/max/mdev = 0.580/0.623/0.666/0.043 ms
--- 128.223.32.36 ping statistics ---
25 packets transmitted, 4 received, 84% packet loss, time 24547ms
rtt min/avg/max/mdev = 0.629/0.691/0.765/0.059 ms
--- 128.223.32.36 ping statistics ---
25 packets transmitted, 1 received, 96% packet loss, time 24548ms
rtt min/avg/max/mdev = 0.501/0.501/0.501/0.000 ms

--- 128.223.32.36 ping statistics ---
25 packets transmitted, 1 received, 96% packet loss, time 24546ms
rtt min/avg/max/mdev = 0.507/0.507/0.507/0.000 ms




--- 128.223.32.36 ping statistics ---
25 packets transmitted, 2 received, 92% packet loss, time 24545ms
rtt min/avg/max/mdev = 0.479/0.582/0.685/0.103 ms
--- 128.223.32.36 ping statistics ---
25 packets transmitted, 6 received, 76% packet loss, time 24544ms
rtt min/avg/max/mdev = 0.523/0.613/0.704/0.079 ms


--- 128.223.32.36 ping statistics ---
25 packets transmitted, 2 received, 92% packet loss, time 24545ms
rtt min/avg/max/mdev = 0.483/0.504/0.526/0.031 ms
--- 128.223.32.36 ping statistics ---
25 packets transmitted, 6 received, 76% packet loss, time 24545ms
rtt min/avg/max/mdev = 0.395/0.463/0.549/0.065 ms

--- 128.223.32.36 ping statistics ---
25 packets transmitted, 3 received, 88% packet loss, time 24544ms
rtt min/avg/max/mdev = 0.452/0.582/0.740/0.119 ms
--- 128.223.32.36 ping statistics ---
25 packets transmitted, 1 received, 96% packet loss, time 24547ms
rtt min/avg/max/mdev = 0.491/0.491/0.491/0.000 ms
--- 128.223.32.36 ping statistics ---
25 packets transmitted, 1 received, 96% packet loss, time 24544ms
rtt min/avg/max/mdev = 0.615/0.615/0.615/0.000 ms


--- 128.223.32.36 ping statistics ---
25 packets transmitted, 4 received, 84% packet loss, time 24548ms
rtt min/avg/max/mdev = 0.579/0.663/0.794/0.083 ms

--- 128.223.32.36 ping statistics ---
25 packets transmitted, 5 received, 80% packet loss, time 24550ms
rtt min/avg/max/mdev = 0.394/0.599/0.809/0.146 ms
--- 128.223.32.36 ping statistics ---
25 packets transmitted, 2 received, 92% packet loss, time 24546ms
rtt min/avg/max/mdev = 0.591/0.663/0.736/0.076 ms

--- 128.223.32.36 ping statistics ---
25 packets transmitted, 3 received, 88% packet loss, time 24545ms
rtt min/avg/max/mdev = 0.435/0.508/0.549/0.051 ms


--- 128.223.32.36 ping statistics ---
25 packets transmitted, 4 received, 84% packet loss, time 24548ms
rtt min/avg/max/mdev = 0.634/0.753/0.910/0.124 ms
--- 128.223.32.36 ping statistics ---
25 packets transmitted, 2 received, 92% packet loss, time 24545ms
rtt min/avg/max/mdev = 0.512/0.537/0.562/0.025 ms

--- 128.223.32.36 ping statistics ---
25 packets transmitted, 1 received, 96% packet loss, time 24548ms
rtt min/avg/max/mdev = 0.555/0.555/0.555/0.000 ms

--- 128.223.32.36 ping statistics ---
25 packets transmitted, 6 received, 76% packet loss, time 24549ms
rtt min/avg/max/mdev = 0.467/0.570/0.720/0.096 ms

--- 128.223.32.36 ping statistics ---
25 packets transmitted, 1 received, 96% packet loss, time 24545ms
rtt min/avg/max/mdev = 0.503/0.503/0.503/0.000 ms

--- 128.223.32.36 ping statistics ---
25 packets transmitted, 4 received, 84% packet loss, time 24546ms
rtt min/avg/max/mdev = 0.520/0.648/0.755/0.089 ms





--- 128.223.32.36 ping statistics ---
25 packets transmitted, 3 received, 88% packet loss, time 24581ms
rtt min/avg/max/mdev = 0.399/0.637/0.795/0.174 ms
--- 128.223.32.36 ping statistics ---
25 packets transmitted, 1 received, 96% packet loss, time 24581ms
rtt min/avg/max/mdev = 0.338/0.338/0.338/0.000 ms
--- 128.223.32.36 ping statistics ---
25 packets transmitted, 2 received, 92% packet loss, time 24577ms
rtt min/avg/max/mdev = 0.489/0.610/0.732/0.123 ms
--- 128.223.32.36 ping statistics ---
25 packets transmitted, 1 received, 96% packet loss, time 24581ms
rtt min/avg/max/mdev = 0.298/0.298/0.298/0.000 ms
--- 128.223.32.36 ping statistics ---
25 packets transmitted, 1 received, 96% packet loss, time 24581ms
rtt min/avg/max/mdev = 0.372/0.372/0.372/0.000 ms


--- 128.223.32.36 ping statistics ---
25 packets transmitted, 1 received, 96% packet loss, time 24580ms
rtt min/avg/max/mdev = 0.636/0.636/0.636/0.000 ms

--- 128.223.32.36 ping statistics ---
25 packets transmitted, 1 received, 96% packet loss, time 24576ms
rtt min/avg/max/mdev = 0.731/0.731/0.731/0.000 ms
--- 128.223.32.36 ping statistics ---
25 packets transmitted, 3 received, 88% packet loss, time 24579ms
rtt min/avg/max/mdev = 0.351/0.482/0.683/0.144 ms

--- 128.223.32.36 ping statistics ---
25 packets transmitted, 1 received, 96% packet loss, time 24547ms
rtt min/avg/max/mdev = 0.494/0.494/0.494/0.000 ms
PING 128.223.32.36 (128.223.32.36) 56(84) bytes of data.

PING 128.223.32.36 (128.223.32.36) 56(84) bytes of data.

--- 128.223.32.36 ping statistics ---
25 packets transmitted, 0 received, 100% packet loss, time 24580ms

--- 128.223.32.36 ping statistics ---
25 packets transmitted, 0 received, 100% packet loss, time 24579ms

