     1	296 
     2	297 
     3	320 
     4	403 
     5	497 
     6	592 
     7	693 
     8	748 
     9	754 
    10	745 
    11	740 
    12	739 
    13	748 
    14	746 
    15	738 
    16	735 
    17	737 
    18	755 
    19	752 
    20	748 
    21	736 
    22	748 
    23	758 
    24	741 
    25	748 
    26	751 
    27	741 
    28	713 
    29	686 
    30	668 
    31	649 
    32	624 
    33	598 
    34	565 
    35	549 
    36	516 
    37	487 
    38	463 
    39	453 
    40	427 
    41	413 
    42	398 
    43	391 
    44	373 
    45	361 
    46	351 
    47	337 
    48	317 
    49	313 
    50	306 
    51	309 
    52	296 
    53	296 
    54	296 
    55	296 
    56	296 
    57	296 
    58	296 
    59	296 
    60	296 
    61	296 
    62	296 
    63	296 
    64	296 
    65	296 
