     1	1474856 
     2	1474856 
     3	1474856 
     4	1474944 
     5	1474944 
     6	1474944 
     7	1474988 
     8	1474988 
     9	1474988 
    10	1474976 
    11	1474976 
    12	1475008 
    13	1475008 
    14	1475008 
    15	1474920 
    16	1474920 
    17	1474920 
    18	1474912 
    19	1474912 
    20	1474912 
    21	1474944 
    22	1474944 
    23	1474944 
    24	1474940 
    25	1474940 
    26	1474940 
    27	1474976 
    28	1474976 
    29	1474976 
    30	1475000 
    31	1475000 
    32	1475000 
    33	1475008 
    34	1475008 
    35	1475008 
    36	1475024 
    37	1475024 
    38	1475024 
    39	1475032 
    40	1475032 
    41	1475032 
    42	1475052 
    43	1475052 
    44	1475052 
    45	1475044 
    46	1475044 
    47	1475044 
    48	1475072 
    49	1475072 
    50	1475072 
    51	1475112 
    52	1475112 
    53	1475112 
    54	1475136 
    55	1475136 
    56	1475136 
    57	1475164 
    58	1475164 
    59	1475164 
    60	1475196 
    61	1475196 
    62	1475196 
    63	1475200 
    64	1475200 
    65	1475200 
    66	1475192 
    67	1475192 
    68	1475192 
    69	1475232 
    70	1475232 
    71	1475232 
    72	1475224 
    73	1475224 
    74	1475224 
    75	1475168 
    76	1475168 
    77	1475168 
    78	1475160 
    79	1475160 
    80	1475160 
    81	1475200 
    82	1475200 
    83	1475200 
    84	1475228 
    85	1475228 
    86	1475228 
    87	1475228 
    88	1475228 
    89	1475228 
    90	1475264 
    91	1475264 
    92	1475264 
    93	1475252 
    94	1475252 
    95	1475252 
    96	1475288 
    97	1475288 
    98	1475288 
    99	1475276 
   100	1475276 
   101	1475276 
   102	1475316 
   103	1475316 
   104	1475316 
   105	1475332 
   106	1475332 
   107	1475332 
   108	1475340 
   109	1475340 
   110	1475340 
   111	1475336 
   112	1475336 
   113	1475336 
   114	1475376 
   115	1475376 
   116	1475376 
   117	1475404 
   118	1475404 
   119	1475404 
   120	1475524 
   121	1475524 
   122	1475524 
   123	1475548 
   124	1475548 
   125	1475548 
   126	1475552 
   127	1475552 
   128	1475552 
   129	1475576 
   130	1475576 
   131	1475576 
   132	1475612 
   133	1475612 
   134	1475612 
   135	1475604 
   136	1475604 
   137	1475604 
   138	1475636 
   139	1475636 
   140	1475636 
   141	1475660 
   142	1475660 
   143	1475660 
   144	1475660 
   145	1475660 
   146	1475660 
   147	1475664 
   148	1475664 
   149	1475664 
   150	1475728 
   151	1475728 
   152	1475728 
   153	1475716 
   154	1475716 
   155	1475716 
   156	1475724 
   157	1475724 
   158	1475724 
   159	1475752 
   160	1475752 
   161	1475752 
   162	1475824 
   163	1475824 
   164	1475824 
   165	1475816 
   166	1475816 
   167	1475816 
   168	1475812 
   169	1475812 
   170	1475812 
   171	1475840 
   172	1475840 
   173	1475840 
   174	1475876 
   175	1475876 
   176	1475876 
   177	1475744 
   178	1475744 
   179	1475744 
   180	1475744 
   181	1475744 
   182	1475744 
   183	1475776 
   184	1475776 
   185	1475776 
   186	1475736 
   187	1475736 
   188	1475736 
   189	1475756 
   190	1475756 
   191	1475756 
   192	1475764 
   193	1475764 
   194	1475764 
   195	1475784 
   196	1475784 
   197	1475784 
   198	1475660 
   199	1475660 
   200	1475660 
   201	1475664 
   202	1475664 
   203	1475664 
   204	1475664 
   205	1475664 
   206	1475664 
   207	1475720 
   208	1475720 
   209	1475720 
   210	1475720 
   211	1475720 
   212	1475720 
   213	1475720 
   214	1475720 
   215	1475720 
   216	1475712 
   217	1475712 
   218	1475712 
   219	1475776 
   220	1475776 
   221	1475776 
   222	1475772 
   223	1475772 
   224	1475808 
   225	1475808 
   226	1475808 
   227	1475808 
   228	1475808 
   229	1475808 
   230	1475836 
   231	1475836 
   232	1475836 
   233	1475836 
   234	1475836 
   235	1475836 
   236	1475860 
   237	1475860 
   238	1475860 
   239	1475860 
   240	1475860 
   241	1475860 
   242	1475892 
   243	1475892 
   244	1475892 
   245	1475920 
   246	1475920 
   247	1475920 
   248	1475916 
   249	1475916 
   250	1475916 
   251	1475948 
   252	1475948 
   253	1475948 
   254	1475924 
   255	1475924 
   256	1475924 
   257	1475952 
   258	1475952 
   259	1475952 
   260	1475984 
   261	1475984 
   262	1475984 
   263	1475980 
   264	1475980 
   265	1475980 
   266	1476008 
   267	1476008 
   268	1476008 
   269	1476032 
   270	1476032 
   271	1476032 
   272	1476032 
   273	1476032 
   274	1476032 
   275	1476032 
   276	1476032 
   277	1476032 
   278	1476060 
   279	1476060 
   280	1476060 
   281	1476092 
   282	1476092 
   283	1476092 
   284	1476120 
   285	1476120 
   286	1476120 
   287	1476120 
   288	1476120 
   289	1476120 
   290	1476120 
   291	1476120 
   292	1476120 
   293	1476148 
   294	1476148 
   295	1476148 
   296	1476184 
   297	1476184 
   298	1476184 
   299	1476212 
   300	1476212 
   301	1476212 
   302	1476212 
   303	1476212 
   304	1476212 
   305	1476208 
   306	1476208 
   307	1476208 
   308	1476236 
   309	1476236 
   310	1476236 
   311	1472520 
   312	1472520 
   313	1472520 
   314	1472552 
   315	1472552 
   316	1472552 
   317	1472584 
   318	1472584 
   319	1472584 
   320	1472612 
   321	1472612 
   322	1472612 
   323	1472612 
   324	1472612 
   325	1472612 
   326	1472612 
   327	1472612 
   328	1472612 
   329	1472640 
   330	1472640 
   331	1472640 
   332	1472668 
   333	1472668 
   334	1472668 
   335	1472672 
   336	1472672 
   337	1472672 
   338	1451240 
   339	1451240 
   340	1451240 
   341	1451236 
   342	1451236 
   343	1451236 
   344	1451268 
   345	1451268 
   346	1451268 
   347	1451296 
   348	1451296 
   349	1451296 
   350	1451296 
   351	1451296 
   352	1451296 
   353	1451328 
   354	1451328 
   355	1451328 
   356	1451324 
   357	1451324 
   358	1451324 
   359	1451356 
   360	1451356 
   361	1451356 
   362	1451384 
   363	1451384 
   364	1451384 
   365	1451384 
   366	1451384 
   367	1451384 
   368	1451380 
   369	1451380 
   370	1451380 
   371	1451408 
   372	1451408 
   373	1451408 
   374	1451436 
   375	1451436 
   376	1451436 
   377	1451436 
   378	1451436 
   379	1451436 
   380	1451468 
   381	1451468 
   382	1451468 
   383	1451464 
   384	1451464 
   385	1451464 
   386	1451496 
   387	1451496 
   388	1451496 
   389	1451452 
   390	1451452 
   391	1451452 
   392	1451484 
   393	1451484 
   394	1451484 
   395	1451480 
   396	1451480 
   397	1451480 
   398	1451480 
   399	1451480 
   400	1451480 
   401	1451512 
   402	1451512 
   403	1451512 
   404	1451536 
   405	1451536 
   406	1451536 
   407	1451568 
   408	1451568 
   409	1451568 
   410	1451564 
   411	1451564 
   412	1451564 
   413	1451660 
   414	1451660 
   415	1451660 
   416	1451656 
   417	1451656 
   418	1451656 
   419	1451684 
   420	1451684 
   421	1451684 
   422	1451680 
   423	1451680 
   424	1451680 
   425	1451712 
   426	1451712 
   427	1451712 
   428	1451712 
   429	1451712 
   430	1451712 
   431	1451740 
   432	1451740 
   433	1451740 
   434	1451748 
   435	1451748 
   436	1451748 
   437	1451748 
   438	1451748 
   439	1451748 
   440	1451748 
   441	1451748 
   442	1451748 
   443	1451776 
   444	1451776 
   445	1451776 
   446	1451776 
   447	1451776 
   448	1451776 
   449	1451808 
   450	1451808 
   451	1451808 
   452	1451824 
   453	1451824 
   454	1451824 
   455	1451840 
   456	1451840 
   457	1451840 
   458	1449504 
   459	1449504 
   460	1449504 
   461	1449504 
   462	1449504 
   463	1449504 
   464	1449556 
   465	1449556 
   466	1449556 
   467	1449556 
   468	1449556 
   469	1449556 
   470	1449584 
   471	1449584 
   472	1449584 
   473	1449588 
   474	1449588 
   475	1449588 
   476	1449612 
   477	1449612 
   478	1449612 
   479	1449584 
   480	1449584 
   481	1449584 
   482	1449668 
   483	1449668 
   484	1449668 
   485	1430916 
   486	1430916 
   487	1430916 
   488	1430972 
   489	1430972 
   490	1430972 
   491	1430940 
   492	1430940 
   493	1430940 
   494	1430996 
   495	1430996 
   496	1430996 
   497	1431004 
   498	1431004 
   499	1431004 
   500	1431000 
   501	1431000 
   502	1431000 
