PING 128.223.32.36 (128.223.32.36) 56(84) bytes of data.
64 bytes from 128.223.32.36: icmp_seq=1 ttl=63 time=0.370 ms
PING 128.223.32.36 (128.223.32.36) 56(84) bytes of data.
64 bytes from 128.223.32.36: icmp_seq=1 ttl=63 time=0.348 ms
64 bytes from 128.223.32.36: icmp_seq=2 ttl=63 time=0.513 ms
64 bytes from 128.223.32.36: icmp_seq=2 ttl=63 time=0.469 ms
64 bytes from 128.223.32.36: icmp_seq=3 ttl=63 time=0.653 ms
64 bytes from 128.223.32.36: icmp_seq=3 ttl=63 time=0.713 ms
64 bytes from 128.223.32.36: icmp_seq=4 ttl=63 time=0.650 ms
64 bytes from 128.223.32.36: icmp_seq=4 ttl=63 time=0.712 ms
64 bytes from 128.223.32.36: icmp_seq=5 ttl=63 time=0.505 ms
64 bytes from 128.223.32.36: icmp_seq=5 ttl=63 time=0.536 ms
64 bytes from 128.223.32.36: icmp_seq=6 ttl=63 time=0.692 ms
64 bytes from 128.223.32.36: icmp_seq=6 ttl=63 time=0.725 ms
64 bytes from 128.223.32.36: icmp_seq=7 ttl=63 time=0.687 ms
64 bytes from 128.223.32.36: icmp_seq=7 ttl=63 time=0.742 ms
64 bytes from 128.223.32.36: icmp_seq=8 ttl=63 time=0.510 ms
64 bytes from 128.223.32.36: icmp_seq=8 ttl=63 time=0.543 ms
64 bytes from 128.223.32.36: icmp_seq=9 ttl=63 time=0.508 ms
64 bytes from 128.223.32.36: icmp_seq=9 ttl=63 time=0.561 ms
64 bytes from 128.223.32.36: icmp_seq=10 ttl=63 time=0.695 ms
64 bytes from 128.223.32.36: icmp_seq=10 ttl=63 time=0.731 ms
64 bytes from 128.223.32.36: icmp_seq=11 ttl=63 time=0.526 ms
64 bytes from 128.223.32.36: icmp_seq=11 ttl=63 time=0.561 ms
64 bytes from 128.223.32.36: icmp_seq=12 ttl=63 time=0.693 ms
64 bytes from 128.223.32.36: icmp_seq=12 ttl=63 time=0.738 ms
64 bytes from 128.223.32.36: icmp_seq=13 ttl=63 time=0.695 ms
64 bytes from 128.223.32.36: icmp_seq=13 ttl=63 time=0.735 ms
64 bytes from 128.223.32.36: icmp_seq=14 ttl=63 time=0.689 ms
64 bytes from 128.223.32.36: icmp_seq=14 ttl=63 time=0.744 ms
64 bytes from 128.223.32.36: icmp_seq=15 ttl=63 time=0.636 ms
64 bytes from 128.223.32.36: icmp_seq=15 ttl=63 time=0.691 ms
64 bytes from 128.223.32.36: icmp_seq=16 ttl=63 time=0.647 ms
64 bytes from 128.223.32.36: icmp_seq=16 ttl=63 time=0.703 ms
64 bytes from 128.223.32.36: icmp_seq=17 ttl=63 time=0.682 ms
64 bytes from 128.223.32.36: icmp_seq=17 ttl=63 time=0.739 ms
64 bytes from 128.223.32.36: icmp_seq=18 ttl=63 time=0.444 ms
64 bytes from 128.223.32.36: icmp_seq=18 ttl=63 time=0.440 ms
64 bytes from 128.223.32.36: icmp_seq=19 ttl=63 time=0.605 ms
64 bytes from 128.223.32.36: icmp_seq=19 ttl=63 time=0.667 ms
64 bytes from 128.223.32.36: icmp_seq=20 ttl=63 time=0.441 ms
64 bytes from 128.223.32.36: icmp_seq=20 ttl=63 time=0.439 ms
64 bytes from 128.223.32.36: icmp_seq=21 ttl=63 time=0.706 ms
64 bytes from 128.223.32.36: icmp_seq=21 ttl=63 time=0.760 ms
64 bytes from 128.223.32.36: icmp_seq=22 ttl=63 time=0.707 ms
64 bytes from 128.223.32.36: icmp_seq=22 ttl=63 time=0.766 ms
64 bytes from 128.223.32.36: icmp_seq=23 ttl=63 time=0.507 ms
64 bytes from 128.223.32.36: icmp_seq=23 ttl=63 time=0.557 ms
64 bytes from 128.223.32.36: icmp_seq=24 ttl=63 time=0.520 ms
64 bytes from 128.223.32.36: icmp_seq=24 ttl=63 time=0.549 ms
64 bytes from 128.223.32.36: icmp_seq=25 ttl=63 time=0.726 ms
64 bytes from 128.223.32.36: icmp_seq=25 ttl=63 time=0.759 ms
64 bytes from 128.223.32.36: icmp_seq=26 ttl=63 time=0.673 ms
64 bytes from 128.223.32.36: icmp_seq=26 ttl=63 time=0.711 ms
64 bytes from 128.223.32.36: icmp_seq=27 ttl=63 time=0.670 ms
64 bytes from 128.223.32.36: icmp_seq=27 ttl=63 time=0.724 ms
64 bytes from 128.223.32.36: icmp_seq=28 ttl=63 time=0.679 ms
64 bytes from 128.223.32.36: icmp_seq=28 ttl=63 time=0.735 ms
64 bytes from 128.223.32.36: icmp_seq=29 ttl=63 time=0.713 ms
64 bytes from 128.223.32.36: icmp_seq=29 ttl=63 time=0.752 ms
64 bytes from 128.223.32.36: icmp_seq=30 ttl=63 time=0.586 ms
64 bytes from 128.223.32.36: icmp_seq=30 ttl=63 time=0.641 ms
64 bytes from 128.223.32.36: icmp_seq=31 ttl=63 time=0.682 ms
64 bytes from 128.223.32.36: icmp_seq=31 ttl=63 time=0.735 ms
64 bytes from 128.223.32.36: icmp_seq=32 ttl=63 time=0.593 ms
64 bytes from 128.223.32.36: icmp_seq=32 ttl=63 time=0.624 ms
64 bytes from 128.223.32.36: icmp_seq=33 ttl=63 time=0.693 ms
64 bytes from 128.223.32.36: icmp_seq=33 ttl=63 time=0.739 ms
64 bytes from 128.223.32.36: icmp_seq=34 ttl=63 time=0.676 ms
64 bytes from 128.223.32.36: icmp_seq=34 ttl=63 time=0.702 ms
64 bytes from 128.223.32.36: icmp_seq=35 ttl=63 time=0.693 ms
64 bytes from 128.223.32.36: icmp_seq=35 ttl=63 time=0.747 ms
64 bytes from 128.223.32.36: icmp_seq=36 ttl=63 time=0.684 ms
64 bytes from 128.223.32.36: icmp_seq=36 ttl=63 time=0.740 ms
64 bytes from 128.223.32.36: icmp_seq=37 ttl=63 time=0.686 ms
64 bytes from 128.223.32.36: icmp_seq=37 ttl=63 time=0.741 ms
64 bytes from 128.223.32.36: icmp_seq=38 ttl=63 time=0.698 ms
64 bytes from 128.223.32.36: icmp_seq=38 ttl=63 time=0.753 ms
64 bytes from 128.223.32.36: icmp_seq=39 ttl=63 time=0.697 ms
64 bytes from 128.223.32.36: icmp_seq=39 ttl=63 time=0.736 ms
64 bytes from 128.223.32.36: icmp_seq=40 ttl=63 time=0.685 ms
64 bytes from 128.223.32.36: icmp_seq=40 ttl=63 time=0.728 ms
64 bytes from 128.223.32.36: icmp_seq=41 ttl=63 time=0.680 ms
64 bytes from 128.223.32.36: icmp_seq=41 ttl=63 time=0.736 ms
64 bytes from 128.223.32.36: icmp_seq=42 ttl=63 time=0.492 ms
64 bytes from 128.223.32.36: icmp_seq=42 ttl=63 time=0.512 ms
64 bytes from 128.223.32.36: icmp_seq=43 ttl=63 time=0.595 ms
64 bytes from 128.223.32.36: icmp_seq=43 ttl=63 time=0.638 ms
64 bytes from 128.223.32.36: icmp_seq=44 ttl=63 time=0.690 ms
64 bytes from 128.223.32.36: icmp_seq=44 ttl=63 time=0.743 ms
64 bytes from 128.223.32.36: icmp_seq=45 ttl=63 time=0.686 ms
64 bytes from 128.223.32.36: icmp_seq=45 ttl=63 time=0.717 ms
64 bytes from 128.223.32.36: icmp_seq=46 ttl=63 time=0.703 ms
64 bytes from 128.223.32.36: icmp_seq=46 ttl=63 time=0.757 ms
64 bytes from 128.223.32.36: icmp_seq=47 ttl=63 time=0.691 ms
64 bytes from 128.223.32.36: icmp_seq=47 ttl=63 time=0.746 ms
64 bytes from 128.223.32.36: icmp_seq=48 ttl=63 time=0.687 ms
64 bytes from 128.223.32.36: icmp_seq=48 ttl=63 time=0.742 ms
64 bytes from 128.223.32.36: icmp_seq=49 ttl=63 time=0.633 ms
64 bytes from 128.223.32.36: icmp_seq=49 ttl=63 time=0.639 ms
64 bytes from 128.223.32.36: icmp_seq=50 ttl=63 time=0.622 ms
64 bytes from 128.223.32.36: icmp_seq=50 ttl=63 time=0.673 ms
64 bytes from 128.223.32.36: icmp_seq=51 ttl=63 time=0.609 ms
64 bytes from 128.223.32.36: icmp_seq=51 ttl=63 time=0.664 ms
64 bytes from 128.223.32.36: icmp_seq=52 ttl=63 time=0.670 ms
64 bytes from 128.223.32.36: icmp_seq=52 ttl=63 time=0.710 ms
64 bytes from 128.223.32.36: icmp_seq=53 ttl=63 time=0.680 ms
64 bytes from 128.223.32.36: icmp_seq=53 ttl=63 time=0.734 ms
64 bytes from 128.223.32.36: icmp_seq=54 ttl=63 time=0.694 ms
64 bytes from 128.223.32.36: icmp_seq=54 ttl=63 time=0.749 ms
64 bytes from 128.223.32.36: icmp_seq=55 ttl=63 time=0.489 ms
64 bytes from 128.223.32.36: icmp_seq=55 ttl=63 time=0.520 ms
64 bytes from 128.223.32.36: icmp_seq=56 ttl=63 time=0.696 ms
64 bytes from 128.223.32.36: icmp_seq=56 ttl=63 time=0.748 ms
64 bytes from 128.223.32.36: icmp_seq=57 ttl=63 time=0.711 ms
64 bytes from 128.223.32.36: icmp_seq=57 ttl=63 time=0.753 ms
64 bytes from 128.223.32.36: icmp_seq=58 ttl=63 time=0.654 ms
64 bytes from 128.223.32.36: icmp_seq=58 ttl=63 time=0.716 ms
64 bytes from 128.223.32.36: icmp_seq=59 ttl=63 time=0.627 ms
64 bytes from 128.223.32.36: icmp_seq=59 ttl=63 time=0.683 ms
64 bytes from 128.223.32.36: icmp_seq=60 ttl=63 time=0.647 ms
64 bytes from 128.223.32.36: icmp_seq=60 ttl=63 time=0.703 ms
64 bytes from 128.223.32.36: icmp_seq=61 ttl=63 time=0.631 ms
64 bytes from 128.223.32.36: icmp_seq=61 ttl=63 time=0.686 ms
64 bytes from 128.223.32.36: icmp_seq=62 ttl=63 time=0.625 ms
64 bytes from 128.223.32.36: icmp_seq=62 ttl=63 time=0.681 ms
64 bytes from 128.223.32.36: icmp_seq=63 ttl=63 time=0.638 ms
64 bytes from 128.223.32.36: icmp_seq=63 ttl=63 time=0.693 ms
64 bytes from 128.223.32.36: icmp_seq=64 ttl=63 time=0.622 ms
64 bytes from 128.223.32.36: icmp_seq=64 ttl=63 time=0.641 ms
64 bytes from 128.223.32.36: icmp_seq=65 ttl=63 time=0.616 ms
64 bytes from 128.223.32.36: icmp_seq=65 ttl=63 time=0.671 ms
64 bytes from 128.223.32.36: icmp_seq=66 ttl=63 time=0.689 ms
64 bytes from 128.223.32.36: icmp_seq=67 ttl=63 time=0.690 ms
64 bytes from 128.223.32.36: icmp_seq=67 ttl=63 time=0.748 ms
64 bytes from 128.223.32.36: icmp_seq=68 ttl=63 time=0.693 ms
64 bytes from 128.223.32.36: icmp_seq=68 ttl=63 time=0.747 ms
64 bytes from 128.223.32.36: icmp_seq=69 ttl=63 time=0.675 ms
64 bytes from 128.223.32.36: icmp_seq=70 ttl=63 time=0.757 ms
64 bytes from 128.223.32.36: icmp_seq=71 ttl=63 time=0.629 ms
64 bytes from 128.223.32.36: icmp_seq=71 ttl=63 time=0.684 ms
64 bytes from 128.223.32.36: icmp_seq=72 ttl=63 time=0.633 ms
64 bytes from 128.223.32.36: icmp_seq=72 ttl=63 time=0.691 ms
64 bytes from 128.223.32.36: icmp_seq=73 ttl=63 time=0.677 ms
64 bytes from 128.223.32.36: icmp_seq=73 ttl=63 time=0.694 ms
64 bytes from 128.223.32.36: icmp_seq=74 ttl=63 time=0.684 ms
64 bytes from 128.223.32.36: icmp_seq=74 ttl=63 time=0.750 ms
64 bytes from 128.223.32.36: icmp_seq=75 ttl=63 time=0.692 ms
64 bytes from 128.223.32.36: icmp_seq=75 ttl=63 time=0.745 ms
64 bytes from 128.223.32.36: icmp_seq=76 ttl=63 time=0.681 ms
64 bytes from 128.223.32.36: icmp_seq=77 ttl=63 time=0.696 ms
64 bytes from 128.223.32.36: icmp_seq=77 ttl=63 time=0.749 ms
64 bytes from 128.223.32.36: icmp_seq=78 ttl=63 time=0.687 ms
64 bytes from 128.223.32.36: icmp_seq=78 ttl=63 time=0.742 ms
64 bytes from 128.223.32.36: icmp_seq=79 ttl=63 time=0.688 ms
64 bytes from 128.223.32.36: icmp_seq=79 ttl=63 time=0.744 ms
64 bytes from 128.223.32.36: icmp_seq=80 ttl=63 time=0.692 ms
64 bytes from 128.223.32.36: icmp_seq=80 ttl=63 time=0.748 ms
64 bytes from 128.223.32.36: icmp_seq=81 ttl=63 time=0.689 ms
64 bytes from 128.223.32.36: icmp_seq=81 ttl=63 time=0.744 ms
64 bytes from 128.223.32.36: icmp_seq=82 ttl=63 time=0.684 ms
64 bytes from 128.223.32.36: icmp_seq=82 ttl=63 time=0.735 ms
64 bytes from 128.223.32.36: icmp_seq=83 ttl=63 time=0.673 ms
64 bytes from 128.223.32.36: icmp_seq=83 ttl=63 time=0.722 ms
64 bytes from 128.223.32.36: icmp_seq=84 ttl=63 time=0.724 ms
64 bytes from 128.223.32.36: icmp_seq=84 ttl=63 time=0.760 ms
64 bytes from 128.223.32.36: icmp_seq=85 ttl=63 time=0.693 ms
64 bytes from 128.223.32.36: icmp_seq=85 ttl=63 time=0.747 ms
64 bytes from 128.223.32.36: icmp_seq=86 ttl=63 time=0.491 ms
64 bytes from 128.223.32.36: icmp_seq=87 ttl=63 time=0.664 ms
64 bytes from 128.223.32.36: icmp_seq=87 ttl=63 time=0.710 ms
64 bytes from 128.223.32.36: icmp_seq=88 ttl=63 time=0.431 ms
64 bytes from 128.223.32.36: icmp_seq=88 ttl=63 time=0.435 ms
64 bytes from 128.223.32.36: icmp_seq=89 ttl=63 time=0.703 ms
64 bytes from 128.223.32.36: icmp_seq=89 ttl=63 time=0.754 ms
64 bytes from 128.223.32.36: icmp_seq=90 ttl=63 time=0.689 ms
64 bytes from 128.223.32.36: icmp_seq=90 ttl=63 time=0.752 ms
64 bytes from 128.223.32.36: icmp_seq=91 ttl=63 time=0.680 ms
64 bytes from 128.223.32.36: icmp_seq=91 ttl=63 time=0.738 ms
64 bytes from 128.223.32.36: icmp_seq=92 ttl=63 time=0.687 ms
64 bytes from 128.223.32.36: icmp_seq=92 ttl=63 time=0.742 ms
64 bytes from 128.223.32.36: icmp_seq=93 ttl=63 time=0.698 ms
64 bytes from 128.223.32.36: icmp_seq=93 ttl=63 time=0.751 ms
64 bytes from 128.223.32.36: icmp_seq=94 ttl=63 time=0.708 ms
64 bytes from 128.223.32.36: icmp_seq=94 ttl=63 time=0.766 ms
64 bytes from 128.223.32.36: icmp_seq=95 ttl=63 time=0.701 ms
64 bytes from 128.223.32.36: icmp_seq=95 ttl=63 time=0.760 ms
64 bytes from 128.223.32.36: icmp_seq=96 ttl=63 time=0.708 ms
64 bytes from 128.223.32.36: icmp_seq=96 ttl=63 time=0.768 ms
64 bytes from 128.223.32.36: icmp_seq=97 ttl=63 time=0.710 ms
64 bytes from 128.223.32.36: icmp_seq=97 ttl=63 time=0.768 ms
64 bytes from 128.223.32.36: icmp_seq=98 ttl=63 time=0.625 ms
64 bytes from 128.223.32.36: icmp_seq=98 ttl=63 time=0.685 ms
64 bytes from 128.223.32.36: icmp_seq=99 ttl=63 time=0.688 ms
64 bytes from 128.223.32.36: icmp_seq=99 ttl=63 time=0.744 ms
64 bytes from 128.223.32.36: icmp_seq=100 ttl=63 time=0.713 ms
64 bytes from 128.223.32.36: icmp_seq=100 ttl=63 time=0.773 ms
64 bytes from 128.223.32.36: icmp_seq=101 ttl=63 time=0.531 ms
64 bytes from 128.223.32.36: icmp_seq=101 ttl=63 time=0.567 ms
64 bytes from 128.223.32.36: icmp_seq=102 ttl=63 time=0.419 ms
64 bytes from 128.223.32.36: icmp_seq=102 ttl=63 time=0.467 ms
64 bytes from 128.223.32.36: icmp_seq=103 ttl=63 time=0.706 ms
64 bytes from 128.223.32.36: icmp_seq=103 ttl=63 time=0.763 ms
64 bytes from 128.223.32.36: icmp_seq=104 ttl=63 time=0.713 ms
64 bytes from 128.223.32.36: icmp_seq=104 ttl=63 time=0.761 ms
64 bytes from 128.223.32.36: icmp_seq=105 ttl=63 time=0.691 ms
64 bytes from 128.223.32.36: icmp_seq=105 ttl=63 time=0.745 ms
64 bytes from 128.223.32.36: icmp_seq=106 ttl=63 time=0.655 ms
64 bytes from 128.223.32.36: icmp_seq=106 ttl=63 time=0.716 ms
64 bytes from 128.223.32.36: icmp_seq=107 ttl=63 time=0.652 ms
64 bytes from 128.223.32.36: icmp_seq=107 ttl=63 time=0.714 ms
64 bytes from 128.223.32.36: icmp_seq=108 ttl=63 time=0.671 ms
64 bytes from 128.223.32.36: icmp_seq=108 ttl=63 time=0.732 ms
64 bytes from 128.223.32.36: icmp_seq=109 ttl=63 time=0.697 ms
64 bytes from 128.223.32.36: icmp_seq=109 ttl=63 time=0.761 ms
64 bytes from 128.223.32.36: icmp_seq=110 ttl=63 time=0.683 ms
64 bytes from 128.223.32.36: icmp_seq=110 ttl=63 time=0.739 ms
64 bytes from 128.223.32.36: icmp_seq=111 ttl=63 time=0.509 ms
64 bytes from 128.223.32.36: icmp_seq=111 ttl=63 time=0.539 ms
64 bytes from 128.223.32.36: icmp_seq=112 ttl=63 time=0.662 ms
64 bytes from 128.223.32.36: icmp_seq=112 ttl=63 time=0.724 ms
64 bytes from 128.223.32.36: icmp_seq=113 ttl=63 time=0.714 ms
64 bytes from 128.223.32.36: icmp_seq=113 ttl=63 time=0.773 ms
64 bytes from 128.223.32.36: icmp_seq=114 ttl=63 time=0.697 ms
64 bytes from 128.223.32.36: icmp_seq=114 ttl=63 time=0.756 ms
64 bytes from 128.223.32.36: icmp_seq=115 ttl=63 time=0.506 ms
64 bytes from 128.223.32.36: icmp_seq=115 ttl=63 time=0.542 ms
64 bytes from 128.223.32.36: icmp_seq=116 ttl=63 time=0.692 ms
64 bytes from 128.223.32.36: icmp_seq=116 ttl=63 time=0.729 ms
64 bytes from 128.223.32.36: icmp_seq=117 ttl=63 time=0.625 ms
64 bytes from 128.223.32.36: icmp_seq=117 ttl=63 time=0.686 ms
64 bytes from 128.223.32.36: icmp_seq=118 ttl=63 time=0.651 ms
64 bytes from 128.223.32.36: icmp_seq=118 ttl=63 time=0.719 ms
64 bytes from 128.223.32.36: icmp_seq=119 ttl=63 time=0.538 ms
64 bytes from 128.223.32.36: icmp_seq=119 ttl=63 time=0.575 ms
64 bytes from 128.223.32.36: icmp_seq=120 ttl=63 time=0.605 ms
64 bytes from 128.223.32.36: icmp_seq=120 ttl=63 time=0.655 ms
64 bytes from 128.223.32.36: icmp_seq=121 ttl=63 time=0.611 ms
64 bytes from 128.223.32.36: icmp_seq=121 ttl=63 time=0.652 ms
64 bytes from 128.223.32.36: icmp_seq=122 ttl=63 time=0.516 ms
64 bytes from 128.223.32.36: icmp_seq=122 ttl=63 time=0.540 ms
64 bytes from 128.223.32.36: icmp_seq=123 ttl=63 time=0.704 ms
64 bytes from 128.223.32.36: icmp_seq=123 ttl=63 time=0.763 ms
64 bytes from 128.223.32.36: icmp_seq=124 ttl=63 time=0.502 ms
64 bytes from 128.223.32.36: icmp_seq=124 ttl=63 time=0.533 ms
64 bytes from 128.223.32.36: icmp_seq=125 ttl=63 time=0.662 ms
64 bytes from 128.223.32.36: icmp_seq=125 ttl=63 time=0.715 ms
64 bytes from 128.223.32.36: icmp_seq=126 ttl=63 time=0.416 ms
64 bytes from 128.223.32.36: icmp_seq=126 ttl=63 time=0.390 ms
64 bytes from 128.223.32.36: icmp_seq=127 ttl=63 time=0.696 ms
64 bytes from 128.223.32.36: icmp_seq=127 ttl=63 time=0.726 ms
64 bytes from 128.223.32.36: icmp_seq=128 ttl=63 time=0.680 ms
64 bytes from 128.223.32.36: icmp_seq=128 ttl=63 time=0.713 ms
64 bytes from 128.223.32.36: icmp_seq=129 ttl=63 time=0.630 ms
64 bytes from 128.223.32.36: icmp_seq=129 ttl=63 time=0.667 ms
64 bytes from 128.223.32.36: icmp_seq=130 ttl=63 time=0.685 ms
64 bytes from 128.223.32.36: icmp_seq=130 ttl=63 time=0.717 ms
64 bytes from 128.223.32.36: icmp_seq=131 ttl=63 time=0.617 ms
64 bytes from 128.223.32.36: icmp_seq=131 ttl=63 time=0.656 ms
64 bytes from 128.223.32.36: icmp_seq=132 ttl=63 time=0.618 ms
64 bytes from 128.223.32.36: icmp_seq=132 ttl=63 time=0.673 ms
64 bytes from 128.223.32.36: icmp_seq=133 ttl=63 time=0.664 ms
64 bytes from 128.223.32.36: icmp_seq=134 ttl=63 time=0.694 ms
64 bytes from 128.223.32.36: icmp_seq=134 ttl=63 time=0.744 ms
64 bytes from 128.223.32.36: icmp_seq=135 ttl=63 time=0.676 ms
64 bytes from 128.223.32.36: icmp_seq=135 ttl=63 time=0.731 ms
64 bytes from 128.223.32.36: icmp_seq=136 ttl=63 time=0.630 ms
64 bytes from 128.223.32.36: icmp_seq=137 ttl=63 time=0.676 ms
64 bytes from 128.223.32.36: icmp_seq=137 ttl=63 time=0.732 ms
64 bytes from 128.223.32.36: icmp_seq=138 ttl=63 time=0.693 ms
64 bytes from 128.223.32.36: icmp_seq=138 ttl=63 time=0.729 ms
64 bytes from 128.223.32.36: icmp_seq=139 ttl=63 time=0.687 ms
64 bytes from 128.223.32.36: icmp_seq=139 ttl=63 time=0.743 ms
64 bytes from 128.223.32.36: icmp_seq=140 ttl=63 time=0.603 ms
64 bytes from 128.223.32.36: icmp_seq=140 ttl=63 time=0.658 ms
64 bytes from 128.223.32.36: icmp_seq=141 ttl=63 time=0.654 ms
64 bytes from 128.223.32.36: icmp_seq=141 ttl=63 time=0.716 ms
64 bytes from 128.223.32.36: icmp_seq=142 ttl=63 time=0.594 ms
64 bytes from 128.223.32.36: icmp_seq=142 ttl=63 time=0.646 ms
64 bytes from 128.223.32.36: icmp_seq=143 ttl=63 time=0.692 ms
64 bytes from 128.223.32.36: icmp_seq=143 ttl=63 time=0.745 ms
64 bytes from 128.223.32.36: icmp_seq=144 ttl=63 time=0.682 ms
64 bytes from 128.223.32.36: icmp_seq=145 ttl=63 time=0.656 ms
64 bytes from 128.223.32.36: icmp_seq=145 ttl=63 time=0.689 ms
64 bytes from 128.223.32.36: icmp_seq=146 ttl=63 time=0.699 ms
64 bytes from 128.223.32.36: icmp_seq=146 ttl=63 time=0.719 ms
64 bytes from 128.223.32.36: icmp_seq=147 ttl=63 time=0.691 ms
64 bytes from 128.223.32.36: icmp_seq=147 ttl=63 time=0.749 ms
64 bytes from 128.223.32.36: icmp_seq=148 ttl=63 time=0.688 ms
64 bytes from 128.223.32.36: icmp_seq=148 ttl=63 time=0.745 ms
64 bytes from 128.223.32.36: icmp_seq=149 ttl=63 time=0.691 ms
64 bytes from 128.223.32.36: icmp_seq=149 ttl=63 time=0.738 ms
64 bytes from 128.223.32.36: icmp_seq=150 ttl=63 time=0.762 ms
64 bytes from 128.223.32.36: icmp_seq=150 ttl=63 time=0.815 ms
64 bytes from 128.223.32.36: icmp_seq=151 ttl=63 time=0.720 ms
64 bytes from 128.223.32.36: icmp_seq=151 ttl=63 time=0.773 ms
64 bytes from 128.223.32.36: icmp_seq=152 ttl=63 time=0.690 ms
64 bytes from 128.223.32.36: icmp_seq=152 ttl=63 time=0.745 ms
64 bytes from 128.223.32.36: icmp_seq=153 ttl=63 time=0.713 ms
64 bytes from 128.223.32.36: icmp_seq=153 ttl=63 time=0.767 ms
64 bytes from 128.223.32.36: icmp_seq=154 ttl=63 time=0.692 ms
64 bytes from 128.223.32.36: icmp_seq=154 ttl=63 time=0.732 ms
64 bytes from 128.223.32.36: icmp_seq=155 ttl=63 time=0.689 ms
64 bytes from 128.223.32.36: icmp_seq=155 ttl=63 time=0.745 ms
64 bytes from 128.223.32.36: icmp_seq=156 ttl=63 time=0.695 ms
64 bytes from 128.223.32.36: icmp_seq=156 ttl=63 time=0.749 ms
64 bytes from 128.223.32.36: icmp_seq=157 ttl=63 time=0.689 ms
64 bytes from 128.223.32.36: icmp_seq=157 ttl=63 time=0.749 ms
64 bytes from 128.223.32.36: icmp_seq=158 ttl=63 time=0.691 ms
64 bytes from 128.223.32.36: icmp_seq=158 ttl=63 time=0.732 ms
64 bytes from 128.223.32.36: icmp_seq=159 ttl=63 time=0.680 ms
64 bytes from 128.223.32.36: icmp_seq=159 ttl=63 time=0.734 ms
64 bytes from 128.223.32.36: icmp_seq=160 ttl=63 time=0.696 ms
64 bytes from 128.223.32.36: icmp_seq=160 ttl=63 time=0.725 ms
64 bytes from 128.223.32.36: icmp_seq=161 ttl=63 time=0.690 ms
64 bytes from 128.223.32.36: icmp_seq=161 ttl=63 time=0.746 ms
64 bytes from 128.223.32.36: icmp_seq=162 ttl=63 time=0.688 ms
64 bytes from 128.223.32.36: icmp_seq=162 ttl=63 time=0.742 ms
64 bytes from 128.223.32.36: icmp_seq=163 ttl=63 time=0.692 ms
64 bytes from 128.223.32.36: icmp_seq=164 ttl=63 time=0.537 ms
64 bytes from 128.223.32.36: icmp_seq=164 ttl=63 time=0.514 ms
64 bytes from 128.223.32.36: icmp_seq=165 ttl=63 time=0.694 ms
64 bytes from 128.223.32.36: icmp_seq=165 ttl=63 time=0.730 ms
64 bytes from 128.223.32.36: icmp_seq=166 ttl=63 time=0.691 ms
64 bytes from 128.223.32.36: icmp_seq=166 ttl=63 time=0.746 ms
64 bytes from 128.223.32.36: icmp_seq=167 ttl=63 time=0.668 ms
64 bytes from 128.223.32.36: icmp_seq=167 ttl=63 time=0.720 ms
64 bytes from 128.223.32.36: icmp_seq=168 ttl=63 time=0.697 ms
64 bytes from 128.223.32.36: icmp_seq=168 ttl=63 time=0.751 ms
64 bytes from 128.223.32.36: icmp_seq=169 ttl=63 time=0.521 ms
64 bytes from 128.223.32.36: icmp_seq=169 ttl=63 time=0.525 ms
64 bytes from 128.223.32.36: icmp_seq=170 ttl=63 time=0.603 ms
64 bytes from 128.223.32.36: icmp_seq=170 ttl=63 time=0.614 ms
64 bytes from 128.223.32.36: icmp_seq=171 ttl=63 time=0.687 ms
64 bytes from 128.223.32.36: icmp_seq=171 ttl=63 time=0.742 ms
64 bytes from 128.223.32.36: icmp_seq=172 ttl=63 time=0.559 ms
64 bytes from 128.223.32.36: icmp_seq=172 ttl=63 time=0.567 ms
64 bytes from 128.223.32.36: icmp_seq=173 ttl=63 time=0.717 ms
64 bytes from 128.223.32.36: icmp_seq=173 ttl=63 time=0.756 ms
64 bytes from 128.223.32.36: icmp_seq=174 ttl=63 time=0.686 ms
64 bytes from 128.223.32.36: icmp_seq=174 ttl=63 time=0.736 ms
64 bytes from 128.223.32.36: icmp_seq=175 ttl=63 time=0.715 ms
64 bytes from 128.223.32.36: icmp_seq=175 ttl=63 time=0.777 ms
64 bytes from 128.223.32.36: icmp_seq=176 ttl=63 time=0.691 ms
64 bytes from 128.223.32.36: icmp_seq=176 ttl=63 time=0.746 ms
64 bytes from 128.223.32.36: icmp_seq=177 ttl=63 time=0.680 ms
64 bytes from 128.223.32.36: icmp_seq=177 ttl=63 time=0.677 ms
64 bytes from 128.223.32.36: icmp_seq=178 ttl=63 time=0.524 ms
64 bytes from 128.223.32.36: icmp_seq=178 ttl=63 time=0.509 ms
64 bytes from 128.223.32.36: icmp_seq=179 ttl=63 time=0.700 ms
64 bytes from 128.223.32.36: icmp_seq=179 ttl=63 time=0.759 ms
64 bytes from 128.223.32.36: icmp_seq=180 ttl=63 time=0.504 ms
64 bytes from 128.223.32.36: icmp_seq=180 ttl=63 time=0.512 ms
64 bytes from 128.223.32.36: icmp_seq=181 ttl=63 time=0.702 ms
64 bytes from 128.223.32.36: icmp_seq=181 ttl=63 time=0.759 ms
64 bytes from 128.223.32.36: icmp_seq=182 ttl=63 time=0.689 ms
64 bytes from 128.223.32.36: icmp_seq=182 ttl=63 time=0.745 ms
64 bytes from 128.223.32.36: icmp_seq=183 ttl=63 time=0.648 ms
64 bytes from 128.223.32.36: icmp_seq=183 ttl=63 time=0.667 ms
64 bytes from 128.223.32.36: icmp_seq=184 ttl=63 time=0.693 ms
64 bytes from 128.223.32.36: icmp_seq=184 ttl=63 time=0.698 ms
64 bytes from 128.223.32.36: icmp_seq=185 ttl=63 time=0.696 ms
64 bytes from 128.223.32.36: icmp_seq=185 ttl=63 time=0.751 ms
64 bytes from 128.223.32.36: icmp_seq=186 ttl=63 time=0.681 ms
64 bytes from 128.223.32.36: icmp_seq=186 ttl=63 time=0.736 ms
64 bytes from 128.223.32.36: icmp_seq=187 ttl=63 time=0.660 ms
64 bytes from 128.223.32.36: icmp_seq=187 ttl=63 time=0.715 ms
64 bytes from 128.223.32.36: icmp_seq=188 ttl=63 time=0.707 ms
64 bytes from 128.223.32.36: icmp_seq=188 ttl=63 time=0.767 ms
64 bytes from 128.223.32.36: icmp_seq=189 ttl=63 time=0.690 ms
64 bytes from 128.223.32.36: icmp_seq=189 ttl=63 time=0.745 ms
64 bytes from 128.223.32.36: icmp_seq=190 ttl=63 time=0.687 ms
64 bytes from 128.223.32.36: icmp_seq=190 ttl=63 time=0.742 ms
64 bytes from 128.223.32.36: icmp_seq=191 ttl=63 time=0.688 ms
64 bytes from 128.223.32.36: icmp_seq=191 ttl=63 time=0.742 ms
64 bytes from 128.223.32.36: icmp_seq=192 ttl=63 time=0.651 ms
64 bytes from 128.223.32.36: icmp_seq=192 ttl=63 time=0.663 ms
64 bytes from 128.223.32.36: icmp_seq=193 ttl=63 time=0.691 ms
64 bytes from 128.223.32.36: icmp_seq=193 ttl=63 time=0.740 ms
64 bytes from 128.223.32.36: icmp_seq=194 ttl=63 time=0.696 ms
64 bytes from 128.223.32.36: icmp_seq=194 ttl=63 time=0.751 ms
64 bytes from 128.223.32.36: icmp_seq=195 ttl=63 time=0.613 ms
64 bytes from 128.223.32.36: icmp_seq=195 ttl=63 time=0.668 ms
64 bytes from 128.223.32.36: icmp_seq=196 ttl=63 time=0.646 ms
64 bytes from 128.223.32.36: icmp_seq=196 ttl=63 time=0.701 ms
64 bytes from 128.223.32.36: icmp_seq=197 ttl=63 time=0.663 ms
64 bytes from 128.223.32.36: icmp_seq=197 ttl=63 time=0.716 ms
64 bytes from 128.223.32.36: icmp_seq=198 ttl=63 time=0.632 ms
64 bytes from 128.223.32.36: icmp_seq=198 ttl=63 time=0.691 ms
64 bytes from 128.223.32.36: icmp_seq=199 ttl=63 time=0.513 ms
64 bytes from 128.223.32.36: icmp_seq=199 ttl=63 time=0.545 ms
64 bytes from 128.223.32.36: icmp_seq=200 ttl=63 time=0.636 ms
64 bytes from 128.223.32.36: icmp_seq=200 ttl=63 time=0.699 ms
64 bytes from 128.223.32.36: icmp_seq=201 ttl=63 time=0.615 ms
64 bytes from 128.223.32.36: icmp_seq=201 ttl=63 time=0.669 ms
64 bytes from 128.223.32.36: icmp_seq=202 ttl=63 time=0.602 ms
64 bytes from 128.223.32.36: icmp_seq=202 ttl=63 time=0.656 ms
64 bytes from 128.223.32.36: icmp_seq=203 ttl=63 time=0.655 ms
64 bytes from 128.223.32.36: icmp_seq=203 ttl=63 time=0.695 ms
64 bytes from 128.223.32.36: icmp_seq=204 ttl=63 time=0.611 ms
64 bytes from 128.223.32.36: icmp_seq=204 ttl=63 time=0.664 ms
64 bytes from 128.223.32.36: icmp_seq=205 ttl=63 time=0.611 ms
64 bytes from 128.223.32.36: icmp_seq=205 ttl=63 time=0.665 ms
64 bytes from 128.223.32.36: icmp_seq=206 ttl=63 time=0.598 ms
64 bytes from 128.223.32.36: icmp_seq=206 ttl=63 time=0.671 ms
64 bytes from 128.223.32.36: icmp_seq=207 ttl=63 time=0.686 ms
64 bytes from 128.223.32.36: icmp_seq=207 ttl=63 time=0.740 ms
64 bytes from 128.223.32.36: icmp_seq=208 ttl=63 time=0.684 ms
64 bytes from 128.223.32.36: icmp_seq=208 ttl=63 time=0.740 ms
64 bytes from 128.223.32.36: icmp_seq=209 ttl=63 time=0.648 ms
64 bytes from 128.223.32.36: icmp_seq=209 ttl=63 time=0.710 ms
64 bytes from 128.223.32.36: icmp_seq=210 ttl=63 time=0.622 ms
64 bytes from 128.223.32.36: icmp_seq=210 ttl=63 time=0.677 ms
64 bytes from 128.223.32.36: icmp_seq=211 ttl=63 time=0.603 ms
64 bytes from 128.223.32.36: icmp_seq=211 ttl=63 time=0.639 ms
64 bytes from 128.223.32.36: icmp_seq=212 ttl=63 time=0.693 ms
64 bytes from 128.223.32.36: icmp_seq=212 ttl=63 time=0.745 ms
64 bytes from 128.223.32.36: icmp_seq=213 ttl=63 time=0.605 ms
64 bytes from 128.223.32.36: icmp_seq=213 ttl=63 time=0.661 ms
64 bytes from 128.223.32.36: icmp_seq=214 ttl=63 time=0.620 ms
64 bytes from 128.223.32.36: icmp_seq=214 ttl=63 time=0.674 ms
64 bytes from 128.223.32.36: icmp_seq=215 ttl=63 time=0.632 ms
64 bytes from 128.223.32.36: icmp_seq=215 ttl=63 time=0.687 ms
64 bytes from 128.223.32.36: icmp_seq=216 ttl=63 time=0.632 ms
64 bytes from 128.223.32.36: icmp_seq=216 ttl=63 time=0.685 ms
64 bytes from 128.223.32.36: icmp_seq=217 ttl=63 time=0.694 ms
64 bytes from 128.223.32.36: icmp_seq=217 ttl=63 time=0.701 ms
64 bytes from 128.223.32.36: icmp_seq=218 ttl=63 time=0.695 ms
64 bytes from 128.223.32.36: icmp_seq=218 ttl=63 time=0.749 ms
64 bytes from 128.223.32.36: icmp_seq=219 ttl=63 time=0.691 ms
64 bytes from 128.223.32.36: icmp_seq=219 ttl=63 time=0.745 ms
64 bytes from 128.223.32.36: icmp_seq=220 ttl=63 time=0.701 ms
64 bytes from 128.223.32.36: icmp_seq=220 ttl=63 time=0.756 ms
64 bytes from 128.223.32.36: icmp_seq=221 ttl=63 time=0.692 ms
64 bytes from 128.223.32.36: icmp_seq=221 ttl=63 time=0.746 ms
64 bytes from 128.223.32.36: icmp_seq=222 ttl=63 time=0.676 ms
64 bytes from 128.223.32.36: icmp_seq=222 ttl=63 time=0.731 ms
64 bytes from 128.223.32.36: icmp_seq=223 ttl=63 time=0.694 ms
64 bytes from 128.223.32.36: icmp_seq=223 ttl=63 time=0.731 ms
64 bytes from 128.223.32.36: icmp_seq=224 ttl=63 time=0.692 ms
64 bytes from 128.223.32.36: icmp_seq=224 ttl=63 time=0.745 ms
64 bytes from 128.223.32.36: icmp_seq=225 ttl=63 time=0.696 ms
64 bytes from 128.223.32.36: icmp_seq=225 ttl=63 time=0.748 ms
64 bytes from 128.223.32.36: icmp_seq=226 ttl=63 time=0.692 ms
64 bytes from 128.223.32.36: icmp_seq=226 ttl=63 time=0.748 ms
64 bytes from 128.223.32.36: icmp_seq=227 ttl=63 time=0.610 ms
64 bytes from 128.223.32.36: icmp_seq=227 ttl=63 time=0.694 ms
64 bytes from 128.223.32.36: icmp_seq=228 ttl=63 time=0.474 ms
64 bytes from 128.223.32.36: icmp_seq=228 ttl=63 time=0.510 ms
64 bytes from 128.223.32.36: icmp_seq=229 ttl=63 time=0.745 ms
64 bytes from 128.223.32.36: icmp_seq=229 ttl=63 time=0.775 ms
64 bytes from 128.223.32.36: icmp_seq=230 ttl=63 time=0.716 ms
64 bytes from 128.223.32.36: icmp_seq=230 ttl=63 time=0.750 ms
64 bytes from 128.223.32.36: icmp_seq=231 ttl=63 time=0.649 ms
64 bytes from 128.223.32.36: icmp_seq=231 ttl=63 time=0.691 ms
64 bytes from 128.223.32.36: icmp_seq=232 ttl=63 time=0.701 ms
64 bytes from 128.223.32.36: icmp_seq=232 ttl=63 time=0.743 ms
64 bytes from 128.223.32.36: icmp_seq=233 ttl=63 time=0.748 ms
64 bytes from 128.223.32.36: icmp_seq=233 ttl=63 time=0.693 ms
64 bytes from 128.223.32.36: icmp_seq=234 ttl=63 time=0.682 ms
64 bytes from 128.223.32.36: icmp_seq=234 ttl=63 time=0.736 ms
64 bytes from 128.223.32.36: icmp_seq=235 ttl=63 time=0.689 ms
64 bytes from 128.223.32.36: icmp_seq=235 ttl=63 time=0.744 ms
64 bytes from 128.223.32.36: icmp_seq=236 ttl=63 time=0.689 ms
64 bytes from 128.223.32.36: icmp_seq=236 ttl=63 time=0.744 ms
64 bytes from 128.223.32.36: icmp_seq=237 ttl=63 time=0.693 ms
64 bytes from 128.223.32.36: icmp_seq=237 ttl=63 time=0.744 ms
64 bytes from 128.223.32.36: icmp_seq=238 ttl=63 time=0.690 ms
64 bytes from 128.223.32.36: icmp_seq=238 ttl=63 time=0.746 ms
64 bytes from 128.223.32.36: icmp_seq=239 ttl=63 time=0.686 ms
64 bytes from 128.223.32.36: icmp_seq=239 ttl=63 time=0.741 ms
64 bytes from 128.223.32.36: icmp_seq=240 ttl=63 time=0.692 ms
64 bytes from 128.223.32.36: icmp_seq=240 ttl=63 time=0.747 ms
64 bytes from 128.223.32.36: icmp_seq=241 ttl=63 time=0.687 ms
64 bytes from 128.223.32.36: icmp_seq=241 ttl=63 time=0.741 ms
64 bytes from 128.223.32.36: icmp_seq=242 ttl=63 time=0.702 ms
64 bytes from 128.223.32.36: icmp_seq=242 ttl=63 time=0.758 ms
64 bytes from 128.223.32.36: icmp_seq=243 ttl=63 time=0.694 ms
64 bytes from 128.223.32.36: icmp_seq=243 ttl=63 time=0.747 ms
64 bytes from 128.223.32.36: icmp_seq=244 ttl=63 time=0.689 ms
64 bytes from 128.223.32.36: icmp_seq=244 ttl=63 time=0.745 ms
64 bytes from 128.223.32.36: icmp_seq=245 ttl=63 time=0.689 ms
64 bytes from 128.223.32.36: icmp_seq=245 ttl=63 time=0.745 ms
64 bytes from 128.223.32.36: icmp_seq=246 ttl=63 time=0.703 ms
64 bytes from 128.223.32.36: icmp_seq=246 ttl=63 time=0.757 ms
64 bytes from 128.223.32.36: icmp_seq=247 ttl=63 time=0.684 ms
64 bytes from 128.223.32.36: icmp_seq=247 ttl=63 time=0.737 ms
64 bytes from 128.223.32.36: icmp_seq=248 ttl=63 time=0.671 ms
64 bytes from 128.223.32.36: icmp_seq=248 ttl=63 time=0.735 ms
64 bytes from 128.223.32.36: icmp_seq=249 ttl=63 time=0.694 ms
64 bytes from 128.223.32.36: icmp_seq=249 ttl=63 time=0.749 ms
64 bytes from 128.223.32.36: icmp_seq=250 ttl=63 time=0.682 ms
64 bytes from 128.223.32.36: icmp_seq=250 ttl=63 time=0.737 ms
64 bytes from 128.223.32.36: icmp_seq=251 ttl=63 time=0.689 ms
64 bytes from 128.223.32.36: icmp_seq=251 ttl=63 time=0.733 ms
64 bytes from 128.223.32.36: icmp_seq=252 ttl=63 time=0.677 ms
64 bytes from 128.223.32.36: icmp_seq=252 ttl=63 time=0.738 ms
64 bytes from 128.223.32.36: icmp_seq=253 ttl=63 time=0.684 ms
64 bytes from 128.223.32.36: icmp_seq=253 ttl=63 time=0.736 ms
64 bytes from 128.223.32.36: icmp_seq=254 ttl=63 time=0.671 ms
64 bytes from 128.223.32.36: icmp_seq=254 ttl=63 time=0.686 ms
64 bytes from 128.223.32.36: icmp_seq=255 ttl=63 time=0.751 ms
64 bytes from 128.223.32.36: icmp_seq=255 ttl=63 time=0.822 ms
64 bytes from 128.223.32.36: icmp_seq=256 ttl=63 time=0.702 ms
64 bytes from 128.223.32.36: icmp_seq=256 ttl=63 time=0.753 ms
64 bytes from 128.223.32.36: icmp_seq=257 ttl=63 time=0.647 ms
64 bytes from 128.223.32.36: icmp_seq=257 ttl=63 time=0.702 ms
64 bytes from 128.223.32.36: icmp_seq=258 ttl=63 time=0.684 ms
64 bytes from 128.223.32.36: icmp_seq=258 ttl=63 time=0.740 ms
64 bytes from 128.223.32.36: icmp_seq=259 ttl=63 time=0.578 ms
64 bytes from 128.223.32.36: icmp_seq=259 ttl=63 time=0.642 ms
64 bytes from 128.223.32.36: icmp_seq=260 ttl=63 time=0.691 ms
64 bytes from 128.223.32.36: icmp_seq=260 ttl=63 time=0.746 ms
64 bytes from 128.223.32.36: icmp_seq=261 ttl=63 time=0.612 ms
64 bytes from 128.223.32.36: icmp_seq=261 ttl=63 time=0.665 ms
64 bytes from 128.223.32.36: icmp_seq=262 ttl=63 time=0.596 ms
64 bytes from 128.223.32.36: icmp_seq=262 ttl=63 time=0.649 ms
64 bytes from 128.223.32.36: icmp_seq=263 ttl=63 time=0.695 ms
64 bytes from 128.223.32.36: icmp_seq=263 ttl=63 time=0.747 ms
64 bytes from 128.223.32.36: icmp_seq=264 ttl=63 time=0.692 ms
64 bytes from 128.223.32.36: icmp_seq=265 ttl=63 time=0.676 ms
64 bytes from 128.223.32.36: icmp_seq=265 ttl=63 time=0.760 ms
64 bytes from 128.223.32.36: icmp_seq=266 ttl=63 time=0.684 ms
64 bytes from 128.223.32.36: icmp_seq=266 ttl=63 time=0.739 ms
64 bytes from 128.223.32.36: icmp_seq=267 ttl=63 time=0.687 ms
64 bytes from 128.223.32.36: icmp_seq=267 ttl=63 time=0.742 ms
64 bytes from 128.223.32.36: icmp_seq=268 ttl=63 time=0.688 ms
64 bytes from 128.223.32.36: icmp_seq=268 ttl=63 time=0.727 ms
64 bytes from 128.223.32.36: icmp_seq=269 ttl=63 time=0.691 ms
64 bytes from 128.223.32.36: icmp_seq=270 ttl=63 time=0.650 ms
64 bytes from 128.223.32.36: icmp_seq=270 ttl=63 time=0.703 ms
64 bytes from 128.223.32.36: icmp_seq=271 ttl=63 time=0.441 ms
64 bytes from 128.223.32.36: icmp_seq=271 ttl=63 time=0.465 ms
64 bytes from 128.223.32.36: icmp_seq=272 ttl=63 time=0.620 ms
64 bytes from 128.223.32.36: icmp_seq=272 ttl=63 time=0.664 ms
64 bytes from 128.223.32.36: icmp_seq=273 ttl=63 time=0.635 ms
64 bytes from 128.223.32.36: icmp_seq=273 ttl=63 time=0.696 ms
64 bytes from 128.223.32.36: icmp_seq=274 ttl=63 time=0.625 ms
64 bytes from 128.223.32.36: icmp_seq=274 ttl=63 time=0.679 ms
64 bytes from 128.223.32.36: icmp_seq=275 ttl=63 time=0.581 ms
64 bytes from 128.223.32.36: icmp_seq=275 ttl=63 time=0.631 ms
64 bytes from 128.223.32.36: icmp_seq=276 ttl=63 time=0.603 ms
64 bytes from 128.223.32.36: icmp_seq=276 ttl=63 time=0.654 ms
64 bytes from 128.223.32.36: icmp_seq=277 ttl=63 time=0.617 ms
64 bytes from 128.223.32.36: icmp_seq=277 ttl=63 time=0.673 ms
64 bytes from 128.223.32.36: icmp_seq=278 ttl=63 time=0.621 ms
64 bytes from 128.223.32.36: icmp_seq=278 ttl=63 time=0.675 ms
64 bytes from 128.223.32.36: icmp_seq=279 ttl=63 time=0.636 ms
64 bytes from 128.223.32.36: icmp_seq=279 ttl=63 time=0.687 ms
64 bytes from 128.223.32.36: icmp_seq=280 ttl=63 time=0.681 ms
64 bytes from 128.223.32.36: icmp_seq=280 ttl=63 time=0.735 ms
64 bytes from 128.223.32.36: icmp_seq=281 ttl=63 time=0.623 ms
64 bytes from 128.223.32.36: icmp_seq=281 ttl=63 time=0.676 ms
64 bytes from 128.223.32.36: icmp_seq=282 ttl=63 time=0.628 ms
64 bytes from 128.223.32.36: icmp_seq=282 ttl=63 time=0.682 ms
64 bytes from 128.223.32.36: icmp_seq=283 ttl=63 time=0.623 ms
64 bytes from 128.223.32.36: icmp_seq=283 ttl=63 time=0.678 ms
64 bytes from 128.223.32.36: icmp_seq=284 ttl=63 time=0.602 ms
64 bytes from 128.223.32.36: icmp_seq=284 ttl=63 time=0.654 ms
64 bytes from 128.223.32.36: icmp_seq=285 ttl=63 time=0.628 ms
64 bytes from 128.223.32.36: icmp_seq=285 ttl=63 time=0.680 ms
64 bytes from 128.223.32.36: icmp_seq=286 ttl=63 time=0.678 ms
64 bytes from 128.223.32.36: icmp_seq=286 ttl=63 time=0.725 ms
64 bytes from 128.223.32.36: icmp_seq=287 ttl=63 time=0.681 ms
64 bytes from 128.223.32.36: icmp_seq=287 ttl=63 time=0.736 ms
64 bytes from 128.223.32.36: icmp_seq=288 ttl=63 time=0.682 ms
64 bytes from 128.223.32.36: icmp_seq=288 ttl=63 time=0.737 ms
64 bytes from 128.223.32.36: icmp_seq=289 ttl=63 time=0.686 ms
64 bytes from 128.223.32.36: icmp_seq=289 ttl=63 time=0.741 ms
64 bytes from 128.223.32.36: icmp_seq=290 ttl=63 time=0.685 ms
64 bytes from 128.223.32.36: icmp_seq=290 ttl=63 time=0.740 ms
64 bytes from 128.223.32.36: icmp_seq=291 ttl=63 time=0.634 ms
64 bytes from 128.223.32.36: icmp_seq=291 ttl=63 time=0.690 ms
64 bytes from 128.223.32.36: icmp_seq=292 ttl=63 time=0.704 ms
64 bytes from 128.223.32.36: icmp_seq=292 ttl=63 time=0.756 ms
64 bytes from 128.223.32.36: icmp_seq=293 ttl=63 time=0.683 ms
64 bytes from 128.223.32.36: icmp_seq=293 ttl=63 time=0.723 ms
64 bytes from 128.223.32.36: icmp_seq=294 ttl=63 time=0.697 ms
64 bytes from 128.223.32.36: icmp_seq=294 ttl=63 time=0.752 ms
64 bytes from 128.223.32.36: icmp_seq=295 ttl=63 time=0.672 ms
64 bytes from 128.223.32.36: icmp_seq=295 ttl=63 time=0.692 ms
64 bytes from 128.223.32.36: icmp_seq=296 ttl=63 time=0.745 ms
64 bytes from 128.223.32.36: icmp_seq=296 ttl=63 time=0.800 ms
64 bytes from 128.223.32.36: icmp_seq=297 ttl=63 time=0.640 ms
64 bytes from 128.223.32.36: icmp_seq=297 ttl=63 time=0.693 ms
64 bytes from 128.223.32.36: icmp_seq=298 ttl=63 time=0.692 ms
64 bytes from 128.223.32.36: icmp_seq=298 ttl=63 time=0.732 ms
64 bytes from 128.223.32.36: icmp_seq=299 ttl=63 time=0.691 ms
64 bytes from 128.223.32.36: icmp_seq=299 ttl=63 time=0.744 ms
64 bytes from 128.223.32.36: icmp_seq=300 ttl=63 time=0.688 ms
64 bytes from 128.223.32.36: icmp_seq=300 ttl=63 time=0.740 ms
64 bytes from 128.223.32.36: icmp_seq=301 ttl=63 time=0.700 ms
64 bytes from 128.223.32.36: icmp_seq=301 ttl=63 time=0.754 ms
64 bytes from 128.223.32.36: icmp_seq=302 ttl=63 time=0.679 ms
64 bytes from 128.223.32.36: icmp_seq=302 ttl=63 time=0.732 ms
64 bytes from 128.223.32.36: icmp_seq=303 ttl=63 time=0.678 ms
64 bytes from 128.223.32.36: icmp_seq=303 ttl=63 time=0.731 ms
64 bytes from 128.223.32.36: icmp_seq=304 ttl=63 time=0.685 ms
64 bytes from 128.223.32.36: icmp_seq=304 ttl=63 time=0.740 ms
64 bytes from 128.223.32.36: icmp_seq=305 ttl=63 time=0.686 ms
64 bytes from 128.223.32.36: icmp_seq=305 ttl=63 time=0.740 ms
64 bytes from 128.223.32.36: icmp_seq=306 ttl=63 time=0.426 ms
64 bytes from 128.223.32.36: icmp_seq=306 ttl=63 time=0.426 ms
64 bytes from 128.223.32.36: icmp_seq=307 ttl=63 time=0.684 ms
64 bytes from 128.223.32.36: icmp_seq=307 ttl=63 time=0.739 ms
64 bytes from 128.223.32.36: icmp_seq=308 ttl=63 time=0.692 ms
64 bytes from 128.223.32.36: icmp_seq=308 ttl=63 time=0.744 ms
64 bytes from 128.223.32.36: icmp_seq=309 ttl=63 time=0.486 ms
64 bytes from 128.223.32.36: icmp_seq=309 ttl=63 time=0.522 ms
64 bytes from 128.223.32.36: icmp_seq=310 ttl=63 time=0.682 ms
64 bytes from 128.223.32.36: icmp_seq=310 ttl=63 time=0.737 ms
64 bytes from 128.223.32.36: icmp_seq=311 ttl=63 time=0.691 ms
64 bytes from 128.223.32.36: icmp_seq=311 ttl=63 time=0.745 ms
64 bytes from 128.223.32.36: icmp_seq=312 ttl=63 time=0.662 ms
64 bytes from 128.223.32.36: icmp_seq=312 ttl=63 time=0.701 ms
64 bytes from 128.223.32.36: icmp_seq=313 ttl=63 time=0.486 ms
64 bytes from 128.223.32.36: icmp_seq=313 ttl=63 time=0.512 ms
64 bytes from 128.223.32.36: icmp_seq=314 ttl=63 time=0.712 ms
64 bytes from 128.223.32.36: icmp_seq=314 ttl=63 time=0.773 ms
64 bytes from 128.223.32.36: icmp_seq=315 ttl=63 time=0.723 ms
64 bytes from 128.223.32.36: icmp_seq=315 ttl=63 time=0.763 ms
64 bytes from 128.223.32.36: icmp_seq=316 ttl=63 time=0.458 ms
64 bytes from 128.223.32.36: icmp_seq=316 ttl=63 time=0.461 ms
64 bytes from 128.223.32.36: icmp_seq=317 ttl=63 time=0.736 ms
64 bytes from 128.223.32.36: icmp_seq=317 ttl=63 time=0.794 ms
64 bytes from 128.223.32.36: icmp_seq=318 ttl=63 time=0.502 ms
64 bytes from 128.223.32.36: icmp_seq=318 ttl=63 time=0.541 ms
64 bytes from 128.223.32.36: icmp_seq=319 ttl=63 time=0.606 ms
64 bytes from 128.223.32.36: icmp_seq=319 ttl=63 time=0.662 ms
64 bytes from 128.223.32.36: icmp_seq=320 ttl=63 time=0.507 ms
64 bytes from 128.223.32.36: icmp_seq=320 ttl=63 time=0.536 ms
64 bytes from 128.223.32.36: icmp_seq=321 ttl=63 time=0.703 ms
64 bytes from 128.223.32.36: icmp_seq=321 ttl=63 time=0.761 ms
64 bytes from 128.223.32.36: icmp_seq=322 ttl=63 time=0.697 ms
64 bytes from 128.223.32.36: icmp_seq=322 ttl=63 time=0.756 ms
64 bytes from 128.223.32.36: icmp_seq=323 ttl=63 time=0.738 ms
64 bytes from 128.223.32.36: icmp_seq=323 ttl=63 time=0.797 ms
64 bytes from 128.223.32.36: icmp_seq=324 ttl=63 time=0.597 ms
64 bytes from 128.223.32.36: icmp_seq=324 ttl=63 time=0.614 ms
64 bytes from 128.223.32.36: icmp_seq=325 ttl=63 time=0.701 ms
64 bytes from 128.223.32.36: icmp_seq=325 ttl=63 time=0.756 ms
64 bytes from 128.223.32.36: icmp_seq=326 ttl=63 time=0.586 ms
64 bytes from 128.223.32.36: icmp_seq=326 ttl=63 time=0.620 ms
64 bytes from 128.223.32.36: icmp_seq=327 ttl=63 time=0.511 ms
64 bytes from 128.223.32.36: icmp_seq=327 ttl=63 time=0.538 ms
64 bytes from 128.223.32.36: icmp_seq=328 ttl=63 time=0.511 ms
64 bytes from 128.223.32.36: icmp_seq=328 ttl=63 time=0.543 ms
64 bytes from 128.223.32.36: icmp_seq=329 ttl=63 time=0.912 ms
64 bytes from 128.223.32.36: icmp_seq=329 ttl=63 time=0.937 ms
64 bytes from 128.223.32.36: icmp_seq=330 ttl=63 time=0.478 ms
64 bytes from 128.223.32.36: icmp_seq=330 ttl=63 time=0.691 ms
64 bytes from 128.223.32.36: icmp_seq=331 ttl=63 time=0.486 ms
64 bytes from 128.223.32.36: icmp_seq=331 ttl=63 time=0.672 ms
64 bytes from 128.223.32.36: icmp_seq=332 ttl=63 time=0.980 ms
64 bytes from 128.223.32.36: icmp_seq=332 ttl=63 time=0.720 ms
64 bytes from 128.223.32.36: icmp_seq=333 ttl=63 time=0.457 ms
64 bytes from 128.223.32.36: icmp_seq=333 ttl=63 time=0.661 ms
64 bytes from 128.223.32.36: icmp_seq=334 ttl=63 time=0.425 ms
64 bytes from 128.223.32.36: icmp_seq=334 ttl=63 time=0.691 ms
64 bytes from 128.223.32.36: icmp_seq=335 ttl=63 time=0.847 ms
64 bytes from 128.223.32.36: icmp_seq=335 ttl=63 time=0.643 ms
64 bytes from 128.223.32.36: icmp_seq=336 ttl=63 time=0.678 ms
64 bytes from 128.223.32.36: icmp_seq=336 ttl=63 time=0.666 ms
64 bytes from 128.223.32.36: icmp_seq=337 ttl=63 time=0.674 ms
64 bytes from 128.223.32.36: icmp_seq=337 ttl=63 time=0.692 ms
64 bytes from 128.223.32.36: icmp_seq=338 ttl=63 time=0.612 ms
64 bytes from 128.223.32.36: icmp_seq=338 ttl=63 time=0.692 ms
64 bytes from 128.223.32.36: icmp_seq=339 ttl=63 time=0.698 ms
64 bytes from 128.223.32.36: icmp_seq=339 ttl=63 time=0.696 ms
64 bytes from 128.223.32.36: icmp_seq=340 ttl=63 time=0.596 ms
64 bytes from 128.223.32.36: icmp_seq=340 ttl=63 time=0.589 ms
64 bytes from 128.223.32.36: icmp_seq=341 ttl=63 time=0.696 ms
64 bytes from 128.223.32.36: icmp_seq=341 ttl=63 time=0.596 ms
64 bytes from 128.223.32.36: icmp_seq=342 ttl=63 time=0.690 ms
64 bytes from 128.223.32.36: icmp_seq=342 ttl=63 time=0.682 ms
64 bytes from 128.223.32.36: icmp_seq=343 ttl=63 time=0.643 ms
64 bytes from 128.223.32.36: icmp_seq=343 ttl=63 time=0.590 ms
64 bytes from 128.223.32.36: icmp_seq=344 ttl=63 time=0.586 ms
64 bytes from 128.223.32.36: icmp_seq=344 ttl=63 time=0.678 ms
64 bytes from 128.223.32.36: icmp_seq=345 ttl=63 time=0.595 ms
64 bytes from 128.223.32.36: icmp_seq=345 ttl=63 time=0.681 ms
64 bytes from 128.223.32.36: icmp_seq=346 ttl=63 time=0.597 ms
64 bytes from 128.223.32.36: icmp_seq=346 ttl=63 time=0.644 ms
64 bytes from 128.223.32.36: icmp_seq=347 ttl=63 time=0.584 ms
64 bytes from 128.223.32.36: icmp_seq=347 ttl=63 time=0.585 ms
64 bytes from 128.223.32.36: icmp_seq=348 ttl=63 time=0.589 ms
64 bytes from 128.223.32.36: icmp_seq=349 ttl=63 time=0.675 ms
64 bytes from 128.223.32.36: icmp_seq=349 ttl=63 time=0.603 ms
64 bytes from 128.223.32.36: icmp_seq=350 ttl=63 time=0.650 ms
64 bytes from 128.223.32.36: icmp_seq=350 ttl=63 time=0.608 ms
64 bytes from 128.223.32.36: icmp_seq=351 ttl=63 time=0.596 ms
64 bytes from 128.223.32.36: icmp_seq=351 ttl=63 time=0.615 ms
64 bytes from 128.223.32.36: icmp_seq=352 ttl=63 time=0.429 ms
64 bytes from 128.223.32.36: icmp_seq=352 ttl=63 time=0.577 ms
64 bytes from 128.223.32.36: icmp_seq=353 ttl=63 time=0.699 ms
64 bytes from 128.223.32.36: icmp_seq=353 ttl=63 time=0.626 ms
64 bytes from 128.223.32.36: icmp_seq=354 ttl=63 time=0.674 ms
64 bytes from 128.223.32.36: icmp_seq=354 ttl=63 time=0.677 ms
64 bytes from 128.223.32.36: icmp_seq=355 ttl=63 time=0.528 ms
64 bytes from 128.223.32.36: icmp_seq=355 ttl=63 time=0.686 ms
64 bytes from 128.223.32.36: icmp_seq=356 ttl=63 time=0.595 ms
64 bytes from 128.223.32.36: icmp_seq=356 ttl=63 time=0.688 ms
64 bytes from 128.223.32.36: icmp_seq=357 ttl=63 time=0.689 ms
64 bytes from 128.223.32.36: icmp_seq=357 ttl=63 time=0.692 ms
64 bytes from 128.223.32.36: icmp_seq=358 ttl=63 time=0.680 ms
64 bytes from 128.223.32.36: icmp_seq=358 ttl=63 time=0.629 ms
64 bytes from 128.223.32.36: icmp_seq=359 ttl=63 time=0.638 ms
64 bytes from 128.223.32.36: icmp_seq=359 ttl=63 time=0.608 ms
64 bytes from 128.223.32.36: icmp_seq=360 ttl=63 time=0.501 ms
64 bytes from 128.223.32.36: icmp_seq=360 ttl=63 time=0.482 ms
64 bytes from 128.223.32.36: icmp_seq=361 ttl=63 time=0.655 ms
64 bytes from 128.223.32.36: icmp_seq=361 ttl=63 time=0.650 ms
64 bytes from 128.223.32.36: icmp_seq=362 ttl=63 time=0.654 ms
64 bytes from 128.223.32.36: icmp_seq=362 ttl=63 time=0.671 ms
64 bytes from 128.223.32.36: icmp_seq=363 ttl=63 time=0.660 ms
64 bytes from 128.223.32.36: icmp_seq=363 ttl=63 time=0.602 ms
64 bytes from 128.223.32.36: icmp_seq=364 ttl=63 time=0.663 ms
64 bytes from 128.223.32.36: icmp_seq=364 ttl=63 time=0.640 ms
64 bytes from 128.223.32.36: icmp_seq=365 ttl=63 time=0.675 ms
64 bytes from 128.223.32.36: icmp_seq=365 ttl=63 time=0.682 ms
64 bytes from 128.223.32.36: icmp_seq=366 ttl=63 time=0.683 ms
64 bytes from 128.223.32.36: icmp_seq=366 ttl=63 time=0.687 ms
64 bytes from 128.223.32.36: icmp_seq=367 ttl=63 time=0.618 ms
64 bytes from 128.223.32.36: icmp_seq=367 ttl=63 time=0.681 ms
64 bytes from 128.223.32.36: icmp_seq=368 ttl=63 time=0.677 ms
64 bytes from 128.223.32.36: icmp_seq=368 ttl=63 time=0.670 ms
64 bytes from 128.223.32.36: icmp_seq=369 ttl=63 time=0.677 ms
64 bytes from 128.223.32.36: icmp_seq=369 ttl=63 time=0.660 ms
64 bytes from 128.223.32.36: icmp_seq=370 ttl=63 time=0.698 ms
64 bytes from 128.223.32.36: icmp_seq=370 ttl=63 time=0.690 ms
64 bytes from 128.223.32.36: icmp_seq=371 ttl=63 time=0.684 ms
64 bytes from 128.223.32.36: icmp_seq=371 ttl=63 time=0.679 ms
64 bytes from 128.223.32.36: icmp_seq=372 ttl=63 time=0.702 ms
64 bytes from 128.223.32.36: icmp_seq=372 ttl=63 time=0.695 ms
64 bytes from 128.223.32.36: icmp_seq=373 ttl=63 time=0.724 ms
64 bytes from 128.223.32.36: icmp_seq=373 ttl=63 time=0.509 ms
64 bytes from 128.223.32.36: icmp_seq=374 ttl=63 time=0.693 ms
64 bytes from 128.223.32.36: icmp_seq=374 ttl=63 time=0.668 ms
64 bytes from 128.223.32.36: icmp_seq=375 ttl=63 time=0.689 ms
64 bytes from 128.223.32.36: icmp_seq=375 ttl=63 time=0.691 ms
64 bytes from 128.223.32.36: icmp_seq=376 ttl=63 time=0.695 ms
64 bytes from 128.223.32.36: icmp_seq=376 ttl=63 time=0.697 ms
64 bytes from 128.223.32.36: icmp_seq=377 ttl=63 time=0.677 ms
64 bytes from 128.223.32.36: icmp_seq=377 ttl=63 time=0.692 ms
64 bytes from 128.223.32.36: icmp_seq=378 ttl=63 time=0.537 ms
64 bytes from 128.223.32.36: icmp_seq=378 ttl=63 time=0.482 ms
64 bytes from 128.223.32.36: icmp_seq=379 ttl=63 time=0.696 ms
64 bytes from 128.223.32.36: icmp_seq=379 ttl=63 time=0.678 ms
64 bytes from 128.223.32.36: icmp_seq=380 ttl=63 time=0.694 ms
64 bytes from 128.223.32.36: icmp_seq=380 ttl=63 time=0.660 ms
64 bytes from 128.223.32.36: icmp_seq=381 ttl=63 time=0.508 ms
64 bytes from 128.223.32.36: icmp_seq=381 ttl=63 time=0.481 ms
64 bytes from 128.223.32.36: icmp_seq=382 ttl=63 time=0.692 ms
64 bytes from 128.223.32.36: icmp_seq=382 ttl=63 time=0.687 ms
64 bytes from 128.223.32.36: icmp_seq=383 ttl=63 time=0.690 ms
64 bytes from 128.223.32.36: icmp_seq=383 ttl=63 time=0.690 ms
64 bytes from 128.223.32.36: icmp_seq=384 ttl=63 time=0.700 ms
64 bytes from 128.223.32.36: icmp_seq=384 ttl=63 time=0.674 ms
64 bytes from 128.223.32.36: icmp_seq=385 ttl=63 time=0.502 ms
64 bytes from 128.223.32.36: icmp_seq=385 ttl=63 time=0.678 ms
64 bytes from 128.223.32.36: icmp_seq=386 ttl=63 time=0.689 ms
64 bytes from 128.223.32.36: icmp_seq=386 ttl=63 time=0.499 ms
64 bytes from 128.223.32.36: icmp_seq=387 ttl=63 time=0.693 ms
64 bytes from 128.223.32.36: icmp_seq=387 ttl=63 time=0.697 ms
64 bytes from 128.223.32.36: icmp_seq=388 ttl=63 time=0.684 ms
64 bytes from 128.223.32.36: icmp_seq=388 ttl=63 time=0.671 ms
64 bytes from 128.223.32.36: icmp_seq=389 ttl=63 time=0.671 ms
64 bytes from 128.223.32.36: icmp_seq=389 ttl=63 time=0.658 ms
64 bytes from 128.223.32.36: icmp_seq=390 ttl=63 time=0.499 ms
64 bytes from 128.223.32.36: icmp_seq=390 ttl=63 time=0.484 ms
64 bytes from 128.223.32.36: icmp_seq=391 ttl=63 time=0.698 ms
64 bytes from 128.223.32.36: icmp_seq=391 ttl=63 time=0.711 ms
64 bytes from 128.223.32.36: icmp_seq=392 ttl=63 time=0.668 ms
64 bytes from 128.223.32.36: icmp_seq=392 ttl=63 time=0.688 ms
64 bytes from 128.223.32.36: icmp_seq=393 ttl=63 time=0.668 ms
64 bytes from 128.223.32.36: icmp_seq=393 ttl=63 time=0.687 ms
64 bytes from 128.223.32.36: icmp_seq=394 ttl=63 time=0.691 ms
64 bytes from 128.223.32.36: icmp_seq=394 ttl=63 time=0.681 ms
64 bytes from 128.223.32.36: icmp_seq=395 ttl=63 time=0.674 ms
64 bytes from 128.223.32.36: icmp_seq=395 ttl=63 time=0.682 ms
64 bytes from 128.223.32.36: icmp_seq=396 ttl=63 time=0.678 ms
64 bytes from 128.223.32.36: icmp_seq=396 ttl=63 time=0.681 ms
64 bytes from 128.223.32.36: icmp_seq=397 ttl=63 time=0.681 ms
64 bytes from 128.223.32.36: icmp_seq=397 ttl=63 time=0.611 ms
64 bytes from 128.223.32.36: icmp_seq=398 ttl=63 time=0.636 ms
64 bytes from 128.223.32.36: icmp_seq=398 ttl=63 time=0.672 ms
64 bytes from 128.223.32.36: icmp_seq=399 ttl=63 time=0.688 ms
64 bytes from 128.223.32.36: icmp_seq=399 ttl=63 time=0.657 ms
64 bytes from 128.223.32.36: icmp_seq=400 ttl=63 time=0.686 ms
64 bytes from 128.223.32.36: icmp_seq=400 ttl=63 time=0.624 ms
64 bytes from 128.223.32.36: icmp_seq=401 ttl=63 time=0.624 ms
64 bytes from 128.223.32.36: icmp_seq=401 ttl=63 time=0.670 ms
64 bytes from 128.223.32.36: icmp_seq=402 ttl=63 time=0.678 ms
64 bytes from 128.223.32.36: icmp_seq=402 ttl=63 time=0.673 ms
64 bytes from 128.223.32.36: icmp_seq=403 ttl=63 time=0.693 ms
64 bytes from 128.223.32.36: icmp_seq=403 ttl=63 time=0.690 ms
64 bytes from 128.223.32.36: icmp_seq=404 ttl=63 time=0.501 ms
64 bytes from 128.223.32.36: icmp_seq=404 ttl=63 time=0.482 ms
64 bytes from 128.223.32.36: icmp_seq=405 ttl=63 time=0.647 ms
64 bytes from 128.223.32.36: icmp_seq=405 ttl=63 time=0.684 ms
64 bytes from 128.223.32.36: icmp_seq=406 ttl=63 time=0.698 ms
64 bytes from 128.223.32.36: icmp_seq=406 ttl=63 time=0.588 ms
64 bytes from 128.223.32.36: icmp_seq=407 ttl=63 time=0.603 ms
64 bytes from 128.223.32.36: icmp_seq=407 ttl=63 time=0.696 ms
64 bytes from 128.223.32.36: icmp_seq=408 ttl=63 time=0.506 ms
64 bytes from 128.223.32.36: icmp_seq=408 ttl=63 time=0.670 ms
64 bytes from 128.223.32.36: icmp_seq=409 ttl=63 time=0.510 ms
64 bytes from 128.223.32.36: icmp_seq=409 ttl=63 time=0.684 ms
64 bytes from 128.223.32.36: icmp_seq=410 ttl=63 time=0.508 ms
64 bytes from 128.223.32.36: icmp_seq=410 ttl=63 time=0.691 ms
64 bytes from 128.223.32.36: icmp_seq=411 ttl=63 time=0.532 ms
64 bytes from 128.223.32.36: icmp_seq=411 ttl=63 time=0.479 ms
64 bytes from 128.223.32.36: icmp_seq=412 ttl=63 time=0.690 ms
64 bytes from 128.223.32.36: icmp_seq=412 ttl=63 time=0.676 ms
64 bytes from 128.223.32.36: icmp_seq=413 ttl=63 time=0.644 ms
64 bytes from 128.223.32.36: icmp_seq=413 ttl=63 time=0.692 ms
64 bytes from 128.223.32.36: icmp_seq=414 ttl=63 time=0.608 ms
64 bytes from 128.223.32.36: icmp_seq=414 ttl=63 time=0.685 ms
64 bytes from 128.223.32.36: icmp_seq=415 ttl=63 time=0.608 ms
64 bytes from 128.223.32.36: icmp_seq=415 ttl=63 time=0.603 ms
64 bytes from 128.223.32.36: icmp_seq=416 ttl=63 time=0.684 ms
64 bytes from 128.223.32.36: icmp_seq=416 ttl=63 time=0.605 ms
64 bytes from 128.223.32.36: icmp_seq=417 ttl=63 time=0.741 ms
64 bytes from 128.223.32.36: icmp_seq=417 ttl=63 time=0.602 ms
64 bytes from 128.223.32.36: icmp_seq=418 ttl=63 time=0.500 ms
64 bytes from 128.223.32.36: icmp_seq=418 ttl=63 time=0.486 ms
64 bytes from 128.223.32.36: icmp_seq=419 ttl=63 time=0.483 ms
64 bytes from 128.223.32.36: icmp_seq=419 ttl=63 time=0.511 ms
64 bytes from 128.223.32.36: icmp_seq=420 ttl=63 time=0.500 ms
64 bytes from 128.223.32.36: icmp_seq=420 ttl=63 time=0.479 ms
64 bytes from 128.223.32.36: icmp_seq=421 ttl=63 time=0.703 ms
64 bytes from 128.223.32.36: icmp_seq=421 ttl=63 time=0.414 ms
64 bytes from 128.223.32.36: icmp_seq=422 ttl=63 time=0.553 ms
64 bytes from 128.223.32.36: icmp_seq=422 ttl=63 time=0.651 ms
64 bytes from 128.223.32.36: icmp_seq=423 ttl=63 time=0.526 ms
64 bytes from 128.223.32.36: icmp_seq=423 ttl=63 time=0.490 ms
64 bytes from 128.223.32.36: icmp_seq=424 ttl=63 time=0.381 ms
64 bytes from 128.223.32.36: icmp_seq=424 ttl=63 time=0.666 ms
64 bytes from 128.223.32.36: icmp_seq=425 ttl=63 time=0.517 ms
64 bytes from 128.223.32.36: icmp_seq=425 ttl=63 time=0.681 ms
64 bytes from 128.223.32.36: icmp_seq=426 ttl=63 time=0.633 ms
64 bytes from 128.223.32.36: icmp_seq=426 ttl=63 time=0.587 ms
64 bytes from 128.223.32.36: icmp_seq=427 ttl=63 time=0.411 ms
64 bytes from 128.223.32.36: icmp_seq=427 ttl=63 time=0.633 ms
64 bytes from 128.223.32.36: icmp_seq=428 ttl=63 time=0.743 ms
64 bytes from 128.223.32.36: icmp_seq=428 ttl=63 time=0.654 ms
64 bytes from 128.223.32.36: icmp_seq=429 ttl=63 time=0.727 ms
64 bytes from 128.223.32.36: icmp_seq=429 ttl=63 time=0.588 ms
64 bytes from 128.223.32.36: icmp_seq=430 ttl=63 time=0.741 ms
64 bytes from 128.223.32.36: icmp_seq=430 ttl=63 time=0.604 ms
64 bytes from 128.223.32.36: icmp_seq=431 ttl=63 time=0.687 ms
64 bytes from 128.223.32.36: icmp_seq=431 ttl=63 time=0.487 ms
64 bytes from 128.223.32.36: icmp_seq=432 ttl=63 time=0.643 ms
64 bytes from 128.223.32.36: icmp_seq=432 ttl=63 time=0.642 ms
64 bytes from 128.223.32.36: icmp_seq=433 ttl=63 time=0.674 ms
64 bytes from 128.223.32.36: icmp_seq=433 ttl=63 time=0.432 ms
64 bytes from 128.223.32.36: icmp_seq=434 ttl=63 time=0.494 ms
64 bytes from 128.223.32.36: icmp_seq=434 ttl=63 time=0.485 ms
64 bytes from 128.223.32.36: icmp_seq=435 ttl=63 time=0.488 ms
64 bytes from 128.223.32.36: icmp_seq=435 ttl=63 time=0.475 ms
64 bytes from 128.223.32.36: icmp_seq=436 ttl=63 time=0.682 ms
64 bytes from 128.223.32.36: icmp_seq=436 ttl=63 time=0.658 ms
64 bytes from 128.223.32.36: icmp_seq=437 ttl=63 time=0.693 ms
64 bytes from 128.223.32.36: icmp_seq=437 ttl=63 time=0.744 ms
64 bytes from 128.223.32.36: icmp_seq=438 ttl=63 time=0.708 ms
64 bytes from 128.223.32.36: icmp_seq=438 ttl=63 time=0.691 ms
64 bytes from 128.223.32.36: icmp_seq=439 ttl=63 time=0.694 ms
64 bytes from 128.223.32.36: icmp_seq=439 ttl=63 time=0.693 ms
64 bytes from 128.223.32.36: icmp_seq=440 ttl=63 time=0.686 ms
64 bytes from 128.223.32.36: icmp_seq=440 ttl=63 time=0.692 ms
64 bytes from 128.223.32.36: icmp_seq=441 ttl=63 time=0.709 ms
64 bytes from 128.223.32.36: icmp_seq=441 ttl=63 time=0.686 ms
64 bytes from 128.223.32.36: icmp_seq=442 ttl=63 time=0.497 ms
64 bytes from 128.223.32.36: icmp_seq=442 ttl=63 time=0.516 ms
64 bytes from 128.223.32.36: icmp_seq=443 ttl=63 time=0.705 ms
64 bytes from 128.223.32.36: icmp_seq=443 ttl=63 time=0.688 ms
64 bytes from 128.223.32.36: icmp_seq=444 ttl=63 time=0.695 ms
64 bytes from 128.223.32.36: icmp_seq=444 ttl=63 time=0.523 ms
64 bytes from 128.223.32.36: icmp_seq=445 ttl=63 time=0.677 ms
64 bytes from 128.223.32.36: icmp_seq=445 ttl=63 time=0.706 ms
64 bytes from 128.223.32.36: icmp_seq=446 ttl=63 time=0.437 ms
64 bytes from 128.223.32.36: icmp_seq=446 ttl=63 time=0.410 ms
64 bytes from 128.223.32.36: icmp_seq=447 ttl=63 time=0.466 ms
64 bytes from 128.223.32.36: icmp_seq=447 ttl=63 time=0.407 ms
64 bytes from 128.223.32.36: icmp_seq=448 ttl=63 time=0.440 ms
64 bytes from 128.223.32.36: icmp_seq=448 ttl=63 time=0.674 ms
64 bytes from 128.223.32.36: icmp_seq=449 ttl=63 time=0.464 ms
64 bytes from 128.223.32.36: icmp_seq=449 ttl=63 time=0.409 ms
64 bytes from 128.223.32.36: icmp_seq=450 ttl=63 time=0.429 ms
64 bytes from 128.223.32.36: icmp_seq=450 ttl=63 time=0.409 ms
64 bytes from 128.223.32.36: icmp_seq=451 ttl=63 time=0.440 ms
64 bytes from 128.223.32.36: icmp_seq=451 ttl=63 time=0.407 ms
64 bytes from 128.223.32.36: icmp_seq=452 ttl=63 time=0.692 ms
64 bytes from 128.223.32.36: icmp_seq=452 ttl=63 time=0.663 ms
64 bytes from 128.223.32.36: icmp_seq=453 ttl=63 time=0.437 ms
64 bytes from 128.223.32.36: icmp_seq=453 ttl=63 time=0.406 ms
64 bytes from 128.223.32.36: icmp_seq=454 ttl=63 time=0.430 ms
64 bytes from 128.223.32.36: icmp_seq=454 ttl=63 time=0.407 ms
64 bytes from 128.223.32.36: icmp_seq=455 ttl=63 time=0.439 ms
64 bytes from 128.223.32.36: icmp_seq=455 ttl=63 time=0.408 ms
64 bytes from 128.223.32.36: icmp_seq=456 ttl=63 time=0.703 ms
64 bytes from 128.223.32.36: icmp_seq=456 ttl=63 time=0.685 ms
64 bytes from 128.223.32.36: icmp_seq=457 ttl=63 time=0.700 ms
64 bytes from 128.223.32.36: icmp_seq=457 ttl=63 time=0.674 ms
64 bytes from 128.223.32.36: icmp_seq=458 ttl=63 time=0.696 ms
64 bytes from 128.223.32.36: icmp_seq=458 ttl=63 time=0.692 ms
64 bytes from 128.223.32.36: icmp_seq=459 ttl=63 time=0.686 ms
64 bytes from 128.223.32.36: icmp_seq=459 ttl=63 time=0.696 ms
64 bytes from 128.223.32.36: icmp_seq=460 ttl=63 time=0.681 ms
64 bytes from 128.223.32.36: icmp_seq=460 ttl=63 time=0.671 ms
64 bytes from 128.223.32.36: icmp_seq=461 ttl=63 time=0.679 ms
64 bytes from 128.223.32.36: icmp_seq=461 ttl=63 time=0.681 ms
64 bytes from 128.223.32.36: icmp_seq=462 ttl=63 time=0.677 ms
64 bytes from 128.223.32.36: icmp_seq=462 ttl=63 time=0.460 ms
64 bytes from 128.223.32.36: icmp_seq=463 ttl=63 time=0.684 ms
64 bytes from 128.223.32.36: icmp_seq=463 ttl=63 time=0.669 ms
64 bytes from 128.223.32.36: icmp_seq=464 ttl=63 time=0.694 ms
64 bytes from 128.223.32.36: icmp_seq=464 ttl=63 time=0.686 ms
64 bytes from 128.223.32.36: icmp_seq=465 ttl=63 time=0.596 ms
64 bytes from 128.223.32.36: icmp_seq=465 ttl=63 time=0.722 ms
64 bytes from 128.223.32.36: icmp_seq=466 ttl=63 time=0.602 ms
64 bytes from 128.223.32.36: icmp_seq=466 ttl=63 time=0.689 ms
64 bytes from 128.223.32.36: icmp_seq=467 ttl=63 time=0.675 ms
64 bytes from 128.223.32.36: icmp_seq=467 ttl=63 time=0.609 ms
64 bytes from 128.223.32.36: icmp_seq=468 ttl=63 time=0.683 ms
64 bytes from 128.223.32.36: icmp_seq=468 ttl=63 time=0.670 ms
64 bytes from 128.223.32.36: icmp_seq=469 ttl=63 time=0.721 ms
64 bytes from 128.223.32.36: icmp_seq=469 ttl=63 time=0.688 ms
64 bytes from 128.223.32.36: icmp_seq=470 ttl=63 time=0.684 ms
64 bytes from 128.223.32.36: icmp_seq=470 ttl=63 time=0.681 ms
64 bytes from 128.223.32.36: icmp_seq=471 ttl=63 time=0.685 ms
64 bytes from 128.223.32.36: icmp_seq=471 ttl=63 time=0.682 ms
64 bytes from 128.223.32.36: icmp_seq=472 ttl=63 time=0.692 ms
64 bytes from 128.223.32.36: icmp_seq=472 ttl=63 time=0.668 ms
64 bytes from 128.223.32.36: icmp_seq=473 ttl=63 time=0.433 ms
64 bytes from 128.223.32.36: icmp_seq=473 ttl=63 time=0.401 ms
64 bytes from 128.223.32.36: icmp_seq=474 ttl=63 time=0.690 ms
64 bytes from 128.223.32.36: icmp_seq=474 ttl=63 time=0.673 ms
64 bytes from 128.223.32.36: icmp_seq=475 ttl=63 time=0.427 ms
64 bytes from 128.223.32.36: icmp_seq=475 ttl=63 time=0.593 ms
64 bytes from 128.223.32.36: icmp_seq=476 ttl=63 time=0.430 ms
64 bytes from 128.223.32.36: icmp_seq=476 ttl=63 time=0.408 ms
64 bytes from 128.223.32.36: icmp_seq=477 ttl=63 time=0.431 ms
64 bytes from 128.223.32.36: icmp_seq=477 ttl=63 time=0.428 ms
64 bytes from 128.223.32.36: icmp_seq=478 ttl=63 time=0.692 ms
64 bytes from 128.223.32.36: icmp_seq=478 ttl=63 time=0.691 ms
64 bytes from 128.223.32.36: icmp_seq=479 ttl=63 time=0.676 ms
64 bytes from 128.223.32.36: icmp_seq=479 ttl=63 time=0.634 ms
64 bytes from 128.223.32.36: icmp_seq=480 ttl=63 time=0.701 ms
64 bytes from 128.223.32.36: icmp_seq=480 ttl=63 time=0.702 ms
64 bytes from 128.223.32.36: icmp_seq=481 ttl=63 time=0.601 ms
64 bytes from 128.223.32.36: icmp_seq=481 ttl=63 time=0.625 ms
64 bytes from 128.223.32.36: icmp_seq=482 ttl=63 time=0.674 ms
64 bytes from 128.223.32.36: icmp_seq=482 ttl=63 time=0.627 ms
64 bytes from 128.223.32.36: icmp_seq=483 ttl=63 time=0.678 ms
64 bytes from 128.223.32.36: icmp_seq=483 ttl=63 time=0.580 ms
64 bytes from 128.223.32.36: icmp_seq=484 ttl=63 time=0.692 ms
64 bytes from 128.223.32.36: icmp_seq=484 ttl=63 time=0.673 ms
64 bytes from 128.223.32.36: icmp_seq=485 ttl=63 time=0.686 ms
64 bytes from 128.223.32.36: icmp_seq=485 ttl=63 time=0.659 ms
64 bytes from 128.223.32.36: icmp_seq=486 ttl=63 time=0.657 ms
64 bytes from 128.223.32.36: icmp_seq=486 ttl=63 time=0.659 ms
64 bytes from 128.223.32.36: icmp_seq=487 ttl=63 time=0.678 ms
64 bytes from 128.223.32.36: icmp_seq=487 ttl=63 time=0.651 ms
64 bytes from 128.223.32.36: icmp_seq=488 ttl=63 time=0.685 ms
64 bytes from 128.223.32.36: icmp_seq=488 ttl=63 time=0.687 ms
64 bytes from 128.223.32.36: icmp_seq=489 ttl=63 time=0.631 ms
64 bytes from 128.223.32.36: icmp_seq=489 ttl=63 time=0.683 ms
64 bytes from 128.223.32.36: icmp_seq=490 ttl=63 time=0.608 ms
64 bytes from 128.223.32.36: icmp_seq=490 ttl=63 time=0.723 ms
64 bytes from 128.223.32.36: icmp_seq=491 ttl=63 time=0.650 ms
64 bytes from 128.223.32.36: icmp_seq=491 ttl=63 time=0.603 ms
64 bytes from 128.223.32.36: icmp_seq=492 ttl=63 time=0.664 ms
64 bytes from 128.223.32.36: icmp_seq=492 ttl=63 time=0.617 ms
64 bytes from 128.223.32.36: icmp_seq=493 ttl=63 time=0.616 ms
64 bytes from 128.223.32.36: icmp_seq=493 ttl=63 time=0.659 ms
64 bytes from 128.223.32.36: icmp_seq=494 ttl=63 time=0.673 ms
64 bytes from 128.223.32.36: icmp_seq=494 ttl=63 time=0.647 ms
64 bytes from 128.223.32.36: icmp_seq=495 ttl=63 time=0.599 ms
64 bytes from 128.223.32.36: icmp_seq=495 ttl=63 time=0.632 ms
64 bytes from 128.223.32.36: icmp_seq=496 ttl=63 time=0.683 ms
64 bytes from 128.223.32.36: icmp_seq=496 ttl=63 time=0.653 ms
64 bytes from 128.223.32.36: icmp_seq=497 ttl=63 time=0.617 ms
64 bytes from 128.223.32.36: icmp_seq=497 ttl=63 time=0.604 ms
64 bytes from 128.223.32.36: icmp_seq=498 ttl=63 time=0.619 ms
64 bytes from 128.223.32.36: icmp_seq=498 ttl=63 time=0.683 ms
64 bytes from 128.223.32.36: icmp_seq=499 ttl=63 time=0.597 ms
64 bytes from 128.223.32.36: icmp_seq=499 ttl=63 time=0.593 ms
64 bytes from 128.223.32.36: icmp_seq=500 ttl=63 time=0.582 ms
64 bytes from 128.223.32.36: icmp_seq=500 ttl=63 time=0.586 ms

--- 128.223.32.36 ping statistics ---
500 packets transmitted, 497 received, 0% packet loss, time 510868ms
rtt min/avg/max/mdev = 0.370/0.659/0.980/0.090 ms

--- 128.223.32.36 ping statistics ---
500 packets transmitted, 491 received, 1% packet loss, time 510931ms
rtt min/avg/max/mdev = 0.348/0.657/0.912/0.084 ms
