     1	302 
     2	302 
     3	302 
     4	302 
     5	302 
     6	302 
     7	302 
     8	302 
     9	302 
    10	302 
    11	302 
    12	302 
    13	302 
    14	302 
    15	302 
    16	302 
    17	302 
    18	302 
    19	302 
    20	302 
    21	302 
    22	302 
    23	302 
    24	302 
    25	302 
    26	302 
    27	302 
    28	302 
    29	302 
    30	302 
    31	302 
    32	302 
    33	302 
    34	302 
    35	302 
    36	302 
    37	302 
    38	302 
    39	302 
    40	302 
    41	302 
    42	302 
    43	302 
    44	302 
    45	302 
    46	302 
    47	302 
    48	302 
    49	302 
    50	302 
    51	301 
    52	301 
    53	301 
    54	301 
    55	301 
    56	301 
    57	301 
    58	301 
    59	301 
    60	301 
    61	301 
    62	301 
    63	301 
    64	301 
    65	301 
    66	301 
    67	301 
    68	301 
    69	301 
    70	301 
    71	301 
    72	301 
    73	301 
    74	301 
    75	301 
    76	301 
    77	301 
    78	301 
    79	301 
    80	301 
    81	301 
    82	301 
    83	301 
    84	301 
    85	301 
    86	301 
    87	301 
    88	301 
    89	301 
    90	301 
    91	301 
    92	301 
    93	301 
    94	301 
    95	301 
    96	301 
    97	301 
    98	301 
    99	301 
   100	301 
   101	301 
   102	301 
   103	301 
   104	301 
   105	301 
   106	301 
   107	301 
   108	301 
   109	301 
   110	301 
   111	301 
   112	301 
   113	301 
   114	301 
   115	301 
   116	301 
   117	301 
   118	301 
   119	301 
   120	301 
   121	301 
   122	301 
   123	301 
   124	301 
   125	301 
   126	301 
   127	301 
   128	301 
   129	301 
   130	301 
   131	301 
   132	301 
   133	301 
   134	301 
   135	301 
   136	301 
   137	301 
   138	301 
   139	301 
   140	301 
   141	301 
   142	301 
   143	301 
   144	301 
   145	301 
   146	301 
   147	301 
   148	301 
   149	300 
   150	300 
   151	300 
   152	300 
   153	300 
   154	300 
   155	300 
   156	300 
   157	300 
   158	300 
   159	300 
   160	300 
   161	300 
   162	300 
   163	300 
   164	300 
   165	300 
   166	300 
   167	300 
   168	300 
   169	300 
   170	300 
   171	300 
   172	300 
   173	300 
   174	300 
   175	300 
   176	300 
   177	300 
   178	300 
   179	300 
   180	300 
   181	300 
   182	300 
   183	300 
   184	300 
   185	300 
   186	300 
   187	300 
   188	300 
   189	300 
   190	300 
   191	300 
   192	300 
   193	300 
   194	298 
   195	298 
   196	294 
   197	291 
   198	291 
   199	291 
   200	290 
   201	290 
   202	290 
   203	290 
   204	290 
   205	290 
   206	290 
   207	290 
   208	289 
   209	288 
   210	288 
   211	288 
   212	288 
   213	288 
   214	288 
   215	288 
   216	288 
   217	288 
   218	288 
   219	288 
   220	288 
   221	288 
   222	288 
   223	288 
   224	288 
   225	288 
   226	288 
   227	288 
   228	286 
   229	286 
   230	286 
   231	286 
   232	286 
   233	286 
   234	286 
   235	286 
   236	286 
   237	286 
   238	286 
   239	285 
   240	285 
   241	285 
   242	285 
   243	285 
   244	285 
   245	285 
   246	285 
   247	285 
   248	285 
   249	285 
   250	284 
   251	284 
   252	284 
   253	281 
   254	281 
   255	280 
   256	280 
   257	278 
   258	278 
   259	278 
   260	277 
   261	277 
   262	277 
   263	277 
   264	276 
   265	276 
   266	276 
   267	276 
   268	276 
   269	276 
   270	276 
   271	276 
   272	276 
   273	276 
   274	276 
   275	276 
   276	276 
   277	276 
   278	277 
   279	277 
   280	277 
   281	277 
   282	277 
   283	277 
   284	277 
   285	277 
   286	277 
   287	277 
   288	277 
   289	277 
   290	277 
   291	277 
   292	277 
   293	277 
   294	277 
   295	277 
   296	277 
   297	277 
   298	277 
   299	277 
   300	277 
   301	277 
   302	277 
   303	277 
   304	277 
   305	277 
   306	277 
   307	277 
   308	277 
   309	277 
   310	277 
   311	277 
   312	277 
   313	277 
   314	277 
   315	277 
   316	277 
   317	277 
   318	277 
   319	277 
   320	277 
   321	277 
   322	277 
   323	277 
   324	277 
   325	277 
   326	277 
   327	277 
   328	277 
   329	277 
   330	277 
   331	277 
   332	277 
   333	277 
   334	277 
   335	277 
   336	277 
   337	277 
   338	277 
   339	277 
   340	277 
   341	277 
   342	277 
   343	277 
   344	277 
   345	277 
   346	277 
   347	277 
   348	277 
   349	277 
   350	277 
   351	277 
   352	277 
   353	277 
   354	277 
   355	277 
   356	277 
   357	277 
   358	277 
   359	277 
   360	277 
   361	277 
   362	277 
   363	277 
   364	277 
   365	277 
   366	277 
   367	277 
   368	277 
   369	277 
   370	277 
   371	277 
   372	277 
   373	277 
   374	277 
   375	277 
   376	277 
   377	277 
   378	277 
   379	277 
   380	277 
   381	277 
   382	277 
   383	277 
   384	277 
   385	277 
   386	277 
   387	277 
   388	277 
   389	277 
   390	277 
   391	277 
   392	277 
   393	277 
   394	277 
   395	277 
   396	277 
   397	277 
   398	277 
   399	277 
   400	277 
   401	277 
   402	277 
   403	277 
   404	277 
   405	277 
   406	277 
   407	277 
   408	277 
   409	277 
   410	277 
   411	277 
   412	277 
   413	277 
   414	277 
   415	277 
   416	277 
   417	277 
   418	277 
   419	277 
   420	277 
   421	277 
   422	277 
   423	277 
   424	277 
   425	277 
   426	277 
   427	277 
   428	277 
   429	277 
   430	277 
   431	277 
   432	277 
   433	277 
   434	277 
   435	277 
   436	277 
   437	277 
   438	277 
   439	277 
   440	277 
   441	277 
   442	277 
   443	277 
   444	277 
   445	277 
   446	277 
   447	277 
   448	277 
   449	277 
   450	277 
   451	277 
   452	277 
   453	277 
   454	277 
   455	277 
   456	277 
   457	277 
   458	277 
   459	277 
   460	277 
   461	277 
   462	277 
   463	277 
   464	277 
   465	277 
   466	277 
   467	277 
   468	277 
   469	277 
   470	277 
   471	277 
   472	277 
   473	277 
   474	277 
   475	277 
   476	277 
   477	277 
   478	277 
   479	277 
   480	277 
   481	277 
   482	277 
   483	277 
   484	277 
   485	277 
   486	277 
   487	277 
   488	277 
   489	277 
   490	277 
   491	277 
   492	277 
   493	277 
   494	277 
   495	277 
   496	277 
   497	277 
   498	277 
   499	277 
   500	277 
   501	277 
   502	277 
