     1	1342072 
     2	1342072 
     3	1342072 
     4	2158372 
     5	2158372 
     6	2158372 
     7	2172808 
     8	2172808 
     9	2172808 
    10	1743692 
    11	1743692 
    12	1743692 
    13	1559300 
    14	1559300 
    15	1559300 
    16	1799028 
    17	1799028 
    18	1799028 
    19	2451352 
    20	2451352 
    21	2451352 
    22	2015136 
    23	2015136 
    24	2015136 
    25	1703480 
    26	1703480 
    27	1703480 
    28	1517404 
    29	1517404 
    30	1517404 
    31	1491760 
    32	1491760 
    33	1491760 
    34	1465728 
    35	1465728 
    36	1465728 
    37	1457508 
    38	1457508 
    39	1457508 
    40	1452084 
    41	1452084 
    42	1452084 
    43	1450216 
    44	1450216 
    45	1450216 
    46	1416868 
    47	1416868 
    48	1416868 
    49	1390812 
    50	1390812 
    51	1390812 
