     1	291 
     2	292 
     3	313 
     4	387 
     5	418 
     6	406 
     7	396 
     8	385 
     9	378 
    10	373 
    11	368 
    12	365 
    13	361 
    14	357 
    15	353 
    16	392 
    17	478 
    18	481 
    19	473 
    20	460 
    21	453 
    22	445 
    23	433 
    24	428 
    25	425 
    26	421 
    27	416 
    28	409 
    29	401 
    30	392 
    31	384 
    32	377 
    33	371 
    34	368 
    35	365 
    36	362 
    37	359 
    38	356 
    39	353 
    40	353 
    41	350 
    42	343 
    43	336 
    44	328 
    45	323 
    46	316 
    47	309 
    48	306 
    49	303 
    50	300 
    51	297 
