     1	1468820 
     2	1468820 
     3	1468820 
     4	1634744 
     5	1634744 
     6	1634744 
     7	3589668 
     8	3589668 
     9	3589668 
    10	5375896 
    11	5375896 
    12	5375896 
    13	5630592 
    14	5630592 
    15	5700644 
    16	5700644 
    17	5700644 
    18	5626692 
    19	5626692 
    20	5626692 
    21	5587488 
    22	5587488 
    23	5587488 
    24	5564656 
    25	5564656 
    26	5564656 
    27	5514696 
    28	5514696 
    29	5514696 
    30	5655532 
    31	5655532 
    32	5655532 
    33	5201284 
    34	5201284 
    35	5201284 
    36	4650172 
    37	4650172 
    38	4650172 
    39	4234988 
    40	4234988 
    41	4234988 
    42	3312788 
    43	3312788 
    44	3312788 
    45	2611332 
    46	2611332 
    47	2611332 
    48	2120192 
    49	2120192 
    50	2120192 
    51	1774580 
    52	1774580 
    53	1774580 
    54	1554604 
    55	1554604 
    56	1554604 
    57	2064560 
    58	2064560 
    59	2064560 
    60	2839108 
    61	2839108 
    62	2839108 
    63	3955764 
    64	3955764 
    65	3955764 
    66	5478584 
    67	5478584 
    68	5478584 
    69	5677156 
    70	5677156 
    71	5677156 
    72	5538616 
    73	5538616 
    74	5550708 
    75	5550708 
    76	5550708 
    77	5610892 
    78	5610892 
    79	5610892 
    80	5540744 
    81	5540744 
    82	5540744 
    83	5634184 
    84	5634184 
    85	5634184 
    86	4857328 
    87	4857328 
    88	4857328 
    89	4392100 
    90	4392100 
    91	4392100 
    92	3782392 
    93	3782392 
    94	3394996 
    95	3394996 
    96	3394996 
    97	2858444 
    98	2858444 
    99	2858444 
   100	2295476 
   101	2295476 
   102	2295476 
   103	2047064 
   104	2047064 
   105	2047064 
   106	1761764 
   107	1761764 
   108	1761764 
   109	1557000 
   110	1557000 
   111	1557000 
   112	1539388 
