5 packets transmitted, 5 received, 0% packet loss, time 4005ms
5 packets transmitted, 5 received, 0% packet loss, time 4006ms
5 packets transmitted, 5 received, 0% packet loss, time 4005ms
5 packets transmitted, 5 received, 0% packet loss, time 4005ms
5 packets transmitted, 5 received, 0% packet loss, time 4007ms
5 packets transmitted, 5 received, 0% packet loss, time 4005ms
5 packets transmitted, 5 received, 0% packet loss, time 4004ms
5 packets transmitted, 5 received, 0% packet loss, time 4006ms
5 packets transmitted, 5 received, 0% packet loss, time 4007ms
5 packets transmitted, 5 received, 0% packet loss, time 4005ms
5 packets transmitted, 5 received, 0% packet loss, time 4005ms
5 packets transmitted, 5 received, 0% packet loss, time 4006ms
5 packets transmitted, 5 received, 0% packet loss, time 4005ms
5 packets transmitted, 5 received, 0% packet loss, time 4003ms
5 packets transmitted, 5 received, 0% packet loss, time 4006ms
5 packets transmitted, 5 received, 0% packet loss, time 4005ms
5 packets transmitted, 5 received, 0% packet loss, time 4005ms
5 packets transmitted, 5 received, 0% packet loss, time 4005ms
5 packets transmitted, 5 received, 0% packet loss, time 4005ms
5 packets transmitted, 5 received, 0% packet loss, time 4004ms
5 packets transmitted, 5 received, 0% packet loss, time 4005ms
5 packets transmitted, 5 received, 0% packet loss, time 4005ms
5 packets transmitted, 5 received, 0% packet loss, time 4005ms
5 packets transmitted, 5 received, 0% packet loss, time 4005ms
5 packets transmitted, 5 received, 0% packet loss, time 4005ms
5 packets transmitted, 5 received, 0% packet loss, time 4006ms
5 packets transmitted, 5 received, 0% packet loss, time 4005ms
5 packets transmitted, 5 received, 0% packet loss, time 4005ms
5 packets transmitted, 5 received, 0% packet loss, time 4005ms
5 packets transmitted, 5 received, 0% packet loss, time 4004ms
5 packets transmitted, 5 received, 0% packet loss, time 4005ms
5 packets transmitted, 5 received, 0% packet loss, time 4004ms
5 packets transmitted, 5 received, 0% packet loss, time 4004ms
5 packets transmitted, 5 received, 0% packet loss, time 4005ms
5 packets transmitted, 5 received, 0% packet loss, time 4004ms
5 packets transmitted, 5 received, 0% packet loss, time 4006ms
5 packets transmitted, 5 received, 0% packet loss, time 4005ms
5 packets transmitted, 5 received, 0% packet loss, time 4004ms
5 packets transmitted, 5 received, 0% packet loss, time 4006ms
5 packets transmitted, 5 received, 0% packet loss, time 4005ms
5 packets transmitted, 5 received, 0% packet loss, time 4005ms
5 packets transmitted, 5 received, 0% packet loss, time 4004ms
5 packets transmitted, 5 received, 0% packet loss, time 4005ms
5 packets transmitted, 5 received, 0% packet loss, time 4003ms
5 packets transmitted, 5 received, 0% packet loss, time 4006ms
5 packets transmitted, 5 received, 0% packet loss, time 4005ms
5 packets transmitted, 5 received, 0% packet loss, time 4005ms
5 packets transmitted, 5 received, 0% packet loss, time 4004ms
5 packets transmitted, 5 received, 0% packet loss, time 4004ms
5 packets transmitted, 5 received, 0% packet loss, time 4005ms
5 packets transmitted, 5 received, 0% packet loss, time 4005ms
5 packets transmitted, 5 received, 0% packet loss, time 4005ms
5 packets transmitted, 5 received, 0% packet loss, time 4005ms
5 packets transmitted, 5 received, 0% packet loss, time 4003ms
5 packets transmitted, 5 received, 0% packet loss, time 4005ms
5 packets transmitted, 5 received, 0% packet loss, time 4005ms
5 packets transmitted, 5 received, 0% packet loss, time 4005ms
5 packets transmitted, 5 received, 0% packet loss, time 4004ms
5 packets transmitted, 5 received, 0% packet loss, time 4004ms
5 packets transmitted, 5 received, 0% packet loss, time 4005ms
5 packets transmitted, 5 received, 0% packet loss, time 4004ms
5 packets transmitted, 5 received, 0% packet loss, time 4004ms
5 packets transmitted, 5 received, 0% packet loss, time 4005ms
5 packets transmitted, 5 received, 0% packet loss, time 4004ms
5 packets transmitted, 5 received, 0% packet loss, time 4004ms
5 packets transmitted, 5 received, 0% packet loss, time 4004ms
5 packets transmitted, 5 received, 0% packet loss, time 4004ms
5 packets transmitted, 5 received, 0% packet loss, time 4005ms
5 packets transmitted, 5 received, 0% packet loss, time 4005ms
5 packets transmitted, 5 received, 0% packet loss, time 4005ms
5 packets transmitted, 5 received, 0% packet loss, time 4005ms
5 packets transmitted, 5 received, 0% packet loss, time 4005ms
5 packets transmitted, 5 received, 0% packet loss, time 4006ms
5 packets transmitted, 5 received, 0% packet loss, time 4005ms
5 packets transmitted, 5 received, 0% packet loss, time 4004ms
5 packets transmitted, 5 received, 0% packet loss, time 4004ms
5 packets transmitted, 5 received, 0% packet loss, time 4005ms
5 packets transmitted, 5 received, 0% packet loss, time 4005ms
5 packets transmitted, 5 received, 0% packet loss, time 4005ms
5 packets transmitted, 5 received, 0% packet loss, time 4004ms
5 packets transmitted, 5 received, 0% packet loss, time 4004ms
5 packets transmitted, 5 received, 0% packet loss, time 4004ms
5 packets transmitted, 5 received, 0% packet loss, time 4004ms
5 packets transmitted, 5 received, 0% packet loss, time 4003ms
5 packets transmitted, 5 received, 0% packet loss, time 4005ms
5 packets transmitted, 5 received, 0% packet loss, time 4004ms
5 packets transmitted, 5 received, 0% packet loss, time 4005ms
5 packets transmitted, 5 received, 0% packet loss, time 4005ms
5 packets transmitted, 5 received, 0% packet loss, time 4005ms
5 packets transmitted, 5 received, 0% packet loss, time 4005ms
5 packets transmitted, 5 received, 0% packet loss, time 4005ms
5 packets transmitted, 5 received, 0% packet loss, time 4006ms
5 packets transmitted, 5 received, 0% packet loss, time 4004ms
5 packets transmitted, 5 received, 0% packet loss, time 4005ms
5 packets transmitted, 5 received, 0% packet loss, time 4004ms
5 packets transmitted, 5 received, 0% packet loss, time 4004ms
5 packets transmitted, 5 received, 0% packet loss, time 4005ms
5 packets transmitted, 5 received, 0% packet loss, time 4005ms
5 packets transmitted, 5 received, 0% packet loss, time 4005ms
5 packets transmitted, 5 received, 0% packet loss, time 4004ms
5 packets transmitted, 5 received, 0% packet loss, time 4005ms
5 packets transmitted, 5 received, 0% packet loss, time 4006ms
5 packets transmitted, 5 received, 0% packet loss, time 4006ms
5 packets transmitted, 5 received, 0% packet loss, time 4004ms
5 packets transmitted, 5 received, 0% packet loss, time 4004ms
5 packets transmitted, 5 received, 0% packet loss, time 4004ms
5 packets transmitted, 5 received, 0% packet loss, time 4005ms
5 packets transmitted, 5 received, 0% packet loss, time 4005ms
5 packets transmitted, 5 received, 0% packet loss, time 4004ms
5 packets transmitted, 5 received, 0% packet loss, time 4005ms
5 packets transmitted, 5 received, 0% packet loss, time 4005ms
5 packets transmitted, 5 received, 0% packet loss, time 4004ms
5 packets transmitted, 5 received, 0% packet loss, time 4004ms
5 packets transmitted, 5 received, 0% packet loss, time 4006ms
5 packets transmitted, 5 received, 0% packet loss, time 4006ms
5 packets transmitted, 5 received, 0% packet loss, time 4004ms
5 packets transmitted, 5 received, 0% packet loss, time 4005ms
5 packets transmitted, 5 received, 0% packet loss, time 4006ms
5 packets transmitted, 5 received, 0% packet loss, time 4005ms
5 packets transmitted, 5 received, 0% packet loss, time 4005ms
5 packets transmitted, 5 received, 0% packet loss, time 4005ms
5 packets transmitted, 5 received, 0% packet loss, time 4005ms
5 packets transmitted, 5 received, 0% packet loss, time 4006ms
5 packets transmitted, 5 received, 0% packet loss, time 4005ms
5 packets transmitted, 5 received, 0% packet loss, time 4005ms
5 packets transmitted, 5 received, 0% packet loss, time 4004ms
5 packets transmitted, 5 received, 0% packet loss, time 4005ms
5 packets transmitted, 5 received, 0% packet loss, time 4006ms
5 packets transmitted, 5 received, 0% packet loss, time 4004ms
5 packets transmitted, 5 received, 0% packet loss, time 4005ms
5 packets transmitted, 5 received, 0% packet loss, time 4007ms
5 packets transmitted, 5 received, 0% packet loss, time 4005ms
5 packets transmitted, 5 received, 0% packet loss, time 4004ms
5 packets transmitted, 5 received, 0% packet loss, time 4005ms
5 packets transmitted, 5 received, 0% packet loss, time 4005ms
5 packets transmitted, 5 received, 0% packet loss, time 4006ms
5 packets transmitted, 5 received, 0% packet loss, time 4006ms
5 packets transmitted, 5 received, 0% packet loss, time 4005ms
5 packets transmitted, 5 received, 0% packet loss, time 4004ms
5 packets transmitted, 5 received, 0% packet loss, time 4003ms
5 packets transmitted, 5 received, 0% packet loss, time 4004ms
5 packets transmitted, 5 received, 0% packet loss, time 4004ms
5 packets transmitted, 5 received, 0% packet loss, time 4004ms
5 packets transmitted, 5 received, 0% packet loss, time 4004ms
5 packets transmitted, 5 received, 0% packet loss, time 4005ms
5 packets transmitted, 5 received, 0% packet loss, time 4004ms
5 packets transmitted, 5 received, 0% packet loss, time 4005ms
5 packets transmitted, 5 received, 0% packet loss, time 4005ms
5 packets transmitted, 5 received, 0% packet loss, time 4004ms
5 packets transmitted, 5 received, 0% packet loss, time 4005ms
5 packets transmitted, 5 received, 0% packet loss, time 4006ms
5 packets transmitted, 5 received, 0% packet loss, time 4005ms
5 packets transmitted, 5 received, 0% packet loss, time 4006ms
5 packets transmitted, 5 received, 0% packet loss, time 4006ms
5 packets transmitted, 5 received, 0% packet loss, time 4006ms
5 packets transmitted, 5 received, 0% packet loss, time 4003ms
5 packets transmitted, 5 received, 0% packet loss, time 4005ms
5 packets transmitted, 5 received, 0% packet loss, time 4005ms
5 packets transmitted, 5 received, 0% packet loss, time 4005ms
5 packets transmitted, 5 received, 0% packet loss, time 4005ms
5 packets transmitted, 5 received, 0% packet loss, time 4004ms
5 packets transmitted, 5 received, 0% packet loss, time 4005ms
5 packets transmitted, 5 received, 0% packet loss, time 4004ms
5 packets transmitted, 5 received, 0% packet loss, time 4004ms
5 packets transmitted, 5 received, 0% packet loss, time 4003ms
5 packets transmitted, 5 received, 0% packet loss, time 4003ms
5 packets transmitted, 5 received, 0% packet loss, time 4004ms
5 packets transmitted, 5 received, 0% packet loss, time 4003ms
5 packets transmitted, 5 received, 0% packet loss, time 4002ms
5 packets transmitted, 5 received, 0% packet loss, time 4004ms
5 packets transmitted, 5 received, 0% packet loss, time 4004ms
5 packets transmitted, 5 received, 0% packet loss, time 4005ms
5 packets transmitted, 5 received, 0% packet loss, time 4005ms
5 packets transmitted, 5 received, 0% packet loss, time 4005ms
5 packets transmitted, 5 received, 0% packet loss, time 4004ms
5 packets transmitted, 5 received, 0% packet loss, time 4006ms
5 packets transmitted, 5 received, 0% packet loss, time 4004ms
5 packets transmitted, 5 received, 0% packet loss, time 4004ms
5 packets transmitted, 5 received, 0% packet loss, time 4004ms
5 packets transmitted, 5 received, 0% packet loss, time 4004ms
5 packets transmitted, 5 received, 0% packet loss, time 4004ms
5 packets transmitted, 5 received, 0% packet loss, time 4005ms
5 packets transmitted, 5 received, 0% packet loss, time 4005ms
5 packets transmitted, 5 received, 0% packet loss, time 4004ms
5 packets transmitted, 5 received, 0% packet loss, time 4004ms
5 packets transmitted, 5 received, 0% packet loss, time 4003ms
5 packets transmitted, 5 received, 0% packet loss, time 4005ms
5 packets transmitted, 5 received, 0% packet loss, time 4005ms
5 packets transmitted, 5 received, 0% packet loss, time 4003ms
5 packets transmitted, 5 received, 0% packet loss, time 4005ms
5 packets transmitted, 5 received, 0% packet loss, time 4005ms
5 packets transmitted, 5 received, 0% packet loss, time 4004ms
5 packets transmitted, 5 received, 0% packet loss, time 4005ms
5 packets transmitted, 5 received, 0% packet loss, time 4005ms
5 packets transmitted, 5 received, 0% packet loss, time 4005ms
5 packets transmitted, 5 received, 0% packet loss, time 4004ms
5 packets transmitted, 5 received, 0% packet loss, time 4005ms
5 packets transmitted, 5 received, 0% packet loss, time 4006ms
5 packets transmitted, 5 received, 0% packet loss, time 4005ms
5 packets transmitted, 5 received, 0% packet loss, time 4005ms
