25 packets transmitted, 25 received, 0% packet loss, time 24127ms
25 packets transmitted, 25 received, 0% packet loss, time 24126ms
25 packets transmitted, 25 received, 0% packet loss, time 24127ms
25 packets transmitted, 25 received, 0% packet loss, time 24128ms
25 packets transmitted, 25 received, 0% packet loss, time 24146ms
25 packets transmitted, 25 received, 0% packet loss, time 24127ms
25 packets transmitted, 25 received, 0% packet loss, time 24127ms
25 packets transmitted, 25 received, 0% packet loss, time 24131ms
25 packets transmitted, 25 received, 0% packet loss, time 24128ms
25 packets transmitted, 25 received, 0% packet loss, time 24145ms
25 packets transmitted, 25 received, 0% packet loss, time 24132ms
25 packets transmitted, 25 received, 0% packet loss, time 24134ms
25 packets transmitted, 25 received, 0% packet loss, time 24128ms
25 packets transmitted, 25 received, 0% packet loss, time 24124ms
25 packets transmitted, 25 received, 0% packet loss, time 24128ms
25 packets transmitted, 25 received, 0% packet loss, time 24132ms
25 packets transmitted, 25 received, 0% packet loss, time 24136ms
25 packets transmitted, 25 received, 0% packet loss, time 24129ms
25 packets transmitted, 25 received, 0% packet loss, time 24134ms
25 packets transmitted, 25 received, 0% packet loss, time 24128ms
25 packets transmitted, 24 received, 4% packet loss, time 24133ms
25 packets transmitted, 24 received, 4% packet loss, time 24140ms
25 packets transmitted, 24 received, 4% packet loss, time 24133ms
25 packets transmitted, 24 received, 4% packet loss, time 24128ms
25 packets transmitted, 24 received, 4% packet loss, time 24128ms
25 packets transmitted, 24 received, 4% packet loss, time 24144ms
25 packets transmitted, 24 received, 4% packet loss, time 24132ms
25 packets transmitted, 24 received, 4% packet loss, time 24133ms
25 packets transmitted, 24 received, 4% packet loss, time 24128ms
25 packets transmitted, 24 received, 4% packet loss, time 24134ms
25 packets transmitted, 24 received, 4% packet loss, time 24128ms
25 packets transmitted, 23 received, 8% packet loss, time 24133ms
25 packets transmitted, 24 received, 4% packet loss, time 24127ms
25 packets transmitted, 24 received, 4% packet loss, time 24131ms
25 packets transmitted, 23 received, 8% packet loss, time 24128ms
25 packets transmitted, 23 received, 8% packet loss, time 24128ms
25 packets transmitted, 24 received, 4% packet loss, time 24135ms
25 packets transmitted, 24 received, 4% packet loss, time 24145ms
25 packets transmitted, 24 received, 4% packet loss, time 24134ms
25 packets transmitted, 24 received, 4% packet loss, time 24143ms
