PING nyc.speedtest.sbcglobal.net (99.24.18.25) 56(84) bytes of data.
64 bytes from nyc.speedtest.sbcglobal.net (99.24.18.25): icmp_seq=1 ttl=51 time=79.9 ms
PING nyc.speedtest.sbcglobal.net (99.24.18.25) 56(84) bytes of data.
64 bytes from nyc.speedtest.sbcglobal.net (99.24.18.25): icmp_seq=1 ttl=51 time=80.1 ms
64 bytes from nyc.speedtest.sbcglobal.net (99.24.18.25): icmp_seq=2 ttl=51 time=80.5 ms
64 bytes from nyc.speedtest.sbcglobal.net (99.24.18.25): icmp_seq=2 ttl=51 time=80.5 ms
64 bytes from nyc.speedtest.sbcglobal.net (99.24.18.25): icmp_seq=3 ttl=51 time=80.5 ms
64 bytes from nyc.speedtest.sbcglobal.net (99.24.18.25): icmp_seq=3 ttl=51 time=80.5 ms
64 bytes from nyc.speedtest.sbcglobal.net (99.24.18.25): icmp_seq=4 ttl=51 time=80.2 ms
64 bytes from nyc.speedtest.sbcglobal.net (99.24.18.25): icmp_seq=4 ttl=51 time=80.3 ms
64 bytes from nyc.speedtest.sbcglobal.net (99.24.18.25): icmp_seq=5 ttl=51 time=80.1 ms
64 bytes from nyc.speedtest.sbcglobal.net (99.24.18.25): icmp_seq=5 ttl=51 time=80.2 ms
64 bytes from nyc.speedtest.sbcglobal.net (99.24.18.25): icmp_seq=6 ttl=51 time=80.0 ms
64 bytes from nyc.speedtest.sbcglobal.net (99.24.18.25): icmp_seq=6 ttl=51 time=80.0 ms
64 bytes from nyc.speedtest.sbcglobal.net (99.24.18.25): icmp_seq=7 ttl=51 time=79.8 ms
64 bytes from nyc.speedtest.sbcglobal.net (99.24.18.25): icmp_seq=7 ttl=51 time=79.8 ms
64 bytes from nyc.speedtest.sbcglobal.net (99.24.18.25): icmp_seq=8 ttl=51 time=79.8 ms
64 bytes from nyc.speedtest.sbcglobal.net (99.24.18.25): icmp_seq=8 ttl=51 time=79.8 ms
64 bytes from nyc.speedtest.sbcglobal.net (99.24.18.25): icmp_seq=9 ttl=51 time=80.3 ms
64 bytes from nyc.speedtest.sbcglobal.net (99.24.18.25): icmp_seq=9 ttl=51 time=79.7 ms
64 bytes from nyc.speedtest.sbcglobal.net (99.24.18.25): icmp_seq=10 ttl=51 time=80.3 ms
64 bytes from nyc.speedtest.sbcglobal.net (99.24.18.25): icmp_seq=10 ttl=51 time=80.1 ms
64 bytes from nyc.speedtest.sbcglobal.net (99.24.18.25): icmp_seq=11 ttl=51 time=80.0 ms
64 bytes from nyc.speedtest.sbcglobal.net (99.24.18.25): icmp_seq=11 ttl=51 time=79.9 ms
64 bytes from nyc.speedtest.sbcglobal.net (99.24.18.25): icmp_seq=12 ttl=51 time=80.3 ms
64 bytes from nyc.speedtest.sbcglobal.net (99.24.18.25): icmp_seq=12 ttl=51 time=79.9 ms
64 bytes from nyc.speedtest.sbcglobal.net (99.24.18.25): icmp_seq=13 ttl=51 time=80.9 ms
64 bytes from nyc.speedtest.sbcglobal.net (99.24.18.25): icmp_seq=13 ttl=51 time=80.9 ms
64 bytes from nyc.speedtest.sbcglobal.net (99.24.18.25): icmp_seq=14 ttl=51 time=80.3 ms
64 bytes from nyc.speedtest.sbcglobal.net (99.24.18.25): icmp_seq=14 ttl=51 time=80.3 ms
64 bytes from nyc.speedtest.sbcglobal.net (99.24.18.25): icmp_seq=15 ttl=51 time=80.5 ms
64 bytes from nyc.speedtest.sbcglobal.net (99.24.18.25): icmp_seq=15 ttl=51 time=80.5 ms
64 bytes from nyc.speedtest.sbcglobal.net (99.24.18.25): icmp_seq=16 ttl=51 time=80.6 ms
64 bytes from nyc.speedtest.sbcglobal.net (99.24.18.25): icmp_seq=16 ttl=51 time=80.6 ms
64 bytes from nyc.speedtest.sbcglobal.net (99.24.18.25): icmp_seq=17 ttl=51 time=81.0 ms
64 bytes from nyc.speedtest.sbcglobal.net (99.24.18.25): icmp_seq=17 ttl=51 time=81.1 ms
64 bytes from nyc.speedtest.sbcglobal.net (99.24.18.25): icmp_seq=18 ttl=51 time=80.1 ms
64 bytes from nyc.speedtest.sbcglobal.net (99.24.18.25): icmp_seq=18 ttl=51 time=80.2 ms
64 bytes from nyc.speedtest.sbcglobal.net (99.24.18.25): icmp_seq=19 ttl=51 time=80.3 ms
64 bytes from nyc.speedtest.sbcglobal.net (99.24.18.25): icmp_seq=19 ttl=51 time=80.4 ms
64 bytes from nyc.speedtest.sbcglobal.net (99.24.18.25): icmp_seq=20 ttl=51 time=79.9 ms
64 bytes from nyc.speedtest.sbcglobal.net (99.24.18.25): icmp_seq=20 ttl=51 time=79.9 ms
64 bytes from nyc.speedtest.sbcglobal.net (99.24.18.25): icmp_seq=21 ttl=51 time=80.0 ms
64 bytes from nyc.speedtest.sbcglobal.net (99.24.18.25): icmp_seq=21 ttl=51 time=80.1 ms
64 bytes from nyc.speedtest.sbcglobal.net (99.24.18.25): icmp_seq=22 ttl=51 time=79.7 ms
64 bytes from nyc.speedtest.sbcglobal.net (99.24.18.25): icmp_seq=22 ttl=51 time=79.8 ms
64 bytes from nyc.speedtest.sbcglobal.net (99.24.18.25): icmp_seq=23 ttl=51 time=80.2 ms
64 bytes from nyc.speedtest.sbcglobal.net (99.24.18.25): icmp_seq=23 ttl=51 time=80.0 ms
64 bytes from nyc.speedtest.sbcglobal.net (99.24.18.25): icmp_seq=24 ttl=51 time=80.1 ms
64 bytes from nyc.speedtest.sbcglobal.net (99.24.18.25): icmp_seq=24 ttl=51 time=80.2 ms
64 bytes from nyc.speedtest.sbcglobal.net (99.24.18.25): icmp_seq=25 ttl=51 time=79.5 ms
64 bytes from nyc.speedtest.sbcglobal.net (99.24.18.25): icmp_seq=25 ttl=51 time=79.7 ms
64 bytes from nyc.speedtest.sbcglobal.net (99.24.18.25): icmp_seq=26 ttl=51 time=80.2 ms
64 bytes from nyc.speedtest.sbcglobal.net (99.24.18.25): icmp_seq=26 ttl=51 time=80.2 ms
64 bytes from nyc.speedtest.sbcglobal.net (99.24.18.25): icmp_seq=27 ttl=51 time=79.9 ms
64 bytes from nyc.speedtest.sbcglobal.net (99.24.18.25): icmp_seq=27 ttl=51 time=80.0 ms
64 bytes from nyc.speedtest.sbcglobal.net (99.24.18.25): icmp_seq=28 ttl=51 time=80.1 ms
64 bytes from nyc.speedtest.sbcglobal.net (99.24.18.25): icmp_seq=28 ttl=51 time=80.2 ms
64 bytes from nyc.speedtest.sbcglobal.net (99.24.18.25): icmp_seq=29 ttl=51 time=80.2 ms
64 bytes from nyc.speedtest.sbcglobal.net (99.24.18.25): icmp_seq=29 ttl=51 time=80.2 ms
64 bytes from nyc.speedtest.sbcglobal.net (99.24.18.25): icmp_seq=30 ttl=51 time=80.1 ms
64 bytes from nyc.speedtest.sbcglobal.net (99.24.18.25): icmp_seq=30 ttl=51 time=80.1 ms
64 bytes from nyc.speedtest.sbcglobal.net (99.24.18.25): icmp_seq=31 ttl=51 time=80.1 ms
64 bytes from nyc.speedtest.sbcglobal.net (99.24.18.25): icmp_seq=31 ttl=51 time=80.2 ms
64 bytes from nyc.speedtest.sbcglobal.net (99.24.18.25): icmp_seq=32 ttl=51 time=80.2 ms
64 bytes from nyc.speedtest.sbcglobal.net (99.24.18.25): icmp_seq=32 ttl=51 time=80.3 ms
64 bytes from nyc.speedtest.sbcglobal.net (99.24.18.25): icmp_seq=33 ttl=51 time=80.2 ms
64 bytes from nyc.speedtest.sbcglobal.net (99.24.18.25): icmp_seq=33 ttl=51 time=80.2 ms
64 bytes from nyc.speedtest.sbcglobal.net (99.24.18.25): icmp_seq=34 ttl=51 time=80.2 ms
64 bytes from nyc.speedtest.sbcglobal.net (99.24.18.25): icmp_seq=34 ttl=51 time=80.2 ms
64 bytes from nyc.speedtest.sbcglobal.net (99.24.18.25): icmp_seq=35 ttl=51 time=79.9 ms
64 bytes from nyc.speedtest.sbcglobal.net (99.24.18.25): icmp_seq=35 ttl=51 time=80.0 ms
64 bytes from nyc.speedtest.sbcglobal.net (99.24.18.25): icmp_seq=36 ttl=51 time=80.4 ms
64 bytes from nyc.speedtest.sbcglobal.net (99.24.18.25): icmp_seq=36 ttl=51 time=80.5 ms
64 bytes from nyc.speedtest.sbcglobal.net (99.24.18.25): icmp_seq=37 ttl=51 time=80.2 ms
64 bytes from nyc.speedtest.sbcglobal.net (99.24.18.25): icmp_seq=37 ttl=51 time=80.2 ms
64 bytes from nyc.speedtest.sbcglobal.net (99.24.18.25): icmp_seq=38 ttl=51 time=79.7 ms
64 bytes from nyc.speedtest.sbcglobal.net (99.24.18.25): icmp_seq=38 ttl=51 time=79.8 ms
64 bytes from nyc.speedtest.sbcglobal.net (99.24.18.25): icmp_seq=39 ttl=51 time=80.3 ms
64 bytes from nyc.speedtest.sbcglobal.net (99.24.18.25): icmp_seq=39 ttl=51 time=80.3 ms
64 bytes from nyc.speedtest.sbcglobal.net (99.24.18.25): icmp_seq=40 ttl=51 time=80.4 ms
64 bytes from nyc.speedtest.sbcglobal.net (99.24.18.25): icmp_seq=40 ttl=51 time=80.4 ms
64 bytes from nyc.speedtest.sbcglobal.net (99.24.18.25): icmp_seq=41 ttl=51 time=80.2 ms
64 bytes from nyc.speedtest.sbcglobal.net (99.24.18.25): icmp_seq=41 ttl=51 time=80.2 ms
64 bytes from nyc.speedtest.sbcglobal.net (99.24.18.25): icmp_seq=42 ttl=51 time=80.0 ms
64 bytes from nyc.speedtest.sbcglobal.net (99.24.18.25): icmp_seq=42 ttl=51 time=80.1 ms
64 bytes from nyc.speedtest.sbcglobal.net (99.24.18.25): icmp_seq=43 ttl=51 time=79.9 ms
64 bytes from nyc.speedtest.sbcglobal.net (99.24.18.25): icmp_seq=43 ttl=51 time=79.9 ms
64 bytes from nyc.speedtest.sbcglobal.net (99.24.18.25): icmp_seq=44 ttl=51 time=80.0 ms
64 bytes from nyc.speedtest.sbcglobal.net (99.24.18.25): icmp_seq=44 ttl=51 time=80.0 ms
64 bytes from nyc.speedtest.sbcglobal.net (99.24.18.25): icmp_seq=45 ttl=51 time=80.1 ms
64 bytes from nyc.speedtest.sbcglobal.net (99.24.18.25): icmp_seq=45 ttl=51 time=80.1 ms
64 bytes from nyc.speedtest.sbcglobal.net (99.24.18.25): icmp_seq=46 ttl=51 time=79.7 ms
64 bytes from nyc.speedtest.sbcglobal.net (99.24.18.25): icmp_seq=46 ttl=51 time=79.8 ms
64 bytes from nyc.speedtest.sbcglobal.net (99.24.18.25): icmp_seq=47 ttl=51 time=79.7 ms
64 bytes from nyc.speedtest.sbcglobal.net (99.24.18.25): icmp_seq=47 ttl=51 time=79.7 ms
64 bytes from nyc.speedtest.sbcglobal.net (99.24.18.25): icmp_seq=48 ttl=51 time=80.6 ms
64 bytes from nyc.speedtest.sbcglobal.net (99.24.18.25): icmp_seq=48 ttl=51 time=80.7 ms
64 bytes from nyc.speedtest.sbcglobal.net (99.24.18.25): icmp_seq=49 ttl=51 time=80.5 ms
64 bytes from nyc.speedtest.sbcglobal.net (99.24.18.25): icmp_seq=49 ttl=51 time=80.5 ms
64 bytes from nyc.speedtest.sbcglobal.net (99.24.18.25): icmp_seq=50 ttl=51 time=79.9 ms
64 bytes from nyc.speedtest.sbcglobal.net (99.24.18.25): icmp_seq=50 ttl=51 time=80.0 ms
64 bytes from nyc.speedtest.sbcglobal.net (99.24.18.25): icmp_seq=51 ttl=51 time=80.2 ms
64 bytes from nyc.speedtest.sbcglobal.net (99.24.18.25): icmp_seq=51 ttl=51 time=80.2 ms
64 bytes from nyc.speedtest.sbcglobal.net (99.24.18.25): icmp_seq=52 ttl=51 time=79.9 ms
64 bytes from nyc.speedtest.sbcglobal.net (99.24.18.25): icmp_seq=52 ttl=51 time=80.0 ms
64 bytes from nyc.speedtest.sbcglobal.net (99.24.18.25): icmp_seq=53 ttl=51 time=80.0 ms
64 bytes from nyc.speedtest.sbcglobal.net (99.24.18.25): icmp_seq=53 ttl=51 time=80.0 ms
64 bytes from nyc.speedtest.sbcglobal.net (99.24.18.25): icmp_seq=54 ttl=51 time=81.0 ms
64 bytes from nyc.speedtest.sbcglobal.net (99.24.18.25): icmp_seq=54 ttl=51 time=81.0 ms
64 bytes from nyc.speedtest.sbcglobal.net (99.24.18.25): icmp_seq=55 ttl=51 time=80.0 ms
64 bytes from nyc.speedtest.sbcglobal.net (99.24.18.25): icmp_seq=55 ttl=51 time=80.1 ms
64 bytes from nyc.speedtest.sbcglobal.net (99.24.18.25): icmp_seq=56 ttl=51 time=80.0 ms
64 bytes from nyc.speedtest.sbcglobal.net (99.24.18.25): icmp_seq=56 ttl=51 time=80.0 ms
64 bytes from nyc.speedtest.sbcglobal.net (99.24.18.25): icmp_seq=57 ttl=51 time=80.3 ms
64 bytes from nyc.speedtest.sbcglobal.net (99.24.18.25): icmp_seq=57 ttl=51 time=80.4 ms
64 bytes from nyc.speedtest.sbcglobal.net (99.24.18.25): icmp_seq=58 ttl=51 time=80.0 ms
64 bytes from nyc.speedtest.sbcglobal.net (99.24.18.25): icmp_seq=58 ttl=51 time=80.1 ms
64 bytes from nyc.speedtest.sbcglobal.net (99.24.18.25): icmp_seq=59 ttl=51 time=80.2 ms
64 bytes from nyc.speedtest.sbcglobal.net (99.24.18.25): icmp_seq=59 ttl=51 time=80.3 ms
64 bytes from nyc.speedtest.sbcglobal.net (99.24.18.25): icmp_seq=60 ttl=51 time=79.9 ms
64 bytes from nyc.speedtest.sbcglobal.net (99.24.18.25): icmp_seq=60 ttl=51 time=80.0 ms
64 bytes from nyc.speedtest.sbcglobal.net (99.24.18.25): icmp_seq=61 ttl=51 time=80.2 ms
64 bytes from nyc.speedtest.sbcglobal.net (99.24.18.25): icmp_seq=61 ttl=51 time=80.3 ms
64 bytes from nyc.speedtest.sbcglobal.net (99.24.18.25): icmp_seq=62 ttl=51 time=80.0 ms
64 bytes from nyc.speedtest.sbcglobal.net (99.24.18.25): icmp_seq=62 ttl=51 time=80.0 ms
64 bytes from nyc.speedtest.sbcglobal.net (99.24.18.25): icmp_seq=63 ttl=51 time=80.1 ms
64 bytes from nyc.speedtest.sbcglobal.net (99.24.18.25): icmp_seq=63 ttl=51 time=80.2 ms
64 bytes from nyc.speedtest.sbcglobal.net (99.24.18.25): icmp_seq=64 ttl=51 time=80.1 ms
64 bytes from nyc.speedtest.sbcglobal.net (99.24.18.25): icmp_seq=64 ttl=51 time=80.2 ms
64 bytes from nyc.speedtest.sbcglobal.net (99.24.18.25): icmp_seq=65 ttl=51 time=80.1 ms
64 bytes from nyc.speedtest.sbcglobal.net (99.24.18.25): icmp_seq=65 ttl=51 time=80.1 ms
64 bytes from nyc.speedtest.sbcglobal.net (99.24.18.25): icmp_seq=66 ttl=51 time=80.1 ms
64 bytes from nyc.speedtest.sbcglobal.net (99.24.18.25): icmp_seq=66 ttl=51 time=80.1 ms
64 bytes from nyc.speedtest.sbcglobal.net (99.24.18.25): icmp_seq=67 ttl=51 time=80.0 ms
64 bytes from nyc.speedtest.sbcglobal.net (99.24.18.25): icmp_seq=67 ttl=51 time=80.0 ms
64 bytes from nyc.speedtest.sbcglobal.net (99.24.18.25): icmp_seq=68 ttl=51 time=80.0 ms
64 bytes from nyc.speedtest.sbcglobal.net (99.24.18.25): icmp_seq=68 ttl=51 time=80.1 ms
64 bytes from nyc.speedtest.sbcglobal.net (99.24.18.25): icmp_seq=69 ttl=51 time=80.3 ms
64 bytes from nyc.speedtest.sbcglobal.net (99.24.18.25): icmp_seq=69 ttl=51 time=80.3 ms
64 bytes from nyc.speedtest.sbcglobal.net (99.24.18.25): icmp_seq=70 ttl=51 time=80.1 ms
64 bytes from nyc.speedtest.sbcglobal.net (99.24.18.25): icmp_seq=70 ttl=51 time=80.2 ms
64 bytes from nyc.speedtest.sbcglobal.net (99.24.18.25): icmp_seq=71 ttl=51 time=80.3 ms
64 bytes from nyc.speedtest.sbcglobal.net (99.24.18.25): icmp_seq=71 ttl=51 time=80.3 ms
64 bytes from nyc.speedtest.sbcglobal.net (99.24.18.25): icmp_seq=72 ttl=51 time=80.0 ms
64 bytes from nyc.speedtest.sbcglobal.net (99.24.18.25): icmp_seq=72 ttl=51 time=80.1 ms
64 bytes from nyc.speedtest.sbcglobal.net (99.24.18.25): icmp_seq=73 ttl=51 time=79.7 ms
64 bytes from nyc.speedtest.sbcglobal.net (99.24.18.25): icmp_seq=73 ttl=51 time=79.8 ms
64 bytes from nyc.speedtest.sbcglobal.net (99.24.18.25): icmp_seq=74 ttl=51 time=80.2 ms
64 bytes from nyc.speedtest.sbcglobal.net (99.24.18.25): icmp_seq=74 ttl=51 time=79.6 ms
64 bytes from nyc.speedtest.sbcglobal.net (99.24.18.25): icmp_seq=75 ttl=51 time=79.9 ms
64 bytes from nyc.speedtest.sbcglobal.net (99.24.18.25): icmp_seq=75 ttl=51 time=80.0 ms
64 bytes from nyc.speedtest.sbcglobal.net (99.24.18.25): icmp_seq=76 ttl=51 time=80.3 ms
64 bytes from nyc.speedtest.sbcglobal.net (99.24.18.25): icmp_seq=76 ttl=51 time=80.3 ms
64 bytes from nyc.speedtest.sbcglobal.net (99.24.18.25): icmp_seq=77 ttl=51 time=80.1 ms
64 bytes from nyc.speedtest.sbcglobal.net (99.24.18.25): icmp_seq=77 ttl=51 time=80.1 ms
64 bytes from nyc.speedtest.sbcglobal.net (99.24.18.25): icmp_seq=78 ttl=51 time=80.1 ms
64 bytes from nyc.speedtest.sbcglobal.net (99.24.18.25): icmp_seq=78 ttl=51 time=80.2 ms
64 bytes from nyc.speedtest.sbcglobal.net (99.24.18.25): icmp_seq=79 ttl=51 time=80.3 ms
64 bytes from nyc.speedtest.sbcglobal.net (99.24.18.25): icmp_seq=79 ttl=51 time=80.3 ms
64 bytes from nyc.speedtest.sbcglobal.net (99.24.18.25): icmp_seq=80 ttl=51 time=80.2 ms
64 bytes from nyc.speedtest.sbcglobal.net (99.24.18.25): icmp_seq=80 ttl=51 time=80.3 ms
64 bytes from nyc.speedtest.sbcglobal.net (99.24.18.25): icmp_seq=81 ttl=51 time=80.0 ms
64 bytes from nyc.speedtest.sbcglobal.net (99.24.18.25): icmp_seq=81 ttl=51 time=80.0 ms
64 bytes from nyc.speedtest.sbcglobal.net (99.24.18.25): icmp_seq=82 ttl=51 time=80.2 ms
64 bytes from nyc.speedtest.sbcglobal.net (99.24.18.25): icmp_seq=82 ttl=51 time=80.2 ms
64 bytes from nyc.speedtest.sbcglobal.net (99.24.18.25): icmp_seq=83 ttl=51 time=80.2 ms
64 bytes from nyc.speedtest.sbcglobal.net (99.24.18.25): icmp_seq=83 ttl=51 time=80.3 ms
64 bytes from nyc.speedtest.sbcglobal.net (99.24.18.25): icmp_seq=84 ttl=51 time=79.8 ms
64 bytes from nyc.speedtest.sbcglobal.net (99.24.18.25): icmp_seq=84 ttl=51 time=79.8 ms
64 bytes from nyc.speedtest.sbcglobal.net (99.24.18.25): icmp_seq=85 ttl=51 time=80.0 ms
64 bytes from nyc.speedtest.sbcglobal.net (99.24.18.25): icmp_seq=85 ttl=51 time=79.7 ms
64 bytes from nyc.speedtest.sbcglobal.net (99.24.18.25): icmp_seq=86 ttl=51 time=80.2 ms
64 bytes from nyc.speedtest.sbcglobal.net (99.24.18.25): icmp_seq=86 ttl=51 time=79.7 ms
64 bytes from nyc.speedtest.sbcglobal.net (99.24.18.25): icmp_seq=87 ttl=51 time=80.2 ms
64 bytes from nyc.speedtest.sbcglobal.net (99.24.18.25): icmp_seq=87 ttl=51 time=80.2 ms
64 bytes from nyc.speedtest.sbcglobal.net (99.24.18.25): icmp_seq=88 ttl=51 time=80.1 ms
64 bytes from nyc.speedtest.sbcglobal.net (99.24.18.25): icmp_seq=88 ttl=51 time=80.2 ms
64 bytes from nyc.speedtest.sbcglobal.net (99.24.18.25): icmp_seq=89 ttl=51 time=79.8 ms
64 bytes from nyc.speedtest.sbcglobal.net (99.24.18.25): icmp_seq=89 ttl=51 time=79.9 ms
64 bytes from nyc.speedtest.sbcglobal.net (99.24.18.25): icmp_seq=90 ttl=51 time=80.4 ms
64 bytes from nyc.speedtest.sbcglobal.net (99.24.18.25): icmp_seq=90 ttl=51 time=80.4 ms
64 bytes from nyc.speedtest.sbcglobal.net (99.24.18.25): icmp_seq=91 ttl=51 time=80.2 ms
64 bytes from nyc.speedtest.sbcglobal.net (99.24.18.25): icmp_seq=91 ttl=51 time=80.3 ms
64 bytes from nyc.speedtest.sbcglobal.net (99.24.18.25): icmp_seq=92 ttl=51 time=79.8 ms
64 bytes from nyc.speedtest.sbcglobal.net (99.24.18.25): icmp_seq=92 ttl=51 time=79.8 ms
64 bytes from nyc.speedtest.sbcglobal.net (99.24.18.25): icmp_seq=93 ttl=51 time=80.1 ms
64 bytes from nyc.speedtest.sbcglobal.net (99.24.18.25): icmp_seq=93 ttl=51 time=80.1 ms
64 bytes from nyc.speedtest.sbcglobal.net (99.24.18.25): icmp_seq=94 ttl=51 time=80.2 ms
64 bytes from nyc.speedtest.sbcglobal.net (99.24.18.25): icmp_seq=94 ttl=51 time=80.2 ms
64 bytes from nyc.speedtest.sbcglobal.net (99.24.18.25): icmp_seq=95 ttl=51 time=80.0 ms
64 bytes from nyc.speedtest.sbcglobal.net (99.24.18.25): icmp_seq=95 ttl=51 time=80.1 ms
64 bytes from nyc.speedtest.sbcglobal.net (99.24.18.25): icmp_seq=96 ttl=51 time=79.8 ms
64 bytes from nyc.speedtest.sbcglobal.net (99.24.18.25): icmp_seq=96 ttl=51 time=79.8 ms
64 bytes from nyc.speedtest.sbcglobal.net (99.24.18.25): icmp_seq=97 ttl=51 time=81.3 ms
64 bytes from nyc.speedtest.sbcglobal.net (99.24.18.25): icmp_seq=97 ttl=51 time=81.3 ms
64 bytes from nyc.speedtest.sbcglobal.net (99.24.18.25): icmp_seq=98 ttl=51 time=79.7 ms
64 bytes from nyc.speedtest.sbcglobal.net (99.24.18.25): icmp_seq=98 ttl=51 time=79.8 ms
64 bytes from nyc.speedtest.sbcglobal.net (99.24.18.25): icmp_seq=99 ttl=51 time=80.2 ms
64 bytes from nyc.speedtest.sbcglobal.net (99.24.18.25): icmp_seq=99 ttl=51 time=80.3 ms
64 bytes from nyc.speedtest.sbcglobal.net (99.24.18.25): icmp_seq=100 ttl=51 time=80.0 ms
64 bytes from nyc.speedtest.sbcglobal.net (99.24.18.25): icmp_seq=100 ttl=51 time=80.0 ms
64 bytes from nyc.speedtest.sbcglobal.net (99.24.18.25): icmp_seq=101 ttl=51 time=80.1 ms
64 bytes from nyc.speedtest.sbcglobal.net (99.24.18.25): icmp_seq=101 ttl=51 time=80.1 ms
64 bytes from nyc.speedtest.sbcglobal.net (99.24.18.25): icmp_seq=102 ttl=51 time=80.2 ms
64 bytes from nyc.speedtest.sbcglobal.net (99.24.18.25): icmp_seq=102 ttl=51 time=80.3 ms
64 bytes from nyc.speedtest.sbcglobal.net (99.24.18.25): icmp_seq=103 ttl=51 time=80.0 ms
64 bytes from nyc.speedtest.sbcglobal.net (99.24.18.25): icmp_seq=103 ttl=51 time=80.1 ms
64 bytes from nyc.speedtest.sbcglobal.net (99.24.18.25): icmp_seq=104 ttl=51 time=80.3 ms
64 bytes from nyc.speedtest.sbcglobal.net (99.24.18.25): icmp_seq=104 ttl=51 time=80.3 ms
64 bytes from nyc.speedtest.sbcglobal.net (99.24.18.25): icmp_seq=105 ttl=51 time=80.2 ms
64 bytes from nyc.speedtest.sbcglobal.net (99.24.18.25): icmp_seq=105 ttl=51 time=80.2 ms
64 bytes from nyc.speedtest.sbcglobal.net (99.24.18.25): icmp_seq=106 ttl=51 time=80.3 ms
64 bytes from nyc.speedtest.sbcglobal.net (99.24.18.25): icmp_seq=106 ttl=51 time=80.3 ms
64 bytes from nyc.speedtest.sbcglobal.net (99.24.18.25): icmp_seq=107 ttl=51 time=80.0 ms
64 bytes from nyc.speedtest.sbcglobal.net (99.24.18.25): icmp_seq=107 ttl=51 time=80.1 ms
64 bytes from nyc.speedtest.sbcglobal.net (99.24.18.25): icmp_seq=108 ttl=51 time=79.9 ms
64 bytes from nyc.speedtest.sbcglobal.net (99.24.18.25): icmp_seq=108 ttl=51 time=79.9 ms
64 bytes from nyc.speedtest.sbcglobal.net (99.24.18.25): icmp_seq=109 ttl=51 time=80.3 ms
64 bytes from nyc.speedtest.sbcglobal.net (99.24.18.25): icmp_seq=109 ttl=51 time=80.4 ms
64 bytes from nyc.speedtest.sbcglobal.net (99.24.18.25): icmp_seq=110 ttl=51 time=79.9 ms
64 bytes from nyc.speedtest.sbcglobal.net (99.24.18.25): icmp_seq=110 ttl=51 time=80.0 ms
64 bytes from nyc.speedtest.sbcglobal.net (99.24.18.25): icmp_seq=111 ttl=51 time=80.3 ms
64 bytes from nyc.speedtest.sbcglobal.net (99.24.18.25): icmp_seq=111 ttl=51 time=80.4 ms
64 bytes from nyc.speedtest.sbcglobal.net (99.24.18.25): icmp_seq=112 ttl=51 time=80.1 ms
64 bytes from nyc.speedtest.sbcglobal.net (99.24.18.25): icmp_seq=112 ttl=51 time=80.2 ms
64 bytes from nyc.speedtest.sbcglobal.net (99.24.18.25): icmp_seq=113 ttl=51 time=80.4 ms
64 bytes from nyc.speedtest.sbcglobal.net (99.24.18.25): icmp_seq=113 ttl=51 time=80.4 ms
64 bytes from nyc.speedtest.sbcglobal.net (99.24.18.25): icmp_seq=114 ttl=51 time=80.2 ms
64 bytes from nyc.speedtest.sbcglobal.net (99.24.18.25): icmp_seq=114 ttl=51 time=80.2 ms
64 bytes from nyc.speedtest.sbcglobal.net (99.24.18.25): icmp_seq=115 ttl=51 time=80.2 ms
64 bytes from nyc.speedtest.sbcglobal.net (99.24.18.25): icmp_seq=115 ttl=51 time=80.2 ms
64 bytes from nyc.speedtest.sbcglobal.net (99.24.18.25): icmp_seq=116 ttl=51 time=80.4 ms
64 bytes from nyc.speedtest.sbcglobal.net (99.24.18.25): icmp_seq=116 ttl=51 time=80.4 ms
64 bytes from nyc.speedtest.sbcglobal.net (99.24.18.25): icmp_seq=117 ttl=51 time=80.1 ms
64 bytes from nyc.speedtest.sbcglobal.net (99.24.18.25): icmp_seq=117 ttl=51 time=80.1 ms
64 bytes from nyc.speedtest.sbcglobal.net (99.24.18.25): icmp_seq=118 ttl=51 time=80.0 ms
64 bytes from nyc.speedtest.sbcglobal.net (99.24.18.25): icmp_seq=118 ttl=51 time=80.1 ms
64 bytes from nyc.speedtest.sbcglobal.net (99.24.18.25): icmp_seq=119 ttl=51 time=79.9 ms
64 bytes from nyc.speedtest.sbcglobal.net (99.24.18.25): icmp_seq=119 ttl=51 time=80.0 ms
64 bytes from nyc.speedtest.sbcglobal.net (99.24.18.25): icmp_seq=120 ttl=51 time=80.1 ms
64 bytes from nyc.speedtest.sbcglobal.net (99.24.18.25): icmp_seq=120 ttl=51 time=80.1 ms
64 bytes from nyc.speedtest.sbcglobal.net (99.24.18.25): icmp_seq=121 ttl=51 time=80.2 ms
64 bytes from nyc.speedtest.sbcglobal.net (99.24.18.25): icmp_seq=121 ttl=51 time=80.2 ms
64 bytes from nyc.speedtest.sbcglobal.net (99.24.18.25): icmp_seq=122 ttl=51 time=79.9 ms
64 bytes from nyc.speedtest.sbcglobal.net (99.24.18.25): icmp_seq=122 ttl=51 time=80.0 ms
64 bytes from nyc.speedtest.sbcglobal.net (99.24.18.25): icmp_seq=123 ttl=51 time=80.0 ms
64 bytes from nyc.speedtest.sbcglobal.net (99.24.18.25): icmp_seq=123 ttl=51 time=80.1 ms
64 bytes from nyc.speedtest.sbcglobal.net (99.24.18.25): icmp_seq=124 ttl=51 time=80.2 ms
64 bytes from nyc.speedtest.sbcglobal.net (99.24.18.25): icmp_seq=124 ttl=51 time=80.2 ms
64 bytes from nyc.speedtest.sbcglobal.net (99.24.18.25): icmp_seq=125 ttl=51 time=80.1 ms
64 bytes from nyc.speedtest.sbcglobal.net (99.24.18.25): icmp_seq=125 ttl=51 time=80.1 ms
64 bytes from nyc.speedtest.sbcglobal.net (99.24.18.25): icmp_seq=126 ttl=51 time=80.0 ms
64 bytes from nyc.speedtest.sbcglobal.net (99.24.18.25): icmp_seq=126 ttl=51 time=80.1 ms
64 bytes from nyc.speedtest.sbcglobal.net (99.24.18.25): icmp_seq=127 ttl=51 time=80.1 ms
64 bytes from nyc.speedtest.sbcglobal.net (99.24.18.25): icmp_seq=127 ttl=51 time=80.2 ms
64 bytes from nyc.speedtest.sbcglobal.net (99.24.18.25): icmp_seq=128 ttl=51 time=80.0 ms
64 bytes from nyc.speedtest.sbcglobal.net (99.24.18.25): icmp_seq=128 ttl=51 time=80.0 ms
64 bytes from nyc.speedtest.sbcglobal.net (99.24.18.25): icmp_seq=129 ttl=51 time=80.1 ms
64 bytes from nyc.speedtest.sbcglobal.net (99.24.18.25): icmp_seq=129 ttl=51 time=80.1 ms
64 bytes from nyc.speedtest.sbcglobal.net (99.24.18.25): icmp_seq=130 ttl=51 time=79.9 ms
64 bytes from nyc.speedtest.sbcglobal.net (99.24.18.25): icmp_seq=130 ttl=51 time=80.0 ms
64 bytes from nyc.speedtest.sbcglobal.net (99.24.18.25): icmp_seq=131 ttl=51 time=80.4 ms
64 bytes from nyc.speedtest.sbcglobal.net (99.24.18.25): icmp_seq=131 ttl=51 time=80.5 ms
64 bytes from nyc.speedtest.sbcglobal.net (99.24.18.25): icmp_seq=132 ttl=51 time=80.3 ms
64 bytes from nyc.speedtest.sbcglobal.net (99.24.18.25): icmp_seq=132 ttl=51 time=80.4 ms
64 bytes from nyc.speedtest.sbcglobal.net (99.24.18.25): icmp_seq=133 ttl=51 time=80.1 ms
64 bytes from nyc.speedtest.sbcglobal.net (99.24.18.25): icmp_seq=133 ttl=51 time=80.2 ms
64 bytes from nyc.speedtest.sbcglobal.net (99.24.18.25): icmp_seq=134 ttl=51 time=80.0 ms
64 bytes from nyc.speedtest.sbcglobal.net (99.24.18.25): icmp_seq=134 ttl=51 time=80.0 ms
64 bytes from nyc.speedtest.sbcglobal.net (99.24.18.25): icmp_seq=135 ttl=51 time=80.3 ms
64 bytes from nyc.speedtest.sbcglobal.net (99.24.18.25): icmp_seq=135 ttl=51 time=80.3 ms
64 bytes from nyc.speedtest.sbcglobal.net (99.24.18.25): icmp_seq=136 ttl=51 time=80.0 ms
64 bytes from nyc.speedtest.sbcglobal.net (99.24.18.25): icmp_seq=136 ttl=51 time=80.1 ms
64 bytes from nyc.speedtest.sbcglobal.net (99.24.18.25): icmp_seq=137 ttl=51 time=80.0 ms
64 bytes from nyc.speedtest.sbcglobal.net (99.24.18.25): icmp_seq=137 ttl=51 time=80.1 ms
64 bytes from nyc.speedtest.sbcglobal.net (99.24.18.25): icmp_seq=138 ttl=51 time=80.1 ms
64 bytes from nyc.speedtest.sbcglobal.net (99.24.18.25): icmp_seq=138 ttl=51 time=80.2 ms
64 bytes from nyc.speedtest.sbcglobal.net (99.24.18.25): icmp_seq=139 ttl=51 time=79.9 ms
64 bytes from nyc.speedtest.sbcglobal.net (99.24.18.25): icmp_seq=139 ttl=51 time=79.9 ms
64 bytes from nyc.speedtest.sbcglobal.net (99.24.18.25): icmp_seq=140 ttl=51 time=80.2 ms
64 bytes from nyc.speedtest.sbcglobal.net (99.24.18.25): icmp_seq=140 ttl=51 time=80.3 ms
64 bytes from nyc.speedtest.sbcglobal.net (99.24.18.25): icmp_seq=141 ttl=51 time=80.2 ms
64 bytes from nyc.speedtest.sbcglobal.net (99.24.18.25): icmp_seq=141 ttl=51 time=80.2 ms
64 bytes from nyc.speedtest.sbcglobal.net (99.24.18.25): icmp_seq=142 ttl=51 time=80.0 ms
64 bytes from nyc.speedtest.sbcglobal.net (99.24.18.25): icmp_seq=142 ttl=51 time=80.1 ms
64 bytes from nyc.speedtest.sbcglobal.net (99.24.18.25): icmp_seq=143 ttl=51 time=80.3 ms
64 bytes from nyc.speedtest.sbcglobal.net (99.24.18.25): icmp_seq=143 ttl=51 time=80.3 ms
64 bytes from nyc.speedtest.sbcglobal.net (99.24.18.25): icmp_seq=144 ttl=51 time=80.1 ms
64 bytes from nyc.speedtest.sbcglobal.net (99.24.18.25): icmp_seq=144 ttl=51 time=80.2 ms
64 bytes from nyc.speedtest.sbcglobal.net (99.24.18.25): icmp_seq=145 ttl=51 time=80.1 ms
64 bytes from nyc.speedtest.sbcglobal.net (99.24.18.25): icmp_seq=145 ttl=51 time=80.0 ms
64 bytes from nyc.speedtest.sbcglobal.net (99.24.18.25): icmp_seq=146 ttl=51 time=80.1 ms
64 bytes from nyc.speedtest.sbcglobal.net (99.24.18.25): icmp_seq=146 ttl=51 time=80.2 ms
64 bytes from nyc.speedtest.sbcglobal.net (99.24.18.25): icmp_seq=147 ttl=51 time=80.5 ms
64 bytes from nyc.speedtest.sbcglobal.net (99.24.18.25): icmp_seq=147 ttl=51 time=80.6 ms
64 bytes from nyc.speedtest.sbcglobal.net (99.24.18.25): icmp_seq=148 ttl=51 time=80.0 ms
64 bytes from nyc.speedtest.sbcglobal.net (99.24.18.25): icmp_seq=148 ttl=51 time=80.1 ms
64 bytes from nyc.speedtest.sbcglobal.net (99.24.18.25): icmp_seq=149 ttl=51 time=80.2 ms
64 bytes from nyc.speedtest.sbcglobal.net (99.24.18.25): icmp_seq=149 ttl=51 time=79.7 ms
64 bytes from nyc.speedtest.sbcglobal.net (99.24.18.25): icmp_seq=150 ttl=51 time=80.1 ms
64 bytes from nyc.speedtest.sbcglobal.net (99.24.18.25): icmp_seq=150 ttl=51 time=80.1 ms
64 bytes from nyc.speedtest.sbcglobal.net (99.24.18.25): icmp_seq=151 ttl=51 time=80.0 ms
64 bytes from nyc.speedtest.sbcglobal.net (99.24.18.25): icmp_seq=151 ttl=51 time=80.0 ms
64 bytes from nyc.speedtest.sbcglobal.net (99.24.18.25): icmp_seq=152 ttl=51 time=79.9 ms
64 bytes from nyc.speedtest.sbcglobal.net (99.24.18.25): icmp_seq=152 ttl=51 time=79.9 ms
64 bytes from nyc.speedtest.sbcglobal.net (99.24.18.25): icmp_seq=153 ttl=51 time=80.1 ms
64 bytes from nyc.speedtest.sbcglobal.net (99.24.18.25): icmp_seq=153 ttl=51 time=80.2 ms
64 bytes from nyc.speedtest.sbcglobal.net (99.24.18.25): icmp_seq=154 ttl=51 time=80.0 ms
64 bytes from nyc.speedtest.sbcglobal.net (99.24.18.25): icmp_seq=154 ttl=51 time=80.1 ms
64 bytes from nyc.speedtest.sbcglobal.net (99.24.18.25): icmp_seq=155 ttl=51 time=80.1 ms
64 bytes from nyc.speedtest.sbcglobal.net (99.24.18.25): icmp_seq=155 ttl=51 time=80.1 ms
64 bytes from nyc.speedtest.sbcglobal.net (99.24.18.25): icmp_seq=156 ttl=51 time=79.9 ms
64 bytes from nyc.speedtest.sbcglobal.net (99.24.18.25): icmp_seq=156 ttl=51 time=80.0 ms
64 bytes from nyc.speedtest.sbcglobal.net (99.24.18.25): icmp_seq=157 ttl=51 time=80.7 ms
64 bytes from nyc.speedtest.sbcglobal.net (99.24.18.25): icmp_seq=157 ttl=51 time=80.8 ms
64 bytes from nyc.speedtest.sbcglobal.net (99.24.18.25): icmp_seq=158 ttl=51 time=80.0 ms
64 bytes from nyc.speedtest.sbcglobal.net (99.24.18.25): icmp_seq=158 ttl=51 time=80.1 ms
64 bytes from nyc.speedtest.sbcglobal.net (99.24.18.25): icmp_seq=159 ttl=51 time=80.4 ms
64 bytes from nyc.speedtest.sbcglobal.net (99.24.18.25): icmp_seq=159 ttl=51 time=80.4 ms
64 bytes from nyc.speedtest.sbcglobal.net (99.24.18.25): icmp_seq=160 ttl=51 time=80.1 ms
64 bytes from nyc.speedtest.sbcglobal.net (99.24.18.25): icmp_seq=160 ttl=51 time=80.1 ms
64 bytes from nyc.speedtest.sbcglobal.net (99.24.18.25): icmp_seq=161 ttl=51 time=80.0 ms
64 bytes from nyc.speedtest.sbcglobal.net (99.24.18.25): icmp_seq=161 ttl=51 time=80.1 ms
64 bytes from nyc.speedtest.sbcglobal.net (99.24.18.25): icmp_seq=162 ttl=51 time=80.2 ms
64 bytes from nyc.speedtest.sbcglobal.net (99.24.18.25): icmp_seq=162 ttl=51 time=80.2 ms
64 bytes from nyc.speedtest.sbcglobal.net (99.24.18.25): icmp_seq=163 ttl=51 time=79.9 ms
64 bytes from nyc.speedtest.sbcglobal.net (99.24.18.25): icmp_seq=163 ttl=51 time=79.9 ms
64 bytes from nyc.speedtest.sbcglobal.net (99.24.18.25): icmp_seq=164 ttl=51 time=80.0 ms
64 bytes from nyc.speedtest.sbcglobal.net (99.24.18.25): icmp_seq=164 ttl=51 time=80.0 ms
64 bytes from nyc.speedtest.sbcglobal.net (99.24.18.25): icmp_seq=165 ttl=51 time=79.8 ms
64 bytes from nyc.speedtest.sbcglobal.net (99.24.18.25): icmp_seq=165 ttl=51 time=79.8 ms
64 bytes from nyc.speedtest.sbcglobal.net (99.24.18.25): icmp_seq=166 ttl=51 time=80.1 ms
64 bytes from nyc.speedtest.sbcglobal.net (99.24.18.25): icmp_seq=166 ttl=51 time=80.1 ms
64 bytes from nyc.speedtest.sbcglobal.net (99.24.18.25): icmp_seq=167 ttl=51 time=80.1 ms
64 bytes from nyc.speedtest.sbcglobal.net (99.24.18.25): icmp_seq=167 ttl=51 time=80.2 ms
64 bytes from nyc.speedtest.sbcglobal.net (99.24.18.25): icmp_seq=168 ttl=51 time=80.0 ms
64 bytes from nyc.speedtest.sbcglobal.net (99.24.18.25): icmp_seq=168 ttl=51 time=80.0 ms
64 bytes from nyc.speedtest.sbcglobal.net (99.24.18.25): icmp_seq=169 ttl=51 time=80.3 ms
64 bytes from nyc.speedtest.sbcglobal.net (99.24.18.25): icmp_seq=169 ttl=51 time=80.3 ms
64 bytes from nyc.speedtest.sbcglobal.net (99.24.18.25): icmp_seq=170 ttl=51 time=80.1 ms
64 bytes from nyc.speedtest.sbcglobal.net (99.24.18.25): icmp_seq=170 ttl=51 time=80.2 ms
64 bytes from nyc.speedtest.sbcglobal.net (99.24.18.25): icmp_seq=171 ttl=51 time=80.2 ms
64 bytes from nyc.speedtest.sbcglobal.net (99.24.18.25): icmp_seq=171 ttl=51 time=80.2 ms
64 bytes from nyc.speedtest.sbcglobal.net (99.24.18.25): icmp_seq=172 ttl=51 time=80.2 ms
64 bytes from nyc.speedtest.sbcglobal.net (99.24.18.25): icmp_seq=172 ttl=51 time=80.3 ms
64 bytes from nyc.speedtest.sbcglobal.net (99.24.18.25): icmp_seq=173 ttl=51 time=80.0 ms
64 bytes from nyc.speedtest.sbcglobal.net (99.24.18.25): icmp_seq=173 ttl=51 time=80.1 ms
64 bytes from nyc.speedtest.sbcglobal.net (99.24.18.25): icmp_seq=174 ttl=51 time=79.7 ms
64 bytes from nyc.speedtest.sbcglobal.net (99.24.18.25): icmp_seq=174 ttl=51 time=79.8 ms
64 bytes from nyc.speedtest.sbcglobal.net (99.24.18.25): icmp_seq=175 ttl=51 time=80.0 ms
64 bytes from nyc.speedtest.sbcglobal.net (99.24.18.25): icmp_seq=175 ttl=51 time=80.1 ms
64 bytes from nyc.speedtest.sbcglobal.net (99.24.18.25): icmp_seq=176 ttl=51 time=80.5 ms
64 bytes from nyc.speedtest.sbcglobal.net (99.24.18.25): icmp_seq=176 ttl=51 time=80.5 ms
64 bytes from nyc.speedtest.sbcglobal.net (99.24.18.25): icmp_seq=177 ttl=51 time=80.2 ms
64 bytes from nyc.speedtest.sbcglobal.net (99.24.18.25): icmp_seq=177 ttl=51 time=80.2 ms
64 bytes from nyc.speedtest.sbcglobal.net (99.24.18.25): icmp_seq=178 ttl=51 time=79.8 ms
64 bytes from nyc.speedtest.sbcglobal.net (99.24.18.25): icmp_seq=178 ttl=51 time=79.8 ms
64 bytes from nyc.speedtest.sbcglobal.net (99.24.18.25): icmp_seq=179 ttl=51 time=79.8 ms
64 bytes from nyc.speedtest.sbcglobal.net (99.24.18.25): icmp_seq=179 ttl=51 time=79.8 ms
64 bytes from nyc.speedtest.sbcglobal.net (99.24.18.25): icmp_seq=180 ttl=51 time=80.2 ms
64 bytes from nyc.speedtest.sbcglobal.net (99.24.18.25): icmp_seq=180 ttl=51 time=80.3 ms
64 bytes from nyc.speedtest.sbcglobal.net (99.24.18.25): icmp_seq=181 ttl=51 time=80.0 ms
64 bytes from nyc.speedtest.sbcglobal.net (99.24.18.25): icmp_seq=181 ttl=51 time=80.1 ms
64 bytes from nyc.speedtest.sbcglobal.net (99.24.18.25): icmp_seq=182 ttl=51 time=80.1 ms
64 bytes from nyc.speedtest.sbcglobal.net (99.24.18.25): icmp_seq=182 ttl=51 time=80.2 ms
64 bytes from nyc.speedtest.sbcglobal.net (99.24.18.25): icmp_seq=183 ttl=51 time=80.4 ms
64 bytes from nyc.speedtest.sbcglobal.net (99.24.18.25): icmp_seq=183 ttl=51 time=80.4 ms
64 bytes from nyc.speedtest.sbcglobal.net (99.24.18.25): icmp_seq=184 ttl=51 time=80.6 ms
64 bytes from nyc.speedtest.sbcglobal.net (99.24.18.25): icmp_seq=184 ttl=51 time=80.6 ms
64 bytes from nyc.speedtest.sbcglobal.net (99.24.18.25): icmp_seq=185 ttl=51 time=80.1 ms
64 bytes from nyc.speedtest.sbcglobal.net (99.24.18.25): icmp_seq=185 ttl=51 time=80.1 ms
64 bytes from nyc.speedtest.sbcglobal.net (99.24.18.25): icmp_seq=186 ttl=51 time=80.3 ms
64 bytes from nyc.speedtest.sbcglobal.net (99.24.18.25): icmp_seq=186 ttl=51 time=80.3 ms
64 bytes from nyc.speedtest.sbcglobal.net (99.24.18.25): icmp_seq=187 ttl=51 time=79.7 ms
64 bytes from nyc.speedtest.sbcglobal.net (99.24.18.25): icmp_seq=187 ttl=51 time=79.8 ms
64 bytes from nyc.speedtest.sbcglobal.net (99.24.18.25): icmp_seq=188 ttl=51 time=79.8 ms
64 bytes from nyc.speedtest.sbcglobal.net (99.24.18.25): icmp_seq=188 ttl=51 time=79.8 ms
64 bytes from nyc.speedtest.sbcglobal.net (99.24.18.25): icmp_seq=189 ttl=51 time=80.3 ms
64 bytes from nyc.speedtest.sbcglobal.net (99.24.18.25): icmp_seq=189 ttl=51 time=79.8 ms
64 bytes from nyc.speedtest.sbcglobal.net (99.24.18.25): icmp_seq=190 ttl=51 time=80.1 ms
64 bytes from nyc.speedtest.sbcglobal.net (99.24.18.25): icmp_seq=190 ttl=51 time=80.1 ms
64 bytes from nyc.speedtest.sbcglobal.net (99.24.18.25): icmp_seq=191 ttl=51 time=80.1 ms
64 bytes from nyc.speedtest.sbcglobal.net (99.24.18.25): icmp_seq=191 ttl=51 time=80.2 ms
64 bytes from nyc.speedtest.sbcglobal.net (99.24.18.25): icmp_seq=192 ttl=51 time=80.2 ms
64 bytes from nyc.speedtest.sbcglobal.net (99.24.18.25): icmp_seq=192 ttl=51 time=80.3 ms
64 bytes from nyc.speedtest.sbcglobal.net (99.24.18.25): icmp_seq=193 ttl=51 time=80.3 ms
64 bytes from nyc.speedtest.sbcglobal.net (99.24.18.25): icmp_seq=193 ttl=51 time=80.3 ms
64 bytes from nyc.speedtest.sbcglobal.net (99.24.18.25): icmp_seq=194 ttl=51 time=80.0 ms
64 bytes from nyc.speedtest.sbcglobal.net (99.24.18.25): icmp_seq=194 ttl=51 time=80.0 ms
64 bytes from nyc.speedtest.sbcglobal.net (99.24.18.25): icmp_seq=195 ttl=51 time=80.0 ms
64 bytes from nyc.speedtest.sbcglobal.net (99.24.18.25): icmp_seq=195 ttl=51 time=80.1 ms
64 bytes from nyc.speedtest.sbcglobal.net (99.24.18.25): icmp_seq=196 ttl=51 time=80.1 ms
64 bytes from nyc.speedtest.sbcglobal.net (99.24.18.25): icmp_seq=196 ttl=51 time=80.1 ms
64 bytes from nyc.speedtest.sbcglobal.net (99.24.18.25): icmp_seq=197 ttl=51 time=79.8 ms
64 bytes from nyc.speedtest.sbcglobal.net (99.24.18.25): icmp_seq=197 ttl=51 time=79.8 ms
64 bytes from nyc.speedtest.sbcglobal.net (99.24.18.25): icmp_seq=198 ttl=51 time=79.9 ms
64 bytes from nyc.speedtest.sbcglobal.net (99.24.18.25): icmp_seq=198 ttl=51 time=80.0 ms
64 bytes from nyc.speedtest.sbcglobal.net (99.24.18.25): icmp_seq=199 ttl=51 time=79.9 ms
64 bytes from nyc.speedtest.sbcglobal.net (99.24.18.25): icmp_seq=199 ttl=51 time=79.6 ms
64 bytes from nyc.speedtest.sbcglobal.net (99.24.18.25): icmp_seq=200 ttl=51 time=80.1 ms
64 bytes from nyc.speedtest.sbcglobal.net (99.24.18.25): icmp_seq=200 ttl=51 time=80.1 ms
64 bytes from nyc.speedtest.sbcglobal.net (99.24.18.25): icmp_seq=201 ttl=51 time=80.0 ms
64 bytes from nyc.speedtest.sbcglobal.net (99.24.18.25): icmp_seq=201 ttl=51 time=80.0 ms
64 bytes from nyc.speedtest.sbcglobal.net (99.24.18.25): icmp_seq=202 ttl=51 time=80.4 ms
64 bytes from nyc.speedtest.sbcglobal.net (99.24.18.25): icmp_seq=202 ttl=51 time=80.5 ms
64 bytes from nyc.speedtest.sbcglobal.net (99.24.18.25): icmp_seq=203 ttl=51 time=80.1 ms
64 bytes from nyc.speedtest.sbcglobal.net (99.24.18.25): icmp_seq=203 ttl=51 time=80.2 ms
64 bytes from nyc.speedtest.sbcglobal.net (99.24.18.25): icmp_seq=204 ttl=51 time=80.1 ms
64 bytes from nyc.speedtest.sbcglobal.net (99.24.18.25): icmp_seq=204 ttl=51 time=80.1 ms
64 bytes from nyc.speedtest.sbcglobal.net (99.24.18.25): icmp_seq=205 ttl=51 time=79.7 ms
64 bytes from nyc.speedtest.sbcglobal.net (99.24.18.25): icmp_seq=205 ttl=51 time=79.7 ms
64 bytes from nyc.speedtest.sbcglobal.net (99.24.18.25): icmp_seq=206 ttl=51 time=80.1 ms
64 bytes from nyc.speedtest.sbcglobal.net (99.24.18.25): icmp_seq=206 ttl=51 time=80.1 ms
64 bytes from nyc.speedtest.sbcglobal.net (99.24.18.25): icmp_seq=207 ttl=51 time=80.2 ms
64 bytes from nyc.speedtest.sbcglobal.net (99.24.18.25): icmp_seq=207 ttl=51 time=80.3 ms
64 bytes from nyc.speedtest.sbcglobal.net (99.24.18.25): icmp_seq=208 ttl=51 time=79.8 ms
64 bytes from nyc.speedtest.sbcglobal.net (99.24.18.25): icmp_seq=208 ttl=51 time=79.8 ms
64 bytes from nyc.speedtest.sbcglobal.net (99.24.18.25): icmp_seq=209 ttl=51 time=80.3 ms
64 bytes from nyc.speedtest.sbcglobal.net (99.24.18.25): icmp_seq=209 ttl=51 time=79.9 ms
64 bytes from nyc.speedtest.sbcglobal.net (99.24.18.25): icmp_seq=210 ttl=51 time=80.2 ms
64 bytes from nyc.speedtest.sbcglobal.net (99.24.18.25): icmp_seq=210 ttl=51 time=80.3 ms
64 bytes from nyc.speedtest.sbcglobal.net (99.24.18.25): icmp_seq=211 ttl=51 time=80.1 ms
64 bytes from nyc.speedtest.sbcglobal.net (99.24.18.25): icmp_seq=211 ttl=51 time=80.0 ms
64 bytes from nyc.speedtest.sbcglobal.net (99.24.18.25): icmp_seq=212 ttl=51 time=80.2 ms
64 bytes from nyc.speedtest.sbcglobal.net (99.24.18.25): icmp_seq=212 ttl=51 time=80.2 ms
64 bytes from nyc.speedtest.sbcglobal.net (99.24.18.25): icmp_seq=213 ttl=51 time=80.2 ms
64 bytes from nyc.speedtest.sbcglobal.net (99.24.18.25): icmp_seq=213 ttl=51 time=80.2 ms
64 bytes from nyc.speedtest.sbcglobal.net (99.24.18.25): icmp_seq=214 ttl=51 time=79.8 ms
64 bytes from nyc.speedtest.sbcglobal.net (99.24.18.25): icmp_seq=214 ttl=51 time=79.9 ms
64 bytes from nyc.speedtest.sbcglobal.net (99.24.18.25): icmp_seq=215 ttl=51 time=80.4 ms
64 bytes from nyc.speedtest.sbcglobal.net (99.24.18.25): icmp_seq=215 ttl=51 time=80.4 ms
64 bytes from nyc.speedtest.sbcglobal.net (99.24.18.25): icmp_seq=216 ttl=51 time=80.2 ms
64 bytes from nyc.speedtest.sbcglobal.net (99.24.18.25): icmp_seq=216 ttl=51 time=80.2 ms
64 bytes from nyc.speedtest.sbcglobal.net (99.24.18.25): icmp_seq=217 ttl=51 time=80.1 ms
64 bytes from nyc.speedtest.sbcglobal.net (99.24.18.25): icmp_seq=217 ttl=51 time=80.2 ms
64 bytes from nyc.speedtest.sbcglobal.net (99.24.18.25): icmp_seq=218 ttl=51 time=79.8 ms
64 bytes from nyc.speedtest.sbcglobal.net (99.24.18.25): icmp_seq=218 ttl=51 time=79.8 ms
64 bytes from nyc.speedtest.sbcglobal.net (99.24.18.25): icmp_seq=219 ttl=51 time=80.1 ms
64 bytes from nyc.speedtest.sbcglobal.net (99.24.18.25): icmp_seq=219 ttl=51 time=79.7 ms
64 bytes from nyc.speedtest.sbcglobal.net (99.24.18.25): icmp_seq=220 ttl=51 time=80.3 ms
64 bytes from nyc.speedtest.sbcglobal.net (99.24.18.25): icmp_seq=220 ttl=51 time=79.6 ms
64 bytes from nyc.speedtest.sbcglobal.net (99.24.18.25): icmp_seq=221 ttl=51 time=80.1 ms
64 bytes from nyc.speedtest.sbcglobal.net (99.24.18.25): icmp_seq=221 ttl=51 time=79.8 ms
64 bytes from nyc.speedtest.sbcglobal.net (99.24.18.25): icmp_seq=222 ttl=51 time=80.1 ms
64 bytes from nyc.speedtest.sbcglobal.net (99.24.18.25): icmp_seq=222 ttl=51 time=80.1 ms
64 bytes from nyc.speedtest.sbcglobal.net (99.24.18.25): icmp_seq=223 ttl=51 time=80.0 ms
64 bytes from nyc.speedtest.sbcglobal.net (99.24.18.25): icmp_seq=223 ttl=51 time=80.0 ms
64 bytes from nyc.speedtest.sbcglobal.net (99.24.18.25): icmp_seq=224 ttl=51 time=79.9 ms
64 bytes from nyc.speedtest.sbcglobal.net (99.24.18.25): icmp_seq=224 ttl=51 time=80.0 ms
64 bytes from nyc.speedtest.sbcglobal.net (99.24.18.25): icmp_seq=225 ttl=51 time=80.1 ms
64 bytes from nyc.speedtest.sbcglobal.net (99.24.18.25): icmp_seq=225 ttl=51 time=80.2 ms
64 bytes from nyc.speedtest.sbcglobal.net (99.24.18.25): icmp_seq=226 ttl=51 time=80.3 ms
64 bytes from nyc.speedtest.sbcglobal.net (99.24.18.25): icmp_seq=226 ttl=51 time=80.3 ms
64 bytes from nyc.speedtest.sbcglobal.net (99.24.18.25): icmp_seq=227 ttl=51 time=80.3 ms
64 bytes from nyc.speedtest.sbcglobal.net (99.24.18.25): icmp_seq=227 ttl=51 time=80.3 ms
64 bytes from nyc.speedtest.sbcglobal.net (99.24.18.25): icmp_seq=228 ttl=51 time=80.0 ms
64 bytes from nyc.speedtest.sbcglobal.net (99.24.18.25): icmp_seq=228 ttl=51 time=80.1 ms
64 bytes from nyc.speedtest.sbcglobal.net (99.24.18.25): icmp_seq=229 ttl=51 time=80.0 ms
64 bytes from nyc.speedtest.sbcglobal.net (99.24.18.25): icmp_seq=229 ttl=51 time=80.0 ms
64 bytes from nyc.speedtest.sbcglobal.net (99.24.18.25): icmp_seq=230 ttl=51 time=79.8 ms
64 bytes from nyc.speedtest.sbcglobal.net (99.24.18.25): icmp_seq=230 ttl=51 time=79.8 ms
64 bytes from nyc.speedtest.sbcglobal.net (99.24.18.25): icmp_seq=231 ttl=51 time=80.1 ms
64 bytes from nyc.speedtest.sbcglobal.net (99.24.18.25): icmp_seq=231 ttl=51 time=80.1 ms
64 bytes from nyc.speedtest.sbcglobal.net (99.24.18.25): icmp_seq=232 ttl=51 time=79.7 ms
64 bytes from nyc.speedtest.sbcglobal.net (99.24.18.25): icmp_seq=232 ttl=51 time=79.8 ms
64 bytes from nyc.speedtest.sbcglobal.net (99.24.18.25): icmp_seq=233 ttl=51 time=80.2 ms
64 bytes from nyc.speedtest.sbcglobal.net (99.24.18.25): icmp_seq=233 ttl=51 time=80.3 ms
64 bytes from nyc.speedtest.sbcglobal.net (99.24.18.25): icmp_seq=234 ttl=51 time=80.0 ms
64 bytes from nyc.speedtest.sbcglobal.net (99.24.18.25): icmp_seq=234 ttl=51 time=79.9 ms
64 bytes from nyc.speedtest.sbcglobal.net (99.24.18.25): icmp_seq=235 ttl=51 time=80.8 ms
64 bytes from nyc.speedtest.sbcglobal.net (99.24.18.25): icmp_seq=235 ttl=51 time=80.8 ms
64 bytes from nyc.speedtest.sbcglobal.net (99.24.18.25): icmp_seq=236 ttl=51 time=80.1 ms
64 bytes from nyc.speedtest.sbcglobal.net (99.24.18.25): icmp_seq=236 ttl=51 time=80.2 ms
64 bytes from nyc.speedtest.sbcglobal.net (99.24.18.25): icmp_seq=237 ttl=51 time=80.0 ms
64 bytes from nyc.speedtest.sbcglobal.net (99.24.18.25): icmp_seq=237 ttl=51 time=80.0 ms
64 bytes from nyc.speedtest.sbcglobal.net (99.24.18.25): icmp_seq=238 ttl=51 time=80.0 ms
64 bytes from nyc.speedtest.sbcglobal.net (99.24.18.25): icmp_seq=238 ttl=51 time=80.0 ms
64 bytes from nyc.speedtest.sbcglobal.net (99.24.18.25): icmp_seq=239 ttl=51 time=80.4 ms
64 bytes from nyc.speedtest.sbcglobal.net (99.24.18.25): icmp_seq=239 ttl=51 time=80.5 ms
64 bytes from nyc.speedtest.sbcglobal.net (99.24.18.25): icmp_seq=240 ttl=51 time=79.7 ms
64 bytes from nyc.speedtest.sbcglobal.net (99.24.18.25): icmp_seq=240 ttl=51 time=79.8 ms
64 bytes from nyc.speedtest.sbcglobal.net (99.24.18.25): icmp_seq=241 ttl=51 time=80.0 ms
64 bytes from nyc.speedtest.sbcglobal.net (99.24.18.25): icmp_seq=241 ttl=51 time=80.0 ms
64 bytes from nyc.speedtest.sbcglobal.net (99.24.18.25): icmp_seq=242 ttl=51 time=80.0 ms
64 bytes from nyc.speedtest.sbcglobal.net (99.24.18.25): icmp_seq=242 ttl=51 time=80.0 ms
64 bytes from nyc.speedtest.sbcglobal.net (99.24.18.25): icmp_seq=243 ttl=51 time=80.1 ms
64 bytes from nyc.speedtest.sbcglobal.net (99.24.18.25): icmp_seq=243 ttl=51 time=80.0 ms
64 bytes from nyc.speedtest.sbcglobal.net (99.24.18.25): icmp_seq=244 ttl=51 time=80.4 ms
64 bytes from nyc.speedtest.sbcglobal.net (99.24.18.25): icmp_seq=244 ttl=51 time=80.4 ms
64 bytes from nyc.speedtest.sbcglobal.net (99.24.18.25): icmp_seq=245 ttl=51 time=80.3 ms
64 bytes from nyc.speedtest.sbcglobal.net (99.24.18.25): icmp_seq=245 ttl=51 time=80.4 ms
64 bytes from nyc.speedtest.sbcglobal.net (99.24.18.25): icmp_seq=246 ttl=51 time=80.2 ms
64 bytes from nyc.speedtest.sbcglobal.net (99.24.18.25): icmp_seq=246 ttl=51 time=80.2 ms
64 bytes from nyc.speedtest.sbcglobal.net (99.24.18.25): icmp_seq=247 ttl=51 time=80.1 ms
64 bytes from nyc.speedtest.sbcglobal.net (99.24.18.25): icmp_seq=247 ttl=51 time=80.2 ms
64 bytes from nyc.speedtest.sbcglobal.net (99.24.18.25): icmp_seq=248 ttl=51 time=79.8 ms
64 bytes from nyc.speedtest.sbcglobal.net (99.24.18.25): icmp_seq=248 ttl=51 time=79.8 ms
64 bytes from nyc.speedtest.sbcglobal.net (99.24.18.25): icmp_seq=249 ttl=51 time=80.3 ms
64 bytes from nyc.speedtest.sbcglobal.net (99.24.18.25): icmp_seq=249 ttl=51 time=80.3 ms
64 bytes from nyc.speedtest.sbcglobal.net (99.24.18.25): icmp_seq=250 ttl=51 time=79.8 ms
64 bytes from nyc.speedtest.sbcglobal.net (99.24.18.25): icmp_seq=250 ttl=51 time=79.8 ms
64 bytes from nyc.speedtest.sbcglobal.net (99.24.18.25): icmp_seq=251 ttl=51 time=79.7 ms
64 bytes from nyc.speedtest.sbcglobal.net (99.24.18.25): icmp_seq=251 ttl=51 time=80.1 ms
64 bytes from nyc.speedtest.sbcglobal.net (99.24.18.25): icmp_seq=252 ttl=51 time=80.2 ms
64 bytes from nyc.speedtest.sbcglobal.net (99.24.18.25): icmp_seq=252 ttl=51 time=79.9 ms
64 bytes from nyc.speedtest.sbcglobal.net (99.24.18.25): icmp_seq=253 ttl=51 time=79.8 ms
64 bytes from nyc.speedtest.sbcglobal.net (99.24.18.25): icmp_seq=253 ttl=51 time=79.8 ms
64 bytes from nyc.speedtest.sbcglobal.net (99.24.18.25): icmp_seq=254 ttl=51 time=80.1 ms
64 bytes from nyc.speedtest.sbcglobal.net (99.24.18.25): icmp_seq=254 ttl=51 time=80.2 ms
64 bytes from nyc.speedtest.sbcglobal.net (99.24.18.25): icmp_seq=255 ttl=51 time=80.2 ms
64 bytes from nyc.speedtest.sbcglobal.net (99.24.18.25): icmp_seq=255 ttl=51 time=80.3 ms
64 bytes from nyc.speedtest.sbcglobal.net (99.24.18.25): icmp_seq=256 ttl=51 time=79.8 ms
64 bytes from nyc.speedtest.sbcglobal.net (99.24.18.25): icmp_seq=256 ttl=51 time=79.8 ms
64 bytes from nyc.speedtest.sbcglobal.net (99.24.18.25): icmp_seq=257 ttl=51 time=79.8 ms
64 bytes from nyc.speedtest.sbcglobal.net (99.24.18.25): icmp_seq=257 ttl=51 time=79.8 ms
64 bytes from nyc.speedtest.sbcglobal.net (99.24.18.25): icmp_seq=258 ttl=51 time=80.1 ms
64 bytes from nyc.speedtest.sbcglobal.net (99.24.18.25): icmp_seq=258 ttl=51 time=80.2 ms
64 bytes from nyc.speedtest.sbcglobal.net (99.24.18.25): icmp_seq=259 ttl=51 time=80.3 ms
64 bytes from nyc.speedtest.sbcglobal.net (99.24.18.25): icmp_seq=259 ttl=51 time=80.4 ms
64 bytes from nyc.speedtest.sbcglobal.net (99.24.18.25): icmp_seq=260 ttl=51 time=80.2 ms
64 bytes from nyc.speedtest.sbcglobal.net (99.24.18.25): icmp_seq=260 ttl=51 time=80.2 ms
64 bytes from nyc.speedtest.sbcglobal.net (99.24.18.25): icmp_seq=261 ttl=51 time=80.0 ms
64 bytes from nyc.speedtest.sbcglobal.net (99.24.18.25): icmp_seq=261 ttl=51 time=80.0 ms
64 bytes from nyc.speedtest.sbcglobal.net (99.24.18.25): icmp_seq=262 ttl=51 time=79.8 ms
64 bytes from nyc.speedtest.sbcglobal.net (99.24.18.25): icmp_seq=262 ttl=51 time=79.8 ms
64 bytes from nyc.speedtest.sbcglobal.net (99.24.18.25): icmp_seq=263 ttl=51 time=79.9 ms
64 bytes from nyc.speedtest.sbcglobal.net (99.24.18.25): icmp_seq=263 ttl=51 time=80.0 ms
64 bytes from nyc.speedtest.sbcglobal.net (99.24.18.25): icmp_seq=264 ttl=51 time=80.1 ms
64 bytes from nyc.speedtest.sbcglobal.net (99.24.18.25): icmp_seq=264 ttl=51 time=80.2 ms
64 bytes from nyc.speedtest.sbcglobal.net (99.24.18.25): icmp_seq=265 ttl=51 time=80.0 ms
64 bytes from nyc.speedtest.sbcglobal.net (99.24.18.25): icmp_seq=265 ttl=51 time=80.1 ms
64 bytes from nyc.speedtest.sbcglobal.net (99.24.18.25): icmp_seq=266 ttl=51 time=79.7 ms
64 bytes from nyc.speedtest.sbcglobal.net (99.24.18.25): icmp_seq=266 ttl=51 time=79.8 ms
64 bytes from nyc.speedtest.sbcglobal.net (99.24.18.25): icmp_seq=267 ttl=51 time=79.8 ms
64 bytes from nyc.speedtest.sbcglobal.net (99.24.18.25): icmp_seq=267 ttl=51 time=79.9 ms
64 bytes from nyc.speedtest.sbcglobal.net (99.24.18.25): icmp_seq=268 ttl=51 time=80.0 ms
64 bytes from nyc.speedtest.sbcglobal.net (99.24.18.25): icmp_seq=268 ttl=51 time=79.6 ms
64 bytes from nyc.speedtest.sbcglobal.net (99.24.18.25): icmp_seq=269 ttl=51 time=80.2 ms
64 bytes from nyc.speedtest.sbcglobal.net (99.24.18.25): icmp_seq=269 ttl=51 time=79.7 ms
64 bytes from nyc.speedtest.sbcglobal.net (99.24.18.25): icmp_seq=270 ttl=51 time=80.2 ms
64 bytes from nyc.speedtest.sbcglobal.net (99.24.18.25): icmp_seq=270 ttl=51 time=79.9 ms
64 bytes from nyc.speedtest.sbcglobal.net (99.24.18.25): icmp_seq=271 ttl=51 time=80.1 ms
64 bytes from nyc.speedtest.sbcglobal.net (99.24.18.25): icmp_seq=271 ttl=51 time=80.1 ms
64 bytes from nyc.speedtest.sbcglobal.net (99.24.18.25): icmp_seq=272 ttl=51 time=79.7 ms
64 bytes from nyc.speedtest.sbcglobal.net (99.24.18.25): icmp_seq=272 ttl=51 time=79.8 ms
64 bytes from nyc.speedtest.sbcglobal.net (99.24.18.25): icmp_seq=273 ttl=51 time=80.1 ms
64 bytes from nyc.speedtest.sbcglobal.net (99.24.18.25): icmp_seq=273 ttl=51 time=80.1 ms
64 bytes from nyc.speedtest.sbcglobal.net (99.24.18.25): icmp_seq=274 ttl=51 time=79.8 ms
64 bytes from nyc.speedtest.sbcglobal.net (99.24.18.25): icmp_seq=274 ttl=51 time=79.9 ms
64 bytes from nyc.speedtest.sbcglobal.net (99.24.18.25): icmp_seq=275 ttl=51 time=80.2 ms
64 bytes from nyc.speedtest.sbcglobal.net (99.24.18.25): icmp_seq=275 ttl=51 time=80.3 ms
64 bytes from nyc.speedtest.sbcglobal.net (99.24.18.25): icmp_seq=276 ttl=51 time=80.1 ms
64 bytes from nyc.speedtest.sbcglobal.net (99.24.18.25): icmp_seq=276 ttl=51 time=80.1 ms
64 bytes from nyc.speedtest.sbcglobal.net (99.24.18.25): icmp_seq=277 ttl=51 time=80.3 ms
64 bytes from nyc.speedtest.sbcglobal.net (99.24.18.25): icmp_seq=277 ttl=51 time=80.0 ms
64 bytes from nyc.speedtest.sbcglobal.net (99.24.18.25): icmp_seq=278 ttl=51 time=80.3 ms
64 bytes from nyc.speedtest.sbcglobal.net (99.24.18.25): icmp_seq=278 ttl=51 time=80.3 ms
64 bytes from nyc.speedtest.sbcglobal.net (99.24.18.25): icmp_seq=279 ttl=51 time=80.3 ms
64 bytes from nyc.speedtest.sbcglobal.net (99.24.18.25): icmp_seq=279 ttl=51 time=80.4 ms
64 bytes from nyc.speedtest.sbcglobal.net (99.24.18.25): icmp_seq=280 ttl=51 time=80.0 ms
64 bytes from nyc.speedtest.sbcglobal.net (99.24.18.25): icmp_seq=280 ttl=51 time=80.1 ms
64 bytes from nyc.speedtest.sbcglobal.net (99.24.18.25): icmp_seq=281 ttl=51 time=80.3 ms
64 bytes from nyc.speedtest.sbcglobal.net (99.24.18.25): icmp_seq=281 ttl=51 time=80.4 ms
64 bytes from nyc.speedtest.sbcglobal.net (99.24.18.25): icmp_seq=282 ttl=51 time=80.4 ms
64 bytes from nyc.speedtest.sbcglobal.net (99.24.18.25): icmp_seq=282 ttl=51 time=80.4 ms
64 bytes from nyc.speedtest.sbcglobal.net (99.24.18.25): icmp_seq=283 ttl=51 time=80.3 ms
64 bytes from nyc.speedtest.sbcglobal.net (99.24.18.25): icmp_seq=283 ttl=51 time=80.4 ms
64 bytes from nyc.speedtest.sbcglobal.net (99.24.18.25): icmp_seq=284 ttl=51 time=80.2 ms
64 bytes from nyc.speedtest.sbcglobal.net (99.24.18.25): icmp_seq=284 ttl=51 time=80.2 ms
64 bytes from nyc.speedtest.sbcglobal.net (99.24.18.25): icmp_seq=285 ttl=51 time=80.2 ms
64 bytes from nyc.speedtest.sbcglobal.net (99.24.18.25): icmp_seq=285 ttl=51 time=80.3 ms
64 bytes from nyc.speedtest.sbcglobal.net (99.24.18.25): icmp_seq=286 ttl=51 time=79.7 ms
64 bytes from nyc.speedtest.sbcglobal.net (99.24.18.25): icmp_seq=286 ttl=51 time=79.7 ms
64 bytes from nyc.speedtest.sbcglobal.net (99.24.18.25): icmp_seq=287 ttl=51 time=80.1 ms
64 bytes from nyc.speedtest.sbcglobal.net (99.24.18.25): icmp_seq=287 ttl=51 time=80.2 ms
64 bytes from nyc.speedtest.sbcglobal.net (99.24.18.25): icmp_seq=288 ttl=51 time=79.8 ms
64 bytes from nyc.speedtest.sbcglobal.net (99.24.18.25): icmp_seq=288 ttl=51 time=79.9 ms
64 bytes from nyc.speedtest.sbcglobal.net (99.24.18.25): icmp_seq=289 ttl=51 time=80.4 ms
64 bytes from nyc.speedtest.sbcglobal.net (99.24.18.25): icmp_seq=289 ttl=51 time=80.4 ms
64 bytes from nyc.speedtest.sbcglobal.net (99.24.18.25): icmp_seq=290 ttl=51 time=79.9 ms
64 bytes from nyc.speedtest.sbcglobal.net (99.24.18.25): icmp_seq=290 ttl=51 time=79.9 ms
64 bytes from nyc.speedtest.sbcglobal.net (99.24.18.25): icmp_seq=291 ttl=51 time=80.1 ms
64 bytes from nyc.speedtest.sbcglobal.net (99.24.18.25): icmp_seq=291 ttl=51 time=80.2 ms
64 bytes from nyc.speedtest.sbcglobal.net (99.24.18.25): icmp_seq=292 ttl=51 time=80.0 ms
64 bytes from nyc.speedtest.sbcglobal.net (99.24.18.25): icmp_seq=292 ttl=51 time=80.0 ms
64 bytes from nyc.speedtest.sbcglobal.net (99.24.18.25): icmp_seq=293 ttl=51 time=80.1 ms
64 bytes from nyc.speedtest.sbcglobal.net (99.24.18.25): icmp_seq=293 ttl=51 time=80.1 ms
64 bytes from nyc.speedtest.sbcglobal.net (99.24.18.25): icmp_seq=294 ttl=51 time=80.0 ms
64 bytes from nyc.speedtest.sbcglobal.net (99.24.18.25): icmp_seq=294 ttl=51 time=80.0 ms
64 bytes from nyc.speedtest.sbcglobal.net (99.24.18.25): icmp_seq=295 ttl=51 time=80.0 ms
64 bytes from nyc.speedtest.sbcglobal.net (99.24.18.25): icmp_seq=295 ttl=51 time=80.1 ms
64 bytes from nyc.speedtest.sbcglobal.net (99.24.18.25): icmp_seq=296 ttl=51 time=79.9 ms
64 bytes from nyc.speedtest.sbcglobal.net (99.24.18.25): icmp_seq=296 ttl=51 time=80.0 ms
64 bytes from nyc.speedtest.sbcglobal.net (99.24.18.25): icmp_seq=297 ttl=51 time=80.0 ms
64 bytes from nyc.speedtest.sbcglobal.net (99.24.18.25): icmp_seq=297 ttl=51 time=80.0 ms
64 bytes from nyc.speedtest.sbcglobal.net (99.24.18.25): icmp_seq=298 ttl=51 time=79.8 ms
64 bytes from nyc.speedtest.sbcglobal.net (99.24.18.25): icmp_seq=298 ttl=51 time=79.8 ms
64 bytes from nyc.speedtest.sbcglobal.net (99.24.18.25): icmp_seq=299 ttl=51 time=80.2 ms
64 bytes from nyc.speedtest.sbcglobal.net (99.24.18.25): icmp_seq=299 ttl=51 time=80.3 ms
64 bytes from nyc.speedtest.sbcglobal.net (99.24.18.25): icmp_seq=300 ttl=51 time=80.1 ms
64 bytes from nyc.speedtest.sbcglobal.net (99.24.18.25): icmp_seq=300 ttl=51 time=80.2 ms
64 bytes from nyc.speedtest.sbcglobal.net (99.24.18.25): icmp_seq=301 ttl=51 time=80.2 ms
64 bytes from nyc.speedtest.sbcglobal.net (99.24.18.25): icmp_seq=301 ttl=51 time=80.2 ms
64 bytes from nyc.speedtest.sbcglobal.net (99.24.18.25): icmp_seq=302 ttl=51 time=80.0 ms
64 bytes from nyc.speedtest.sbcglobal.net (99.24.18.25): icmp_seq=302 ttl=51 time=80.1 ms
64 bytes from nyc.speedtest.sbcglobal.net (99.24.18.25): icmp_seq=303 ttl=51 time=80.0 ms
64 bytes from nyc.speedtest.sbcglobal.net (99.24.18.25): icmp_seq=303 ttl=51 time=80.0 ms
64 bytes from nyc.speedtest.sbcglobal.net (99.24.18.25): icmp_seq=304 ttl=51 time=80.1 ms
64 bytes from nyc.speedtest.sbcglobal.net (99.24.18.25): icmp_seq=304 ttl=51 time=80.1 ms
64 bytes from nyc.speedtest.sbcglobal.net (99.24.18.25): icmp_seq=305 ttl=51 time=80.1 ms
64 bytes from nyc.speedtest.sbcglobal.net (99.24.18.25): icmp_seq=305 ttl=51 time=80.1 ms
64 bytes from nyc.speedtest.sbcglobal.net (99.24.18.25): icmp_seq=306 ttl=51 time=80.0 ms
64 bytes from nyc.speedtest.sbcglobal.net (99.24.18.25): icmp_seq=306 ttl=51 time=80.0 ms
64 bytes from nyc.speedtest.sbcglobal.net (99.24.18.25): icmp_seq=307 ttl=51 time=80.1 ms
64 bytes from nyc.speedtest.sbcglobal.net (99.24.18.25): icmp_seq=307 ttl=51 time=80.1 ms
64 bytes from nyc.speedtest.sbcglobal.net (99.24.18.25): icmp_seq=308 ttl=51 time=80.2 ms
64 bytes from nyc.speedtest.sbcglobal.net (99.24.18.25): icmp_seq=308 ttl=51 time=80.2 ms
64 bytes from nyc.speedtest.sbcglobal.net (99.24.18.25): icmp_seq=309 ttl=51 time=80.2 ms
64 bytes from nyc.speedtest.sbcglobal.net (99.24.18.25): icmp_seq=309 ttl=51 time=80.3 ms
64 bytes from nyc.speedtest.sbcglobal.net (99.24.18.25): icmp_seq=310 ttl=51 time=80.0 ms
64 bytes from nyc.speedtest.sbcglobal.net (99.24.18.25): icmp_seq=310 ttl=51 time=80.1 ms
64 bytes from nyc.speedtest.sbcglobal.net (99.24.18.25): icmp_seq=311 ttl=51 time=80.0 ms
64 bytes from nyc.speedtest.sbcglobal.net (99.24.18.25): icmp_seq=311 ttl=51 time=80.0 ms
64 bytes from nyc.speedtest.sbcglobal.net (99.24.18.25): icmp_seq=312 ttl=51 time=80.2 ms
64 bytes from nyc.speedtest.sbcglobal.net (99.24.18.25): icmp_seq=312 ttl=51 time=80.2 ms
64 bytes from nyc.speedtest.sbcglobal.net (99.24.18.25): icmp_seq=313 ttl=51 time=79.9 ms
64 bytes from nyc.speedtest.sbcglobal.net (99.24.18.25): icmp_seq=313 ttl=51 time=80.0 ms
64 bytes from nyc.speedtest.sbcglobal.net (99.24.18.25): icmp_seq=314 ttl=51 time=79.9 ms
64 bytes from nyc.speedtest.sbcglobal.net (99.24.18.25): icmp_seq=314 ttl=51 time=79.9 ms
64 bytes from nyc.speedtest.sbcglobal.net (99.24.18.25): icmp_seq=315 ttl=51 time=79.8 ms
64 bytes from nyc.speedtest.sbcglobal.net (99.24.18.25): icmp_seq=315 ttl=51 time=79.7 ms
64 bytes from nyc.speedtest.sbcglobal.net (99.24.18.25): icmp_seq=316 ttl=51 time=79.9 ms
64 bytes from nyc.speedtest.sbcglobal.net (99.24.18.25): icmp_seq=316 ttl=51 time=79.9 ms
64 bytes from nyc.speedtest.sbcglobal.net (99.24.18.25): icmp_seq=317 ttl=51 time=79.8 ms
64 bytes from nyc.speedtest.sbcglobal.net (99.24.18.25): icmp_seq=317 ttl=51 time=79.8 ms
64 bytes from nyc.speedtest.sbcglobal.net (99.24.18.25): icmp_seq=318 ttl=51 time=79.9 ms
64 bytes from nyc.speedtest.sbcglobal.net (99.24.18.25): icmp_seq=318 ttl=51 time=79.9 ms
64 bytes from nyc.speedtest.sbcglobal.net (99.24.18.25): icmp_seq=319 ttl=51 time=79.8 ms
64 bytes from nyc.speedtest.sbcglobal.net (99.24.18.25): icmp_seq=319 ttl=51 time=79.8 ms
64 bytes from nyc.speedtest.sbcglobal.net (99.24.18.25): icmp_seq=320 ttl=51 time=79.7 ms
64 bytes from nyc.speedtest.sbcglobal.net (99.24.18.25): icmp_seq=320 ttl=51 time=79.7 ms
64 bytes from nyc.speedtest.sbcglobal.net (99.24.18.25): icmp_seq=321 ttl=51 time=80.0 ms
64 bytes from nyc.speedtest.sbcglobal.net (99.24.18.25): icmp_seq=321 ttl=51 time=80.0 ms
64 bytes from nyc.speedtest.sbcglobal.net (99.24.18.25): icmp_seq=322 ttl=51 time=79.8 ms
64 bytes from nyc.speedtest.sbcglobal.net (99.24.18.25): icmp_seq=322 ttl=51 time=79.8 ms
64 bytes from nyc.speedtest.sbcglobal.net (99.24.18.25): icmp_seq=323 ttl=51 time=80.0 ms
64 bytes from nyc.speedtest.sbcglobal.net (99.24.18.25): icmp_seq=323 ttl=51 time=80.0 ms
64 bytes from nyc.speedtest.sbcglobal.net (99.24.18.25): icmp_seq=324 ttl=51 time=80.0 ms
64 bytes from nyc.speedtest.sbcglobal.net (99.24.18.25): icmp_seq=324 ttl=51 time=80.0 ms
64 bytes from nyc.speedtest.sbcglobal.net (99.24.18.25): icmp_seq=325 ttl=51 time=80.0 ms
64 bytes from nyc.speedtest.sbcglobal.net (99.24.18.25): icmp_seq=325 ttl=51 time=80.0 ms
64 bytes from nyc.speedtest.sbcglobal.net (99.24.18.25): icmp_seq=326 ttl=51 time=79.8 ms
64 bytes from nyc.speedtest.sbcglobal.net (99.24.18.25): icmp_seq=326 ttl=51 time=79.8 ms
64 bytes from nyc.speedtest.sbcglobal.net (99.24.18.25): icmp_seq=327 ttl=51 time=80.0 ms
64 bytes from nyc.speedtest.sbcglobal.net (99.24.18.25): icmp_seq=327 ttl=51 time=80.0 ms
64 bytes from nyc.speedtest.sbcglobal.net (99.24.18.25): icmp_seq=328 ttl=51 time=79.9 ms
64 bytes from nyc.speedtest.sbcglobal.net (99.24.18.25): icmp_seq=328 ttl=51 time=79.9 ms
64 bytes from nyc.speedtest.sbcglobal.net (99.24.18.25): icmp_seq=329 ttl=51 time=80.0 ms
64 bytes from nyc.speedtest.sbcglobal.net (99.24.18.25): icmp_seq=329 ttl=51 time=80.1 ms
64 bytes from nyc.speedtest.sbcglobal.net (99.24.18.25): icmp_seq=330 ttl=51 time=79.9 ms
64 bytes from nyc.speedtest.sbcglobal.net (99.24.18.25): icmp_seq=330 ttl=51 time=80.0 ms
64 bytes from nyc.speedtest.sbcglobal.net (99.24.18.25): icmp_seq=331 ttl=51 time=80.3 ms
64 bytes from nyc.speedtest.sbcglobal.net (99.24.18.25): icmp_seq=331 ttl=51 time=80.3 ms
64 bytes from nyc.speedtest.sbcglobal.net (99.24.18.25): icmp_seq=332 ttl=51 time=80.1 ms
64 bytes from nyc.speedtest.sbcglobal.net (99.24.18.25): icmp_seq=332 ttl=51 time=80.1 ms
64 bytes from nyc.speedtest.sbcglobal.net (99.24.18.25): icmp_seq=333 ttl=51 time=79.8 ms
64 bytes from nyc.speedtest.sbcglobal.net (99.24.18.25): icmp_seq=333 ttl=51 time=79.8 ms
64 bytes from nyc.speedtest.sbcglobal.net (99.24.18.25): icmp_seq=334 ttl=51 time=80.8 ms
64 bytes from nyc.speedtest.sbcglobal.net (99.24.18.25): icmp_seq=334 ttl=51 time=80.9 ms
64 bytes from nyc.speedtest.sbcglobal.net (99.24.18.25): icmp_seq=335 ttl=51 time=80.0 ms
64 bytes from nyc.speedtest.sbcglobal.net (99.24.18.25): icmp_seq=335 ttl=51 time=80.0 ms
64 bytes from nyc.speedtest.sbcglobal.net (99.24.18.25): icmp_seq=336 ttl=51 time=79.8 ms
64 bytes from nyc.speedtest.sbcglobal.net (99.24.18.25): icmp_seq=336 ttl=51 time=79.8 ms
64 bytes from nyc.speedtest.sbcglobal.net (99.24.18.25): icmp_seq=337 ttl=51 time=80.0 ms
64 bytes from nyc.speedtest.sbcglobal.net (99.24.18.25): icmp_seq=337 ttl=51 time=80.1 ms
64 bytes from nyc.speedtest.sbcglobal.net (99.24.18.25): icmp_seq=338 ttl=51 time=80.0 ms
64 bytes from nyc.speedtest.sbcglobal.net (99.24.18.25): icmp_seq=338 ttl=51 time=80.0 ms
64 bytes from nyc.speedtest.sbcglobal.net (99.24.18.25): icmp_seq=339 ttl=51 time=80.1 ms
64 bytes from nyc.speedtest.sbcglobal.net (99.24.18.25): icmp_seq=339 ttl=51 time=80.1 ms
64 bytes from nyc.speedtest.sbcglobal.net (99.24.18.25): icmp_seq=340 ttl=51 time=79.7 ms
64 bytes from nyc.speedtest.sbcglobal.net (99.24.18.25): icmp_seq=340 ttl=51 time=79.8 ms
64 bytes from nyc.speedtest.sbcglobal.net (99.24.18.25): icmp_seq=341 ttl=51 time=79.8 ms
64 bytes from nyc.speedtest.sbcglobal.net (99.24.18.25): icmp_seq=341 ttl=51 time=79.9 ms
64 bytes from nyc.speedtest.sbcglobal.net (99.24.18.25): icmp_seq=342 ttl=51 time=79.7 ms
64 bytes from nyc.speedtest.sbcglobal.net (99.24.18.25): icmp_seq=342 ttl=51 time=79.7 ms
64 bytes from nyc.speedtest.sbcglobal.net (99.24.18.25): icmp_seq=343 ttl=51 time=80.0 ms
64 bytes from nyc.speedtest.sbcglobal.net (99.24.18.25): icmp_seq=343 ttl=51 time=80.0 ms
64 bytes from nyc.speedtest.sbcglobal.net (99.24.18.25): icmp_seq=344 ttl=51 time=79.9 ms
64 bytes from nyc.speedtest.sbcglobal.net (99.24.18.25): icmp_seq=344 ttl=51 time=80.0 ms
64 bytes from nyc.speedtest.sbcglobal.net (99.24.18.25): icmp_seq=345 ttl=51 time=80.0 ms
64 bytes from nyc.speedtest.sbcglobal.net (99.24.18.25): icmp_seq=345 ttl=51 time=80.0 ms
64 bytes from nyc.speedtest.sbcglobal.net (99.24.18.25): icmp_seq=346 ttl=51 time=80.0 ms
64 bytes from nyc.speedtest.sbcglobal.net (99.24.18.25): icmp_seq=346 ttl=51 time=80.1 ms
64 bytes from nyc.speedtest.sbcglobal.net (99.24.18.25): icmp_seq=347 ttl=51 time=80.0 ms
64 bytes from nyc.speedtest.sbcglobal.net (99.24.18.25): icmp_seq=347 ttl=51 time=80.0 ms
64 bytes from nyc.speedtest.sbcglobal.net (99.24.18.25): icmp_seq=348 ttl=51 time=80.0 ms
64 bytes from nyc.speedtest.sbcglobal.net (99.24.18.25): icmp_seq=348 ttl=51 time=80.1 ms
64 bytes from nyc.speedtest.sbcglobal.net (99.24.18.25): icmp_seq=349 ttl=51 time=80.1 ms
64 bytes from nyc.speedtest.sbcglobal.net (99.24.18.25): icmp_seq=349 ttl=51 time=80.1 ms
64 bytes from nyc.speedtest.sbcglobal.net (99.24.18.25): icmp_seq=350 ttl=51 time=80.3 ms
64 bytes from nyc.speedtest.sbcglobal.net (99.24.18.25): icmp_seq=350 ttl=51 time=80.4 ms
64 bytes from nyc.speedtest.sbcglobal.net (99.24.18.25): icmp_seq=351 ttl=51 time=80.1 ms
64 bytes from nyc.speedtest.sbcglobal.net (99.24.18.25): icmp_seq=351 ttl=51 time=80.1 ms
64 bytes from nyc.speedtest.sbcglobal.net (99.24.18.25): icmp_seq=352 ttl=51 time=79.8 ms
64 bytes from nyc.speedtest.sbcglobal.net (99.24.18.25): icmp_seq=352 ttl=51 time=79.8 ms
64 bytes from nyc.speedtest.sbcglobal.net (99.24.18.25): icmp_seq=353 ttl=51 time=80.2 ms
64 bytes from nyc.speedtest.sbcglobal.net (99.24.18.25): icmp_seq=353 ttl=51 time=80.3 ms
64 bytes from nyc.speedtest.sbcglobal.net (99.24.18.25): icmp_seq=354 ttl=51 time=80.1 ms
64 bytes from nyc.speedtest.sbcglobal.net (99.24.18.25): icmp_seq=354 ttl=51 time=80.2 ms
64 bytes from nyc.speedtest.sbcglobal.net (99.24.18.25): icmp_seq=355 ttl=51 time=80.1 ms
64 bytes from nyc.speedtest.sbcglobal.net (99.24.18.25): icmp_seq=355 ttl=51 time=80.2 ms
64 bytes from nyc.speedtest.sbcglobal.net (99.24.18.25): icmp_seq=356 ttl=51 time=80.0 ms
64 bytes from nyc.speedtest.sbcglobal.net (99.24.18.25): icmp_seq=356 ttl=51 time=80.1 ms
64 bytes from nyc.speedtest.sbcglobal.net (99.24.18.25): icmp_seq=357 ttl=51 time=79.9 ms
64 bytes from nyc.speedtest.sbcglobal.net (99.24.18.25): icmp_seq=357 ttl=51 time=80.0 ms
64 bytes from nyc.speedtest.sbcglobal.net (99.24.18.25): icmp_seq=358 ttl=51 time=80.2 ms
64 bytes from nyc.speedtest.sbcglobal.net (99.24.18.25): icmp_seq=358 ttl=51 time=80.2 ms
64 bytes from nyc.speedtest.sbcglobal.net (99.24.18.25): icmp_seq=359 ttl=51 time=80.2 ms
64 bytes from nyc.speedtest.sbcglobal.net (99.24.18.25): icmp_seq=359 ttl=51 time=80.3 ms
64 bytes from nyc.speedtest.sbcglobal.net (99.24.18.25): icmp_seq=360 ttl=51 time=79.7 ms
64 bytes from nyc.speedtest.sbcglobal.net (99.24.18.25): icmp_seq=360 ttl=51 time=79.7 ms
64 bytes from nyc.speedtest.sbcglobal.net (99.24.18.25): icmp_seq=361 ttl=51 time=80.1 ms
64 bytes from nyc.speedtest.sbcglobal.net (99.24.18.25): icmp_seq=361 ttl=51 time=80.2 ms
64 bytes from nyc.speedtest.sbcglobal.net (99.24.18.25): icmp_seq=362 ttl=51 time=80.1 ms
64 bytes from nyc.speedtest.sbcglobal.net (99.24.18.25): icmp_seq=362 ttl=51 time=79.8 ms
64 bytes from nyc.speedtest.sbcglobal.net (99.24.18.25): icmp_seq=363 ttl=51 time=80.2 ms
64 bytes from nyc.speedtest.sbcglobal.net (99.24.18.25): icmp_seq=363 ttl=51 time=80.2 ms
64 bytes from nyc.speedtest.sbcglobal.net (99.24.18.25): icmp_seq=364 ttl=51 time=79.8 ms
64 bytes from nyc.speedtest.sbcglobal.net (99.24.18.25): icmp_seq=364 ttl=51 time=79.9 ms
64 bytes from nyc.speedtest.sbcglobal.net (99.24.18.25): icmp_seq=365 ttl=51 time=80.2 ms
64 bytes from nyc.speedtest.sbcglobal.net (99.24.18.25): icmp_seq=365 ttl=51 time=80.3 ms
64 bytes from nyc.speedtest.sbcglobal.net (99.24.18.25): icmp_seq=366 ttl=51 time=80.2 ms
64 bytes from nyc.speedtest.sbcglobal.net (99.24.18.25): icmp_seq=366 ttl=51 time=80.3 ms
64 bytes from nyc.speedtest.sbcglobal.net (99.24.18.25): icmp_seq=367 ttl=51 time=79.7 ms
64 bytes from nyc.speedtest.sbcglobal.net (99.24.18.25): icmp_seq=367 ttl=51 time=79.8 ms
64 bytes from nyc.speedtest.sbcglobal.net (99.24.18.25): icmp_seq=368 ttl=51 time=79.8 ms
64 bytes from nyc.speedtest.sbcglobal.net (99.24.18.25): icmp_seq=368 ttl=51 time=79.8 ms
64 bytes from nyc.speedtest.sbcglobal.net (99.24.18.25): icmp_seq=369 ttl=51 time=79.8 ms
64 bytes from nyc.speedtest.sbcglobal.net (99.24.18.25): icmp_seq=369 ttl=51 time=79.8 ms
64 bytes from nyc.speedtest.sbcglobal.net (99.24.18.25): icmp_seq=370 ttl=51 time=80.2 ms
64 bytes from nyc.speedtest.sbcglobal.net (99.24.18.25): icmp_seq=370 ttl=51 time=79.7 ms
64 bytes from nyc.speedtest.sbcglobal.net (99.24.18.25): icmp_seq=371 ttl=51 time=80.3 ms
64 bytes from nyc.speedtest.sbcglobal.net (99.24.18.25): icmp_seq=371 ttl=51 time=79.7 ms
64 bytes from nyc.speedtest.sbcglobal.net (99.24.18.25): icmp_seq=372 ttl=51 time=80.1 ms
64 bytes from nyc.speedtest.sbcglobal.net (99.24.18.25): icmp_seq=372 ttl=51 time=79.8 ms
64 bytes from nyc.speedtest.sbcglobal.net (99.24.18.25): icmp_seq=373 ttl=51 time=80.1 ms
64 bytes from nyc.speedtest.sbcglobal.net (99.24.18.25): icmp_seq=373 ttl=51 time=79.9 ms
64 bytes from nyc.speedtest.sbcglobal.net (99.24.18.25): icmp_seq=374 ttl=51 time=80.0 ms
64 bytes from nyc.speedtest.sbcglobal.net (99.24.18.25): icmp_seq=374 ttl=51 time=80.1 ms
64 bytes from nyc.speedtest.sbcglobal.net (99.24.18.25): icmp_seq=375 ttl=51 time=80.3 ms
64 bytes from nyc.speedtest.sbcglobal.net (99.24.18.25): icmp_seq=375 ttl=51 time=80.3 ms
64 bytes from nyc.speedtest.sbcglobal.net (99.24.18.25): icmp_seq=376 ttl=51 time=80.2 ms
64 bytes from nyc.speedtest.sbcglobal.net (99.24.18.25): icmp_seq=376 ttl=51 time=80.3 ms
64 bytes from nyc.speedtest.sbcglobal.net (99.24.18.25): icmp_seq=377 ttl=51 time=80.2 ms
64 bytes from nyc.speedtest.sbcglobal.net (99.24.18.25): icmp_seq=377 ttl=51 time=80.2 ms
64 bytes from nyc.speedtest.sbcglobal.net (99.24.18.25): icmp_seq=378 ttl=51 time=80.0 ms
64 bytes from nyc.speedtest.sbcglobal.net (99.24.18.25): icmp_seq=378 ttl=51 time=80.1 ms
64 bytes from nyc.speedtest.sbcglobal.net (99.24.18.25): icmp_seq=379 ttl=51 time=80.2 ms
64 bytes from nyc.speedtest.sbcglobal.net (99.24.18.25): icmp_seq=379 ttl=51 time=80.3 ms
64 bytes from nyc.speedtest.sbcglobal.net (99.24.18.25): icmp_seq=380 ttl=51 time=80.2 ms
64 bytes from nyc.speedtest.sbcglobal.net (99.24.18.25): icmp_seq=380 ttl=51 time=80.3 ms
64 bytes from nyc.speedtest.sbcglobal.net (99.24.18.25): icmp_seq=381 ttl=51 time=80.2 ms
64 bytes from nyc.speedtest.sbcglobal.net (99.24.18.25): icmp_seq=381 ttl=51 time=80.2 ms
64 bytes from nyc.speedtest.sbcglobal.net (99.24.18.25): icmp_seq=382 ttl=51 time=80.1 ms
64 bytes from nyc.speedtest.sbcglobal.net (99.24.18.25): icmp_seq=382 ttl=51 time=80.1 ms
64 bytes from nyc.speedtest.sbcglobal.net (99.24.18.25): icmp_seq=383 ttl=51 time=80.0 ms
64 bytes from nyc.speedtest.sbcglobal.net (99.24.18.25): icmp_seq=383 ttl=51 time=80.1 ms
64 bytes from nyc.speedtest.sbcglobal.net (99.24.18.25): icmp_seq=384 ttl=51 time=80.1 ms
64 bytes from nyc.speedtest.sbcglobal.net (99.24.18.25): icmp_seq=384 ttl=51 time=80.2 ms
64 bytes from nyc.speedtest.sbcglobal.net (99.24.18.25): icmp_seq=385 ttl=51 time=80.1 ms
64 bytes from nyc.speedtest.sbcglobal.net (99.24.18.25): icmp_seq=385 ttl=51 time=80.2 ms
64 bytes from nyc.speedtest.sbcglobal.net (99.24.18.25): icmp_seq=386 ttl=51 time=79.9 ms
64 bytes from nyc.speedtest.sbcglobal.net (99.24.18.25): icmp_seq=386 ttl=51 time=80.0 ms
64 bytes from nyc.speedtest.sbcglobal.net (99.24.18.25): icmp_seq=387 ttl=51 time=80.2 ms
64 bytes from nyc.speedtest.sbcglobal.net (99.24.18.25): icmp_seq=387 ttl=51 time=80.2 ms
64 bytes from nyc.speedtest.sbcglobal.net (99.24.18.25): icmp_seq=388 ttl=51 time=81.0 ms
64 bytes from nyc.speedtest.sbcglobal.net (99.24.18.25): icmp_seq=388 ttl=51 time=81.0 ms
64 bytes from nyc.speedtest.sbcglobal.net (99.24.18.25): icmp_seq=389 ttl=51 time=80.3 ms
64 bytes from nyc.speedtest.sbcglobal.net (99.24.18.25): icmp_seq=389 ttl=51 time=80.3 ms
64 bytes from nyc.speedtest.sbcglobal.net (99.24.18.25): icmp_seq=390 ttl=51 time=79.9 ms
64 bytes from nyc.speedtest.sbcglobal.net (99.24.18.25): icmp_seq=390 ttl=51 time=80.0 ms
64 bytes from nyc.speedtest.sbcglobal.net (99.24.18.25): icmp_seq=391 ttl=51 time=80.0 ms
64 bytes from nyc.speedtest.sbcglobal.net (99.24.18.25): icmp_seq=391 ttl=51 time=80.1 ms
64 bytes from nyc.speedtest.sbcglobal.net (99.24.18.25): icmp_seq=392 ttl=51 time=80.1 ms
64 bytes from nyc.speedtest.sbcglobal.net (99.24.18.25): icmp_seq=392 ttl=51 time=80.2 ms
64 bytes from nyc.speedtest.sbcglobal.net (99.24.18.25): icmp_seq=393 ttl=51 time=79.9 ms
64 bytes from nyc.speedtest.sbcglobal.net (99.24.18.25): icmp_seq=393 ttl=51 time=79.9 ms
64 bytes from nyc.speedtest.sbcglobal.net (99.24.18.25): icmp_seq=394 ttl=51 time=80.0 ms
64 bytes from nyc.speedtest.sbcglobal.net (99.24.18.25): icmp_seq=394 ttl=51 time=80.1 ms
64 bytes from nyc.speedtest.sbcglobal.net (99.24.18.25): icmp_seq=395 ttl=51 time=80.6 ms
64 bytes from nyc.speedtest.sbcglobal.net (99.24.18.25): icmp_seq=395 ttl=51 time=80.5 ms
64 bytes from nyc.speedtest.sbcglobal.net (99.24.18.25): icmp_seq=396 ttl=51 time=80.3 ms
64 bytes from nyc.speedtest.sbcglobal.net (99.24.18.25): icmp_seq=396 ttl=51 time=80.3 ms
64 bytes from nyc.speedtest.sbcglobal.net (99.24.18.25): icmp_seq=397 ttl=51 time=80.0 ms
64 bytes from nyc.speedtest.sbcglobal.net (99.24.18.25): icmp_seq=397 ttl=51 time=79.7 ms
64 bytes from nyc.speedtest.sbcglobal.net (99.24.18.25): icmp_seq=398 ttl=51 time=80.2 ms
64 bytes from nyc.speedtest.sbcglobal.net (99.24.18.25): icmp_seq=398 ttl=51 time=80.2 ms
64 bytes from nyc.speedtest.sbcglobal.net (99.24.18.25): icmp_seq=399 ttl=51 time=80.0 ms
64 bytes from nyc.speedtest.sbcglobal.net (99.24.18.25): icmp_seq=399 ttl=51 time=80.0 ms
64 bytes from nyc.speedtest.sbcglobal.net (99.24.18.25): icmp_seq=400 ttl=51 time=79.7 ms
64 bytes from nyc.speedtest.sbcglobal.net (99.24.18.25): icmp_seq=400 ttl=51 time=79.8 ms
64 bytes from nyc.speedtest.sbcglobal.net (99.24.18.25): icmp_seq=401 ttl=51 time=80.2 ms
64 bytes from nyc.speedtest.sbcglobal.net (99.24.18.25): icmp_seq=401 ttl=51 time=80.2 ms
64 bytes from nyc.speedtest.sbcglobal.net (99.24.18.25): icmp_seq=402 ttl=51 time=79.8 ms
64 bytes from nyc.speedtest.sbcglobal.net (99.24.18.25): icmp_seq=402 ttl=51 time=79.9 ms
64 bytes from nyc.speedtest.sbcglobal.net (99.24.18.25): icmp_seq=403 ttl=51 time=79.8 ms
64 bytes from nyc.speedtest.sbcglobal.net (99.24.18.25): icmp_seq=403 ttl=51 time=79.9 ms
64 bytes from nyc.speedtest.sbcglobal.net (99.24.18.25): icmp_seq=404 ttl=51 time=79.6 ms
64 bytes from nyc.speedtest.sbcglobal.net (99.24.18.25): icmp_seq=404 ttl=51 time=79.7 ms
64 bytes from nyc.speedtest.sbcglobal.net (99.24.18.25): icmp_seq=405 ttl=51 time=79.9 ms
64 bytes from nyc.speedtest.sbcglobal.net (99.24.18.25): icmp_seq=405 ttl=51 time=79.9 ms
64 bytes from nyc.speedtest.sbcglobal.net (99.24.18.25): icmp_seq=406 ttl=51 time=79.7 ms
64 bytes from nyc.speedtest.sbcglobal.net (99.24.18.25): icmp_seq=406 ttl=51 time=79.8 ms
64 bytes from nyc.speedtest.sbcglobal.net (99.24.18.25): icmp_seq=407 ttl=51 time=79.9 ms
64 bytes from nyc.speedtest.sbcglobal.net (99.24.18.25): icmp_seq=407 ttl=51 time=80.0 ms
64 bytes from nyc.speedtest.sbcglobal.net (99.24.18.25): icmp_seq=408 ttl=51 time=80.2 ms
64 bytes from nyc.speedtest.sbcglobal.net (99.24.18.25): icmp_seq=408 ttl=51 time=80.3 ms
64 bytes from nyc.speedtest.sbcglobal.net (99.24.18.25): icmp_seq=409 ttl=51 time=80.3 ms
64 bytes from nyc.speedtest.sbcglobal.net (99.24.18.25): icmp_seq=409 ttl=51 time=80.3 ms
64 bytes from nyc.speedtest.sbcglobal.net (99.24.18.25): icmp_seq=410 ttl=51 time=79.9 ms
64 bytes from nyc.speedtest.sbcglobal.net (99.24.18.25): icmp_seq=410 ttl=51 time=80.0 ms
64 bytes from nyc.speedtest.sbcglobal.net (99.24.18.25): icmp_seq=411 ttl=51 time=80.0 ms
64 bytes from nyc.speedtest.sbcglobal.net (99.24.18.25): icmp_seq=411 ttl=51 time=80.1 ms
64 bytes from nyc.speedtest.sbcglobal.net (99.24.18.25): icmp_seq=412 ttl=51 time=80.2 ms
64 bytes from nyc.speedtest.sbcglobal.net (99.24.18.25): icmp_seq=412 ttl=51 time=80.3 ms
64 bytes from nyc.speedtest.sbcglobal.net (99.24.18.25): icmp_seq=413 ttl=51 time=80.3 ms
64 bytes from nyc.speedtest.sbcglobal.net (99.24.18.25): icmp_seq=413 ttl=51 time=80.3 ms
64 bytes from nyc.speedtest.sbcglobal.net (99.24.18.25): icmp_seq=414 ttl=51 time=80.2 ms
64 bytes from nyc.speedtest.sbcglobal.net (99.24.18.25): icmp_seq=414 ttl=51 time=80.3 ms
64 bytes from nyc.speedtest.sbcglobal.net (99.24.18.25): icmp_seq=415 ttl=51 time=79.8 ms
64 bytes from nyc.speedtest.sbcglobal.net (99.24.18.25): icmp_seq=415 ttl=51 time=79.8 ms
64 bytes from nyc.speedtest.sbcglobal.net (99.24.18.25): icmp_seq=416 ttl=51 time=79.8 ms
64 bytes from nyc.speedtest.sbcglobal.net (99.24.18.25): icmp_seq=416 ttl=51 time=79.9 ms
64 bytes from nyc.speedtest.sbcglobal.net (99.24.18.25): icmp_seq=417 ttl=51 time=80.0 ms
64 bytes from nyc.speedtest.sbcglobal.net (99.24.18.25): icmp_seq=417 ttl=51 time=80.1 ms
64 bytes from nyc.speedtest.sbcglobal.net (99.24.18.25): icmp_seq=418 ttl=51 time=79.8 ms
64 bytes from nyc.speedtest.sbcglobal.net (99.24.18.25): icmp_seq=418 ttl=51 time=79.8 ms
64 bytes from nyc.speedtest.sbcglobal.net (99.24.18.25): icmp_seq=419 ttl=51 time=79.9 ms
64 bytes from nyc.speedtest.sbcglobal.net (99.24.18.25): icmp_seq=419 ttl=51 time=79.9 ms
64 bytes from nyc.speedtest.sbcglobal.net (99.24.18.25): icmp_seq=420 ttl=51 time=79.9 ms
64 bytes from nyc.speedtest.sbcglobal.net (99.24.18.25): icmp_seq=420 ttl=51 time=80.0 ms
64 bytes from nyc.speedtest.sbcglobal.net (99.24.18.25): icmp_seq=421 ttl=51 time=80.3 ms
64 bytes from nyc.speedtest.sbcglobal.net (99.24.18.25): icmp_seq=421 ttl=51 time=80.4 ms
64 bytes from nyc.speedtest.sbcglobal.net (99.24.18.25): icmp_seq=422 ttl=51 time=80.1 ms
64 bytes from nyc.speedtest.sbcglobal.net (99.24.18.25): icmp_seq=422 ttl=51 time=79.7 ms
64 bytes from nyc.speedtest.sbcglobal.net (99.24.18.25): icmp_seq=423 ttl=51 time=79.7 ms
64 bytes from nyc.speedtest.sbcglobal.net (99.24.18.25): icmp_seq=423 ttl=51 time=80.0 ms
64 bytes from nyc.speedtest.sbcglobal.net (99.24.18.25): icmp_seq=424 ttl=51 time=80.2 ms
64 bytes from nyc.speedtest.sbcglobal.net (99.24.18.25): icmp_seq=424 ttl=51 time=80.2 ms
64 bytes from nyc.speedtest.sbcglobal.net (99.24.18.25): icmp_seq=425 ttl=51 time=79.7 ms
64 bytes from nyc.speedtest.sbcglobal.net (99.24.18.25): icmp_seq=425 ttl=51 time=79.8 ms
64 bytes from nyc.speedtest.sbcglobal.net (99.24.18.25): icmp_seq=426 ttl=51 time=80.0 ms
64 bytes from nyc.speedtest.sbcglobal.net (99.24.18.25): icmp_seq=426 ttl=51 time=79.8 ms
64 bytes from nyc.speedtest.sbcglobal.net (99.24.18.25): icmp_seq=427 ttl=51 time=80.1 ms
64 bytes from nyc.speedtest.sbcglobal.net (99.24.18.25): icmp_seq=427 ttl=51 time=80.1 ms
64 bytes from nyc.speedtest.sbcglobal.net (99.24.18.25): icmp_seq=428 ttl=51 time=79.7 ms
64 bytes from nyc.speedtest.sbcglobal.net (99.24.18.25): icmp_seq=428 ttl=51 time=79.8 ms
64 bytes from nyc.speedtest.sbcglobal.net (99.24.18.25): icmp_seq=429 ttl=51 time=79.8 ms
64 bytes from nyc.speedtest.sbcglobal.net (99.24.18.25): icmp_seq=429 ttl=51 time=79.9 ms
64 bytes from nyc.speedtest.sbcglobal.net (99.24.18.25): icmp_seq=430 ttl=51 time=79.8 ms
64 bytes from nyc.speedtest.sbcglobal.net (99.24.18.25): icmp_seq=430 ttl=51 time=79.9 ms
64 bytes from nyc.speedtest.sbcglobal.net (99.24.18.25): icmp_seq=431 ttl=51 time=80.2 ms
64 bytes from nyc.speedtest.sbcglobal.net (99.24.18.25): icmp_seq=431 ttl=51 time=80.3 ms
64 bytes from nyc.speedtest.sbcglobal.net (99.24.18.25): icmp_seq=432 ttl=51 time=79.8 ms
64 bytes from nyc.speedtest.sbcglobal.net (99.24.18.25): icmp_seq=432 ttl=51 time=79.8 ms
64 bytes from nyc.speedtest.sbcglobal.net (99.24.18.25): icmp_seq=433 ttl=51 time=80.3 ms
64 bytes from nyc.speedtest.sbcglobal.net (99.24.18.25): icmp_seq=433 ttl=51 time=80.4 ms
64 bytes from nyc.speedtest.sbcglobal.net (99.24.18.25): icmp_seq=434 ttl=51 time=79.9 ms
64 bytes from nyc.speedtest.sbcglobal.net (99.24.18.25): icmp_seq=434 ttl=51 time=80.0 ms
64 bytes from nyc.speedtest.sbcglobal.net (99.24.18.25): icmp_seq=435 ttl=51 time=80.1 ms
64 bytes from nyc.speedtest.sbcglobal.net (99.24.18.25): icmp_seq=435 ttl=51 time=80.2 ms
64 bytes from nyc.speedtest.sbcglobal.net (99.24.18.25): icmp_seq=436 ttl=51 time=80.2 ms
64 bytes from nyc.speedtest.sbcglobal.net (99.24.18.25): icmp_seq=436 ttl=51 time=80.2 ms
64 bytes from nyc.speedtest.sbcglobal.net (99.24.18.25): icmp_seq=437 ttl=51 time=80.1 ms
64 bytes from nyc.speedtest.sbcglobal.net (99.24.18.25): icmp_seq=437 ttl=51 time=80.2 ms
64 bytes from nyc.speedtest.sbcglobal.net (99.24.18.25): icmp_seq=438 ttl=51 time=80.0 ms
64 bytes from nyc.speedtest.sbcglobal.net (99.24.18.25): icmp_seq=438 ttl=51 time=80.1 ms
64 bytes from nyc.speedtest.sbcglobal.net (99.24.18.25): icmp_seq=439 ttl=51 time=80.0 ms
64 bytes from nyc.speedtest.sbcglobal.net (99.24.18.25): icmp_seq=439 ttl=51 time=80.1 ms
64 bytes from nyc.speedtest.sbcglobal.net (99.24.18.25): icmp_seq=440 ttl=51 time=79.8 ms
64 bytes from nyc.speedtest.sbcglobal.net (99.24.18.25): icmp_seq=440 ttl=51 time=79.8 ms
64 bytes from nyc.speedtest.sbcglobal.net (99.24.18.25): icmp_seq=441 ttl=51 time=80.4 ms
64 bytes from nyc.speedtest.sbcglobal.net (99.24.18.25): icmp_seq=441 ttl=51 time=80.5 ms
64 bytes from nyc.speedtest.sbcglobal.net (99.24.18.25): icmp_seq=442 ttl=51 time=79.7 ms
64 bytes from nyc.speedtest.sbcglobal.net (99.24.18.25): icmp_seq=442 ttl=51 time=79.8 ms
64 bytes from nyc.speedtest.sbcglobal.net (99.24.18.25): icmp_seq=443 ttl=51 time=80.2 ms
64 bytes from nyc.speedtest.sbcglobal.net (99.24.18.25): icmp_seq=443 ttl=51 time=80.3 ms
64 bytes from nyc.speedtest.sbcglobal.net (99.24.18.25): icmp_seq=444 ttl=51 time=79.7 ms
64 bytes from nyc.speedtest.sbcglobal.net (99.24.18.25): icmp_seq=444 ttl=51 time=79.8 ms
64 bytes from nyc.speedtest.sbcglobal.net (99.24.18.25): icmp_seq=445 ttl=51 time=80.1 ms
64 bytes from nyc.speedtest.sbcglobal.net (99.24.18.25): icmp_seq=445 ttl=51 time=80.2 ms
64 bytes from nyc.speedtest.sbcglobal.net (99.24.18.25): icmp_seq=446 ttl=51 time=79.8 ms
64 bytes from nyc.speedtest.sbcglobal.net (99.24.18.25): icmp_seq=446 ttl=51 time=79.8 ms
64 bytes from nyc.speedtest.sbcglobal.net (99.24.18.25): icmp_seq=447 ttl=51 time=80.1 ms
64 bytes from nyc.speedtest.sbcglobal.net (99.24.18.25): icmp_seq=447 ttl=51 time=80.1 ms
64 bytes from nyc.speedtest.sbcglobal.net (99.24.18.25): icmp_seq=448 ttl=51 time=79.8 ms
64 bytes from nyc.speedtest.sbcglobal.net (99.24.18.25): icmp_seq=448 ttl=51 time=79.9 ms
64 bytes from nyc.speedtest.sbcglobal.net (99.24.18.25): icmp_seq=449 ttl=51 time=80.2 ms
64 bytes from nyc.speedtest.sbcglobal.net (99.24.18.25): icmp_seq=449 ttl=51 time=80.3 ms
64 bytes from nyc.speedtest.sbcglobal.net (99.24.18.25): icmp_seq=450 ttl=51 time=80.0 ms
64 bytes from nyc.speedtest.sbcglobal.net (99.24.18.25): icmp_seq=450 ttl=51 time=80.1 ms
64 bytes from nyc.speedtest.sbcglobal.net (99.24.18.25): icmp_seq=451 ttl=51 time=79.8 ms
64 bytes from nyc.speedtest.sbcglobal.net (99.24.18.25): icmp_seq=451 ttl=51 time=79.8 ms
64 bytes from nyc.speedtest.sbcglobal.net (99.24.18.25): icmp_seq=452 ttl=51 time=80.1 ms
64 bytes from nyc.speedtest.sbcglobal.net (99.24.18.25): icmp_seq=452 ttl=51 time=80.1 ms
64 bytes from nyc.speedtest.sbcglobal.net (99.24.18.25): icmp_seq=453 ttl=51 time=80.2 ms
64 bytes from nyc.speedtest.sbcglobal.net (99.24.18.25): icmp_seq=453 ttl=51 time=80.3 ms
64 bytes from nyc.speedtest.sbcglobal.net (99.24.18.25): icmp_seq=454 ttl=51 time=79.8 ms
64 bytes from nyc.speedtest.sbcglobal.net (99.24.18.25): icmp_seq=454 ttl=51 time=79.8 ms
64 bytes from nyc.speedtest.sbcglobal.net (99.24.18.25): icmp_seq=455 ttl=51 time=79.8 ms
64 bytes from nyc.speedtest.sbcglobal.net (99.24.18.25): icmp_seq=455 ttl=51 time=79.8 ms
64 bytes from nyc.speedtest.sbcglobal.net (99.24.18.25): icmp_seq=456 ttl=51 time=79.7 ms
64 bytes from nyc.speedtest.sbcglobal.net (99.24.18.25): icmp_seq=456 ttl=51 time=79.8 ms
64 bytes from nyc.speedtest.sbcglobal.net (99.24.18.25): icmp_seq=457 ttl=51 time=79.9 ms
64 bytes from nyc.speedtest.sbcglobal.net (99.24.18.25): icmp_seq=457 ttl=51 time=79.8 ms
64 bytes from nyc.speedtest.sbcglobal.net (99.24.18.25): icmp_seq=458 ttl=51 time=79.7 ms
64 bytes from nyc.speedtest.sbcglobal.net (99.24.18.25): icmp_seq=458 ttl=51 time=79.7 ms
64 bytes from nyc.speedtest.sbcglobal.net (99.24.18.25): icmp_seq=459 ttl=51 time=79.7 ms
64 bytes from nyc.speedtest.sbcglobal.net (99.24.18.25): icmp_seq=459 ttl=51 time=79.8 ms
64 bytes from nyc.speedtest.sbcglobal.net (99.24.18.25): icmp_seq=460 ttl=51 time=79.7 ms
64 bytes from nyc.speedtest.sbcglobal.net (99.24.18.25): icmp_seq=460 ttl=51 time=79.8 ms
64 bytes from nyc.speedtest.sbcglobal.net (99.24.18.25): icmp_seq=461 ttl=51 time=79.7 ms
64 bytes from nyc.speedtest.sbcglobal.net (99.24.18.25): icmp_seq=461 ttl=51 time=79.8 ms
64 bytes from nyc.speedtest.sbcglobal.net (99.24.18.25): icmp_seq=462 ttl=51 time=80.1 ms
64 bytes from nyc.speedtest.sbcglobal.net (99.24.18.25): icmp_seq=462 ttl=51 time=80.1 ms
64 bytes from nyc.speedtest.sbcglobal.net (99.24.18.25): icmp_seq=463 ttl=51 time=79.7 ms
64 bytes from nyc.speedtest.sbcglobal.net (99.24.18.25): icmp_seq=463 ttl=51 time=79.8 ms
64 bytes from nyc.speedtest.sbcglobal.net (99.24.18.25): icmp_seq=464 ttl=51 time=80.5 ms
64 bytes from nyc.speedtest.sbcglobal.net (99.24.18.25): icmp_seq=464 ttl=51 time=80.5 ms
64 bytes from nyc.speedtest.sbcglobal.net (99.24.18.25): icmp_seq=465 ttl=51 time=79.7 ms
64 bytes from nyc.speedtest.sbcglobal.net (99.24.18.25): icmp_seq=465 ttl=51 time=79.8 ms
64 bytes from nyc.speedtest.sbcglobal.net (99.24.18.25): icmp_seq=466 ttl=51 time=80.2 ms
64 bytes from nyc.speedtest.sbcglobal.net (99.24.18.25): icmp_seq=466 ttl=51 time=80.3 ms
64 bytes from nyc.speedtest.sbcglobal.net (99.24.18.25): icmp_seq=467 ttl=51 time=80.3 ms
64 bytes from nyc.speedtest.sbcglobal.net (99.24.18.25): icmp_seq=467 ttl=51 time=80.4 ms
64 bytes from nyc.speedtest.sbcglobal.net (99.24.18.25): icmp_seq=468 ttl=51 time=79.9 ms
64 bytes from nyc.speedtest.sbcglobal.net (99.24.18.25): icmp_seq=468 ttl=51 time=80.0 ms
64 bytes from nyc.speedtest.sbcglobal.net (99.24.18.25): icmp_seq=469 ttl=51 time=80.2 ms
64 bytes from nyc.speedtest.sbcglobal.net (99.24.18.25): icmp_seq=469 ttl=51 time=80.3 ms
64 bytes from nyc.speedtest.sbcglobal.net (99.24.18.25): icmp_seq=470 ttl=51 time=80.2 ms
64 bytes from nyc.speedtest.sbcglobal.net (99.24.18.25): icmp_seq=470 ttl=51 time=80.2 ms
64 bytes from nyc.speedtest.sbcglobal.net (99.24.18.25): icmp_seq=471 ttl=51 time=80.2 ms
64 bytes from nyc.speedtest.sbcglobal.net (99.24.18.25): icmp_seq=471 ttl=51 time=80.3 ms
64 bytes from nyc.speedtest.sbcglobal.net (99.24.18.25): icmp_seq=472 ttl=51 time=80.1 ms
64 bytes from nyc.speedtest.sbcglobal.net (99.24.18.25): icmp_seq=472 ttl=51 time=80.1 ms
64 bytes from nyc.speedtest.sbcglobal.net (99.24.18.25): icmp_seq=473 ttl=51 time=80.1 ms
64 bytes from nyc.speedtest.sbcglobal.net (99.24.18.25): icmp_seq=473 ttl=51 time=80.2 ms
64 bytes from nyc.speedtest.sbcglobal.net (99.24.18.25): icmp_seq=474 ttl=51 time=80.2 ms
64 bytes from nyc.speedtest.sbcglobal.net (99.24.18.25): icmp_seq=474 ttl=51 time=80.2 ms
64 bytes from nyc.speedtest.sbcglobal.net (99.24.18.25): icmp_seq=475 ttl=51 time=80.3 ms
64 bytes from nyc.speedtest.sbcglobal.net (99.24.18.25): icmp_seq=475 ttl=51 time=80.3 ms
64 bytes from nyc.speedtest.sbcglobal.net (99.24.18.25): icmp_seq=476 ttl=51 time=80.1 ms
64 bytes from nyc.speedtest.sbcglobal.net (99.24.18.25): icmp_seq=476 ttl=51 time=80.2 ms
64 bytes from nyc.speedtest.sbcglobal.net (99.24.18.25): icmp_seq=477 ttl=51 time=80.1 ms
64 bytes from nyc.speedtest.sbcglobal.net (99.24.18.25): icmp_seq=477 ttl=51 time=80.2 ms
64 bytes from nyc.speedtest.sbcglobal.net (99.24.18.25): icmp_seq=478 ttl=51 time=80.0 ms
64 bytes from nyc.speedtest.sbcglobal.net (99.24.18.25): icmp_seq=478 ttl=51 time=80.0 ms
64 bytes from nyc.speedtest.sbcglobal.net (99.24.18.25): icmp_seq=479 ttl=51 time=80.2 ms
64 bytes from nyc.speedtest.sbcglobal.net (99.24.18.25): icmp_seq=479 ttl=51 time=80.0 ms
64 bytes from nyc.speedtest.sbcglobal.net (99.24.18.25): icmp_seq=480 ttl=51 time=80.1 ms
64 bytes from nyc.speedtest.sbcglobal.net (99.24.18.25): icmp_seq=480 ttl=51 time=80.1 ms
64 bytes from nyc.speedtest.sbcglobal.net (99.24.18.25): icmp_seq=481 ttl=51 time=80.2 ms
64 bytes from nyc.speedtest.sbcglobal.net (99.24.18.25): icmp_seq=481 ttl=51 time=80.3 ms
64 bytes from nyc.speedtest.sbcglobal.net (99.24.18.25): icmp_seq=482 ttl=51 time=80.2 ms
64 bytes from nyc.speedtest.sbcglobal.net (99.24.18.25): icmp_seq=482 ttl=51 time=80.3 ms
64 bytes from nyc.speedtest.sbcglobal.net (99.24.18.25): icmp_seq=483 ttl=51 time=80.0 ms
64 bytes from nyc.speedtest.sbcglobal.net (99.24.18.25): icmp_seq=483 ttl=51 time=80.1 ms
64 bytes from nyc.speedtest.sbcglobal.net (99.24.18.25): icmp_seq=484 ttl=51 time=80.0 ms
64 bytes from nyc.speedtest.sbcglobal.net (99.24.18.25): icmp_seq=484 ttl=51 time=80.0 ms
64 bytes from nyc.speedtest.sbcglobal.net (99.24.18.25): icmp_seq=485 ttl=51 time=80.0 ms
64 bytes from nyc.speedtest.sbcglobal.net (99.24.18.25): icmp_seq=485 ttl=51 time=80.0 ms
64 bytes from nyc.speedtest.sbcglobal.net (99.24.18.25): icmp_seq=486 ttl=51 time=80.2 ms
64 bytes from nyc.speedtest.sbcglobal.net (99.24.18.25): icmp_seq=486 ttl=51 time=80.2 ms
64 bytes from nyc.speedtest.sbcglobal.net (99.24.18.25): icmp_seq=487 ttl=51 time=80.2 ms
64 bytes from nyc.speedtest.sbcglobal.net (99.24.18.25): icmp_seq=487 ttl=51 time=80.2 ms
64 bytes from nyc.speedtest.sbcglobal.net (99.24.18.25): icmp_seq=488 ttl=51 time=80.1 ms
64 bytes from nyc.speedtest.sbcglobal.net (99.24.18.25): icmp_seq=488 ttl=51 time=80.2 ms
64 bytes from nyc.speedtest.sbcglobal.net (99.24.18.25): icmp_seq=489 ttl=51 time=80.0 ms
64 bytes from nyc.speedtest.sbcglobal.net (99.24.18.25): icmp_seq=489 ttl=51 time=80.1 ms
64 bytes from nyc.speedtest.sbcglobal.net (99.24.18.25): icmp_seq=490 ttl=51 time=80.0 ms
64 bytes from nyc.speedtest.sbcglobal.net (99.24.18.25): icmp_seq=490 ttl=51 time=80.0 ms
64 bytes from nyc.speedtest.sbcglobal.net (99.24.18.25): icmp_seq=491 ttl=51 time=80.1 ms
64 bytes from nyc.speedtest.sbcglobal.net (99.24.18.25): icmp_seq=491 ttl=51 time=79.7 ms
64 bytes from nyc.speedtest.sbcglobal.net (99.24.18.25): icmp_seq=492 ttl=51 time=80.1 ms
64 bytes from nyc.speedtest.sbcglobal.net (99.24.18.25): icmp_seq=492 ttl=51 time=80.1 ms
64 bytes from nyc.speedtest.sbcglobal.net (99.24.18.25): icmp_seq=493 ttl=51 time=79.7 ms
64 bytes from nyc.speedtest.sbcglobal.net (99.24.18.25): icmp_seq=493 ttl=51 time=79.7 ms
64 bytes from nyc.speedtest.sbcglobal.net (99.24.18.25): icmp_seq=494 ttl=51 time=80.2 ms
64 bytes from nyc.speedtest.sbcglobal.net (99.24.18.25): icmp_seq=494 ttl=51 time=80.2 ms
64 bytes from nyc.speedtest.sbcglobal.net (99.24.18.25): icmp_seq=495 ttl=51 time=80.1 ms
64 bytes from nyc.speedtest.sbcglobal.net (99.24.18.25): icmp_seq=495 ttl=51 time=80.1 ms
64 bytes from nyc.speedtest.sbcglobal.net (99.24.18.25): icmp_seq=496 ttl=51 time=80.3 ms
64 bytes from nyc.speedtest.sbcglobal.net (99.24.18.25): icmp_seq=496 ttl=51 time=80.3 ms
64 bytes from nyc.speedtest.sbcglobal.net (99.24.18.25): icmp_seq=497 ttl=51 time=80.3 ms
64 bytes from nyc.speedtest.sbcglobal.net (99.24.18.25): icmp_seq=497 ttl=51 time=80.3 ms
64 bytes from nyc.speedtest.sbcglobal.net (99.24.18.25): icmp_seq=498 ttl=51 time=80.1 ms
64 bytes from nyc.speedtest.sbcglobal.net (99.24.18.25): icmp_seq=498 ttl=51 time=80.2 ms
64 bytes from nyc.speedtest.sbcglobal.net (99.24.18.25): icmp_seq=499 ttl=51 time=80.1 ms
64 bytes from nyc.speedtest.sbcglobal.net (99.24.18.25): icmp_seq=499 ttl=51 time=80.2 ms
64 bytes from nyc.speedtest.sbcglobal.net (99.24.18.25): icmp_seq=500 ttl=51 time=80.0 ms
64 bytes from nyc.speedtest.sbcglobal.net (99.24.18.25): icmp_seq=500 ttl=51 time=80.1 ms


--- nyc.speedtest.sbcglobal.net ping statistics ---
500 packets transmitted, 500 received, 0% packet loss, time 499696ms
rtt min/avg/max/mdev = 79.691/80.134/81.364/0.425 ms
--- nyc.speedtest.sbcglobal.net ping statistics ---
500 packets transmitted, 500 received, 0% packet loss, time 499696ms
rtt min/avg/max/mdev = 79.581/80.130/81.310/0.392 ms
