     1	1414140 
     2	1414140 
     3	1414140 
     4	1414480 
     5	1414480 
     6	1414480 
     7	1414508 
     8	1414508 
     9	1414508 
    10	1414432 
    11	1414432 
    12	1414432 
    13	1414544 
    14	1414544 
    15	1414544 
    16	1414572 
    17	1414572 
    18	1414572 
    19	1414592 
    20	1414592 
    21	1414592 
    22	1414620 
    23	1414620 
    24	1414620 
    25	1414580 
    26	1414580 
    27	1414580 
    28	1414540 
    29	1414540 
    30	1414540 
    31	1414604 
    32	1414604 
    33	1414604 
    34	1414576 
    35	1414576 
    36	1414576 
    37	1414596 
    38	1414596 
    39	1414596 
    40	1414624 
    41	1414624 
    42	1414624 
    43	1414660 
    44	1414660 
    45	1414660 
    46	1414688 
    47	1414688 
    48	1414688 
    49	1414712 
    50	1414712 
    51	1414712 
    52	1414712 
    53	1414712 
    54	1414712 
    55	1414740 
    56	1414740 
    57	1414740 
    58	1414716 
    59	1414716 
    60	1414716 
    61	1414732 
    62	1414732 
    63	1414732 
    64	1414756 
    65	1414756 
    66	1414748 
    67	1414748 
    68	1414748 
    69	1414808 
    70	1414808 
    71	1414808 
    72	1414776 
    73	1414776 
    74	1414776 
    75	1414840 
    76	1414840 
    77	1414840 
    78	1414812 
    79	1414812 
    80	1414812 
    81	1414864 
    82	1414864 
    83	1414864 
    84	1414868 
    85	1414868 
    86	1414868 
    87	1414884 
    88	1414884 
    89	1414884 
    90	1414884 
    91	1414884 
    92	1414884 
    93	1414916 
    94	1414916 
    95	1414916 
    96	1414904 
    97	1414904 
    98	1414904 
    99	1414940 
   100	1414940 
   101	1414940 
   102	1414972 
   103	1414972 
   104	1414972 
   105	1414996 
   106	1414996 
   107	1414996 
   108	1414992 
   109	1414992 
   110	1414992 
   111	1415052 
   112	1415052 
   113	1415052 
   114	1415016 
   115	1415016 
   116	1415016 
   117	1415016 
   118	1415016 
   119	1415016 
   120	1415076 
   121	1415076 
   122	1415076 
   123	1415108 
   124	1415108 
   125	1415108 
   126	1415068 
   127	1415068 
   128	1415068 
   129	1415068 
   130	1415068 
   131	1415068 
   132	1415096 
   133	1415096 
   134	1415096 
   135	1415152 
   136	1415152 
   137	1415152 
   138	1415148 
   139	1415148 
   140	1415148 
   141	1415020 
   142	1415020 
   143	1415020 
   144	1415052 
   145	1415052 
   146	1415052 
   147	1415072 
   148	1415072 
   149	1415072 
   150	1415080 
   151	1415080 
   152	1415080 
   153	1415120 
   154	1415120 
   155	1415120 
   156	1415112 
   157	1415112 
   158	1415112 
   159	1412284 
   160	1412284 
   161	1412284 
   162	1412156 
   163	1412156 
   164	1412156 
   165	1412196 
   166	1412196 
   167	1412196 
   168	1412224 
   169	1412224 
   170	1412224 
   171	1412216 
   172	1412216 
   173	1412216 
   174	1412244 
   175	1412244 
   176	1412244 
   177	1412284 
   178	1412284 
   179	1412284 
   180	1412272 
   181	1412272 
   182	1412272 
   183	1412280 
   184	1412280 
   185	1412280 
   186	1386376 
   187	1386376 
   188	1386376 
   189	1386416 
   190	1386416 
   191	1386416 
   192	1386436 
   193	1386436 
   194	1386436 
   195	1386440 
   196	1386440 
   197	1386440 
   198	1386428 
   199	1386428 
   200	1386428 
   201	1386464 
   202	1386464 
   203	1386464 
   204	1386488 
   205	1386488 
   206	1386488 
   207	1386492 
   208	1386492 
   209	1386492 
   210	1386512 
   211	1386512 
   212	1386512 
   213	1386540 
   214	1386540 
   215	1386540 
   216	1386544 
   217	1386544 
   218	1386572 
   219	1386572 
   220	1386572 
   221	1386560 
   222	1386560 
   223	1386560 
   224	1386716 
   225	1386716 
   226	1386716 
   227	1386584 
   228	1386584 
   229	1386584 
   230	1386628 
   231	1386628 
   232	1386628 
   233	1386612 
   234	1386612 
   235	1386612 
   236	1386616 
   237	1386616 
   238	1386616 
   239	1386636 
   240	1386636 
   241	1386636 
   242	1386664 
   243	1386664 
   244	1386664 
   245	1386660 
   246	1386660 
   247	1386660 
   248	1386668 
   249	1386668 
   250	1386668 
   251	1386852 
   252	1386852 
   253	1386852 
   254	1386840 
   255	1386840 
   256	1386840 
   257	1386884 
   258	1386884 
   259	1386884 
   260	1386892 
   261	1386892 
   262	1386892 
   263	1386948 
   264	1386948 
   265	1386948 
   266	1386944 
   267	1386944 
   268	1386944 
   269	1386996 
   270	1386996 
   271	1386996 
   272	1386996 
   273	1386996 
   274	1386996 
   275	1387008 
   276	1387008 
   277	1387008 
   278	1387060 
   279	1387060 
   280	1387060 
   281	1387056 
   282	1387056 
   283	1387056 
   284	1387084 
   285	1387084 
   286	1387084 
   287	1387080 
   288	1387080 
   289	1387080 
   290	1387076 
   291	1387076 
   292	1387108 
   293	1387108 
   294	1387108 
   295	1387108 
   296	1387108 
   297	1387108 
   298	1387136 
   299	1387136 
   300	1387136 
   301	1387164 
   302	1387164 
   303	1387164 
   304	1387192 
   305	1387192 
   306	1387192 
   307	1381004 
   308	1381004 
   309	1381004 
   310	1380872 
   311	1380872 
   312	1380872 
   313	1380904 
   314	1380904 
   315	1380904 
   316	1380932 
   317	1380932 
   318	1380932 
   319	1380932 
   320	1380932 
   321	1380932 
   322	1380964 
   323	1380964 
   324	1380964 
   325	1380952 
   326	1380952 
   327	1380952 
   328	1380984 
   329	1380984 
   330	1380984 
   331	1381016 
   332	1381016 
   333	1381016 
   334	1367132 
   335	1367132 
   336	1367132 
   337	1367152 
   338	1367152 
   339	1367152 
   340	1367156 
   341	1367156 
   342	1367156 
   343	1367176 
   344	1367176 
   345	1367176 
   346	1367216 
   347	1367216 
   348	1367216 
   349	1367204 
   350	1367204 
   351	1367204 
   352	1367240 
   353	1367240 
   354	1367240 
   355	1367228 
   356	1367228 
   357	1367228 
   358	1367264 
   359	1367264 
   360	1367264 
   361	1367288 
   362	1367288 
   363	1367288 
   364	1367284 
   365	1367284 
   366	1367276 
   367	1367276 
   368	1367276 
   369	1367332 
   370	1367332 
   371	1367332 
   372	1367336 
   373	1367336 
   374	1367336 
   375	1367364 
   376	1367364 
   377	1367364 
   378	1367364 
   379	1367364 
   380	1367364 
   381	1367388 
   382	1367388 
   383	1367388 
   384	1367420 
   385	1367420 
   386	1367420 
   387	1367416 
   388	1367416 
   389	1367416 
   390	1367416 
   391	1367416 
   392	1367416 
   393	1367480 
   394	1367480 
   395	1367480 
   396	1367468 
   397	1367468 
   398	1367468 
   399	1367480 
   400	1367480 
   401	1367480 
   402	1367508 
   403	1367508 
   404	1367508 
   405	1367532 
   406	1367532 
   407	1367532 
   408	1367516 
   409	1367516 
   410	1367516 
   411	1367560 
   412	1367560 
   413	1367560 
   414	1367540 
   415	1367540 
   416	1367540 
   417	1367568 
   418	1367568 
   419	1367568 
   420	1367596 
   421	1367596 
   422	1367596 
   423	1367612 
   424	1367612 
   425	1367612 
   426	1367620 
   427	1367620 
   428	1367620 
   429	1367664 
   430	1367664 
   431	1367664 
   432	1367664 
   433	1367664 
   434	1367664 
   435	1367660 
   436	1367660 
   437	1367660 
   438	1367672 
   439	1367672 
   440	1367824 
   441	1367824 
   442	1367824 
   443	1367840 
   444	1367840 
   445	1367840 
   446	1367856 
   447	1367856 
   448	1367856 
   449	1367860 
   450	1367860 
   451	1367860 
   452	1367856 
   453	1367856 
   454	1367856 
   455	1367760 
   456	1367760 
   457	1367760 
   458	1367792 
   459	1367792 
   460	1367792 
   461	1367792 
   462	1367792 
   463	1367792 
   464	1367816 
   465	1367816 
   466	1367816 
   467	1367816 
   468	1367816 
   469	1367816 
   470	1367840 
   471	1367840 
   472	1367840 
   473	1367872 
   474	1367872 
   475	1367872 
   476	1367792 
   477	1367792 
   478	1367792 
   479	1384984 
   480	1384984 
   481	1384984 
   482	1401800 
   483	1401800 
   484	1401800 
   485	1385416 
   486	1385416 
   487	1385416 
   488	1385392 
   489	1385392 
   490	1385392 
   491	1385476 
   492	1385476 
   493	1385476 
   494	1385492 
