25 packets transmitted, 11 received, 56% packet loss, time 24481ms
25 packets transmitted, 14 received, 44% packet loss, time 24481ms
25 packets transmitted, 7 received, 72% packet loss, time 24514ms
25 packets transmitted, 3 received, 88% packet loss, time 24546ms
25 packets transmitted, 6 received, 76% packet loss, time 24548ms
25 packets transmitted, 9 received, 64% packet loss, time 24549ms
25 packets transmitted, 3 received, 88% packet loss, time 24546ms
25 packets transmitted, 3 received, 88% packet loss, time 24547ms
25 packets transmitted, 2 received, 92% packet loss, time 24546ms
25 packets transmitted, 4 received, 84% packet loss, time 24547ms
25 packets transmitted, 1 received, 96% packet loss, time 24548ms
25 packets transmitted, 1 received, 96% packet loss, time 24546ms
25 packets transmitted, 2 received, 92% packet loss, time 24545ms
25 packets transmitted, 6 received, 76% packet loss, time 24544ms
25 packets transmitted, 2 received, 92% packet loss, time 24545ms
25 packets transmitted, 6 received, 76% packet loss, time 24545ms
25 packets transmitted, 3 received, 88% packet loss, time 24544ms
25 packets transmitted, 1 received, 96% packet loss, time 24547ms
25 packets transmitted, 1 received, 96% packet loss, time 24544ms
25 packets transmitted, 4 received, 84% packet loss, time 24548ms
25 packets transmitted, 5 received, 80% packet loss, time 24550ms
25 packets transmitted, 2 received, 92% packet loss, time 24546ms
25 packets transmitted, 3 received, 88% packet loss, time 24545ms
25 packets transmitted, 4 received, 84% packet loss, time 24548ms
25 packets transmitted, 2 received, 92% packet loss, time 24545ms
25 packets transmitted, 1 received, 96% packet loss, time 24548ms
25 packets transmitted, 6 received, 76% packet loss, time 24549ms
25 packets transmitted, 1 received, 96% packet loss, time 24545ms
25 packets transmitted, 4 received, 84% packet loss, time 24546ms
25 packets transmitted, 3 received, 88% packet loss, time 24581ms
25 packets transmitted, 1 received, 96% packet loss, time 24581ms
25 packets transmitted, 2 received, 92% packet loss, time 24577ms
25 packets transmitted, 1 received, 96% packet loss, time 24581ms
25 packets transmitted, 1 received, 96% packet loss, time 24581ms
25 packets transmitted, 1 received, 96% packet loss, time 24580ms
25 packets transmitted, 1 received, 96% packet loss, time 24576ms
25 packets transmitted, 3 received, 88% packet loss, time 24579ms
25 packets transmitted, 1 received, 96% packet loss, time 24547ms
25 packets transmitted, 0 received, 100% packet loss, time 24580ms
25 packets transmitted, 0 received, 100% packet loss, time 24579ms
