     1	287 
     2	288 
     3	314 
     4	394 
     5	422 
     6	413 
     7	406 
     8	401 
     9	389 
    10	381 
    11	377 
    12	369 
    13	365 
    14	361 
    15	357 
    16	353 
    17	349 
    18	399 
    19	477 
    20	474 
    21	467 
    22	458 
    23	454 
    24	449 
    25	443 
    26	439 
    27	435 
    28	431 
    29	418 
    30	408 
    31	401 
    32	392 
    33	383 
    34	375 
    35	370 
    36	367 
    37	364 
    38	361 
    39	358 
    40	355 
    41	352 
    42	352 
    43	345 
    44	340 
    45	334 
    46	328 
    47	325 
    48	331 
    49	316 
    50	312 
    51	308 
    52	306 
    53	302 
    54	301 
    55	296 
    56	293 
