Attaching to softwareoverhead_ping_2, softwareoverhead_ping_1, softwareoverhead_ping_4, softwareoverhead_ping_6, softwareoverhead_ping_10, softwareoverhead_ping_3, softwareoverhead_ping_9, softwareoverhead_ping_8, softwareoverhead_ping_7, softwareoverhead_ping_5
ping_2  | PING csl2.hkspeedtest.com (203.210.4.91): 56 data bytes
ping_2  | 64 bytes from 203.210.4.91: seq=0 ttl=51 time=184.359 ms
ping_2  | 64 bytes from 203.210.4.91: seq=1 ttl=51 time=184.825 ms
ping_2  | 64 bytes from 203.210.4.91: seq=2 ttl=51 time=184.318 ms
ping_6  | PING csl2.hkspeedtest.com (203.210.4.91): 56 data bytes
ping_6  | 64 bytes from 203.210.4.91: seq=0 ttl=51 time=184.102 ms
ping_2  | 64 bytes from 203.210.4.91: seq=3 ttl=51 time=183.690 ms
ping_4  | PING csl2.hkspeedtest.com (203.210.4.91): 56 data bytes
ping_2  | 64 bytes from 203.210.4.91: seq=4 ttl=51 time=184.099 ms
ping_10 | PING csl2.hkspeedtest.com (203.210.4.91): 56 data bytes
ping_1  | PING csl2.hkspeedtest.com (203.210.4.91): 56 data bytes
ping_2  | 64 bytes from 203.210.4.91: seq=5 ttl=51 time=186.626 ms
ping_3  | PING csl2.hkspeedtest.com (203.210.4.91): 56 data bytes
ping_6  | 64 bytes from 203.210.4.91: seq=1 ttl=51 time=182.750 ms
ping_2  | 64 bytes from 203.210.4.91: seq=6 ttl=51 time=175.365 ms
ping_10 | 64 bytes from 203.210.4.91: seq=0 ttl=51 time=185.250 ms
ping_6  | 64 bytes from 203.210.4.91: seq=2 ttl=51 time=181.743 ms
ping_9  | PING csl2.hkspeedtest.com (203.210.4.91): 56 data bytes
ping_9  | 64 bytes from 203.210.4.91: seq=0 ttl=51 time=186.581 ms
ping_10 | 64 bytes from 203.210.4.91: seq=1 ttl=51 time=184.541 ms
ping_1  | 64 bytes from 203.210.4.91: seq=0 ttl=51 time=184.551 ms
ping_4  | 64 bytes from 203.210.4.91: seq=0 ttl=51 time=183.318 ms
ping_10 | 64 bytes from 203.210.4.91: seq=2 ttl=51 time=185.478 ms
ping_6  | 64 bytes from 203.210.4.91: seq=3 ttl=51 time=183.926 ms
ping_1  | 64 bytes from 203.210.4.91: seq=1 ttl=51 time=184.473 ms
ping_9  | 64 bytes from 203.210.4.91: seq=1 ttl=51 time=184.288 ms
ping_3  | 64 bytes from 203.210.4.91: seq=0 ttl=51 time=185.224 ms
ping_1  | 64 bytes from 203.210.4.91: seq=2 ttl=51 time=184.650 ms
ping_6  | 64 bytes from 203.210.4.91: seq=4 ttl=51 time=185.218 ms
ping_9  | 64 bytes from 203.210.4.91: seq=2 ttl=51 time=182.804 ms
ping_10 | 64 bytes from 203.210.4.91: seq=3 ttl=51 time=183.900 ms
ping_1  | 64 bytes from 203.210.4.91: seq=3 ttl=51 time=185.511 ms
ping_6  | 64 bytes from 203.210.4.91: seq=5 ttl=51 time=185.088 ms
ping_3  | 64 bytes from 203.210.4.91: seq=1 ttl=51 time=186.318 ms
ping_2  | 64 bytes from 203.210.4.91: seq=7 ttl=51 time=180.203 ms
ping_1  | 64 bytes from 203.210.4.91: seq=4 ttl=51 time=185.770 ms
ping_8  | PING csl2.hkspeedtest.com (203.210.4.91): 56 data bytes
ping_10 | 64 bytes from 203.210.4.91: seq=4 ttl=51 time=182.581 ms
ping_3  | 64 bytes from 203.210.4.91: seq=2 ttl=51 time=185.128 ms
ping_1  | 64 bytes from 203.210.4.91: seq=5 ttl=51 time=176.312 ms
ping_1  | 64 bytes from 203.210.4.91: seq=6 ttl=51 time=180.809 ms
ping_2  | 64 bytes from 203.210.4.91: seq=8 ttl=51 time=181.086 ms
ping_8  | 64 bytes from 203.210.4.91: seq=0 ttl=51 time=192.245 ms
ping_2  | 64 bytes from 203.210.4.91: seq=9 ttl=51 time=185.062 ms
ping_1  | 64 bytes from 203.210.4.91: seq=7 ttl=51 time=181.430 ms
ping_7  | PING csl2.hkspeedtest.com (203.210.4.91): 56 data bytes
ping_4  | 64 bytes from 203.210.4.91: seq=1 ttl=51 time=186.144 ms
ping_3  | 64 bytes from 203.210.4.91: seq=3 ttl=51 time=185.666 ms
ping_1  | 64 bytes from 203.210.4.91: seq=8 ttl=51 time=185.179 ms
ping_5  | PING csl2.hkspeedtest.com (203.210.4.91): 56 data bytes
ping_7  | 64 bytes from 203.210.4.91: seq=0 ttl=51 time=184.412 ms
ping_4  | 64 bytes from 203.210.4.91: seq=2 ttl=51 time=183.905 ms
ping_4  | 64 bytes from 203.210.4.91: seq=3 ttl=51 time=185.771 ms
ping_8  | 64 bytes from 203.210.4.91: seq=1 ttl=51 time=185.602 ms
ping_4  | 64 bytes from 203.210.4.91: seq=4 ttl=51 time=185.933 ms
ping_4  | 64 bytes from 203.210.4.91: seq=5 ttl=51 time=186.131 ms
ping_4  | 64 bytes from 203.210.4.91: seq=6 ttl=51 time=183.493 ms
ping_5  | 64 bytes from 203.210.4.91: seq=0 ttl=51 time=183.385 ms
ping_9  | 64 bytes from 203.210.4.91: seq=3 ttl=51 time=185.280 ms
ping_10 | 64 bytes from 203.210.4.91: seq=5 ttl=51 time=184.681 ms
ping_4  | 64 bytes from 203.210.4.91: seq=7 ttl=51 time=185.058 ms
ping_3  | 64 bytes from 203.210.4.91: seq=4 ttl=51 time=181.755 ms
ping_8  | 64 bytes from 203.210.4.91: seq=2 ttl=51 time=182.703 ms
ping_7  | 64 bytes from 203.210.4.91: seq=1 ttl=51 time=182.448 ms
ping_6  | 64 bytes from 203.210.4.91: seq=6 ttl=51 time=185.046 ms
ping_2  | 64 bytes from 203.210.4.91: seq=10 ttl=51 time=186.260 ms
ping_1  | 64 bytes from 203.210.4.91: seq=9 ttl=51 time=185.910 ms
ping_5  | 64 bytes from 203.210.4.91: seq=1 ttl=51 time=180.494 ms
ping_9  | 64 bytes from 203.210.4.91: seq=4 ttl=51 time=181.758 ms
ping_10 | 64 bytes from 203.210.4.91: seq=6 ttl=51 time=181.831 ms
ping_4  | 64 bytes from 203.210.4.91: seq=8 ttl=51 time=182.424 ms
ping_3  | 64 bytes from 203.210.4.91: seq=5 ttl=51 time=185.681 ms
ping_8  | 64 bytes from 203.210.4.91: seq=3 ttl=51 time=184.912 ms
ping_7  | 64 bytes from 203.210.4.91: seq=2 ttl=51 time=185.460 ms
ping_6  | 64 bytes from 203.210.4.91: seq=7 ttl=51 time=185.659 ms
ping_2  | 64 bytes from 203.210.4.91: seq=11 ttl=51 time=186.005 ms
ping_1  | 64 bytes from 203.210.4.91: seq=10 ttl=51 time=185.436 ms
ping_5  | 64 bytes from 203.210.4.91: seq=2 ttl=51 time=185.337 ms
ping_9  | 64 bytes from 203.210.4.91: seq=5 ttl=51 time=184.090 ms
ping_10 | 64 bytes from 203.210.4.91: seq=7 ttl=51 time=184.529 ms
ping_4  | 64 bytes from 203.210.4.91: seq=9 ttl=51 time=185.342 ms
ping_3  | 64 bytes from 203.210.4.91: seq=6 ttl=51 time=183.166 ms
ping_8  | 64 bytes from 203.210.4.91: seq=4 ttl=51 time=184.217 ms
ping_7  | 64 bytes from 203.210.4.91: seq=3 ttl=51 time=185.567 ms
ping_6  | 64 bytes from 203.210.4.91: seq=8 ttl=51 time=185.356 ms
ping_2  | 64 bytes from 203.210.4.91: seq=12 ttl=51 time=182.450 ms
ping_1  | 64 bytes from 203.210.4.91: seq=11 ttl=51 time=182.576 ms
ping_5  | 64 bytes from 203.210.4.91: seq=3 ttl=51 time=183.739 ms
ping_9  | 64 bytes from 203.210.4.91: seq=6 ttl=51 time=183.923 ms
ping_10 | 64 bytes from 203.210.4.91: seq=8 ttl=51 time=184.916 ms
ping_4  | 64 bytes from 203.210.4.91: seq=10 ttl=51 time=185.433 ms
ping_3  | 64 bytes from 203.210.4.91: seq=7 ttl=51 time=185.307 ms
ping_8  | 64 bytes from 203.210.4.91: seq=5 ttl=51 time=184.528 ms
ping_7  | 64 bytes from 203.210.4.91: seq=4 ttl=51 time=185.569 ms
ping_6  | 64 bytes from 203.210.4.91: seq=9 ttl=51 time=184.560 ms
ping_2  | 64 bytes from 203.210.4.91: seq=13 ttl=51 time=178.074 ms
ping_1  | 64 bytes from 203.210.4.91: seq=12 ttl=51 time=178.279 ms
ping_5  | 64 bytes from 203.210.4.91: seq=4 ttl=51 time=185.920 ms
ping_9  | 64 bytes from 203.210.4.91: seq=7 ttl=51 time=185.068 ms
ping_10 | 64 bytes from 203.210.4.91: seq=9 ttl=51 time=185.256 ms
ping_4  | 64 bytes from 203.210.4.91: seq=11 ttl=51 time=185.610 ms
ping_3  | 64 bytes from 203.210.4.91: seq=8 ttl=51 time=185.826 ms
ping_8  | 64 bytes from 203.210.4.91: seq=6 ttl=51 time=184.839 ms
ping_7  | 64 bytes from 203.210.4.91: seq=5 ttl=51 time=185.114 ms
ping_6  | 64 bytes from 203.210.4.91: seq=10 ttl=51 time=183.633 ms
ping_2  | 64 bytes from 203.210.4.91: seq=14 ttl=51 time=185.857 ms
ping_1  | 64 bytes from 203.210.4.91: seq=13 ttl=51 time=185.916 ms
ping_5  | 64 bytes from 203.210.4.91: seq=5 ttl=51 time=185.354 ms
ping_9  | 64 bytes from 203.210.4.91: seq=8 ttl=51 time=182.780 ms
ping_10 | 64 bytes from 203.210.4.91: seq=10 ttl=51 time=182.653 ms
ping_4  | 64 bytes from 203.210.4.91: seq=12 ttl=51 time=184.992 ms
ping_3  | 64 bytes from 203.210.4.91: seq=9 ttl=51 time=180.750 ms
ping_8  | 64 bytes from 203.210.4.91: seq=7 ttl=51 time=177.911 ms
ping_7  | 64 bytes from 203.210.4.91: seq=6 ttl=51 time=176.866 ms
ping_6  | 64 bytes from 203.210.4.91: seq=11 ttl=51 time=174.797 ms
ping_2  | 64 bytes from 203.210.4.91: seq=15 ttl=51 time=167.747 ms
ping_1  | 64 bytes from 203.210.4.91: seq=14 ttl=51 time=168.064 ms
ping_5  | 64 bytes from 203.210.4.91: seq=6 ttl=51 time=170.301 ms
ping_9  | 64 bytes from 203.210.4.91: seq=9 ttl=51 time=167.735 ms
ping_10 | 64 bytes from 203.210.4.91: seq=11 ttl=51 time=167.738 ms
ping_4  | 64 bytes from 203.210.4.91: seq=13 ttl=51 time=169.728 ms
ping_3  | 64 bytes from 203.210.4.91: seq=10 ttl=51 time=170.784 ms
ping_8  | 64 bytes from 203.210.4.91: seq=8 ttl=51 time=170.369 ms
ping_7  | 64 bytes from 203.210.4.91: seq=7 ttl=51 time=170.220 ms
ping_6  | 64 bytes from 203.210.4.91: seq=12 ttl=51 time=169.402 ms
ping_2  | 64 bytes from 203.210.4.91: seq=16 ttl=51 time=167.837 ms
ping_1  | 64 bytes from 203.210.4.91: seq=15 ttl=51 time=173.616 ms
ping_5  | 64 bytes from 203.210.4.91: seq=7 ttl=51 time=171.387 ms
ping_9  | 64 bytes from 203.210.4.91: seq=10 ttl=51 time=169.627 ms
ping_10 | 64 bytes from 203.210.4.91: seq=12 ttl=51 time=168.618 ms
ping_4  | 64 bytes from 203.210.4.91: seq=14 ttl=51 time=167.740 ms
ping_3  | 64 bytes from 203.210.4.91: seq=11 ttl=51 time=171.195 ms
ping_8  | 64 bytes from 203.210.4.91: seq=9 ttl=51 time=173.285 ms
ping_7  | 64 bytes from 203.210.4.91: seq=8 ttl=51 time=172.955 ms
ping_6  | 64 bytes from 203.210.4.91: seq=13 ttl=51 time=173.451 ms
ping_2  | 64 bytes from 203.210.4.91: seq=17 ttl=51 time=182.450 ms
ping_1  | 64 bytes from 203.210.4.91: seq=16 ttl=51 time=184.261 ms
ping_5  | 64 bytes from 203.210.4.91: seq=8 ttl=51 time=185.108 ms
ping_9  | 64 bytes from 203.210.4.91: seq=11 ttl=51 time=185.167 ms
ping_10 | 64 bytes from 203.210.4.91: seq=13 ttl=51 time=185.421 ms
ping_4  | 64 bytes from 203.210.4.91: seq=15 ttl=51 time=185.581 ms
ping_3  | 64 bytes from 203.210.4.91: seq=12 ttl=51 time=185.850 ms
ping_8  | 64 bytes from 203.210.4.91: seq=10 ttl=51 time=182.817 ms
ping_7  | 64 bytes from 203.210.4.91: seq=9 ttl=51 time=183.409 ms
ping_6  | 64 bytes from 203.210.4.91: seq=14 ttl=51 time=184.980 ms
ping_2  | 64 bytes from 203.210.4.91: seq=18 ttl=51 time=182.544 ms
ping_1  | 64 bytes from 203.210.4.91: seq=17 ttl=51 time=182.127 ms
ping_5  | 64 bytes from 203.210.4.91: seq=9 ttl=51 time=182.661 ms
ping_9  | 64 bytes from 203.210.4.91: seq=12 ttl=51 time=181.506 ms
ping_10 | 64 bytes from 203.210.4.91: seq=14 ttl=51 time=180.995 ms
ping_4  | 64 bytes from 203.210.4.91: seq=16 ttl=51 time=181.584 ms
ping_3  | 64 bytes from 203.210.4.91: seq=13 ttl=51 time=184.955 ms
ping_8  | 64 bytes from 203.210.4.91: seq=11 ttl=51 time=185.553 ms
ping_7  | 64 bytes from 203.210.4.91: seq=10 ttl=51 time=184.675 ms
ping_6  | 64 bytes from 203.210.4.91: seq=15 ttl=51 time=185.092 ms
ping_2  | 64 bytes from 203.210.4.91: seq=19 ttl=51 time=178.610 ms
ping_1  | 64 bytes from 203.210.4.91: seq=18 ttl=51 time=177.485 ms
ping_5  | 64 bytes from 203.210.4.91: seq=10 ttl=51 time=176.609 ms
ping_9  | 64 bytes from 203.210.4.91: seq=13 ttl=51 time=173.951 ms
ping_10 | 64 bytes from 203.210.4.91: seq=15 ttl=51 time=172.846 ms
ping_4  | 64 bytes from 203.210.4.91: seq=17 ttl=51 time=168.746 ms
ping_3  | 64 bytes from 203.210.4.91: seq=14 ttl=51 time=168.461 ms
ping_8  | 64 bytes from 203.210.4.91: seq=12 ttl=51 time=169.142 ms
ping_7  | 64 bytes from 203.210.4.91: seq=11 ttl=51 time=169.023 ms
ping_6  | 64 bytes from 203.210.4.91: seq=16 ttl=51 time=167.974 ms
ping_2  | 64 bytes from 203.210.4.91: seq=20 ttl=51 time=168.433 ms
ping_1  | 64 bytes from 203.210.4.91: seq=19 ttl=51 time=167.140 ms
ping_5  | 64 bytes from 203.210.4.91: seq=11 ttl=51 time=167.621 ms
ping_9  | 64 bytes from 203.210.4.91: seq=14 ttl=51 time=168.066 ms
ping_10 | 64 bytes from 203.210.4.91: seq=16 ttl=51 time=167.454 ms
ping_4  | 64 bytes from 203.210.4.91: seq=18 ttl=51 time=169.446 ms
ping_3  | 64 bytes from 203.210.4.91: seq=15 ttl=51 time=169.300 ms
ping_8  | 64 bytes from 203.210.4.91: seq=13 ttl=51 time=167.541 ms
ping_7  | 64 bytes from 203.210.4.91: seq=12 ttl=51 time=168.155 ms
ping_6  | 64 bytes from 203.210.4.91: seq=17 ttl=51 time=167.549 ms
ping_2  | 64 bytes from 203.210.4.91: seq=21 ttl=51 time=168.816 ms
ping_1  | 64 bytes from 203.210.4.91: seq=20 ttl=51 time=169.656 ms
ping_5  | 64 bytes from 203.210.4.91: seq=12 ttl=51 time=168.428 ms
ping_9  | 64 bytes from 203.210.4.91: seq=15 ttl=51 time=169.264 ms
ping_10 | 64 bytes from 203.210.4.91: seq=17 ttl=51 time=168.365 ms
ping_4  | 64 bytes from 203.210.4.91: seq=19 ttl=51 time=170.793 ms
ping_3  | 64 bytes from 203.210.4.91: seq=16 ttl=51 time=173.400 ms
ping_8  | 64 bytes from 203.210.4.91: seq=14 ttl=51 time=172.565 ms
ping_7  | 64 bytes from 203.210.4.91: seq=13 ttl=51 time=172.513 ms
ping_6  | 64 bytes from 203.210.4.91: seq=18 ttl=51 time=173.630 ms
ping_2  | 64 bytes from 203.210.4.91: seq=22 ttl=51 time=174.589 ms
ping_1  | 64 bytes from 203.210.4.91: seq=21 ttl=51 time=176.395 ms
ping_5  | 64 bytes from 203.210.4.91: seq=13 ttl=51 time=179.095 ms
ping_9  | 64 bytes from 203.210.4.91: seq=16 ttl=51 time=176.902 ms
ping_10 | 64 bytes from 203.210.4.91: seq=18 ttl=51 time=177.185 ms
ping_4  | 64 bytes from 203.210.4.91: seq=20 ttl=51 time=177.889 ms
ping_3  | 64 bytes from 203.210.4.91: seq=17 ttl=51 time=176.480 ms
ping_8  | 64 bytes from 203.210.4.91: seq=15 ttl=51 time=176.976 ms
ping_7  | 64 bytes from 203.210.4.91: seq=14 ttl=51 time=178.361 ms
ping_6  | 64 bytes from 203.210.4.91: seq=19 ttl=51 time=178.553 ms
ping_2  | 64 bytes from 203.210.4.91: seq=23 ttl=51 time=178.799 ms
ping_1  | 64 bytes from 203.210.4.91: seq=22 ttl=51 time=182.787 ms
ping_5  | 64 bytes from 203.210.4.91: seq=14 ttl=51 time=185.650 ms
ping_9  | 64 bytes from 203.210.4.91: seq=17 ttl=51 time=183.296 ms
ping_10 | 64 bytes from 203.210.4.91: seq=19 ttl=51 time=183.696 ms
ping_4  | 64 bytes from 203.210.4.91: seq=21 ttl=51 time=181.803 ms
ping_3  | 64 bytes from 203.210.4.91: seq=18 ttl=51 time=176.657 ms
ping_8  | 64 bytes from 203.210.4.91: seq=16 ttl=51 time=174.637 ms
ping_7  | 64 bytes from 203.210.4.91: seq=15 ttl=51 time=172.937 ms
ping_6  | 64 bytes from 203.210.4.91: seq=20 ttl=51 time=171.421 ms
ping_2  | 64 bytes from 203.210.4.91: seq=24 ttl=51 time=173.981 ms
ping_1  | 64 bytes from 203.210.4.91: seq=23 ttl=51 time=173.673 ms
ping_5  | 64 bytes from 203.210.4.91: seq=15 ttl=51 time=184.373 ms
ping_9  | 64 bytes from 203.210.4.91: seq=18 ttl=51 time=185.211 ms
ping_10 | 64 bytes from 203.210.4.91: seq=20 ttl=51 time=185.667 ms
ping_4  | 64 bytes from 203.210.4.91: seq=22 ttl=51 time=185.492 ms
ping_3  | 64 bytes from 203.210.4.91: seq=19 ttl=51 time=184.882 ms
ping_8  | 64 bytes from 203.210.4.91: seq=17 ttl=51 time=183.774 ms
ping_7  | 64 bytes from 203.210.4.91: seq=16 ttl=51 time=183.084 ms
ping_6  | 64 bytes from 203.210.4.91: seq=21 ttl=51 time=181.806 ms
ping_2  | 64 bytes from 203.210.4.91: seq=25 ttl=51 time=176.985 ms
ping_1  | 64 bytes from 203.210.4.91: seq=24 ttl=51 time=176.857 ms
ping_5  | 64 bytes from 203.210.4.91: seq=16 ttl=51 time=178.987 ms
ping_9  | 64 bytes from 203.210.4.91: seq=19 ttl=51 time=183.683 ms
ping_10 | 64 bytes from 203.210.4.91: seq=21 ttl=51 time=183.141 ms
ping_4  | 64 bytes from 203.210.4.91: seq=23 ttl=51 time=183.890 ms
ping_3  | 64 bytes from 203.210.4.91: seq=20 ttl=51 time=185.756 ms
ping_8  | 64 bytes from 203.210.4.91: seq=18 ttl=51 time=186.220 ms
ping_7  | 64 bytes from 203.210.4.91: seq=17 ttl=51 time=185.214 ms
ping_6  | 64 bytes from 203.210.4.91: seq=22 ttl=51 time=185.018 ms
ping_2  | 64 bytes from 203.210.4.91: seq=26 ttl=51 time=178.875 ms
ping_1  | 64 bytes from 203.210.4.91: seq=25 ttl=51 time=178.495 ms
ping_5  | 64 bytes from 203.210.4.91: seq=17 ttl=51 time=181.839 ms
ping_9  | 64 bytes from 203.210.4.91: seq=20 ttl=51 time=184.634 ms
ping_10 | 64 bytes from 203.210.4.91: seq=22 ttl=51 time=183.965 ms
ping_4  | 64 bytes from 203.210.4.91: seq=24 ttl=51 time=186.008 ms
ping_3  | 64 bytes from 203.210.4.91: seq=21 ttl=51 time=185.566 ms
ping_8  | 64 bytes from 203.210.4.91: seq=19 ttl=51 time=185.681 ms
ping_7  | 64 bytes from 203.210.4.91: seq=18 ttl=51 time=185.243 ms
ping_6  | 64 bytes from 203.210.4.91: seq=23 ttl=51 time=184.345 ms
ping_2  | 64 bytes from 203.210.4.91: seq=27 ttl=51 time=179.597 ms
ping_1  | 64 bytes from 203.210.4.91: seq=26 ttl=51 time=181.133 ms
ping_5  | 64 bytes from 203.210.4.91: seq=18 ttl=51 time=184.516 ms
ping_9  | 64 bytes from 203.210.4.91: seq=21 ttl=51 time=183.481 ms
ping_10 | 64 bytes from 203.210.4.91: seq=23 ttl=51 time=183.946 ms
ping_4  | 64 bytes from 203.210.4.91: seq=25 ttl=51 time=185.180 ms
ping_3  | 64 bytes from 203.210.4.91: seq=22 ttl=51 time=184.942 ms
ping_8  | 64 bytes from 203.210.4.91: seq=20 ttl=51 time=183.867 ms
ping_7  | 64 bytes from 203.210.4.91: seq=19 ttl=51 time=183.757 ms
ping_6  | 64 bytes from 203.210.4.91: seq=24 ttl=51 time=183.187 ms
ping_2  | 64 bytes from 203.210.4.91: seq=28 ttl=51 time=178.821 ms
ping_1  | 64 bytes from 203.210.4.91: seq=27 ttl=51 time=181.028 ms
ping_5  | 64 bytes from 203.210.4.91: seq=19 ttl=51 time=182.901 ms
ping_9  | 64 bytes from 203.210.4.91: seq=22 ttl=51 time=185.152 ms
ping_10 | 64 bytes from 203.210.4.91: seq=24 ttl=51 time=185.178 ms
ping_4  | 64 bytes from 203.210.4.91: seq=26 ttl=51 time=185.070 ms
ping_3  | 64 bytes from 203.210.4.91: seq=23 ttl=51 time=183.451 ms
ping_8  | 64 bytes from 203.210.4.91: seq=21 ttl=51 time=181.455 ms
ping_7  | 64 bytes from 203.210.4.91: seq=20 ttl=51 time=180.622 ms
ping_6  | 64 bytes from 203.210.4.91: seq=25 ttl=51 time=179.651 ms
ping_2  | 64 bytes from 203.210.4.91: seq=29 ttl=51 time=174.380 ms
ping_1  | 64 bytes from 203.210.4.91: seq=28 ttl=51 time=175.256 ms
ping_5  | 64 bytes from 203.210.4.91: seq=20 ttl=51 time=182.116 ms
ping_9  | 64 bytes from 203.210.4.91: seq=23 ttl=51 time=181.492 ms
ping_10 | 64 bytes from 203.210.4.91: seq=25 ttl=51 time=182.250 ms
ping_4  | 64 bytes from 203.210.4.91: seq=27 ttl=51 time=184.921 ms
ping_3  | 64 bytes from 203.210.4.91: seq=24 ttl=51 time=184.117 ms
ping_8  | 64 bytes from 203.210.4.91: seq=22 ttl=51 time=185.145 ms
ping_7  | 64 bytes from 203.210.4.91: seq=21 ttl=51 time=185.166 ms
ping_6  | 64 bytes from 203.210.4.91: seq=26 ttl=51 time=185.000 ms
ping_2  | 64 bytes from 203.210.4.91: seq=30 ttl=51 time=185.161 ms
ping_1  | 64 bytes from 203.210.4.91: seq=29 ttl=51 time=184.275 ms
ping_5  | 64 bytes from 203.210.4.91: seq=21 ttl=51 time=184.812 ms
ping_9  | 64 bytes from 203.210.4.91: seq=24 ttl=51 time=183.410 ms
ping_10 | 64 bytes from 203.210.4.91: seq=26 ttl=51 time=183.143 ms
ping_4  | 64 bytes from 203.210.4.91: seq=28 ttl=51 time=182.462 ms
ping_3  | 64 bytes from 203.210.4.91: seq=25 ttl=51 time=180.999 ms
ping_8  | 64 bytes from 203.210.4.91: seq=23 ttl=51 time=178.686 ms
ping_7  | 64 bytes from 203.210.4.91: seq=22 ttl=51 time=178.974 ms
ping_6  | 64 bytes from 203.210.4.91: seq=27 ttl=51 time=180.242 ms
ping_2  | 64 bytes from 203.210.4.91: seq=31 ttl=51 time=178.882 ms
ping_1  | 64 bytes from 203.210.4.91: seq=30 ttl=51 time=180.679 ms
ping_5  | 64 bytes from 203.210.4.91: seq=22 ttl=51 time=181.304 ms
ping_9  | 64 bytes from 203.210.4.91: seq=25 ttl=51 time=180.907 ms
ping_10 | 64 bytes from 203.210.4.91: seq=27 ttl=51 time=181.163 ms
ping_4  | 64 bytes from 203.210.4.91: seq=29 ttl=51 time=181.821 ms
ping_3  | 64 bytes from 203.210.4.91: seq=26 ttl=51 time=184.955 ms
ping_8  | 64 bytes from 203.210.4.91: seq=24 ttl=51 time=184.135 ms
ping_7  | 64 bytes from 203.210.4.91: seq=23 ttl=51 time=184.661 ms
ping_6  | 64 bytes from 203.210.4.91: seq=28 ttl=51 time=186.108 ms
ping_2  | 64 bytes from 203.210.4.91: seq=32 ttl=51 time=182.798 ms
ping_1  | 64 bytes from 203.210.4.91: seq=31 ttl=51 time=182.387 ms
ping_5  | 64 bytes from 203.210.4.91: seq=23 ttl=51 time=182.052 ms
ping_9  | 64 bytes from 203.210.4.91: seq=26 ttl=51 time=183.615 ms
ping_10 | 64 bytes from 203.210.4.91: seq=28 ttl=51 time=183.540 ms
ping_4  | 64 bytes from 203.210.4.91: seq=30 ttl=51 time=184.084 ms
ping_3  | 64 bytes from 203.210.4.91: seq=27 ttl=51 time=185.249 ms
ping_8  | 64 bytes from 203.210.4.91: seq=25 ttl=51 time=184.742 ms
ping_7  | 64 bytes from 203.210.4.91: seq=24 ttl=51 time=184.073 ms
ping_6  | 64 bytes from 203.210.4.91: seq=29 ttl=51 time=182.345 ms
ping_2  | 64 bytes from 203.210.4.91: seq=33 ttl=51 time=181.658 ms
ping_1  | 64 bytes from 203.210.4.91: seq=32 ttl=51 time=181.541 ms
ping_5  | 64 bytes from 203.210.4.91: seq=24 ttl=51 time=175.698 ms
ping_9  | 64 bytes from 203.210.4.91: seq=27 ttl=51 time=177.436 ms
ping_10 | 64 bytes from 203.210.4.91: seq=29 ttl=51 time=178.033 ms
ping_4  | 64 bytes from 203.210.4.91: seq=31 ttl=51 time=178.856 ms
ping_3  | 64 bytes from 203.210.4.91: seq=28 ttl=51 time=176.701 ms
ping_8  | 64 bytes from 203.210.4.91: seq=26 ttl=51 time=176.795 ms
ping_7  | 64 bytes from 203.210.4.91: seq=25 ttl=51 time=176.614 ms
ping_6  | 64 bytes from 203.210.4.91: seq=30 ttl=51 time=176.661 ms
ping_2  | 64 bytes from 203.210.4.91: seq=34 ttl=51 time=183.719 ms
ping_1  | 64 bytes from 203.210.4.91: seq=33 ttl=51 time=184.620 ms
ping_5  | 64 bytes from 203.210.4.91: seq=25 ttl=51 time=184.904 ms
ping_9  | 64 bytes from 203.210.4.91: seq=28 ttl=51 time=183.156 ms
ping_10 | 64 bytes from 203.210.4.91: seq=30 ttl=51 time=182.641 ms
ping_4  | 64 bytes from 203.210.4.91: seq=32 ttl=51 time=179.025 ms
ping_3  | 64 bytes from 203.210.4.91: seq=29 ttl=51 time=172.264 ms
ping_8  | 64 bytes from 203.210.4.91: seq=27 ttl=51 time=168.907 ms
ping_7  | 64 bytes from 203.210.4.91: seq=26 ttl=51 time=167.441 ms
ping_6  | 64 bytes from 203.210.4.91: seq=31 ttl=51 time=168.743 ms
ping_2  | 64 bytes from 203.210.4.91: seq=35 ttl=51 time=170.147 ms
ping_1  | 64 bytes from 203.210.4.91: seq=34 ttl=51 time=170.778 ms
ping_5  | 64 bytes from 203.210.4.91: seq=26 ttl=51 time=176.854 ms
ping_9  | 64 bytes from 203.210.4.91: seq=29 ttl=51 time=181.623 ms
ping_10 | 64 bytes from 203.210.4.91: seq=31 ttl=51 time=181.528 ms
ping_4  | 64 bytes from 203.210.4.91: seq=33 ttl=51 time=181.358 ms
ping_3  | 64 bytes from 203.210.4.91: seq=30 ttl=51 time=184.498 ms
ping_8  | 64 bytes from 203.210.4.91: seq=28 ttl=51 time=185.424 ms
ping_7  | 64 bytes from 203.210.4.91: seq=27 ttl=51 time=185.194 ms
ping_6  | 64 bytes from 203.210.4.91: seq=32 ttl=51 time=185.316 ms
ping_2  | 64 bytes from 203.210.4.91: seq=36 ttl=51 time=180.115 ms
ping_1  | 64 bytes from 203.210.4.91: seq=35 ttl=51 time=179.195 ms
ping_5  | 64 bytes from 203.210.4.91: seq=27 ttl=51 time=180.999 ms
ping_9  | 64 bytes from 203.210.4.91: seq=30 ttl=51 time=179.111 ms
ping_10 | 64 bytes from 203.210.4.91: seq=32 ttl=51 time=179.073 ms
ping_4  | 64 bytes from 203.210.4.91: seq=34 ttl=51 time=180.169 ms
ping_3  | 64 bytes from 203.210.4.91: seq=31 ttl=51 time=178.837 ms
ping_8  | 64 bytes from 203.210.4.91: seq=29 ttl=51 time=177.319 ms
ping_7  | 64 bytes from 203.210.4.91: seq=28 ttl=51 time=177.448 ms
ping_6  | 64 bytes from 203.210.4.91: seq=33 ttl=51 time=177.581 ms
ping_2  | 64 bytes from 203.210.4.91: seq=37 ttl=51 time=185.753 ms
ping_1  | 64 bytes from 203.210.4.91: seq=36 ttl=51 time=185.049 ms
ping_5  | 64 bytes from 203.210.4.91: seq=28 ttl=51 time=185.493 ms
ping_9  | 64 bytes from 203.210.4.91: seq=31 ttl=51 time=181.246 ms
ping_10 | 64 bytes from 203.210.4.91: seq=33 ttl=51 time=180.879 ms
ping_4  | 64 bytes from 203.210.4.91: seq=35 ttl=51 time=181.441 ms
ping_3  | 64 bytes from 203.210.4.91: seq=32 ttl=51 time=177.503 ms
ping_8  | 64 bytes from 203.210.4.91: seq=30 ttl=51 time=175.338 ms
ping_7  | 64 bytes from 203.210.4.91: seq=29 ttl=51 time=175.319 ms
ping_6  | 64 bytes from 203.210.4.91: seq=34 ttl=51 time=176.184 ms
ping_2  | 64 bytes from 203.210.4.91: seq=38 ttl=51 time=180.237 ms
ping_1  | 64 bytes from 203.210.4.91: seq=37 ttl=51 time=180.429 ms
ping_5  | 64 bytes from 203.210.4.91: seq=29 ttl=51 time=184.208 ms
ping_9  | 64 bytes from 203.210.4.91: seq=32 ttl=51 time=183.325 ms
ping_10 | 64 bytes from 203.210.4.91: seq=34 ttl=51 time=183.304 ms
ping_4  | 64 bytes from 203.210.4.91: seq=36 ttl=51 time=185.621 ms
ping_3  | 64 bytes from 203.210.4.91: seq=33 ttl=51 time=183.276 ms
ping_8  | 64 bytes from 203.210.4.91: seq=31 ttl=51 time=184.153 ms
ping_7  | 64 bytes from 203.210.4.91: seq=30 ttl=51 time=184.098 ms
ping_6  | 64 bytes from 203.210.4.91: seq=35 ttl=51 time=183.861 ms
ping_2  | 64 bytes from 203.210.4.91: seq=39 ttl=51 time=181.162 ms
ping_1  | 64 bytes from 203.210.4.91: seq=38 ttl=51 time=182.040 ms
ping_5  | 64 bytes from 203.210.4.91: seq=30 ttl=51 time=184.776 ms
ping_9  | 64 bytes from 203.210.4.91: seq=33 ttl=51 time=183.861 ms
ping_10 | 64 bytes from 203.210.4.91: seq=35 ttl=51 time=183.269 ms
ping_4  | 64 bytes from 203.210.4.91: seq=37 ttl=51 time=182.414 ms
ping_3  | 64 bytes from 203.210.4.91: seq=34 ttl=51 time=179.931 ms
ping_8  | 64 bytes from 203.210.4.91: seq=32 ttl=51 time=177.127 ms
ping_7  | 64 bytes from 203.210.4.91: seq=31 ttl=51 time=175.995 ms
ping_6  | 64 bytes from 203.210.4.91: seq=36 ttl=51 time=174.820 ms
ping_2  | 64 bytes from 203.210.4.91: seq=40 ttl=51 time=176.004 ms
ping_1  | 64 bytes from 203.210.4.91: seq=39 ttl=51 time=176.201 ms
ping_5  | 64 bytes from 203.210.4.91: seq=31 ttl=51 time=179.728 ms
ping_9  | 64 bytes from 203.210.4.91: seq=34 ttl=51 time=177.437 ms
ping_10 | 64 bytes from 203.210.4.91: seq=36 ttl=51 time=177.678 ms
ping_4  | 64 bytes from 203.210.4.91: seq=38 ttl=51 time=179.040 ms
ping_3  | 64 bytes from 203.210.4.91: seq=35 ttl=51 time=181.304 ms
ping_8  | 64 bytes from 203.210.4.91: seq=33 ttl=51 time=182.511 ms
ping_7  | 64 bytes from 203.210.4.91: seq=32 ttl=51 time=184.322 ms
ping_6  | 64 bytes from 203.210.4.91: seq=37 ttl=51 time=185.222 ms
ping_2  | 64 bytes from 203.210.4.91: seq=41 ttl=51 time=180.064 ms
ping_1  | 64 bytes from 203.210.4.91: seq=40 ttl=51 time=180.139 ms
ping_5  | 64 bytes from 203.210.4.91: seq=32 ttl=51 time=179.646 ms
ping_9  | 64 bytes from 203.210.4.91: seq=35 ttl=51 time=182.884 ms
ping_10 | 64 bytes from 203.210.4.91: seq=37 ttl=51 time=183.510 ms
ping_4  | 64 bytes from 203.210.4.91: seq=39 ttl=51 time=185.400 ms
ping_3  | 64 bytes from 203.210.4.91: seq=36 ttl=51 time=185.289 ms
ping_8  | 64 bytes from 203.210.4.91: seq=34 ttl=51 time=184.149 ms
ping_7  | 64 bytes from 203.210.4.91: seq=33 ttl=51 time=184.584 ms
ping_6  | 64 bytes from 203.210.4.91: seq=38 ttl=51 time=185.705 ms
ping_2  | 64 bytes from 203.210.4.91: seq=42 ttl=51 time=176.378 ms
ping_1  | 64 bytes from 203.210.4.91: seq=41 ttl=51 time=174.835 ms
ping_5  | 64 bytes from 203.210.4.91: seq=33 ttl=51 time=170.029 ms
ping_9  | 64 bytes from 203.210.4.91: seq=36 ttl=51 time=169.049 ms
ping_10 | 64 bytes from 203.210.4.91: seq=38 ttl=51 time=169.121 ms
ping_4  | 64 bytes from 203.210.4.91: seq=40 ttl=51 time=168.975 ms
ping_3  | 64 bytes from 203.210.4.91: seq=37 ttl=51 time=170.445 ms
ping_8  | 64 bytes from 203.210.4.91: seq=35 ttl=51 time=173.173 ms
ping_7  | 64 bytes from 203.210.4.91: seq=34 ttl=51 time=173.454 ms
ping_6  | 64 bytes from 203.210.4.91: seq=39 ttl=51 time=175.076 ms
ping_2  | 64 bytes from 203.210.4.91: seq=43 ttl=51 time=178.879 ms
ping_1  | 64 bytes from 203.210.4.91: seq=42 ttl=51 time=179.345 ms
ping_5  | 64 bytes from 203.210.4.91: seq=34 ttl=51 time=184.373 ms
ping_9  | 64 bytes from 203.210.4.91: seq=37 ttl=51 time=184.167 ms
ping_10 | 64 bytes from 203.210.4.91: seq=39 ttl=51 time=185.583 ms
ping_4  | 64 bytes from 203.210.4.91: seq=41 ttl=51 time=184.898 ms
ping_3  | 64 bytes from 203.210.4.91: seq=38 ttl=51 time=184.655 ms
ping_8  | 64 bytes from 203.210.4.91: seq=36 ttl=51 time=183.520 ms
ping_7  | 64 bytes from 203.210.4.91: seq=35 ttl=51 time=183.511 ms
ping_6  | 64 bytes from 203.210.4.91: seq=40 ttl=51 time=183.240 ms
ping_2  | 64 bytes from 203.210.4.91: seq=44 ttl=51 time=181.832 ms
ping_1  | 64 bytes from 203.210.4.91: seq=43 ttl=51 time=181.547 ms
ping_5  | 64 bytes from 203.210.4.91: seq=35 ttl=51 time=185.665 ms
ping_9  | 64 bytes from 203.210.4.91: seq=38 ttl=51 time=184.768 ms
ping_10 | 64 bytes from 203.210.4.91: seq=40 ttl=51 time=184.676 ms
ping_4  | 64 bytes from 203.210.4.91: seq=42 ttl=51 time=184.465 ms
ping_3  | 64 bytes from 203.210.4.91: seq=39 ttl=51 time=176.487 ms
ping_8  | 64 bytes from 203.210.4.91: seq=37 ttl=51 time=173.714 ms
ping_7  | 64 bytes from 203.210.4.91: seq=36 ttl=51 time=172.602 ms
ping_6  | 64 bytes from 203.210.4.91: seq=41 ttl=51 time=170.281 ms
ping_2  | 64 bytes from 203.210.4.91: seq=45 ttl=51 time=169.564 ms
ping_1  | 64 bytes from 203.210.4.91: seq=44 ttl=51 time=170.874 ms
ping_5  | 64 bytes from 203.210.4.91: seq=36 ttl=51 time=177.907 ms
ping_9  | 64 bytes from 203.210.4.91: seq=39 ttl=51 time=180.717 ms
ping_10 | 64 bytes from 203.210.4.91: seq=41 ttl=51 time=181.262 ms
ping_4  | 64 bytes from 203.210.4.91: seq=43 ttl=51 time=183.109 ms
ping_3  | 64 bytes from 203.210.4.91: seq=40 ttl=51 time=184.414 ms
ping_8  | 64 bytes from 203.210.4.91: seq=38 ttl=51 time=185.255 ms
ping_7  | 64 bytes from 203.210.4.91: seq=37 ttl=51 time=186.624 ms
ping_6  | 64 bytes from 203.210.4.91: seq=42 ttl=51 time=184.520 ms
ping_2  | 64 bytes from 203.210.4.91: seq=46 ttl=51 time=185.125 ms
ping_1  | 64 bytes from 203.210.4.91: seq=45 ttl=51 time=185.530 ms
ping_5  | 64 bytes from 203.210.4.91: seq=37 ttl=51 time=178.614 ms
ping_9  | 64 bytes from 203.210.4.91: seq=40 ttl=51 time=177.397 ms
ping_10 | 64 bytes from 203.210.4.91: seq=42 ttl=51 time=176.879 ms
ping_4  | 64 bytes from 203.210.4.91: seq=44 ttl=51 time=175.691 ms
ping_3  | 64 bytes from 203.210.4.91: seq=41 ttl=51 time=177.680 ms
ping_8  | 64 bytes from 203.210.4.91: seq=39 ttl=51 time=179.905 ms
ping_7  | 64 bytes from 203.210.4.91: seq=38 ttl=51 time=179.466 ms
ping_6  | 64 bytes from 203.210.4.91: seq=43 ttl=51 time=180.815 ms
ping_2  | 64 bytes from 203.210.4.91: seq=47 ttl=51 time=181.183 ms
ping_1  | 64 bytes from 203.210.4.91: seq=46 ttl=51 time=181.092 ms
ping_5  | 64 bytes from 203.210.4.91: seq=38 ttl=51 time=181.997 ms
ping_9  | 64 bytes from 203.210.4.91: seq=41 ttl=51 time=184.497 ms
ping_10 | 64 bytes from 203.210.4.91: seq=43 ttl=51 time=184.355 ms
ping_4  | 64 bytes from 203.210.4.91: seq=45 ttl=51 time=184.653 ms
ping_3  | 64 bytes from 203.210.4.91: seq=42 ttl=51 time=185.333 ms
ping_8  | 64 bytes from 203.210.4.91: seq=40 ttl=51 time=184.512 ms
ping_7  | 64 bytes from 203.210.4.91: seq=39 ttl=51 time=183.312 ms
ping_6  | 64 bytes from 203.210.4.91: seq=44 ttl=51 time=184.067 ms
ping_2  | 64 bytes from 203.210.4.91: seq=48 ttl=51 time=178.410 ms
ping_1  | 64 bytes from 203.210.4.91: seq=47 ttl=51 time=178.047 ms
ping_5  | 64 bytes from 203.210.4.91: seq=39 ttl=51 time=180.890 ms
ping_9  | 64 bytes from 203.210.4.91: seq=42 ttl=51 time=180.590 ms
ping_10 | 64 bytes from 203.210.4.91: seq=44 ttl=51 time=181.028 ms
ping_4  | 64 bytes from 203.210.4.91: seq=46 ttl=51 time=181.381 ms
ping_3  | 64 bytes from 203.210.4.91: seq=43 ttl=51 time=184.942 ms
ping_8  | 64 bytes from 203.210.4.91: seq=41 ttl=51 time=185.610 ms
ping_7  | 64 bytes from 203.210.4.91: seq=40 ttl=51 time=184.941 ms
ping_6  | 64 bytes from 203.210.4.91: seq=45 ttl=51 time=185.432 ms
ping_2  | 64 bytes from 203.210.4.91: seq=49 ttl=51 time=168.927 ms
ping_1  | 64 bytes from 203.210.4.91: seq=48 ttl=51 time=168.228 ms
ping_5  | 64 bytes from 203.210.4.91: seq=40 ttl=51 time=168.605 ms
ping_9  | 64 bytes from 203.210.4.91: seq=43 ttl=51 time=169.341 ms
ping_10 | 64 bytes from 203.210.4.91: seq=45 ttl=51 time=168.517 ms
ping_4  | 64 bytes from 203.210.4.91: seq=47 ttl=51 time=168.112 ms
ping_3  | 64 bytes from 203.210.4.91: seq=44 ttl=51 time=168.837 ms
ping_8  | 64 bytes from 203.210.4.91: seq=42 ttl=51 time=170.041 ms
ping_7  | 64 bytes from 203.210.4.91: seq=41 ttl=51 time=171.459 ms
ping_6  | 64 bytes from 203.210.4.91: seq=46 ttl=51 time=172.405 ms
ping_2  | 64 bytes from 203.210.4.91: seq=50 ttl=51 time=171.504 ms
ping_1  | 64 bytes from 203.210.4.91: seq=49 ttl=51 time=170.437 ms
ping_5  | 64 bytes from 203.210.4.91: seq=41 ttl=51 time=167.837 ms
ping_9  | 64 bytes from 203.210.4.91: seq=44 ttl=51 time=167.664 ms
ping_10 | 64 bytes from 203.210.4.91: seq=46 ttl=51 time=168.492 ms
ping_4  | 64 bytes from 203.210.4.91: seq=48 ttl=51 time=168.145 ms
ping_3  | 64 bytes from 203.210.4.91: seq=45 ttl=51 time=169.336 ms
ping_8  | 64 bytes from 203.210.4.91: seq=43 ttl=51 time=168.182 ms
ping_7  | 64 bytes from 203.210.4.91: seq=42 ttl=51 time=167.999 ms
ping_6  | 64 bytes from 203.210.4.91: seq=47 ttl=51 time=167.558 ms
ping_2  | 64 bytes from 203.210.4.91: seq=51 ttl=51 time=167.481 ms
ping_1  | 64 bytes from 203.210.4.91: seq=50 ttl=51 time=167.879 ms
ping_5  | 64 bytes from 203.210.4.91: seq=42 ttl=51 time=167.514 ms
ping_9  | 64 bytes from 203.210.4.91: seq=45 ttl=51 time=167.688 ms
ping_10 | 64 bytes from 203.210.4.91: seq=47 ttl=51 time=167.561 ms
ping_4  | 64 bytes from 203.210.4.91: seq=49 ttl=51 time=168.534 ms
ping_3  | 64 bytes from 203.210.4.91: seq=46 ttl=51 time=167.661 ms
ping_8  | 64 bytes from 203.210.4.91: seq=44 ttl=51 time=170.364 ms
ping_7  | 64 bytes from 203.210.4.91: seq=43 ttl=51 time=169.591 ms
ping_6  | 64 bytes from 203.210.4.91: seq=48 ttl=51 time=168.533 ms
ping_2  | 64 bytes from 203.210.4.91: seq=52 ttl=51 time=167.205 ms
ping_1  | 64 bytes from 203.210.4.91: seq=51 ttl=51 time=167.084 ms
ping_5  | 64 bytes from 203.210.4.91: seq=43 ttl=51 time=169.967 ms
ping_9  | 64 bytes from 203.210.4.91: seq=46 ttl=51 time=167.408 ms
ping_10 | 64 bytes from 203.210.4.91: seq=48 ttl=51 time=167.855 ms
ping_4  | 64 bytes from 203.210.4.91: seq=50 ttl=51 time=167.661 ms
ping_3  | 64 bytes from 203.210.4.91: seq=47 ttl=51 time=169.928 ms
ping_8  | 64 bytes from 203.210.4.91: seq=45 ttl=51 time=168.956 ms
ping_7  | 64 bytes from 203.210.4.91: seq=44 ttl=51 time=167.575 ms
ping_6  | 64 bytes from 203.210.4.91: seq=49 ttl=51 time=168.008 ms
ping_2  | 64 bytes from 203.210.4.91: seq=53 ttl=51 time=167.736 ms
ping_1  | 64 bytes from 203.210.4.91: seq=52 ttl=51 time=169.533 ms
ping_5  | 64 bytes from 203.210.4.91: seq=44 ttl=51 time=168.053 ms
ping_9  | 64 bytes from 203.210.4.91: seq=47 ttl=51 time=167.985 ms
ping_10 | 64 bytes from 203.210.4.91: seq=49 ttl=51 time=167.688 ms
ping_4  | 64 bytes from 203.210.4.91: seq=51 ttl=51 time=167.742 ms
ping_3  | 64 bytes from 203.210.4.91: seq=48 ttl=51 time=167.693 ms
ping_8  | 64 bytes from 203.210.4.91: seq=46 ttl=51 time=168.051 ms
ping_7  | 64 bytes from 203.210.4.91: seq=45 ttl=51 time=168.367 ms
ping_6  | 64 bytes from 203.210.4.91: seq=50 ttl=51 time=167.496 ms
ping_2  | 64 bytes from 203.210.4.91: seq=54 ttl=51 time=169.327 ms
ping_1  | 64 bytes from 203.210.4.91: seq=53 ttl=51 time=169.394 ms
ping_5  | 64 bytes from 203.210.4.91: seq=45 ttl=51 time=169.699 ms
ping_9  | 64 bytes from 203.210.4.91: seq=48 ttl=51 time=168.225 ms
ping_10 | 64 bytes from 203.210.4.91: seq=50 ttl=51 time=168.052 ms
ping_4  | 64 bytes from 203.210.4.91: seq=52 ttl=51 time=167.287 ms
ping_3  | 64 bytes from 203.210.4.91: seq=49 ttl=51 time=167.735 ms
ping_8  | 64 bytes from 203.210.4.91: seq=47 ttl=51 time=168.432 ms
ping_7  | 64 bytes from 203.210.4.91: seq=46 ttl=51 time=167.586 ms
ping_6  | 64 bytes from 203.210.4.91: seq=51 ttl=51 time=167.687 ms
ping_2  | 64 bytes from 203.210.4.91: seq=55 ttl=51 time=167.982 ms
ping_1  | 64 bytes from 203.210.4.91: seq=54 ttl=51 time=169.252 ms
ping_5  | 64 bytes from 203.210.4.91: seq=46 ttl=51 time=171.296 ms
ping_9  | 64 bytes from 203.210.4.91: seq=49 ttl=51 time=170.120 ms
ping_10 | 64 bytes from 203.210.4.91: seq=51 ttl=51 time=169.959 ms
ping_4  | 64 bytes from 203.210.4.91: seq=53 ttl=51 time=171.102 ms
ping_3  | 64 bytes from 203.210.4.91: seq=50 ttl=51 time=172.795 ms
ping_8  | 64 bytes from 203.210.4.91: seq=48 ttl=51 time=172.152 ms
ping_7  | 64 bytes from 203.210.4.91: seq=47 ttl=51 time=173.197 ms
ping_6  | 64 bytes from 203.210.4.91: seq=52 ttl=51 time=175.751 ms
ping_2  | 64 bytes from 203.210.4.91: seq=56 ttl=51 time=176.630 ms
ping_1  | 64 bytes from 203.210.4.91: seq=55 ttl=51 time=178.197 ms
ping_5  | 64 bytes from 203.210.4.91: seq=47 ttl=51 time=182.153 ms
ping_9  | 64 bytes from 203.210.4.91: seq=50 ttl=51 time=180.396 ms
ping_10 | 64 bytes from 203.210.4.91: seq=52 ttl=51 time=182.060 ms
ping_4  | 64 bytes from 203.210.4.91: seq=54 ttl=51 time=180.030 ms
ping_3  | 64 bytes from 203.210.4.91: seq=51 ttl=51 time=183.392 ms
ping_8  | 64 bytes from 203.210.4.91: seq=49 ttl=51 time=184.739 ms
ping_7  | 64 bytes from 203.210.4.91: seq=48 ttl=51 time=184.857 ms
ping_6  | 64 bytes from 203.210.4.91: seq=53 ttl=51 time=184.912 ms
ping_2  | 64 bytes from 203.210.4.91: seq=57 ttl=51 time=179.195 ms
ping_1  | 64 bytes from 203.210.4.91: seq=56 ttl=51 time=177.992 ms
ping_5  | 64 bytes from 203.210.4.91: seq=48 ttl=51 time=171.837 ms
ping_9  | 64 bytes from 203.210.4.91: seq=51 ttl=51 time=167.130 ms
ping_10 | 64 bytes from 203.210.4.91: seq=53 ttl=51 time=167.253 ms
ping_4  | 64 bytes from 203.210.4.91: seq=55 ttl=51 time=167.422 ms
ping_3  | 64 bytes from 203.210.4.91: seq=52 ttl=51 time=169.769 ms
ping_8  | 64 bytes from 203.210.4.91: seq=50 ttl=51 time=168.465 ms
ping_7  | 64 bytes from 203.210.4.91: seq=49 ttl=51 time=169.692 ms
ping_6  | 64 bytes from 203.210.4.91: seq=54 ttl=51 time=170.016 ms
ping_2  | 64 bytes from 203.210.4.91: seq=58 ttl=51 time=176.535 ms
ping_1  | 64 bytes from 203.210.4.91: seq=57 ttl=51 time=175.615 ms
ping_5  | 64 bytes from 203.210.4.91: seq=49 ttl=51 time=172.026 ms
ping_9  | 64 bytes from 203.210.4.91: seq=52 ttl=51 time=170.096 ms
ping_10 | 64 bytes from 203.210.4.91: seq=54 ttl=51 time=170.925 ms
ping_4  | 64 bytes from 203.210.4.91: seq=56 ttl=51 time=172.176 ms
ping_3  | 64 bytes from 203.210.4.91: seq=53 ttl=51 time=178.677 ms
ping_8  | 64 bytes from 203.210.4.91: seq=51 ttl=51 time=181.119 ms
ping_7  | 64 bytes from 203.210.4.91: seq=50 ttl=51 time=180.787 ms
ping_6  | 64 bytes from 203.210.4.91: seq=55 ttl=51 time=180.528 ms
ping_2  | 64 bytes from 203.210.4.91: seq=59 ttl=51 time=183.094 ms
ping_1  | 64 bytes from 203.210.4.91: seq=58 ttl=51 time=184.583 ms
ping_5  | 64 bytes from 203.210.4.91: seq=50 ttl=51 time=183.324 ms
ping_9  | 64 bytes from 203.210.4.91: seq=53 ttl=51 time=184.893 ms
ping_10 | 64 bytes from 203.210.4.91: seq=55 ttl=51 time=184.641 ms
ping_4  | 64 bytes from 203.210.4.91: seq=57 ttl=51 time=184.485 ms
ping_3  | 64 bytes from 203.210.4.91: seq=54 ttl=51 time=176.747 ms
ping_8  | 64 bytes from 203.210.4.91: seq=52 ttl=51 time=176.422 ms
ping_7  | 64 bytes from 203.210.4.91: seq=51 ttl=51 time=178.043 ms
ping_6  | 64 bytes from 203.210.4.91: seq=56 ttl=51 time=178.566 ms
ping_2  | 64 bytes from 203.210.4.91: seq=60 ttl=51 time=183.720 ms
ping_1  | 64 bytes from 203.210.4.91: seq=59 ttl=51 time=185.629 ms
ping_5  | 64 bytes from 203.210.4.91: seq=51 ttl=51 time=185.775 ms
ping_9  | 64 bytes from 203.210.4.91: seq=54 ttl=51 time=182.173 ms
ping_10 | 64 bytes from 203.210.4.91: seq=56 ttl=51 time=180.996 ms
ping_4  | 64 bytes from 203.210.4.91: seq=58 ttl=51 time=179.356 ms
ping_3  | 64 bytes from 203.210.4.91: seq=55 ttl=51 time=176.748 ms
ping_8  | 64 bytes from 203.210.4.91: seq=53 ttl=51 time=173.476 ms
ping_7  | 64 bytes from 203.210.4.91: seq=52 ttl=51 time=171.124 ms
ping_6  | 64 bytes from 203.210.4.91: seq=57 ttl=51 time=171.263 ms
ping_2  | 64 bytes from 203.210.4.91: seq=61 ttl=51 time=177.403 ms
ping_1  | 64 bytes from 203.210.4.91: seq=60 ttl=51 time=179.263 ms
ping_5  | 64 bytes from 203.210.4.91: seq=52 ttl=51 time=185.254 ms
ping_9  | 64 bytes from 203.210.4.91: seq=55 ttl=51 time=185.298 ms
ping_10 | 64 bytes from 203.210.4.91: seq=57 ttl=51 time=184.204 ms
ping_4  | 64 bytes from 203.210.4.91: seq=59 ttl=51 time=184.572 ms
ping_3  | 64 bytes from 203.210.4.91: seq=56 ttl=51 time=180.804 ms
ping_8  | 64 bytes from 203.210.4.91: seq=54 ttl=51 time=177.602 ms
ping_7  | 64 bytes from 203.210.4.91: seq=53 ttl=51 time=176.220 ms
ping_6  | 64 bytes from 203.210.4.91: seq=58 ttl=51 time=177.794 ms
ping_2  | 64 bytes from 203.210.4.91: seq=62 ttl=51 time=179.963 ms
ping_1  | 64 bytes from 203.210.4.91: seq=61 ttl=51 time=180.738 ms
ping_5  | 64 bytes from 203.210.4.91: seq=53 ttl=51 time=185.354 ms
ping_9  | 64 bytes from 203.210.4.91: seq=56 ttl=51 time=182.907 ms
ping_10 | 64 bytes from 203.210.4.91: seq=58 ttl=51 time=182.992 ms
ping_4  | 64 bytes from 203.210.4.91: seq=60 ttl=51 time=182.783 ms
ping_3  | 64 bytes from 203.210.4.91: seq=57 ttl=51 time=184.479 ms
ping_8  | 64 bytes from 203.210.4.91: seq=55 ttl=51 time=183.646 ms
ping_7  | 64 bytes from 203.210.4.91: seq=54 ttl=51 time=182.826 ms
ping_6  | 64 bytes from 203.210.4.91: seq=59 ttl=51 time=182.525 ms
ping_2  | 64 bytes from 203.210.4.91: seq=63 ttl=51 time=184.292 ms
ping_1  | 64 bytes from 203.210.4.91: seq=62 ttl=51 time=184.683 ms
ping_5  | 64 bytes from 203.210.4.91: seq=54 ttl=51 time=185.060 ms
ping_10 | 64 bytes from 203.210.4.91: seq=59 ttl=51 time=184.941 ms
ping_4  | 64 bytes from 203.210.4.91: seq=61 ttl=51 time=185.204 ms
ping_3  | 64 bytes from 203.210.4.91: seq=58 ttl=51 time=180.373 ms
ping_8  | 64 bytes from 203.210.4.91: seq=56 ttl=51 time=177.264 ms
ping_7  | 64 bytes from 203.210.4.91: seq=55 ttl=51 time=175.330 ms
ping_6  | 64 bytes from 203.210.4.91: seq=60 ttl=51 time=174.953 ms
ping_2  | 64 bytes from 203.210.4.91: seq=64 ttl=51 time=171.318 ms
ping_1  | 64 bytes from 203.210.4.91: seq=63 ttl=51 time=171.579 ms
ping_5  | 64 bytes from 203.210.4.91: seq=55 ttl=51 time=173.455 ms
ping_9  | 64 bytes from 203.210.4.91: seq=58 ttl=51 time=178.381 ms
ping_10 | 64 bytes from 203.210.4.91: seq=60 ttl=51 time=178.015 ms
ping_4  | 64 bytes from 203.210.4.91: seq=62 ttl=51 time=178.582 ms
ping_3  | 64 bytes from 203.210.4.91: seq=59 ttl=51 time=182.678 ms
ping_8  | 64 bytes from 203.210.4.91: seq=57 ttl=51 time=184.700 ms
ping_7  | 64 bytes from 203.210.4.91: seq=56 ttl=51 time=182.936 ms
ping_6  | 64 bytes from 203.210.4.91: seq=61 ttl=51 time=183.761 ms
ping_2  | 64 bytes from 203.210.4.91: seq=65 ttl=51 time=183.103 ms
ping_1  | 64 bytes from 203.210.4.91: seq=64 ttl=51 time=182.535 ms
ping_5  | 64 bytes from 203.210.4.91: seq=56 ttl=51 time=182.595 ms
ping_9  | 64 bytes from 203.210.4.91: seq=59 ttl=51 time=181.343 ms
ping_10 | 64 bytes from 203.210.4.91: seq=61 ttl=51 time=181.453 ms
ping_4  | 64 bytes from 203.210.4.91: seq=63 ttl=51 time=180.854 ms
ping_3  | 64 bytes from 203.210.4.91: seq=60 ttl=51 time=178.666 ms
ping_8  | 64 bytes from 203.210.4.91: seq=58 ttl=51 time=182.390 ms
ping_7  | 64 bytes from 203.210.4.91: seq=57 ttl=51 time=182.494 ms
ping_6  | 64 bytes from 203.210.4.91: seq=62 ttl=51 time=182.003 ms
ping_2  | 64 bytes from 203.210.4.91: seq=66 ttl=51 time=183.284 ms
ping_1  | 64 bytes from 203.210.4.91: seq=65 ttl=51 time=183.534 ms
ping_5  | 64 bytes from 203.210.4.91: seq=57 ttl=51 time=180.315 ms
ping_9  | 64 bytes from 203.210.4.91: seq=60 ttl=51 time=178.200 ms
ping_10 | 64 bytes from 203.210.4.91: seq=62 ttl=51 time=177.760 ms
ping_4  | 64 bytes from 203.210.4.91: seq=64 ttl=51 time=178.411 ms
ping_3  | 64 bytes from 203.210.4.91: seq=61 ttl=51 time=182.691 ms
ping_8  | 64 bytes from 203.210.4.91: seq=59 ttl=51 time=181.412 ms
ping_7  | 64 bytes from 203.210.4.91: seq=58 ttl=51 time=180.858 ms
ping_6  | 64 bytes from 203.210.4.91: seq=63 ttl=51 time=181.265 ms
ping_2  | 64 bytes from 203.210.4.91: seq=67 ttl=51 time=184.740 ms
ping_1  | 64 bytes from 203.210.4.91: seq=66 ttl=51 time=184.032 ms
ping_5  | 64 bytes from 203.210.4.91: seq=58 ttl=51 time=180.873 ms
ping_9  | 64 bytes from 203.210.4.91: seq=61 ttl=51 time=176.807 ms
ping_10 | 64 bytes from 203.210.4.91: seq=63 ttl=51 time=175.817 ms
ping_4  | 64 bytes from 203.210.4.91: seq=65 ttl=51 time=174.694 ms
ping_3  | 64 bytes from 203.210.4.91: seq=62 ttl=51 time=173.273 ms
ping_8  | 64 bytes from 203.210.4.91: seq=60 ttl=51 time=175.147 ms
ping_7  | 64 bytes from 203.210.4.91: seq=59 ttl=51 time=174.335 ms
ping_6  | 64 bytes from 203.210.4.91: seq=64 ttl=51 time=172.719 ms
ping_2  | 64 bytes from 203.210.4.91: seq=68 ttl=51 time=173.713 ms
ping_1  | 64 bytes from 203.210.4.91: seq=67 ttl=51 time=174.828 ms
ping_5  | 64 bytes from 203.210.4.91: seq=59 ttl=51 time=180.588 ms
ping_9  | 64 bytes from 203.210.4.91: seq=62 ttl=51 time=179.549 ms
ping_10 | 64 bytes from 203.210.4.91: seq=64 ttl=51 time=178.213 ms
ping_4  | 64 bytes from 203.210.4.91: seq=66 ttl=51 time=177.589 ms
ping_3  | 64 bytes from 203.210.4.91: seq=63 ttl=51 time=177.726 ms
ping_8  | 64 bytes from 203.210.4.91: seq=61 ttl=51 time=178.247 ms
ping_7  | 64 bytes from 203.210.4.91: seq=60 ttl=51 time=178.372 ms
ping_6  | 64 bytes from 203.210.4.91: seq=65 ttl=51 time=180.949 ms
ping_2  | 64 bytes from 203.210.4.91: seq=69 ttl=51 time=182.581 ms
ping_1  | 64 bytes from 203.210.4.91: seq=68 ttl=51 time=184.569 ms
ping_5  | 64 bytes from 203.210.4.91: seq=60 ttl=51 time=180.055 ms
ping_9  | 64 bytes from 203.210.4.91: seq=63 ttl=51 time=178.973 ms
ping_10 | 64 bytes from 203.210.4.91: seq=65 ttl=51 time=177.669 ms
ping_4  | 64 bytes from 203.210.4.91: seq=67 ttl=51 time=176.653 ms
ping_3  | 64 bytes from 203.210.4.91: seq=64 ttl=51 time=175.028 ms
ping_8  | 64 bytes from 203.210.4.91: seq=62 ttl=51 time=173.841 ms
ping_7  | 64 bytes from 203.210.4.91: seq=61 ttl=51 time=172.937 ms
ping_6  | 64 bytes from 203.210.4.91: seq=66 ttl=51 time=171.635 ms
ping_2  | 64 bytes from 203.210.4.91: seq=70 ttl=51 time=182.160 ms
ping_1  | 64 bytes from 203.210.4.91: seq=69 ttl=51 time=182.539 ms
ping_5  | 64 bytes from 203.210.4.91: seq=61 ttl=51 time=183.420 ms
ping_9  | 64 bytes from 203.210.4.91: seq=64 ttl=51 time=185.494 ms
ping_10 | 64 bytes from 203.210.4.91: seq=66 ttl=51 time=186.065 ms
ping_4  | 64 bytes from 203.210.4.91: seq=68 ttl=51 time=184.702 ms
ping_3  | 64 bytes from 203.210.4.91: seq=65 ttl=51 time=181.327 ms
ping_8  | 64 bytes from 203.210.4.91: seq=63 ttl=51 time=178.502 ms
ping_7  | 64 bytes from 203.210.4.91: seq=62 ttl=51 time=177.586 ms
ping_6  | 64 bytes from 203.210.4.91: seq=67 ttl=51 time=177.904 ms
ping_2  | 64 bytes from 203.210.4.91: seq=71 ttl=51 time=173.052 ms
ping_1  | 64 bytes from 203.210.4.91: seq=70 ttl=51 time=174.991 ms
ping_5  | 64 bytes from 203.210.4.91: seq=62 ttl=51 time=178.587 ms
ping_9  | 64 bytes from 203.210.4.91: seq=65 ttl=51 time=181.951 ms
ping_10 | 64 bytes from 203.210.4.91: seq=67 ttl=51 time=181.785 ms
ping_4  | 64 bytes from 203.210.4.91: seq=69 ttl=51 time=181.203 ms
ping_3  | 64 bytes from 203.210.4.91: seq=66 ttl=51 time=181.987 ms
ping_8  | 64 bytes from 203.210.4.91: seq=64 ttl=51 time=183.731 ms
ping_7  | 64 bytes from 203.210.4.91: seq=63 ttl=51 time=184.034 ms
ping_6  | 64 bytes from 203.210.4.91: seq=68 ttl=51 time=182.491 ms
ping_2  | 64 bytes from 203.210.4.91: seq=72 ttl=51 time=182.322 ms
ping_1  | 64 bytes from 203.210.4.91: seq=71 ttl=51 time=181.828 ms
ping_5  | 64 bytes from 203.210.4.91: seq=63 ttl=51 time=181.948 ms
ping_9  | 64 bytes from 203.210.4.91: seq=66 ttl=51 time=183.313 ms
ping_10 | 64 bytes from 203.210.4.91: seq=68 ttl=51 time=183.686 ms
ping_4  | 64 bytes from 203.210.4.91: seq=70 ttl=51 time=183.865 ms
ping_3  | 64 bytes from 203.210.4.91: seq=67 ttl=51 time=184.126 ms
ping_8  | 64 bytes from 203.210.4.91: seq=65 ttl=51 time=184.496 ms
ping_7  | 64 bytes from 203.210.4.91: seq=64 ttl=51 time=185.125 ms
ping_6  | 64 bytes from 203.210.4.91: seq=69 ttl=51 time=185.273 ms
ping_2  | 64 bytes from 203.210.4.91: seq=73 ttl=51 time=176.599 ms
ping_1  | 64 bytes from 203.210.4.91: seq=72 ttl=51 time=176.649 ms
ping_5  | 64 bytes from 203.210.4.91: seq=64 ttl=51 time=175.866 ms
ping_9  | 64 bytes from 203.210.4.91: seq=67 ttl=51 time=173.761 ms
ping_10 | 64 bytes from 203.210.4.91: seq=69 ttl=51 time=174.974 ms
ping_4  | 64 bytes from 203.210.4.91: seq=71 ttl=51 time=173.971 ms
ping_3  | 64 bytes from 203.210.4.91: seq=68 ttl=51 time=174.023 ms
ping_8  | 64 bytes from 203.210.4.91: seq=66 ttl=51 time=174.909 ms
ping_7  | 64 bytes from 203.210.4.91: seq=65 ttl=51 time=177.390 ms
ping_6  | 64 bytes from 203.210.4.91: seq=70 ttl=51 time=177.685 ms
ping_2  | 64 bytes from 203.210.4.91: seq=74 ttl=51 time=179.947 ms
ping_1  | 64 bytes from 203.210.4.91: seq=73 ttl=51 time=182.049 ms
ping_5  | 64 bytes from 203.210.4.91: seq=65 ttl=51 time=183.223 ms
ping_9  | 64 bytes from 203.210.4.91: seq=68 ttl=51 time=183.177 ms
ping_10 | 64 bytes from 203.210.4.91: seq=70 ttl=51 time=182.682 ms
ping_4  | 64 bytes from 203.210.4.91: seq=72 ttl=51 time=185.047 ms
ping_3  | 64 bytes from 203.210.4.91: seq=69 ttl=51 time=183.941 ms
ping_8  | 64 bytes from 203.210.4.91: seq=67 ttl=51 time=184.003 ms
ping_7  | 64 bytes from 203.210.4.91: seq=66 ttl=51 time=185.746 ms
ping_6  | 64 bytes from 203.210.4.91: seq=71 ttl=51 time=184.014 ms
ping_2  | 64 bytes from 203.210.4.91: seq=75 ttl=51 time=175.640 ms
ping_1  | 64 bytes from 203.210.4.91: seq=74 ttl=51 time=177.758 ms
ping_5  | 64 bytes from 203.210.4.91: seq=66 ttl=51 time=180.705 ms
ping_9  | 64 bytes from 203.210.4.91: seq=69 ttl=51 time=177.489 ms
ping_10 | 64 bytes from 203.210.4.91: seq=71 ttl=51 time=177.877 ms
ping_4  | 64 bytes from 203.210.4.91: seq=73 ttl=51 time=176.811 ms
ping_3  | 64 bytes from 203.210.4.91: seq=70 ttl=51 time=180.283 ms
ping_8  | 64 bytes from 203.210.4.91: seq=68 ttl=51 time=180.986 ms
ping_7  | 64 bytes from 203.210.4.91: seq=67 ttl=51 time=180.981 ms
ping_6  | 64 bytes from 203.210.4.91: seq=72 ttl=51 time=180.934 ms
ping_2  | 64 bytes from 203.210.4.91: seq=76 ttl=51 time=182.394 ms
ping_1  | 64 bytes from 203.210.4.91: seq=75 ttl=51 time=182.966 ms
ping_5  | 64 bytes from 203.210.4.91: seq=67 ttl=51 time=180.742 ms
ping_9  | 64 bytes from 203.210.4.91: seq=70 ttl=51 time=175.545 ms
ping_10 | 64 bytes from 203.210.4.91: seq=72 ttl=51 time=174.819 ms
ping_4  | 64 bytes from 203.210.4.91: seq=74 ttl=51 time=176.579 ms
ping_3  | 64 bytes from 203.210.4.91: seq=71 ttl=51 time=177.653 ms
ping_8  | 64 bytes from 203.210.4.91: seq=69 ttl=51 time=176.276 ms
ping_7  | 64 bytes from 203.210.4.91: seq=68 ttl=51 time=177.337 ms
ping_6  | 64 bytes from 203.210.4.91: seq=73 ttl=51 time=177.025 ms
ping_2  | 64 bytes from 203.210.4.91: seq=77 ttl=51 time=179.667 ms
ping_1  | 64 bytes from 203.210.4.91: seq=76 ttl=51 time=180.797 ms
ping_5  | 64 bytes from 203.210.4.91: seq=68 ttl=51 time=181.806 ms
ping_9  | 64 bytes from 203.210.4.91: seq=71 ttl=51 time=185.797 ms
ping_10 | 64 bytes from 203.210.4.91: seq=73 ttl=51 time=184.898 ms
ping_4  | 64 bytes from 203.210.4.91: seq=75 ttl=51 time=183.722 ms
ping_3  | 64 bytes from 203.210.4.91: seq=72 ttl=51 time=184.112 ms
ping_8  | 64 bytes from 203.210.4.91: seq=70 ttl=51 time=182.749 ms
ping_7  | 64 bytes from 203.210.4.91: seq=69 ttl=51 time=181.640 ms
ping_6  | 64 bytes from 203.210.4.91: seq=74 ttl=51 time=181.036 ms
ping_2  | 64 bytes from 203.210.4.91: seq=78 ttl=51 time=168.874 ms
ping_1  | 64 bytes from 203.210.4.91: seq=77 ttl=51 time=169.216 ms
ping_5  | 64 bytes from 203.210.4.91: seq=69 ttl=51 time=171.304 ms
ping_9  | 64 bytes from 203.210.4.91: seq=72 ttl=51 time=174.162 ms
ping_10 | 64 bytes from 203.210.4.91: seq=74 ttl=51 time=174.662 ms
ping_4  | 64 bytes from 203.210.4.91: seq=76 ttl=51 time=176.341 ms
ping_3  | 64 bytes from 203.210.4.91: seq=73 ttl=51 time=173.893 ms
ping_8  | 64 bytes from 203.210.4.91: seq=71 ttl=51 time=176.595 ms
ping_7  | 64 bytes from 203.210.4.91: seq=70 ttl=51 time=178.340 ms
ping_6  | 64 bytes from 203.210.4.91: seq=75 ttl=51 time=180.523 ms
ping_2  | 64 bytes from 203.210.4.91: seq=79 ttl=51 time=180.485 ms
ping_1  | 64 bytes from 203.210.4.91: seq=78 ttl=51 time=181.706 ms
ping_5  | 64 bytes from 203.210.4.91: seq=70 ttl=51 time=184.599 ms
ping_9  | 64 bytes from 203.210.4.91: seq=73 ttl=51 time=184.844 ms
ping_10 | 64 bytes from 203.210.4.91: seq=75 ttl=51 time=185.201 ms
ping_4  | 64 bytes from 203.210.4.91: seq=77 ttl=51 time=185.507 ms
ping_3  | 64 bytes from 203.210.4.91: seq=74 ttl=51 time=185.307 ms
ping_8  | 64 bytes from 203.210.4.91: seq=72 ttl=51 time=181.777 ms
ping_7  | 64 bytes from 203.210.4.91: seq=71 ttl=51 time=181.050 ms
ping_6  | 64 bytes from 203.210.4.91: seq=76 ttl=51 time=177.226 ms
ping_2  | 64 bytes from 203.210.4.91: seq=80 ttl=51 time=172.096 ms
ping_1  | 64 bytes from 203.210.4.91: seq=79 ttl=51 time=175.980 ms
ping_5  | 64 bytes from 203.210.4.91: seq=71 ttl=51 time=180.423 ms
ping_9  | 64 bytes from 203.210.4.91: seq=74 ttl=51 time=180.064 ms
ping_10 | 64 bytes from 203.210.4.91: seq=76 ttl=51 time=180.627 ms
ping_4  | 64 bytes from 203.210.4.91: seq=78 ttl=51 time=183.294 ms
ping_3  | 64 bytes from 203.210.4.91: seq=75 ttl=51 time=184.600 ms
ping_8  | 64 bytes from 203.210.4.91: seq=73 ttl=51 time=185.043 ms
ping_7  | 64 bytes from 203.210.4.91: seq=72 ttl=51 time=185.112 ms
ping_6  | 64 bytes from 203.210.4.91: seq=77 ttl=51 time=185.060 ms
ping_2  | 64 bytes from 203.210.4.91: seq=81 ttl=51 time=174.054 ms
ping_1  | 64 bytes from 203.210.4.91: seq=80 ttl=51 time=173.792 ms
ping_5  | 64 bytes from 203.210.4.91: seq=72 ttl=51 time=174.980 ms
ping_9  | 64 bytes from 203.210.4.91: seq=75 ttl=51 time=174.580 ms
ping_10 | 64 bytes from 203.210.4.91: seq=77 ttl=51 time=174.160 ms
ping_4  | 64 bytes from 203.210.4.91: seq=79 ttl=51 time=175.106 ms
ping_3  | 64 bytes from 203.210.4.91: seq=76 ttl=51 time=173.260 ms
ping_8  | 64 bytes from 203.210.4.91: seq=74 ttl=51 time=174.386 ms
ping_7  | 64 bytes from 203.210.4.91: seq=73 ttl=51 time=174.504 ms
ping_6  | 64 bytes from 203.210.4.91: seq=78 ttl=51 time=176.803 ms
ping_2  | 64 bytes from 203.210.4.91: seq=82 ttl=51 time=180.085 ms
ping_1  | 64 bytes from 203.210.4.91: seq=81 ttl=51 time=180.825 ms
ping_5  | 64 bytes from 203.210.4.91: seq=73 ttl=51 time=186.163 ms
ping_9  | 64 bytes from 203.210.4.91: seq=76 ttl=51 time=183.605 ms
ping_10 | 64 bytes from 203.210.4.91: seq=78 ttl=51 time=185.305 ms
ping_4  | 64 bytes from 203.210.4.91: seq=80 ttl=51 time=184.538 ms
ping_3  | 64 bytes from 203.210.4.91: seq=77 ttl=51 time=177.711 ms
ping_8  | 64 bytes from 203.210.4.91: seq=75 ttl=51 time=175.287 ms
ping_7  | 64 bytes from 203.210.4.91: seq=74 ttl=51 time=174.934 ms
ping_6  | 64 bytes from 203.210.4.91: seq=79 ttl=51 time=173.223 ms
ping_2  | 64 bytes from 203.210.4.91: seq=83 ttl=51 time=175.405 ms
ping_1  | 64 bytes from 203.210.4.91: seq=82 ttl=51 time=175.647 ms
ping_5  | 64 bytes from 203.210.4.91: seq=74 ttl=51 time=179.464 ms
ping_9  | 64 bytes from 203.210.4.91: seq=77 ttl=51 time=180.037 ms
ping_10 | 64 bytes from 203.210.4.91: seq=79 ttl=51 time=179.940 ms
ping_4  | 64 bytes from 203.210.4.91: seq=81 ttl=51 time=180.881 ms
ping_3  | 64 bytes from 203.210.4.91: seq=78 ttl=51 time=184.324 ms
ping_8  | 64 bytes from 203.210.4.91: seq=76 ttl=51 time=184.893 ms
ping_7  | 64 bytes from 203.210.4.91: seq=75 ttl=51 time=184.150 ms
ping_6  | 64 bytes from 203.210.4.91: seq=80 ttl=51 time=184.813 ms
ping_2  | 64 bytes from 203.210.4.91: seq=84 ttl=51 time=181.874 ms
ping_1  | 64 bytes from 203.210.4.91: seq=83 ttl=51 time=183.393 ms
ping_5  | 64 bytes from 203.210.4.91: seq=75 ttl=51 time=174.566 ms
ping_9  | 64 bytes from 203.210.4.91: seq=78 ttl=51 time=170.134 ms
ping_10 | 64 bytes from 203.210.4.91: seq=80 ttl=51 time=167.972 ms
ping_4  | 64 bytes from 203.210.4.91: seq=82 ttl=51 time=169.135 ms
ping_3  | 64 bytes from 203.210.4.91: seq=79 ttl=51 time=167.886 ms
ping_8  | 64 bytes from 203.210.4.91: seq=77 ttl=51 time=167.989 ms
ping_7  | 64 bytes from 203.210.4.91: seq=76 ttl=51 time=169.277 ms
ping_6  | 64 bytes from 203.210.4.91: seq=81 ttl=51 time=170.618 ms
ping_2  | 64 bytes from 203.210.4.91: seq=85 ttl=51 time=169.883 ms
ping_1  | 64 bytes from 203.210.4.91: seq=84 ttl=51 time=167.944 ms
ping_5  | 64 bytes from 203.210.4.91: seq=76 ttl=51 time=167.766 ms
ping_9  | 64 bytes from 203.210.4.91: seq=79 ttl=51 time=170.192 ms
ping_10 | 64 bytes from 203.210.4.91: seq=81 ttl=51 time=170.090 ms
ping_4  | 64 bytes from 203.210.4.91: seq=83 ttl=51 time=168.437 ms
ping_3  | 64 bytes from 203.210.4.91: seq=80 ttl=51 time=167.458 ms
ping_8  | 64 bytes from 203.210.4.91: seq=78 ttl=51 time=167.922 ms
ping_7  | 64 bytes from 203.210.4.91: seq=77 ttl=51 time=167.785 ms
ping_6  | 64 bytes from 203.210.4.91: seq=82 ttl=51 time=167.417 ms
ping_2  | 64 bytes from 203.210.4.91: seq=86 ttl=51 time=168.128 ms
ping_1  | 64 bytes from 203.210.4.91: seq=85 ttl=51 time=167.308 ms
ping_5  | 64 bytes from 203.210.4.91: seq=77 ttl=51 time=168.230 ms
ping_9  | 64 bytes from 203.210.4.91: seq=80 ttl=51 time=168.685 ms
ping_10 | 64 bytes from 203.210.4.91: seq=82 ttl=51 time=167.875 ms
ping_4  | 64 bytes from 203.210.4.91: seq=84 ttl=51 time=168.082 ms
ping_3  | 64 bytes from 203.210.4.91: seq=81 ttl=51 time=168.812 ms
ping_8  | 64 bytes from 203.210.4.91: seq=79 ttl=51 time=168.641 ms
ping_7  | 64 bytes from 203.210.4.91: seq=78 ttl=51 time=168.890 ms
ping_6  | 64 bytes from 203.210.4.91: seq=83 ttl=51 time=171.002 ms
ping_2  | 64 bytes from 203.210.4.91: seq=87 ttl=51 time=183.590 ms
ping_1  | 64 bytes from 203.210.4.91: seq=86 ttl=51 time=182.786 ms
ping_5  | 64 bytes from 203.210.4.91: seq=78 ttl=51 time=181.803 ms
ping_9  | 64 bytes from 203.210.4.91: seq=81 ttl=51 time=180.438 ms
ping_10 | 64 bytes from 203.210.4.91: seq=83 ttl=51 time=179.850 ms
ping_4  | 64 bytes from 203.210.4.91: seq=85 ttl=51 time=180.178 ms
ping_3  | 64 bytes from 203.210.4.91: seq=82 ttl=51 time=175.324 ms
ping_8  | 64 bytes from 203.210.4.91: seq=80 ttl=51 time=177.351 ms
ping_7  | 64 bytes from 203.210.4.91: seq=79 ttl=51 time=177.194 ms
ping_6  | 64 bytes from 203.210.4.91: seq=84 ttl=51 time=179.330 ms
ping_2  | 64 bytes from 203.210.4.91: seq=88 ttl=51 time=183.438 ms
ping_1  | 64 bytes from 203.210.4.91: seq=87 ttl=51 time=183.268 ms
ping_5  | 64 bytes from 203.210.4.91: seq=79 ttl=51 time=178.718 ms
ping_9  | 64 bytes from 203.210.4.91: seq=82 ttl=51 time=174.818 ms
ping_10 | 64 bytes from 203.210.4.91: seq=84 ttl=51 time=175.532 ms
ping_4  | 64 bytes from 203.210.4.91: seq=86 ttl=51 time=179.461 ms
ping_3  | 64 bytes from 203.210.4.91: seq=83 ttl=51 time=179.275 ms
ping_8  | 64 bytes from 203.210.4.91: seq=81 ttl=51 time=176.507 ms
ping_7  | 64 bytes from 203.210.4.91: seq=80 ttl=51 time=178.682 ms
ping_6  | 64 bytes from 203.210.4.91: seq=85 ttl=51 time=179.274 ms
ping_2  | 64 bytes from 203.210.4.91: seq=89 ttl=51 time=178.267 ms
ping_1  | 64 bytes from 203.210.4.91: seq=88 ttl=51 time=179.001 ms
ping_5  | 64 bytes from 203.210.4.91: seq=80 ttl=51 time=180.697 ms
ping_9  | 64 bytes from 203.210.4.91: seq=83 ttl=51 time=178.902 ms
ping_10 | 64 bytes from 203.210.4.91: seq=85 ttl=51 time=178.013 ms
ping_4  | 64 bytes from 203.210.4.91: seq=87 ttl=51 time=181.685 ms
ping_3  | 64 bytes from 203.210.4.91: seq=84 ttl=51 time=181.652 ms
ping_8  | 64 bytes from 203.210.4.91: seq=82 ttl=51 time=182.920 ms
ping_7  | 64 bytes from 203.210.4.91: seq=81 ttl=51 time=182.029 ms
ping_6  | 64 bytes from 203.210.4.91: seq=86 ttl=51 time=183.105 ms
ping_2  | 64 bytes from 203.210.4.91: seq=90 ttl=51 time=181.990 ms
ping_1  | 64 bytes from 203.210.4.91: seq=89 ttl=51 time=182.744 ms
ping_5  | 64 bytes from 203.210.4.91: seq=81 ttl=51 time=176.736 ms
ping_9  | 64 bytes from 203.210.4.91: seq=84 ttl=51 time=174.679 ms
ping_10 | 64 bytes from 203.210.4.91: seq=86 ttl=51 time=174.687 ms
ping_4  | 64 bytes from 203.210.4.91: seq=88 ttl=51 time=173.979 ms
ping_3  | 64 bytes from 203.210.4.91: seq=85 ttl=51 time=173.041 ms
ping_8  | 64 bytes from 203.210.4.91: seq=83 ttl=51 time=171.634 ms
ping_7  | 64 bytes from 203.210.4.91: seq=82 ttl=51 time=171.807 ms
ping_6  | 64 bytes from 203.210.4.91: seq=87 ttl=51 time=171.592 ms
ping_2  | 64 bytes from 203.210.4.91: seq=91 ttl=51 time=178.418 ms
ping_1  | 64 bytes from 203.210.4.91: seq=90 ttl=51 time=179.067 ms
ping_5  | 64 bytes from 203.210.4.91: seq=82 ttl=51 time=181.183 ms
ping_9  | 64 bytes from 203.210.4.91: seq=85 ttl=51 time=181.589 ms
ping_10 | 64 bytes from 203.210.4.91: seq=87 ttl=51 time=182.073 ms
ping_4  | 64 bytes from 203.210.4.91: seq=89 ttl=51 time=182.351 ms
ping_3  | 64 bytes from 203.210.4.91: seq=86 ttl=51 time=184.496 ms
ping_8  | 64 bytes from 203.210.4.91: seq=84 ttl=51 time=186.572 ms
ping_7  | 64 bytes from 203.210.4.91: seq=83 ttl=51 time=183.456 ms
ping_6  | 64 bytes from 203.210.4.91: seq=88 ttl=51 time=182.335 ms
ping_2  | 64 bytes from 203.210.4.91: seq=92 ttl=51 time=176.716 ms
ping_1  | 64 bytes from 203.210.4.91: seq=91 ttl=51 time=176.559 ms
ping_5  | 64 bytes from 203.210.4.91: seq=83 ttl=51 time=175.977 ms
ping_9  | 64 bytes from 203.210.4.91: seq=86 ttl=51 time=175.647 ms
ping_10 | 64 bytes from 203.210.4.91: seq=88 ttl=51 time=174.957 ms
ping_4  | 64 bytes from 203.210.4.91: seq=90 ttl=51 time=176.735 ms
ping_3  | 64 bytes from 203.210.4.91: seq=87 ttl=51 time=177.645 ms
ping_8  | 64 bytes from 203.210.4.91: seq=85 ttl=51 time=179.008 ms
ping_7  | 64 bytes from 203.210.4.91: seq=84 ttl=51 time=178.199 ms
ping_6  | 64 bytes from 203.210.4.91: seq=89 ttl=51 time=179.205 ms
ping_2  | 64 bytes from 203.210.4.91: seq=93 ttl=51 time=185.275 ms
ping_1  | 64 bytes from 203.210.4.91: seq=92 ttl=51 time=185.032 ms
ping_5  | 64 bytes from 203.210.4.91: seq=84 ttl=51 time=182.668 ms
ping_9  | 64 bytes from 203.210.4.91: seq=87 ttl=51 time=179.634 ms
ping_10 | 64 bytes from 203.210.4.91: seq=89 ttl=51 time=180.369 ms
ping_4  | 64 bytes from 203.210.4.91: seq=91 ttl=51 time=178.492 ms
ping_3  | 64 bytes from 203.210.4.91: seq=88 ttl=51 time=169.031 ms
ping_8  | 64 bytes from 203.210.4.91: seq=86 ttl=51 time=167.646 ms
ping_7  | 64 bytes from 203.210.4.91: seq=85 ttl=51 time=167.823 ms
ping_6  | 64 bytes from 203.210.4.91: seq=90 ttl=51 time=167.886 ms
ping_2  | 64 bytes from 203.210.4.91: seq=94 ttl=51 time=175.067 ms
ping_1  | 64 bytes from 203.210.4.91: seq=93 ttl=51 time=175.049 ms
ping_5  | 64 bytes from 203.210.4.91: seq=85 ttl=51 time=179.276 ms
ping_9  | 64 bytes from 203.210.4.91: seq=88 ttl=51 time=185.142 ms
ping_10 | 64 bytes from 203.210.4.91: seq=90 ttl=51 time=185.645 ms
ping_4  | 64 bytes from 203.210.4.91: seq=92 ttl=51 time=185.594 ms
ping_3  | 64 bytes from 203.210.4.91: seq=89 ttl=51 time=185.490 ms
ping_8  | 64 bytes from 203.210.4.91: seq=87 ttl=51 time=184.021 ms
ping_7  | 64 bytes from 203.210.4.91: seq=86 ttl=51 time=183.130 ms
ping_6  | 64 bytes from 203.210.4.91: seq=91 ttl=51 time=182.215 ms
ping_2  | 64 bytes from 203.210.4.91: seq=95 ttl=51 time=185.376 ms
ping_1  | 64 bytes from 203.210.4.91: seq=94 ttl=51 time=185.514 ms
ping_5  | 64 bytes from 203.210.4.91: seq=86 ttl=51 time=184.325 ms
ping_9  | 64 bytes from 203.210.4.91: seq=89 ttl=51 time=184.668 ms
ping_10 | 64 bytes from 203.210.4.91: seq=91 ttl=51 time=184.988 ms
ping_4  | 64 bytes from 203.210.4.91: seq=93 ttl=51 time=185.220 ms
ping_3  | 64 bytes from 203.210.4.91: seq=90 ttl=51 time=183.443 ms
ping_8  | 64 bytes from 203.210.4.91: seq=88 ttl=51 time=183.803 ms
ping_7  | 64 bytes from 203.210.4.91: seq=87 ttl=51 time=183.412 ms
ping_6  | 64 bytes from 203.210.4.91: seq=92 ttl=51 time=185.464 ms
ping_2  | 64 bytes from 203.210.4.91: seq=96 ttl=51 time=184.457 ms
ping_1  | 64 bytes from 203.210.4.91: seq=95 ttl=51 time=184.196 ms
ping_5  | 64 bytes from 203.210.4.91: seq=87 ttl=51 time=182.393 ms
ping_9  | 64 bytes from 203.210.4.91: seq=90 ttl=51 time=184.051 ms
ping_10 | 64 bytes from 203.210.4.91: seq=92 ttl=51 time=184.479 ms
ping_4  | 64 bytes from 203.210.4.91: seq=94 ttl=51 time=185.023 ms
ping_3  | 64 bytes from 203.210.4.91: seq=91 ttl=51 time=185.195 ms
ping_8  | 64 bytes from 203.210.4.91: seq=89 ttl=51 time=184.821 ms
ping_7  | 64 bytes from 203.210.4.91: seq=88 ttl=51 time=184.840 ms
ping_6  | 64 bytes from 203.210.4.91: seq=93 ttl=51 time=185.255 ms
ping_2  | 64 bytes from 203.210.4.91: seq=97 ttl=51 time=184.915 ms
ping_1  | 64 bytes from 203.210.4.91: seq=96 ttl=51 time=184.721 ms
ping_5  | 64 bytes from 203.210.4.91: seq=88 ttl=51 time=185.542 ms
ping_9  | 64 bytes from 203.210.4.91: seq=91 ttl=51 time=184.607 ms
ping_10 | 64 bytes from 203.210.4.91: seq=93 ttl=51 time=185.143 ms
ping_4  | 64 bytes from 203.210.4.91: seq=95 ttl=51 time=184.272 ms
ping_3  | 64 bytes from 203.210.4.91: seq=92 ttl=51 time=186.321 ms
ping_8  | 64 bytes from 203.210.4.91: seq=90 ttl=51 time=184.941 ms
ping_7  | 64 bytes from 203.210.4.91: seq=89 ttl=51 time=185.453 ms
ping_6  | 64 bytes from 203.210.4.91: seq=94 ttl=51 time=185.105 ms
ping_2  | 64 bytes from 203.210.4.91: seq=98 ttl=51 time=182.378 ms
ping_1  | 64 bytes from 203.210.4.91: seq=97 ttl=51 time=181.673 ms
ping_5  | 64 bytes from 203.210.4.91: seq=89 ttl=51 time=183.369 ms
ping_9  | 64 bytes from 203.210.4.91: seq=92 ttl=51 time=185.882 ms
ping_10 | 64 bytes from 203.210.4.91: seq=94 ttl=51 time=185.217 ms
ping_4  | 64 bytes from 203.210.4.91: seq=96 ttl=51 time=184.626 ms
ping_3  | 64 bytes from 203.210.4.91: seq=93 ttl=51 time=185.228 ms
ping_8  | 64 bytes from 203.210.4.91: seq=91 ttl=51 time=184.717 ms
ping_7  | 64 bytes from 203.210.4.91: seq=90 ttl=51 time=185.614 ms
ping_6  | 64 bytes from 203.210.4.91: seq=95 ttl=51 time=184.625 ms
ping_2  | 64 bytes from 203.210.4.91: seq=99 ttl=51 time=184.278 ms
ping_2  | 
ping_2  | --- csl2.hkspeedtest.com ping statistics ---
ping_2  | 100 packets transmitted, 100 packets received, 0% packet loss
ping_2  | round-trip min/avg/max = 167.205/178.643/186.626 ms
ping_1  | 64 bytes from 203.210.4.91: seq=98 ttl=51 time=184.431 ms
ping_5  | 64 bytes from 203.210.4.91: seq=90 ttl=51 time=183.242 ms
ping_9  | 64 bytes from 203.210.4.91: seq=93 ttl=51 time=183.965 ms
ping_10 | 64 bytes from 203.210.4.91: seq=95 ttl=51 time=184.099 ms
softwareoverhead_ping_2 exited with code 0
ping_4  | 64 bytes from 203.210.4.91: seq=97 ttl=51 time=184.237 ms
ping_3  | 64 bytes from 203.210.4.91: seq=94 ttl=51 time=184.866 ms
ping_8  | 64 bytes from 203.210.4.91: seq=92 ttl=51 time=184.909 ms
ping_7  | 64 bytes from 203.210.4.91: seq=91 ttl=51 time=185.406 ms
ping_6  | 64 bytes from 203.210.4.91: seq=96 ttl=51 time=185.500 ms
ping_1  | 64 bytes from 203.210.4.91: seq=99 ttl=51 time=185.380 ms
ping_1  | 
ping_1  | --- csl2.hkspeedtest.com ping statistics ---
ping_1  | 100 packets transmitted, 100 packets received, 0% packet loss
ping_1  | round-trip min/avg/max = 167.084/179.077/185.916 ms
ping_5  | 64 bytes from 203.210.4.91: seq=91 ttl=51 time=183.766 ms
ping_9  | 64 bytes from 203.210.4.91: seq=94 ttl=51 time=184.952 ms
ping_10 | 64 bytes from 203.210.4.91: seq=96 ttl=51 time=184.911 ms
ping_4  | 64 bytes from 203.210.4.91: seq=98 ttl=51 time=184.805 ms
softwareoverhead_ping_1 exited with code 0
ping_3  | 64 bytes from 203.210.4.91: seq=95 ttl=51 time=184.858 ms
ping_8  | 64 bytes from 203.210.4.91: seq=93 ttl=51 time=184.534 ms
ping_7  | 64 bytes from 203.210.4.91: seq=92 ttl=51 time=184.144 ms
ping_6  | 64 bytes from 203.210.4.91: seq=97 ttl=51 time=184.850 ms
ping_5  | 64 bytes from 203.210.4.91: seq=92 ttl=51 time=184.424 ms
ping_9  | 64 bytes from 203.210.4.91: seq=95 ttl=51 time=185.152 ms
ping_10 | 64 bytes from 203.210.4.91: seq=97 ttl=51 time=184.811 ms
ping_4  | 64 bytes from 203.210.4.91: seq=99 ttl=51 time=185.085 ms
ping_4  | 
ping_4  | --- csl2.hkspeedtest.com ping statistics ---
ping_4  | 100 packets transmitted, 100 packets received, 0% packet loss
ping_4  | round-trip min/avg/max = 167.287/179.826/186.144 ms
ping_3  | 64 bytes from 203.210.4.91: seq=96 ttl=51 time=185.239 ms
ping_8  | 64 bytes from 203.210.4.91: seq=94 ttl=51 time=185.090 ms
ping_7  | 64 bytes from 203.210.4.91: seq=93 ttl=51 time=184.705 ms
ping_6  | 64 bytes from 203.210.4.91: seq=98 ttl=51 time=184.165 ms
softwareoverhead_ping_4 exited with code 0
ping_5  | 64 bytes from 203.210.4.91: seq=93 ttl=51 time=186.183 ms
ping_9  | 64 bytes from 203.210.4.91: seq=96 ttl=51 time=185.826 ms
ping_10 | 64 bytes from 203.210.4.91: seq=98 ttl=51 time=185.323 ms
ping_3  | 64 bytes from 203.210.4.91: seq=97 ttl=51 time=184.867 ms
ping_8  | 64 bytes from 203.210.4.91: seq=95 ttl=51 time=184.868 ms
ping_7  | 64 bytes from 203.210.4.91: seq=94 ttl=51 time=185.815 ms
ping_6  | 64 bytes from 203.210.4.91: seq=99 ttl=51 time=184.461 ms
ping_6  | 
ping_6  | --- csl2.hkspeedtest.com ping statistics ---
ping_6  | 100 packets transmitted, 100 packets received, 0% packet loss
ping_6  | round-trip min/avg/max = 167.417/179.168/186.108 ms
softwareoverhead_ping_6 exited with code 0
ping_5  | 64 bytes from 203.210.4.91: seq=94 ttl=51 time=184.305 ms
ping_9  | 64 bytes from 203.210.4.91: seq=97 ttl=51 time=184.142 ms
ping_10 | 64 bytes from 203.210.4.91: seq=99 ttl=51 time=184.950 ms
ping_10 | 
ping_10 | --- csl2.hkspeedtest.com ping statistics ---
ping_10 | 100 packets transmitted, 100 packets received, 0% packet loss
ping_10 | round-trip min/avg/max = 167.253/179.554/186.065 ms
ping_3  | 64 bytes from 203.210.4.91: seq=98 ttl=51 time=182.027 ms
ping_8  | 64 bytes from 203.210.4.91: seq=96 ttl=51 time=181.319 ms
ping_7  | 64 bytes from 203.210.4.91: seq=95 ttl=51 time=182.291 ms
softwareoverhead_ping_10 exited with code 0
ping_5  | 64 bytes from 203.210.4.91: seq=95 ttl=51 time=184.857 ms
ping_9  | 64 bytes from 203.210.4.91: seq=98 ttl=51 time=182.791 ms
ping_3  | 64 bytes from 203.210.4.91: seq=99 ttl=51 time=183.930 ms
ping_3  | 
ping_3  | --- csl2.hkspeedtest.com ping statistics ---
ping_3  | 100 packets transmitted, 100 packets received, 0% packet loss
ping_3  | round-trip min/avg/max = 167.458/179.530/186.321 ms
ping_8  | 64 bytes from 203.210.4.91: seq=97 ttl=51 time=182.439 ms
ping_7  | 64 bytes from 203.210.4.91: seq=96 ttl=51 time=181.727 ms
softwareoverhead_ping_3 exited with code 0
ping_5  | 64 bytes from 203.210.4.91: seq=96 ttl=51 time=184.107 ms
ping_9  | 64 bytes from 203.210.4.91: seq=99 ttl=51 time=183.310 ms
ping_8  | 64 bytes from 203.210.4.91: seq=98 ttl=51 time=184.906 ms
ping_7  | 64 bytes from 203.210.4.91: seq=97 ttl=51 time=184.261 ms
ping_9  | 
ping_9  | --- csl2.hkspeedtest.com ping statistics ---
ping_9  | 100 packets transmitted, 99 packets received, 1% packet loss
ping_9  | round-trip min/avg/max = 167.130/179.520/186.581 ms
ping_5  | 64 bytes from 203.210.4.91: seq=97 ttl=51 time=183.834 ms
softwareoverhead_ping_9 exited with code 0
ping_8  | 64 bytes from 203.210.4.91: seq=99 ttl=51 time=184.676 ms
ping_8  | 
ping_8  | --- csl2.hkspeedtest.com ping statistics ---
ping_8  | 100 packets transmitted, 100 packets received, 0% packet loss
ping_8  | round-trip min/avg/max = 167.541/179.304/192.245 ms
ping_7  | 64 bytes from 203.210.4.91: seq=98 ttl=51 time=186.322 ms
softwareoverhead_ping_8 exited with code 0
ping_5  | 64 bytes from 203.210.4.91: seq=98 ttl=51 time=184.707 ms
ping_7  | 64 bytes from 203.210.4.91: seq=99 ttl=51 time=185.158 ms
ping_7  | 
ping_7  | --- csl2.hkspeedtest.com ping statistics ---
ping_7  | 100 packets transmitted, 100 packets received, 0% packet loss
ping_7  | round-trip min/avg/max = 167.441/179.153/186.624 ms
softwareoverhead_ping_7 exited with code 0
ping_5  | 64 bytes from 203.210.4.91: seq=99 ttl=51 time=185.021 ms
ping_5  | 
ping_5  | --- csl2.hkspeedtest.com ping statistics ---
ping_5  | 100 packets transmitted, 100 packets received, 0% packet loss
ping_5  | round-trip min/avg/max = 167.514/179.883/186.183 ms
softwareoverhead_ping_5 exited with code 0
