     1	1373500 
     2	1373500 
     3	1373500 
     4	2114340 
     5	2114340 
     6	2114340 
     7	2147620 
     8	2147620 
     9	2147620 
    10	1786280 
    11	1786280 
    12	1786280 
    13	1596668 
    14	1596668 
    15	1596668 
    16	2429532 
    17	2429532 
    18	2429532 
    19	2303356 
    20	2303356 
    21	2303356 
    22	2044864 
    23	2044864 
    24	2044864 
    25	1859252 
    26	1859252 
    27	1859252 
    28	1666640 
    29	1666640 
    30	1666640 
    31	1522148 
    32	1522148 
    33	1522148 
    34	1498528 
    35	1498528 
    36	1492952 
    37	1492952 
    38	1492952 
    39	1484736 
    40	1484736 
    41	1484736 
    42	1466964 
    43	1466964 
    44	1466964 
    45	1440844 
    46	1440844 
    47	1440844 
    48	1430924 
    49	1430924 
    50	1430924 
    51	1422020 
    52	1422020 
    53	1422020 
