ping_20 | round-trip min/avg/max = 79.757/80.222/82.527 ms
ping_3  | round-trip min/avg/max = 79.755/80.499/88.344 ms
ping_17 | round-trip min/avg/max = 79.714/80.201/82.647 ms
ping_11 | round-trip min/avg/max = 79.785/80.251/81.469 ms
ping_12 | round-trip min/avg/max = 79.734/80.053/80.494 ms
ping_8  | round-trip min/avg/max = 79.749/80.302/85.016 ms
ping_16 | round-trip min/avg/max = 79.794/80.471/84.057 ms
ping_9  | round-trip min/avg/max = 79.724/80.248/81.349 ms
ping_19 | round-trip min/avg/max = 79.705/80.090/81.349 ms
ping_6  | round-trip min/avg/max = 79.842/80.193/81.546 ms
ping_10 | round-trip min/avg/max = 79.737/80.090/80.457 ms
ping_5  | round-trip min/avg/max = 79.789/80.304/81.801 ms
ping_14 | round-trip min/avg/max = 79.756/80.160/82.915 ms
ping_4  | round-trip min/avg/max = 79.669/80.082/80.934 ms
ping_18 | round-trip min/avg/max = 79.737/80.071/80.727 ms
ping_7  | round-trip min/avg/max = 79.743/80.002/80.351 ms
ping_13 | round-trip min/avg/max = 79.777/80.262/81.165 ms
ping_2  | round-trip min/avg/max = 79.696/80.119/81.257 ms
ping_1  | round-trip min/avg/max = 79.766/80.305/84.992 ms
ping_15 | round-trip min/avg/max = 79.661/80.062/81.252 ms
ping_25 | round-trip min/avg/max = 79.768/80.062/80.620 ms
ping_34 | round-trip min/avg/max = 79.691/80.149/80.584 ms
ping_29 | round-trip min/avg/max = 79.652/79.996/80.475 ms
ping_36 | round-trip min/avg/max = 79.776/80.195/80.963 ms
ping_26 | round-trip min/avg/max = 79.717/80.001/80.433 ms
ping_38 | round-trip min/avg/max = 79.836/80.137/80.607 ms
ping_31 | round-trip min/avg/max = 79.708/80.214/81.339 ms
ping_27 | round-trip min/avg/max = 79.806/80.216/81.640 ms
ping_30 | round-trip min/avg/max = 79.796/80.128/80.856 ms
ping_35 | round-trip min/avg/max = 79.691/80.258/83.827 ms
ping_24 | round-trip min/avg/max = 79.710/80.183/81.005 ms
ping_23 | round-trip min/avg/max = 79.798/80.098/80.463 ms
ping_37 | round-trip min/avg/max = 79.745/80.086/80.528 ms
ping_28 | round-trip min/avg/max = 79.663/80.055/81.220 ms
ping_40 | round-trip min/avg/max = 79.751/80.116/80.695 ms
ping_39 | round-trip min/avg/max = 79.756/80.251/82.269 ms
ping_32 | round-trip min/avg/max = 79.773/80.121/80.766 ms
ping_33 | round-trip min/avg/max = 79.677/80.070/80.540 ms
ping_22 | round-trip min/avg/max = 79.780/80.129/80.565 ms
ping_21 | round-trip min/avg/max = 79.695/80.151/80.866 ms
