     1	1384324 
     2	1384324 
     3	1384324 
     4	1369504 
     5	1369504 
     6	1369504 
     7	1369496 
     8	1369496 
     9	1369496 
    10	1369528 
    11	1369528 
    12	1369528 
    13	1369552 
    14	1369552 
    15	1369552 
    16	1370248 
    17	1370248 
    18	1370248 
    19	1370240 
    20	1370240 
    21	1370240 
    22	1370268 
    23	1370268 
    24	1370268 
    25	1370292 
    26	1370292 
    27	1370292 
    28	1370292 
    29	1370292 
    30	1370292 
    31	1370312 
    32	1370312 
    33	1370312 
    34	1370184 
    35	1370184 
    36	1370184 
    37	1370220 
    38	1370220 
    39	1370220 
    40	1370216 
    41	1370216 
    42	1370216 
    43	1370192 
    44	1370192 
    45	1370192 
    46	1370184 
    47	1370184 
    48	1370184 
    49	1370196 
    50	1370196 
    51	1370196 
    52	1370228 
    53	1370228 
    54	1370228 
    55	1370216 
    56	1370216 
    57	1370216 
    58	1370252 
    59	1370252 
    60	1370252 
    61	1370280 
    62	1370280 
    63	1370280 
    64	1370300 
    65	1370300 
    66	1370288 
    67	1370288 
    68	1370288 
    69	1370324 
    70	1370324 
    71	1370324 
    72	1370384 
    73	1370384 
    74	1370384 
    75	1370408 
    76	1370408 
    77	1370408 
    78	1370404 
    79	1370404 
    80	1370404 
    81	1370184 
    82	1370184 
    83	1370184 
    84	1370212 
    85	1370212 
    86	1370212 
    87	1370208 
    88	1370208 
    89	1370208 
    90	1370232 
    91	1370232 
    92	1370232 
    93	1370232 
    94	1370232 
    95	1370232 
    96	1370224 
    97	1370224 
    98	1370224 
