Attaching to softwareoverhead_ping_2, softwareoverhead_ping_1
ping_2  | PING 128.223.87.2 (128.223.87.2): 56 data bytes
ping_2  | 64 bytes from 128.223.87.2: seq=0 ttl=64 time=0.096 ms
ping_2  | 64 bytes from 128.223.87.2: seq=1 ttl=64 time=0.071 ms
ping_1  | PING 128.223.87.2 (128.223.87.2): 56 data bytes
ping_1  | 64 bytes from 128.223.87.2: seq=0 ttl=64 time=0.092 ms
ping_2  | 64 bytes from 128.223.87.2: seq=2 ttl=64 time=0.169 ms
ping_1  | 64 bytes from 128.223.87.2: seq=1 ttl=64 time=0.151 ms
ping_2  | 64 bytes from 128.223.87.2: seq=3 ttl=64 time=0.152 ms
ping_1  | 64 bytes from 128.223.87.2: seq=2 ttl=64 time=0.170 ms
ping_2  | 64 bytes from 128.223.87.2: seq=4 ttl=64 time=0.150 ms
ping_1  | 64 bytes from 128.223.87.2: seq=3 ttl=64 time=0.150 ms
ping_2  | 64 bytes from 128.223.87.2: seq=5 ttl=64 time=0.153 ms
ping_1  | 64 bytes from 128.223.87.2: seq=4 ttl=64 time=0.151 ms
ping_2  | 64 bytes from 128.223.87.2: seq=6 ttl=64 time=0.138 ms
ping_1  | 64 bytes from 128.223.87.2: seq=5 ttl=64 time=0.184 ms
ping_2  | 64 bytes from 128.223.87.2: seq=7 ttl=64 time=0.150 ms
ping_1  | 64 bytes from 128.223.87.2: seq=6 ttl=64 time=0.149 ms
ping_2  | 64 bytes from 128.223.87.2: seq=8 ttl=64 time=0.118 ms
ping_1  | 64 bytes from 128.223.87.2: seq=7 ttl=64 time=0.149 ms
ping_2  | 64 bytes from 128.223.87.2: seq=9 ttl=64 time=0.095 ms
ping_1  | 64 bytes from 128.223.87.2: seq=8 ttl=64 time=0.133 ms
ping_2  | 64 bytes from 128.223.87.2: seq=10 ttl=64 time=0.078 ms
ping_1  | 64 bytes from 128.223.87.2: seq=9 ttl=64 time=0.084 ms
ping_2  | 64 bytes from 128.223.87.2: seq=11 ttl=64 time=0.148 ms
ping_1  | 64 bytes from 128.223.87.2: seq=10 ttl=64 time=0.035 ms
ping_2  | 64 bytes from 128.223.87.2: seq=12 ttl=64 time=0.170 ms
ping_1  | 64 bytes from 128.223.87.2: seq=11 ttl=64 time=0.149 ms
ping_2  | 64 bytes from 128.223.87.2: seq=13 ttl=64 time=0.156 ms
ping_1  | 64 bytes from 128.223.87.2: seq=12 ttl=64 time=0.151 ms
ping_2  | 64 bytes from 128.223.87.2: seq=14 ttl=64 time=0.150 ms
ping_1  | 64 bytes from 128.223.87.2: seq=13 ttl=64 time=0.154 ms
ping_2  | 64 bytes from 128.223.87.2: seq=15 ttl=64 time=0.151 ms
ping_1  | 64 bytes from 128.223.87.2: seq=14 ttl=64 time=0.148 ms
ping_2  | 64 bytes from 128.223.87.2: seq=16 ttl=64 time=0.150 ms
ping_1  | 64 bytes from 128.223.87.2: seq=15 ttl=64 time=0.119 ms
ping_2  | 64 bytes from 128.223.87.2: seq=17 ttl=64 time=0.150 ms
ping_1  | 64 bytes from 128.223.87.2: seq=16 ttl=64 time=0.162 ms
ping_2  | 64 bytes from 128.223.87.2: seq=18 ttl=64 time=0.151 ms
ping_1  | 64 bytes from 128.223.87.2: seq=17 ttl=64 time=0.169 ms
ping_2  | 64 bytes from 128.223.87.2: seq=19 ttl=64 time=0.124 ms
ping_1  | 64 bytes from 128.223.87.2: seq=18 ttl=64 time=0.098 ms
ping_2  | 64 bytes from 128.223.87.2: seq=20 ttl=64 time=0.142 ms
ping_1  | 64 bytes from 128.223.87.2: seq=19 ttl=64 time=0.109 ms
ping_2  | 64 bytes from 128.223.87.2: seq=21 ttl=64 time=0.154 ms
ping_1  | 64 bytes from 128.223.87.2: seq=20 ttl=64 time=0.152 ms
ping_2  | 64 bytes from 128.223.87.2: seq=22 ttl=64 time=0.149 ms
ping_1  | 64 bytes from 128.223.87.2: seq=21 ttl=64 time=0.123 ms
ping_2  | 64 bytes from 128.223.87.2: seq=23 ttl=64 time=0.171 ms
ping_1  | 64 bytes from 128.223.87.2: seq=22 ttl=64 time=0.110 ms
ping_2  | 64 bytes from 128.223.87.2: seq=24 ttl=64 time=0.144 ms
ping_1  | 64 bytes from 128.223.87.2: seq=23 ttl=64 time=0.151 ms
ping_2  | 64 bytes from 128.223.87.2: seq=25 ttl=64 time=0.156 ms
ping_1  | 64 bytes from 128.223.87.2: seq=24 ttl=64 time=0.152 ms
ping_2  | 64 bytes from 128.223.87.2: seq=26 ttl=64 time=0.142 ms
ping_1  | 64 bytes from 128.223.87.2: seq=25 ttl=64 time=0.110 ms
ping_2  | 64 bytes from 128.223.87.2: seq=27 ttl=64 time=0.170 ms
ping_1  | 64 bytes from 128.223.87.2: seq=26 ttl=64 time=0.163 ms
ping_2  | 64 bytes from 128.223.87.2: seq=28 ttl=64 time=0.168 ms
ping_1  | 64 bytes from 128.223.87.2: seq=27 ttl=64 time=0.168 ms
ping_2  | 64 bytes from 128.223.87.2: seq=29 ttl=64 time=0.155 ms
ping_1  | 64 bytes from 128.223.87.2: seq=28 ttl=64 time=0.207 ms
ping_2  | 64 bytes from 128.223.87.2: seq=30 ttl=64 time=0.153 ms
ping_1  | 64 bytes from 128.223.87.2: seq=29 ttl=64 time=0.151 ms
ping_2  | 64 bytes from 128.223.87.2: seq=31 ttl=64 time=0.140 ms
ping_1  | 64 bytes from 128.223.87.2: seq=30 ttl=64 time=0.150 ms
ping_2  | 64 bytes from 128.223.87.2: seq=32 ttl=64 time=0.136 ms
ping_1  | 64 bytes from 128.223.87.2: seq=31 ttl=64 time=0.152 ms
ping_2  | 64 bytes from 128.223.87.2: seq=33 ttl=64 time=0.152 ms
ping_1  | 64 bytes from 128.223.87.2: seq=32 ttl=64 time=0.151 ms
ping_2  | 64 bytes from 128.223.87.2: seq=34 ttl=64 time=0.155 ms
ping_1  | 64 bytes from 128.223.87.2: seq=33 ttl=64 time=0.197 ms
ping_2  | 64 bytes from 128.223.87.2: seq=35 ttl=64 time=0.142 ms
ping_1  | 64 bytes from 128.223.87.2: seq=34 ttl=64 time=0.150 ms
ping_2  | 64 bytes from 128.223.87.2: seq=36 ttl=64 time=0.170 ms
ping_1  | 64 bytes from 128.223.87.2: seq=35 ttl=64 time=0.167 ms
ping_2  | 64 bytes from 128.223.87.2: seq=37 ttl=64 time=0.171 ms
ping_1  | 64 bytes from 128.223.87.2: seq=36 ttl=64 time=0.151 ms
ping_2  | 64 bytes from 128.223.87.2: seq=38 ttl=64 time=0.169 ms
ping_1  | 64 bytes from 128.223.87.2: seq=37 ttl=64 time=0.120 ms
ping_2  | 64 bytes from 128.223.87.2: seq=39 ttl=64 time=0.169 ms
ping_1  | 64 bytes from 128.223.87.2: seq=38 ttl=64 time=0.168 ms
ping_2  | 64 bytes from 128.223.87.2: seq=40 ttl=64 time=0.169 ms
ping_1  | 64 bytes from 128.223.87.2: seq=39 ttl=64 time=0.164 ms
ping_2  | 64 bytes from 128.223.87.2: seq=41 ttl=64 time=0.171 ms
ping_1  | 64 bytes from 128.223.87.2: seq=40 ttl=64 time=0.169 ms
ping_2  | 64 bytes from 128.223.87.2: seq=42 ttl=64 time=0.152 ms
ping_1  | 64 bytes from 128.223.87.2: seq=41 ttl=64 time=0.152 ms
ping_2  | 64 bytes from 128.223.87.2: seq=43 ttl=64 time=0.154 ms
ping_1  | 64 bytes from 128.223.87.2: seq=42 ttl=64 time=0.152 ms
ping_2  | 64 bytes from 128.223.87.2: seq=44 ttl=64 time=0.137 ms
ping_1  | 64 bytes from 128.223.87.2: seq=43 ttl=64 time=0.153 ms
ping_2  | 64 bytes from 128.223.87.2: seq=45 ttl=64 time=0.182 ms
ping_1  | 64 bytes from 128.223.87.2: seq=44 ttl=64 time=0.168 ms
ping_2  | 64 bytes from 128.223.87.2: seq=46 ttl=64 time=0.169 ms
ping_1  | 64 bytes from 128.223.87.2: seq=45 ttl=64 time=0.172 ms
ping_2  | 64 bytes from 128.223.87.2: seq=47 ttl=64 time=0.143 ms
ping_1  | 64 bytes from 128.223.87.2: seq=46 ttl=64 time=0.112 ms
ping_2  | 64 bytes from 128.223.87.2: seq=48 ttl=64 time=0.151 ms
ping_1  | 64 bytes from 128.223.87.2: seq=47 ttl=64 time=0.111 ms
ping_2  | 64 bytes from 128.223.87.2: seq=49 ttl=64 time=0.154 ms
ping_1  | 64 bytes from 128.223.87.2: seq=48 ttl=64 time=0.143 ms
ping_2  | 64 bytes from 128.223.87.2: seq=50 ttl=64 time=0.170 ms
ping_1  | 64 bytes from 128.223.87.2: seq=49 ttl=64 time=0.206 ms
ping_2  | 64 bytes from 128.223.87.2: seq=51 ttl=64 time=0.171 ms
ping_1  | 64 bytes from 128.223.87.2: seq=50 ttl=64 time=0.168 ms
ping_2  | 64 bytes from 128.223.87.2: seq=52 ttl=64 time=0.152 ms
ping_1  | 64 bytes from 128.223.87.2: seq=51 ttl=64 time=0.149 ms
ping_2  | 64 bytes from 128.223.87.2: seq=53 ttl=64 time=0.170 ms
ping_1  | 64 bytes from 128.223.87.2: seq=52 ttl=64 time=0.176 ms
ping_2  | 64 bytes from 128.223.87.2: seq=54 ttl=64 time=0.169 ms
ping_1  | 64 bytes from 128.223.87.2: seq=53 ttl=64 time=0.168 ms
ping_2  | 64 bytes from 128.223.87.2: seq=55 ttl=64 time=0.152 ms
ping_1  | 64 bytes from 128.223.87.2: seq=54 ttl=64 time=0.152 ms
ping_2  | 64 bytes from 128.223.87.2: seq=56 ttl=64 time=0.154 ms
ping_1  | 64 bytes from 128.223.87.2: seq=55 ttl=64 time=0.150 ms
ping_2  | 64 bytes from 128.223.87.2: seq=57 ttl=64 time=0.153 ms
ping_1  | 64 bytes from 128.223.87.2: seq=56 ttl=64 time=0.120 ms
ping_2  | 64 bytes from 128.223.87.2: seq=58 ttl=64 time=0.156 ms
ping_1  | 64 bytes from 128.223.87.2: seq=57 ttl=64 time=0.153 ms
ping_2  | 64 bytes from 128.223.87.2: seq=59 ttl=64 time=0.159 ms
ping_1  | 64 bytes from 128.223.87.2: seq=58 ttl=64 time=0.152 ms
ping_2  | 64 bytes from 128.223.87.2: seq=60 ttl=64 time=0.150 ms
ping_1  | 64 bytes from 128.223.87.2: seq=59 ttl=64 time=0.105 ms
ping_2  | 64 bytes from 128.223.87.2: seq=61 ttl=64 time=0.145 ms
ping_1  | 64 bytes from 128.223.87.2: seq=60 ttl=64 time=0.105 ms
ping_2  | 64 bytes from 128.223.87.2: seq=62 ttl=64 time=0.150 ms
ping_1  | 64 bytes from 128.223.87.2: seq=61 ttl=64 time=0.152 ms
ping_2  | 64 bytes from 128.223.87.2: seq=63 ttl=64 time=0.170 ms
ping_1  | 64 bytes from 128.223.87.2: seq=62 ttl=64 time=0.168 ms
ping_2  | 64 bytes from 128.223.87.2: seq=64 ttl=64 time=0.153 ms
ping_1  | 64 bytes from 128.223.87.2: seq=63 ttl=64 time=0.152 ms
ping_2  | 64 bytes from 128.223.87.2: seq=65 ttl=64 time=0.153 ms
ping_1  | 64 bytes from 128.223.87.2: seq=64 ttl=64 time=0.151 ms
ping_2  | 64 bytes from 128.223.87.2: seq=66 ttl=64 time=0.153 ms
ping_1  | 64 bytes from 128.223.87.2: seq=65 ttl=64 time=0.150 ms
ping_2  | 64 bytes from 128.223.87.2: seq=67 ttl=64 time=0.152 ms
ping_1  | 64 bytes from 128.223.87.2: seq=66 ttl=64 time=0.176 ms
ping_2  | 64 bytes from 128.223.87.2: seq=68 ttl=64 time=0.181 ms
ping_1  | 64 bytes from 128.223.87.2: seq=67 ttl=64 time=0.154 ms
ping_2  | 64 bytes from 128.223.87.2: seq=69 ttl=64 time=0.152 ms
ping_1  | 64 bytes from 128.223.87.2: seq=68 ttl=64 time=0.153 ms
ping_2  | 64 bytes from 128.223.87.2: seq=70 ttl=64 time=0.150 ms
ping_1  | 64 bytes from 128.223.87.2: seq=69 ttl=64 time=0.153 ms
ping_2  | 64 bytes from 128.223.87.2: seq=71 ttl=64 time=0.152 ms
ping_1  | 64 bytes from 128.223.87.2: seq=70 ttl=64 time=0.151 ms
ping_2  | 64 bytes from 128.223.87.2: seq=72 ttl=64 time=0.150 ms
ping_1  | 64 bytes from 128.223.87.2: seq=71 ttl=64 time=0.107 ms
ping_2  | 64 bytes from 128.223.87.2: seq=73 ttl=64 time=0.147 ms
ping_1  | 64 bytes from 128.223.87.2: seq=72 ttl=64 time=0.151 ms
ping_2  | 64 bytes from 128.223.87.2: seq=74 ttl=64 time=0.154 ms
ping_1  | 64 bytes from 128.223.87.2: seq=73 ttl=64 time=0.152 ms
ping_2  | 64 bytes from 128.223.87.2: seq=75 ttl=64 time=0.152 ms
ping_1  | 64 bytes from 128.223.87.2: seq=74 ttl=64 time=0.154 ms
ping_2  | 64 bytes from 128.223.87.2: seq=76 ttl=64 time=0.153 ms
ping_1  | 64 bytes from 128.223.87.2: seq=75 ttl=64 time=0.151 ms
ping_2  | 64 bytes from 128.223.87.2: seq=77 ttl=64 time=0.170 ms
ping_1  | 64 bytes from 128.223.87.2: seq=76 ttl=64 time=0.162 ms
ping_2  | 64 bytes from 128.223.87.2: seq=78 ttl=64 time=0.174 ms
ping_1  | 64 bytes from 128.223.87.2: seq=77 ttl=64 time=0.162 ms
ping_2  | 64 bytes from 128.223.87.2: seq=79 ttl=64 time=0.155 ms
ping_1  | 64 bytes from 128.223.87.2: seq=78 ttl=64 time=0.149 ms
ping_2  | 64 bytes from 128.223.87.2: seq=80 ttl=64 time=0.154 ms
ping_1  | 64 bytes from 128.223.87.2: seq=79 ttl=64 time=0.154 ms
ping_2  | 64 bytes from 128.223.87.2: seq=81 ttl=64 time=0.153 ms
ping_1  | 64 bytes from 128.223.87.2: seq=80 ttl=64 time=0.151 ms
ping_2  | 64 bytes from 128.223.87.2: seq=82 ttl=64 time=0.152 ms
ping_1  | 64 bytes from 128.223.87.2: seq=81 ttl=64 time=0.184 ms
ping_2  | 64 bytes from 128.223.87.2: seq=83 ttl=64 time=0.152 ms
ping_1  | 64 bytes from 128.223.87.2: seq=82 ttl=64 time=0.152 ms
ping_2  | 64 bytes from 128.223.87.2: seq=84 ttl=64 time=0.154 ms
ping_1  | 64 bytes from 128.223.87.2: seq=83 ttl=64 time=0.150 ms
ping_2  | 64 bytes from 128.223.87.2: seq=85 ttl=64 time=0.101 ms
ping_1  | 64 bytes from 128.223.87.2: seq=84 ttl=64 time=0.153 ms
ping_2  | 64 bytes from 128.223.87.2: seq=86 ttl=64 time=0.155 ms
ping_1  | 64 bytes from 128.223.87.2: seq=85 ttl=64 time=0.100 ms
ping_2  | 64 bytes from 128.223.87.2: seq=87 ttl=64 time=0.073 ms
ping_1  | 64 bytes from 128.223.87.2: seq=86 ttl=64 time=0.108 ms
ping_2  | 64 bytes from 128.223.87.2: seq=88 ttl=64 time=0.136 ms
ping_1  | 64 bytes from 128.223.87.2: seq=87 ttl=64 time=0.066 ms
ping_2  | 64 bytes from 128.223.87.2: seq=89 ttl=64 time=0.171 ms
ping_1  | 64 bytes from 128.223.87.2: seq=88 ttl=64 time=0.176 ms
ping_2  | 64 bytes from 128.223.87.2: seq=90 ttl=64 time=0.151 ms
ping_1  | 64 bytes from 128.223.87.2: seq=89 ttl=64 time=0.167 ms
ping_2  | 64 bytes from 128.223.87.2: seq=91 ttl=64 time=0.170 ms
ping_1  | 64 bytes from 128.223.87.2: seq=90 ttl=64 time=0.167 ms
ping_2  | 64 bytes from 128.223.87.2: seq=92 ttl=64 time=0.170 ms
ping_1  | 64 bytes from 128.223.87.2: seq=91 ttl=64 time=0.173 ms
ping_2  | 64 bytes from 128.223.87.2: seq=93 ttl=64 time=0.169 ms
ping_1  | 64 bytes from 128.223.87.2: seq=92 ttl=64 time=0.172 ms
ping_2  | 64 bytes from 128.223.87.2: seq=94 ttl=64 time=0.150 ms
ping_1  | 64 bytes from 128.223.87.2: seq=93 ttl=64 time=0.170 ms
ping_2  | 64 bytes from 128.223.87.2: seq=95 ttl=64 time=0.152 ms
ping_1  | 64 bytes from 128.223.87.2: seq=94 ttl=64 time=0.157 ms
ping_2  | 64 bytes from 128.223.87.2: seq=96 ttl=64 time=0.153 ms
ping_1  | 64 bytes from 128.223.87.2: seq=95 ttl=64 time=0.155 ms
ping_2  | 64 bytes from 128.223.87.2: seq=97 ttl=64 time=0.160 ms
ping_1  | 64 bytes from 128.223.87.2: seq=96 ttl=64 time=0.172 ms
ping_2  | 64 bytes from 128.223.87.2: seq=98 ttl=64 time=0.162 ms
ping_1  | 64 bytes from 128.223.87.2: seq=97 ttl=64 time=0.173 ms
ping_2  | 64 bytes from 128.223.87.2: seq=99 ttl=64 time=0.143 ms
ping_1  | 64 bytes from 128.223.87.2: seq=98 ttl=64 time=0.153 ms
ping_2  | 64 bytes from 128.223.87.2: seq=100 ttl=64 time=0.152 ms
ping_1  | 64 bytes from 128.223.87.2: seq=99 ttl=64 time=0.154 ms
ping_2  | 64 bytes from 128.223.87.2: seq=101 ttl=64 time=0.141 ms
ping_1  | 64 bytes from 128.223.87.2: seq=100 ttl=64 time=0.153 ms
ping_2  | 64 bytes from 128.223.87.2: seq=102 ttl=64 time=0.172 ms
ping_1  | 64 bytes from 128.223.87.2: seq=101 ttl=64 time=0.170 ms
ping_2  | 64 bytes from 128.223.87.2: seq=103 ttl=64 time=0.168 ms
ping_1  | 64 bytes from 128.223.87.2: seq=102 ttl=64 time=0.185 ms
ping_2  | 64 bytes from 128.223.87.2: seq=104 ttl=64 time=0.170 ms
ping_1  | 64 bytes from 128.223.87.2: seq=103 ttl=64 time=0.170 ms
ping_2  | 64 bytes from 128.223.87.2: seq=105 ttl=64 time=0.152 ms
ping_1  | 64 bytes from 128.223.87.2: seq=104 ttl=64 time=0.166 ms
ping_2  | 64 bytes from 128.223.87.2: seq=106 ttl=64 time=0.150 ms
ping_1  | 64 bytes from 128.223.87.2: seq=105 ttl=64 time=0.107 ms
ping_2  | 64 bytes from 128.223.87.2: seq=107 ttl=64 time=0.151 ms
ping_1  | 64 bytes from 128.223.87.2: seq=106 ttl=64 time=0.154 ms
ping_2  | 64 bytes from 128.223.87.2: seq=108 ttl=64 time=0.169 ms
ping_1  | 64 bytes from 128.223.87.2: seq=107 ttl=64 time=0.170 ms
ping_2  | 64 bytes from 128.223.87.2: seq=109 ttl=64 time=0.168 ms
ping_1  | 64 bytes from 128.223.87.2: seq=108 ttl=64 time=0.151 ms
ping_2  | 64 bytes from 128.223.87.2: seq=110 ttl=64 time=0.152 ms
ping_1  | 64 bytes from 128.223.87.2: seq=109 ttl=64 time=0.169 ms
ping_2  | 64 bytes from 128.223.87.2: seq=111 ttl=64 time=0.156 ms
ping_1  | 64 bytes from 128.223.87.2: seq=110 ttl=64 time=0.154 ms
ping_2  | 64 bytes from 128.223.87.2: seq=112 ttl=64 time=0.154 ms
ping_1  | 64 bytes from 128.223.87.2: seq=111 ttl=64 time=0.152 ms
ping_2  | 64 bytes from 128.223.87.2: seq=113 ttl=64 time=0.152 ms
ping_1  | 64 bytes from 128.223.87.2: seq=112 ttl=64 time=0.152 ms
ping_2  | 64 bytes from 128.223.87.2: seq=114 ttl=64 time=0.167 ms
ping_1  | 64 bytes from 128.223.87.2: seq=113 ttl=64 time=0.152 ms
ping_2  | 64 bytes from 128.223.87.2: seq=115 ttl=64 time=0.151 ms
ping_1  | 64 bytes from 128.223.87.2: seq=114 ttl=64 time=0.153 ms
ping_2  | 64 bytes from 128.223.87.2: seq=116 ttl=64 time=0.152 ms
ping_1  | 64 bytes from 128.223.87.2: seq=115 ttl=64 time=0.152 ms
ping_2  | 64 bytes from 128.223.87.2: seq=117 ttl=64 time=0.151 ms
ping_1  | 64 bytes from 128.223.87.2: seq=116 ttl=64 time=0.152 ms
ping_2  | 64 bytes from 128.223.87.2: seq=118 ttl=64 time=0.173 ms
ping_1  | 64 bytes from 128.223.87.2: seq=117 ttl=64 time=0.151 ms
ping_2  | 64 bytes from 128.223.87.2: seq=119 ttl=64 time=0.155 ms
ping_1  | 64 bytes from 128.223.87.2: seq=118 ttl=64 time=0.154 ms
ping_2  | 64 bytes from 128.223.87.2: seq=120 ttl=64 time=0.152 ms
ping_1  | 64 bytes from 128.223.87.2: seq=119 ttl=64 time=0.208 ms
ping_2  | 64 bytes from 128.223.87.2: seq=121 ttl=64 time=0.170 ms
ping_1  | 64 bytes from 128.223.87.2: seq=120 ttl=64 time=0.154 ms
ping_2  | 64 bytes from 128.223.87.2: seq=122 ttl=64 time=0.135 ms
ping_1  | 64 bytes from 128.223.87.2: seq=121 ttl=64 time=0.152 ms
ping_2  | 64 bytes from 128.223.87.2: seq=123 ttl=64 time=0.155 ms
ping_1  | 64 bytes from 128.223.87.2: seq=122 ttl=64 time=0.155 ms
ping_2  | 64 bytes from 128.223.87.2: seq=124 ttl=64 time=0.198 ms
ping_1  | 64 bytes from 128.223.87.2: seq=123 ttl=64 time=0.107 ms
ping_2  | 64 bytes from 128.223.87.2: seq=125 ttl=64 time=0.171 ms
ping_1  | 64 bytes from 128.223.87.2: seq=124 ttl=64 time=0.171 ms
ping_2  | 64 bytes from 128.223.87.2: seq=126 ttl=64 time=0.166 ms
ping_1  | 64 bytes from 128.223.87.2: seq=125 ttl=64 time=0.108 ms
ping_2  | 64 bytes from 128.223.87.2: seq=127 ttl=64 time=0.152 ms
ping_1  | 64 bytes from 128.223.87.2: seq=126 ttl=64 time=0.153 ms
ping_2  | 64 bytes from 128.223.87.2: seq=128 ttl=64 time=0.142 ms
ping_1  | 64 bytes from 128.223.87.2: seq=127 ttl=64 time=0.153 ms
ping_2  | 64 bytes from 128.223.87.2: seq=129 ttl=64 time=0.169 ms
ping_1  | 64 bytes from 128.223.87.2: seq=128 ttl=64 time=0.166 ms
ping_2  | 64 bytes from 128.223.87.2: seq=130 ttl=64 time=0.170 ms
ping_1  | 64 bytes from 128.223.87.2: seq=129 ttl=64 time=0.202 ms
ping_2  | 64 bytes from 128.223.87.2: seq=131 ttl=64 time=0.180 ms
ping_1  | 64 bytes from 128.223.87.2: seq=130 ttl=64 time=0.149 ms
ping_2  | 64 bytes from 128.223.87.2: seq=132 ttl=64 time=0.141 ms
ping_1  | 64 bytes from 128.223.87.2: seq=131 ttl=64 time=0.103 ms
ping_2  | 64 bytes from 128.223.87.2: seq=133 ttl=64 time=0.174 ms
ping_1  | 64 bytes from 128.223.87.2: seq=132 ttl=64 time=0.151 ms
ping_2  | 64 bytes from 128.223.87.2: seq=134 ttl=64 time=0.168 ms
ping_1  | 64 bytes from 128.223.87.2: seq=133 ttl=64 time=0.167 ms
ping_2  | 64 bytes from 128.223.87.2: seq=135 ttl=64 time=0.170 ms
ping_1  | 64 bytes from 128.223.87.2: seq=134 ttl=64 time=0.169 ms
ping_2  | 64 bytes from 128.223.87.2: seq=136 ttl=64 time=0.154 ms
ping_1  | 64 bytes from 128.223.87.2: seq=135 ttl=64 time=0.171 ms
ping_2  | 64 bytes from 128.223.87.2: seq=137 ttl=64 time=0.153 ms
ping_1  | 64 bytes from 128.223.87.2: seq=136 ttl=64 time=0.151 ms
ping_2  | 64 bytes from 128.223.87.2: seq=138 ttl=64 time=0.152 ms
ping_1  | 64 bytes from 128.223.87.2: seq=137 ttl=64 time=0.150 ms
ping_2  | 64 bytes from 128.223.87.2: seq=139 ttl=64 time=0.169 ms
ping_1  | 64 bytes from 128.223.87.2: seq=138 ttl=64 time=0.182 ms
ping_2  | 64 bytes from 128.223.87.2: seq=140 ttl=64 time=0.170 ms
ping_1  | 64 bytes from 128.223.87.2: seq=139 ttl=64 time=0.168 ms
ping_2  | 64 bytes from 128.223.87.2: seq=141 ttl=64 time=0.165 ms
ping_1  | 64 bytes from 128.223.87.2: seq=140 ttl=64 time=0.119 ms
ping_2  | 64 bytes from 128.223.87.2: seq=142 ttl=64 time=0.152 ms
ping_1  | 64 bytes from 128.223.87.2: seq=141 ttl=64 time=0.105 ms
ping_2  | 64 bytes from 128.223.87.2: seq=143 ttl=64 time=0.168 ms
ping_1  | 64 bytes from 128.223.87.2: seq=142 ttl=64 time=0.166 ms
ping_2  | 64 bytes from 128.223.87.2: seq=144 ttl=64 time=0.147 ms
ping_1  | 64 bytes from 128.223.87.2: seq=143 ttl=64 time=0.104 ms
ping_2  | 64 bytes from 128.223.87.2: seq=145 ttl=64 time=0.172 ms
ping_1  | 64 bytes from 128.223.87.2: seq=144 ttl=64 time=0.153 ms
ping_2  | 64 bytes from 128.223.87.2: seq=146 ttl=64 time=0.154 ms
ping_1  | 64 bytes from 128.223.87.2: seq=145 ttl=64 time=0.121 ms
ping_2  | 64 bytes from 128.223.87.2: seq=147 ttl=64 time=0.150 ms
ping_1  | 64 bytes from 128.223.87.2: seq=146 ttl=64 time=0.109 ms
ping_2  | 64 bytes from 128.223.87.2: seq=148 ttl=64 time=0.153 ms
ping_1  | 64 bytes from 128.223.87.2: seq=147 ttl=64 time=0.152 ms
ping_2  | 64 bytes from 128.223.87.2: seq=149 ttl=64 time=0.154 ms
ping_1  | 64 bytes from 128.223.87.2: seq=148 ttl=64 time=0.153 ms
ping_2  | 64 bytes from 128.223.87.2: seq=150 ttl=64 time=0.156 ms
ping_1  | 64 bytes from 128.223.87.2: seq=149 ttl=64 time=0.178 ms
ping_2  | 64 bytes from 128.223.87.2: seq=151 ttl=64 time=0.170 ms
ping_1  | 64 bytes from 128.223.87.2: seq=150 ttl=64 time=0.169 ms
ping_2  | 64 bytes from 128.223.87.2: seq=152 ttl=64 time=0.177 ms
ping_1  | 64 bytes from 128.223.87.2: seq=151 ttl=64 time=0.123 ms
ping_2  | 64 bytes from 128.223.87.2: seq=153 ttl=64 time=0.152 ms
ping_1  | 64 bytes from 128.223.87.2: seq=152 ttl=64 time=0.152 ms
ping_2  | 64 bytes from 128.223.87.2: seq=154 ttl=64 time=0.152 ms
ping_1  | 64 bytes from 128.223.87.2: seq=153 ttl=64 time=0.153 ms
ping_2  | 64 bytes from 128.223.87.2: seq=155 ttl=64 time=0.152 ms
ping_1  | 64 bytes from 128.223.87.2: seq=154 ttl=64 time=0.152 ms
ping_2  | 64 bytes from 128.223.87.2: seq=156 ttl=64 time=0.156 ms
ping_1  | 64 bytes from 128.223.87.2: seq=155 ttl=64 time=0.120 ms
ping_2  | 64 bytes from 128.223.87.2: seq=157 ttl=64 time=0.153 ms
ping_1  | 64 bytes from 128.223.87.2: seq=156 ttl=64 time=0.151 ms
ping_2  | 64 bytes from 128.223.87.2: seq=158 ttl=64 time=0.152 ms
ping_1  | 64 bytes from 128.223.87.2: seq=157 ttl=64 time=0.151 ms
ping_2  | 64 bytes from 128.223.87.2: seq=159 ttl=64 time=0.104 ms
ping_1  | 64 bytes from 128.223.87.2: seq=158 ttl=64 time=0.148 ms
ping_2  | 64 bytes from 128.223.87.2: seq=160 ttl=64 time=0.098 ms
ping_1  | 64 bytes from 128.223.87.2: seq=159 ttl=64 time=0.090 ms
ping_2  | 64 bytes from 128.223.87.2: seq=161 ttl=64 time=0.091 ms
ping_1  | 64 bytes from 128.223.87.2: seq=160 ttl=64 time=0.099 ms
ping_2  | 64 bytes from 128.223.87.2: seq=162 ttl=64 time=0.130 ms
ping_1  | 64 bytes from 128.223.87.2: seq=161 ttl=64 time=0.043 ms
ping_2  | 64 bytes from 128.223.87.2: seq=163 ttl=64 time=0.169 ms
ping_1  | 64 bytes from 128.223.87.2: seq=162 ttl=64 time=0.058 ms
ping_2  | 64 bytes from 128.223.87.2: seq=164 ttl=64 time=0.152 ms
ping_1  | 64 bytes from 128.223.87.2: seq=163 ttl=64 time=0.154 ms
ping_2  | 64 bytes from 128.223.87.2: seq=165 ttl=64 time=0.150 ms
ping_1  | 64 bytes from 128.223.87.2: seq=164 ttl=64 time=0.150 ms
ping_2  | 64 bytes from 128.223.87.2: seq=166 ttl=64 time=0.151 ms
ping_1  | 64 bytes from 128.223.87.2: seq=165 ttl=64 time=0.151 ms
ping_2  | 64 bytes from 128.223.87.2: seq=167 ttl=64 time=0.150 ms
ping_1  | 64 bytes from 128.223.87.2: seq=166 ttl=64 time=0.152 ms
ping_2  | 64 bytes from 128.223.87.2: seq=168 ttl=64 time=0.150 ms
ping_1  | 64 bytes from 128.223.87.2: seq=167 ttl=64 time=0.152 ms
ping_2  | 64 bytes from 128.223.87.2: seq=169 ttl=64 time=0.151 ms
ping_1  | 64 bytes from 128.223.87.2: seq=168 ttl=64 time=0.150 ms
ping_2  | 64 bytes from 128.223.87.2: seq=170 ttl=64 time=0.169 ms
ping_1  | 64 bytes from 128.223.87.2: seq=169 ttl=64 time=0.197 ms
ping_2  | 64 bytes from 128.223.87.2: seq=171 ttl=64 time=0.166 ms
ping_1  | 64 bytes from 128.223.87.2: seq=170 ttl=64 time=0.170 ms
ping_2  | 64 bytes from 128.223.87.2: seq=172 ttl=64 time=0.169 ms
ping_1  | 64 bytes from 128.223.87.2: seq=171 ttl=64 time=0.122 ms
ping_2  | 64 bytes from 128.223.87.2: seq=173 ttl=64 time=0.202 ms
ping_1  | 64 bytes from 128.223.87.2: seq=172 ttl=64 time=0.167 ms
ping_2  | 64 bytes from 128.223.87.2: seq=174 ttl=64 time=0.167 ms
ping_1  | 64 bytes from 128.223.87.2: seq=173 ttl=64 time=0.167 ms
ping_2  | 64 bytes from 128.223.87.2: seq=175 ttl=64 time=0.169 ms
ping_1  | 64 bytes from 128.223.87.2: seq=174 ttl=64 time=0.199 ms
ping_2  | 64 bytes from 128.223.87.2: seq=176 ttl=64 time=0.150 ms
ping_1  | 64 bytes from 128.223.87.2: seq=175 ttl=64 time=0.149 ms
ping_2  | 64 bytes from 128.223.87.2: seq=177 ttl=64 time=0.171 ms
ping_1  | 64 bytes from 128.223.87.2: seq=176 ttl=64 time=0.138 ms
ping_2  | 64 bytes from 128.223.87.2: seq=178 ttl=64 time=0.149 ms
ping_1  | 64 bytes from 128.223.87.2: seq=177 ttl=64 time=0.149 ms
ping_2  | 64 bytes from 128.223.87.2: seq=179 ttl=64 time=0.151 ms
ping_1  | 64 bytes from 128.223.87.2: seq=178 ttl=64 time=0.151 ms
ping_2  | 64 bytes from 128.223.87.2: seq=180 ttl=64 time=0.190 ms
ping_1  | 64 bytes from 128.223.87.2: seq=179 ttl=64 time=0.167 ms
ping_2  | 64 bytes from 128.223.87.2: seq=181 ttl=64 time=0.171 ms
ping_1  | 64 bytes from 128.223.87.2: seq=180 ttl=64 time=0.170 ms
ping_2  | 64 bytes from 128.223.87.2: seq=182 ttl=64 time=0.171 ms
ping_1  | 64 bytes from 128.223.87.2: seq=181 ttl=64 time=0.168 ms
ping_2  | 64 bytes from 128.223.87.2: seq=183 ttl=64 time=0.152 ms
ping_1  | 64 bytes from 128.223.87.2: seq=182 ttl=64 time=0.151 ms
ping_2  | 64 bytes from 128.223.87.2: seq=184 ttl=64 time=0.152 ms
ping_1  | 64 bytes from 128.223.87.2: seq=183 ttl=64 time=0.151 ms
ping_2  | 64 bytes from 128.223.87.2: seq=185 ttl=64 time=0.152 ms
ping_1  | 64 bytes from 128.223.87.2: seq=184 ttl=64 time=0.171 ms
ping_2  | 64 bytes from 128.223.87.2: seq=186 ttl=64 time=0.169 ms
ping_1  | 64 bytes from 128.223.87.2: seq=185 ttl=64 time=0.167 ms
ping_2  | 64 bytes from 128.223.87.2: seq=187 ttl=64 time=0.142 ms
ping_1  | 64 bytes from 128.223.87.2: seq=186 ttl=64 time=0.143 ms
ping_2  | 64 bytes from 128.223.87.2: seq=188 ttl=64 time=0.150 ms
ping_1  | 64 bytes from 128.223.87.2: seq=187 ttl=64 time=0.150 ms
ping_2  | 64 bytes from 128.223.87.2: seq=189 ttl=64 time=0.151 ms
ping_1  | 64 bytes from 128.223.87.2: seq=188 ttl=64 time=0.151 ms
ping_2  | 64 bytes from 128.223.87.2: seq=190 ttl=64 time=0.151 ms
ping_1  | 64 bytes from 128.223.87.2: seq=189 ttl=64 time=0.152 ms
ping_2  | 64 bytes from 128.223.87.2: seq=191 ttl=64 time=0.152 ms
ping_1  | 64 bytes from 128.223.87.2: seq=190 ttl=64 time=0.149 ms
ping_2  | 64 bytes from 128.223.87.2: seq=192 ttl=64 time=0.135 ms
ping_1  | 64 bytes from 128.223.87.2: seq=191 ttl=64 time=0.171 ms
ping_2  | 64 bytes from 128.223.87.2: seq=193 ttl=64 time=0.168 ms
ping_1  | 64 bytes from 128.223.87.2: seq=192 ttl=64 time=0.156 ms
ping_2  | 64 bytes from 128.223.87.2: seq=194 ttl=64 time=0.169 ms
ping_1  | 64 bytes from 128.223.87.2: seq=193 ttl=64 time=0.164 ms
ping_2  | 64 bytes from 128.223.87.2: seq=195 ttl=64 time=0.135 ms
ping_1  | 64 bytes from 128.223.87.2: seq=194 ttl=64 time=0.151 ms
ping_2  | 64 bytes from 128.223.87.2: seq=196 ttl=64 time=0.140 ms
ping_1  | 64 bytes from 128.223.87.2: seq=195 ttl=64 time=0.150 ms
ping_2  | 64 bytes from 128.223.87.2: seq=197 ttl=64 time=0.169 ms
ping_1  | 64 bytes from 128.223.87.2: seq=196 ttl=64 time=0.115 ms
ping_2  | 64 bytes from 128.223.87.2: seq=198 ttl=64 time=0.150 ms
ping_1  | 64 bytes from 128.223.87.2: seq=197 ttl=64 time=0.149 ms
ping_2  | 64 bytes from 128.223.87.2: seq=199 ttl=64 time=0.142 ms
ping_1  | 64 bytes from 128.223.87.2: seq=198 ttl=64 time=0.167 ms
ping_2  | 64 bytes from 128.223.87.2: seq=200 ttl=64 time=0.129 ms
ping_1  | 64 bytes from 128.223.87.2: seq=199 ttl=64 time=0.149 ms
ping_2  | 64 bytes from 128.223.87.2: seq=201 ttl=64 time=0.170 ms
ping_1  | 64 bytes from 128.223.87.2: seq=200 ttl=64 time=0.166 ms
ping_2  | 64 bytes from 128.223.87.2: seq=202 ttl=64 time=0.147 ms
ping_1  | 64 bytes from 128.223.87.2: seq=201 ttl=64 time=0.104 ms
ping_2  | 64 bytes from 128.223.87.2: seq=203 ttl=64 time=0.148 ms
ping_1  | 64 bytes from 128.223.87.2: seq=202 ttl=64 time=0.105 ms
ping_2  | 64 bytes from 128.223.87.2: seq=204 ttl=64 time=0.136 ms
ping_1  | 64 bytes from 128.223.87.2: seq=203 ttl=64 time=0.150 ms
ping_2  | 64 bytes from 128.223.87.2: seq=205 ttl=64 time=0.168 ms
ping_1  | 64 bytes from 128.223.87.2: seq=204 ttl=64 time=0.169 ms
ping_2  | 64 bytes from 128.223.87.2: seq=206 ttl=64 time=0.150 ms
ping_1  | 64 bytes from 128.223.87.2: seq=205 ttl=64 time=0.150 ms
ping_2  | 64 bytes from 128.223.87.2: seq=207 ttl=64 time=0.140 ms
ping_1  | 64 bytes from 128.223.87.2: seq=206 ttl=64 time=0.102 ms
ping_2  | 64 bytes from 128.223.87.2: seq=208 ttl=64 time=0.169 ms
ping_1  | 64 bytes from 128.223.87.2: seq=207 ttl=64 time=0.166 ms
ping_2  | 64 bytes from 128.223.87.2: seq=209 ttl=64 time=0.173 ms
ping_1  | 64 bytes from 128.223.87.2: seq=208 ttl=64 time=0.167 ms
ping_2  | 64 bytes from 128.223.87.2: seq=210 ttl=64 time=0.130 ms
ping_1  | 64 bytes from 128.223.87.2: seq=209 ttl=64 time=0.102 ms
ping_2  | 64 bytes from 128.223.87.2: seq=211 ttl=64 time=0.184 ms
ping_1  | 64 bytes from 128.223.87.2: seq=210 ttl=64 time=0.179 ms
ping_2  | 64 bytes from 128.223.87.2: seq=212 ttl=64 time=0.173 ms
ping_1  | 64 bytes from 128.223.87.2: seq=211 ttl=64 time=0.169 ms
ping_2  | 64 bytes from 128.223.87.2: seq=213 ttl=64 time=0.170 ms
ping_1  | 64 bytes from 128.223.87.2: seq=212 ttl=64 time=0.179 ms
ping_2  | 64 bytes from 128.223.87.2: seq=214 ttl=64 time=0.138 ms
ping_1  | 64 bytes from 128.223.87.2: seq=213 ttl=64 time=0.150 ms
ping_2  | 64 bytes from 128.223.87.2: seq=215 ttl=64 time=0.146 ms
ping_1  | 64 bytes from 128.223.87.2: seq=214 ttl=64 time=0.149 ms
ping_2  | 64 bytes from 128.223.87.2: seq=216 ttl=64 time=0.136 ms
ping_1  | 64 bytes from 128.223.87.2: seq=215 ttl=64 time=0.204 ms
ping_2  | 64 bytes from 128.223.87.2: seq=217 ttl=64 time=0.170 ms
ping_1  | 64 bytes from 128.223.87.2: seq=216 ttl=64 time=0.167 ms
ping_2  | 64 bytes from 128.223.87.2: seq=218 ttl=64 time=0.171 ms
ping_1  | 64 bytes from 128.223.87.2: seq=217 ttl=64 time=0.171 ms
ping_2  | 64 bytes from 128.223.87.2: seq=219 ttl=64 time=0.171 ms
ping_1  | 64 bytes from 128.223.87.2: seq=218 ttl=64 time=0.165 ms
ping_2  | 64 bytes from 128.223.87.2: seq=220 ttl=64 time=0.151 ms
ping_1  | 64 bytes from 128.223.87.2: seq=219 ttl=64 time=0.150 ms
ping_2  | 64 bytes from 128.223.87.2: seq=221 ttl=64 time=0.170 ms
ping_1  | 64 bytes from 128.223.87.2: seq=220 ttl=64 time=0.166 ms
ping_2  | 64 bytes from 128.223.87.2: seq=222 ttl=64 time=0.157 ms
ping_1  | 64 bytes from 128.223.87.2: seq=221 ttl=64 time=0.105 ms
ping_2  | 64 bytes from 128.223.87.2: seq=223 ttl=64 time=0.167 ms
ping_1  | 64 bytes from 128.223.87.2: seq=222 ttl=64 time=0.165 ms
ping_2  | 64 bytes from 128.223.87.2: seq=224 ttl=64 time=0.118 ms
ping_1  | 64 bytes from 128.223.87.2: seq=223 ttl=64 time=0.100 ms
ping_2  | 64 bytes from 128.223.87.2: seq=225 ttl=64 time=0.165 ms
ping_1  | 64 bytes from 128.223.87.2: seq=224 ttl=64 time=0.166 ms
ping_2  | 64 bytes from 128.223.87.2: seq=226 ttl=64 time=0.170 ms
ping_1  | 64 bytes from 128.223.87.2: seq=225 ttl=64 time=0.167 ms
ping_2  | 64 bytes from 128.223.87.2: seq=227 ttl=64 time=0.170 ms
ping_1  | 64 bytes from 128.223.87.2: seq=226 ttl=64 time=0.166 ms
ping_2  | 64 bytes from 128.223.87.2: seq=228 ttl=64 time=0.153 ms
ping_1  | 64 bytes from 128.223.87.2: seq=227 ttl=64 time=0.150 ms
ping_2  | 64 bytes from 128.223.87.2: seq=229 ttl=64 time=0.150 ms
ping_1  | 64 bytes from 128.223.87.2: seq=228 ttl=64 time=0.146 ms
ping_2  | 64 bytes from 128.223.87.2: seq=230 ttl=64 time=0.150 ms
ping_1  | 64 bytes from 128.223.87.2: seq=229 ttl=64 time=0.152 ms
ping_2  | 64 bytes from 128.223.87.2: seq=231 ttl=64 time=0.170 ms
ping_1  | 64 bytes from 128.223.87.2: seq=230 ttl=64 time=0.169 ms
ping_2  | 64 bytes from 128.223.87.2: seq=232 ttl=64 time=0.152 ms
ping_1  | 64 bytes from 128.223.87.2: seq=231 ttl=64 time=0.150 ms
ping_2  | 64 bytes from 128.223.87.2: seq=233 ttl=64 time=0.152 ms
ping_1  | 64 bytes from 128.223.87.2: seq=232 ttl=64 time=0.151 ms
ping_2  | 64 bytes from 128.223.87.2: seq=234 ttl=64 time=0.142 ms
ping_1  | 64 bytes from 128.223.87.2: seq=233 ttl=64 time=0.149 ms
ping_2  | 64 bytes from 128.223.87.2: seq=235 ttl=64 time=0.150 ms
ping_1  | 64 bytes from 128.223.87.2: seq=234 ttl=64 time=0.182 ms
ping_2  | 64 bytes from 128.223.87.2: seq=236 ttl=64 time=0.152 ms
ping_1  | 64 bytes from 128.223.87.2: seq=235 ttl=64 time=0.148 ms
ping_2  | 64 bytes from 128.223.87.2: seq=237 ttl=64 time=0.090 ms
ping_1  | 64 bytes from 128.223.87.2: seq=236 ttl=64 time=0.098 ms
ping_2  | 64 bytes from 128.223.87.2: seq=238 ttl=64 time=0.078 ms
ping_1  | 64 bytes from 128.223.87.2: seq=237 ttl=64 time=0.079 ms
ping_2  | 64 bytes from 128.223.87.2: seq=239 ttl=64 time=0.073 ms
ping_1  | 64 bytes from 128.223.87.2: seq=238 ttl=64 time=0.045 ms
ping_2  | 64 bytes from 128.223.87.2: seq=240 ttl=64 time=0.168 ms
ping_1  | 64 bytes from 128.223.87.2: seq=239 ttl=64 time=0.177 ms
ping_2  | 64 bytes from 128.223.87.2: seq=241 ttl=64 time=0.170 ms
ping_1  | 64 bytes from 128.223.87.2: seq=240 ttl=64 time=0.167 ms
ping_2  | 64 bytes from 128.223.87.2: seq=242 ttl=64 time=0.157 ms
ping_1  | 64 bytes from 128.223.87.2: seq=241 ttl=64 time=0.174 ms
ping_2  | 64 bytes from 128.223.87.2: seq=243 ttl=64 time=0.172 ms
ping_1  | 64 bytes from 128.223.87.2: seq=242 ttl=64 time=0.166 ms
ping_2  | 64 bytes from 128.223.87.2: seq=244 ttl=64 time=0.155 ms
ping_1  | 64 bytes from 128.223.87.2: seq=243 ttl=64 time=0.149 ms
ping_2  | 64 bytes from 128.223.87.2: seq=245 ttl=64 time=0.184 ms
ping_1  | 64 bytes from 128.223.87.2: seq=244 ttl=64 time=0.167 ms
ping_2  | 64 bytes from 128.223.87.2: seq=246 ttl=64 time=0.166 ms
ping_1  | 64 bytes from 128.223.87.2: seq=245 ttl=64 time=0.151 ms
ping_2  | 64 bytes from 128.223.87.2: seq=247 ttl=64 time=0.154 ms
ping_1  | 64 bytes from 128.223.87.2: seq=246 ttl=64 time=0.149 ms
ping_2  | 64 bytes from 128.223.87.2: seq=248 ttl=64 time=0.190 ms
ping_1  | 64 bytes from 128.223.87.2: seq=247 ttl=64 time=0.166 ms
ping_2  | 64 bytes from 128.223.87.2: seq=249 ttl=64 time=0.152 ms
ping_1  | 64 bytes from 128.223.87.2: seq=248 ttl=64 time=0.108 ms
ping_2  | 64 bytes from 128.223.87.2: seq=250 ttl=64 time=0.138 ms
ping_1  | 64 bytes from 128.223.87.2: seq=249 ttl=64 time=0.150 ms
ping_2  | 64 bytes from 128.223.87.2: seq=251 ttl=64 time=0.151 ms
ping_1  | 64 bytes from 128.223.87.2: seq=250 ttl=64 time=0.166 ms
ping_2  | 64 bytes from 128.223.87.2: seq=252 ttl=64 time=0.153 ms
ping_1  | 64 bytes from 128.223.87.2: seq=251 ttl=64 time=0.150 ms
ping_2  | 64 bytes from 128.223.87.2: seq=253 ttl=64 time=0.168 ms
ping_1  | 64 bytes from 128.223.87.2: seq=252 ttl=64 time=0.167 ms
ping_2  | 64 bytes from 128.223.87.2: seq=254 ttl=64 time=0.154 ms
ping_1  | 64 bytes from 128.223.87.2: seq=253 ttl=64 time=0.148 ms
ping_2  | 64 bytes from 128.223.87.2: seq=255 ttl=64 time=0.145 ms
ping_1  | 64 bytes from 128.223.87.2: seq=254 ttl=64 time=0.151 ms
ping_2  | 64 bytes from 128.223.87.2: seq=256 ttl=64 time=0.141 ms
ping_1  | 64 bytes from 128.223.87.2: seq=255 ttl=64 time=0.152 ms
ping_2  | 64 bytes from 128.223.87.2: seq=257 ttl=64 time=0.153 ms
ping_1  | 64 bytes from 128.223.87.2: seq=256 ttl=64 time=0.151 ms
ping_2  | 64 bytes from 128.223.87.2: seq=258 ttl=64 time=0.149 ms
ping_1  | 64 bytes from 128.223.87.2: seq=257 ttl=64 time=0.146 ms
ping_2  | 64 bytes from 128.223.87.2: seq=259 ttl=64 time=0.171 ms
ping_1  | 64 bytes from 128.223.87.2: seq=258 ttl=64 time=0.140 ms
ping_2  | 64 bytes from 128.223.87.2: seq=260 ttl=64 time=0.154 ms
ping_1  | 64 bytes from 128.223.87.2: seq=259 ttl=64 time=0.150 ms
ping_2  | 64 bytes from 128.223.87.2: seq=261 ttl=64 time=0.172 ms
ping_1  | 64 bytes from 128.223.87.2: seq=260 ttl=64 time=0.168 ms
ping_2  | 64 bytes from 128.223.87.2: seq=262 ttl=64 time=0.170 ms
ping_1  | 64 bytes from 128.223.87.2: seq=261 ttl=64 time=0.170 ms
ping_2  | 64 bytes from 128.223.87.2: seq=263 ttl=64 time=0.171 ms
ping_1  | 64 bytes from 128.223.87.2: seq=262 ttl=64 time=0.165 ms
ping_2  | 64 bytes from 128.223.87.2: seq=264 ttl=64 time=0.152 ms
ping_1  | 64 bytes from 128.223.87.2: seq=263 ttl=64 time=0.152 ms
ping_2  | 64 bytes from 128.223.87.2: seq=265 ttl=64 time=0.153 ms
ping_1  | 64 bytes from 128.223.87.2: seq=264 ttl=64 time=0.147 ms
ping_2  | 64 bytes from 128.223.87.2: seq=266 ttl=64 time=0.170 ms
ping_1  | 64 bytes from 128.223.87.2: seq=265 ttl=64 time=0.166 ms
ping_2  | 64 bytes from 128.223.87.2: seq=267 ttl=64 time=0.150 ms
ping_1  | 64 bytes from 128.223.87.2: seq=266 ttl=64 time=0.150 ms
ping_2  | 64 bytes from 128.223.87.2: seq=268 ttl=64 time=0.151 ms
ping_1  | 64 bytes from 128.223.87.2: seq=267 ttl=64 time=0.150 ms
ping_2  | 64 bytes from 128.223.87.2: seq=269 ttl=64 time=0.151 ms
ping_1  | 64 bytes from 128.223.87.2: seq=268 ttl=64 time=0.150 ms
ping_2  | 64 bytes from 128.223.87.2: seq=270 ttl=64 time=0.171 ms
ping_1  | 64 bytes from 128.223.87.2: seq=269 ttl=64 time=0.164 ms
ping_2  | 64 bytes from 128.223.87.2: seq=271 ttl=64 time=0.172 ms
ping_1  | 64 bytes from 128.223.87.2: seq=270 ttl=64 time=0.195 ms
ping_2  | 64 bytes from 128.223.87.2: seq=272 ttl=64 time=0.211 ms
ping_1  | 64 bytes from 128.223.87.2: seq=271 ttl=64 time=0.168 ms
ping_2  | 64 bytes from 128.223.87.2: seq=273 ttl=64 time=0.156 ms
ping_1  | 64 bytes from 128.223.87.2: seq=272 ttl=64 time=0.153 ms
ping_2  | 64 bytes from 128.223.87.2: seq=274 ttl=64 time=0.172 ms
ping_1  | 64 bytes from 128.223.87.2: seq=273 ttl=64 time=0.162 ms
ping_2  | 64 bytes from 128.223.87.2: seq=275 ttl=64 time=0.152 ms
ping_1  | 64 bytes from 128.223.87.2: seq=274 ttl=64 time=0.107 ms
ping_2  | 64 bytes from 128.223.87.2: seq=276 ttl=64 time=0.142 ms
ping_1  | 64 bytes from 128.223.87.2: seq=275 ttl=64 time=0.150 ms
ping_2  | 64 bytes from 128.223.87.2: seq=277 ttl=64 time=0.172 ms
ping_1  | 64 bytes from 128.223.87.2: seq=276 ttl=64 time=0.165 ms
ping_2  | 64 bytes from 128.223.87.2: seq=278 ttl=64 time=0.150 ms
ping_1  | 64 bytes from 128.223.87.2: seq=277 ttl=64 time=0.104 ms
ping_2  | 64 bytes from 128.223.87.2: seq=279 ttl=64 time=0.172 ms
ping_1  | 64 bytes from 128.223.87.2: seq=278 ttl=64 time=0.128 ms
ping_2  | 64 bytes from 128.223.87.2: seq=280 ttl=64 time=0.172 ms
ping_1  | 64 bytes from 128.223.87.2: seq=279 ttl=64 time=0.165 ms
ping_2  | 64 bytes from 128.223.87.2: seq=281 ttl=64 time=0.170 ms
ping_1  | 64 bytes from 128.223.87.2: seq=280 ttl=64 time=0.130 ms
ping_2  | 64 bytes from 128.223.87.2: seq=282 ttl=64 time=0.172 ms
ping_1  | 64 bytes from 128.223.87.2: seq=281 ttl=64 time=0.144 ms
ping_2  | 64 bytes from 128.223.87.2: seq=283 ttl=64 time=0.169 ms
ping_1  | 64 bytes from 128.223.87.2: seq=282 ttl=64 time=0.168 ms
ping_2  | 64 bytes from 128.223.87.2: seq=284 ttl=64 time=0.152 ms
ping_1  | 64 bytes from 128.223.87.2: seq=283 ttl=64 time=0.150 ms
ping_2  | 64 bytes from 128.223.87.2: seq=285 ttl=64 time=0.171 ms
ping_1  | 64 bytes from 128.223.87.2: seq=284 ttl=64 time=0.128 ms
ping_2  | 64 bytes from 128.223.87.2: seq=286 ttl=64 time=0.151 ms
ping_1  | 64 bytes from 128.223.87.2: seq=285 ttl=64 time=0.121 ms
ping_2  | 64 bytes from 128.223.87.2: seq=287 ttl=64 time=0.152 ms
ping_1  | 64 bytes from 128.223.87.2: seq=286 ttl=64 time=0.130 ms
ping_2  | 64 bytes from 128.223.87.2: seq=288 ttl=64 time=0.169 ms
ping_1  | 64 bytes from 128.223.87.2: seq=287 ttl=64 time=0.139 ms
ping_1  | 64 bytes from 128.223.87.2: seq=288 ttl=64 time=0.133 ms
ping_2  | 64 bytes from 128.223.87.2: seq=289 ttl=64 time=0.171 ms
ping_2  | 64 bytes from 128.223.87.2: seq=290 ttl=64 time=0.171 ms
ping_1  | 64 bytes from 128.223.87.2: seq=289 ttl=64 time=0.128 ms
ping_2  | 64 bytes from 128.223.87.2: seq=291 ttl=64 time=0.149 ms
ping_1  | 64 bytes from 128.223.87.2: seq=290 ttl=64 time=0.149 ms
ping_1  | 64 bytes from 128.223.87.2: seq=291 ttl=64 time=0.149 ms
ping_2  | 64 bytes from 128.223.87.2: seq=292 ttl=64 time=0.149 ms
ping_1  | 64 bytes from 128.223.87.2: seq=292 ttl=64 time=0.148 ms
ping_2  | 64 bytes from 128.223.87.2: seq=293 ttl=64 time=0.148 ms
ping_2  | 64 bytes from 128.223.87.2: seq=294 ttl=64 time=0.150 ms
ping_1  | 64 bytes from 128.223.87.2: seq=293 ttl=64 time=0.150 ms
ping_1  | 64 bytes from 128.223.87.2: seq=294 ttl=64 time=0.198 ms
ping_2  | 64 bytes from 128.223.87.2: seq=295 ttl=64 time=0.198 ms
ping_1  | 64 bytes from 128.223.87.2: seq=295 ttl=64 time=0.146 ms
ping_2  | 64 bytes from 128.223.87.2: seq=296 ttl=64 time=0.146 ms
ping_1  | 64 bytes from 128.223.87.2: seq=296 ttl=64 time=0.166 ms
ping_2  | 64 bytes from 128.223.87.2: seq=297 ttl=64 time=0.166 ms
ping_1  | 64 bytes from 128.223.87.2: seq=297 ttl=64 time=0.166 ms
ping_2  | 64 bytes from 128.223.87.2: seq=298 ttl=64 time=0.167 ms
ping_1  | 64 bytes from 128.223.87.2: seq=298 ttl=64 time=0.164 ms
ping_2  | 64 bytes from 128.223.87.2: seq=299 ttl=64 time=0.164 ms
ping_2  | 64 bytes from 128.223.87.2: seq=300 ttl=64 time=0.168 ms
ping_1  | 64 bytes from 128.223.87.2: seq=299 ttl=64 time=0.169 ms
ping_2  | 64 bytes from 128.223.87.2: seq=301 ttl=64 time=0.165 ms
ping_1  | 64 bytes from 128.223.87.2: seq=300 ttl=64 time=0.166 ms
ping_2  | 64 bytes from 128.223.87.2: seq=302 ttl=64 time=0.148 ms
ping_1  | 64 bytes from 128.223.87.2: seq=301 ttl=64 time=0.148 ms
ping_1  | 64 bytes from 128.223.87.2: seq=302 ttl=64 time=0.149 ms
ping_2  | 64 bytes from 128.223.87.2: seq=303 ttl=64 time=0.149 ms
ping_1  | 64 bytes from 128.223.87.2: seq=303 ttl=64 time=0.154 ms
ping_2  | 64 bytes from 128.223.87.2: seq=304 ttl=64 time=0.154 ms
ping_1  | 64 bytes from 128.223.87.2: seq=304 ttl=64 time=0.149 ms
ping_2  | 64 bytes from 128.223.87.2: seq=305 ttl=64 time=0.149 ms
ping_1  | 64 bytes from 128.223.87.2: seq=305 ttl=64 time=0.148 ms
ping_2  | 64 bytes from 128.223.87.2: seq=306 ttl=64 time=0.148 ms
ping_2  | 64 bytes from 128.223.87.2: seq=307 ttl=64 time=0.149 ms
ping_1  | 64 bytes from 128.223.87.2: seq=306 ttl=64 time=0.149 ms
ping_1  | 64 bytes from 128.223.87.2: seq=307 ttl=64 time=0.148 ms
ping_2  | 64 bytes from 128.223.87.2: seq=308 ttl=64 time=0.148 ms
ping_1  | 64 bytes from 128.223.87.2: seq=308 ttl=64 time=0.171 ms
ping_2  | 64 bytes from 128.223.87.2: seq=309 ttl=64 time=0.171 ms
ping_2  | 64 bytes from 128.223.87.2: seq=310 ttl=64 time=0.149 ms
ping_1  | 64 bytes from 128.223.87.2: seq=309 ttl=64 time=0.149 ms
ping_1  | 64 bytes from 128.223.87.2: seq=310 ttl=64 time=0.149 ms
ping_2  | 64 bytes from 128.223.87.2: seq=311 ttl=64 time=0.149 ms
ping_1  | 64 bytes from 128.223.87.2: seq=311 ttl=64 time=0.096 ms
ping_2  | 64 bytes from 128.223.87.2: seq=312 ttl=64 time=0.096 ms
ping_2  | 64 bytes from 128.223.87.2: seq=313 ttl=64 time=0.087 ms
ping_1  | 64 bytes from 128.223.87.2: seq=312 ttl=64 time=0.087 ms
ping_1  | 64 bytes from 128.223.87.2: seq=313 ttl=64 time=0.076 ms
ping_2  | 64 bytes from 128.223.87.2: seq=314 ttl=64 time=0.076 ms
ping_2  | 64 bytes from 128.223.87.2: seq=315 ttl=64 time=0.162 ms
ping_1  | 64 bytes from 128.223.87.2: seq=314 ttl=64 time=0.162 ms
ping_2  | 64 bytes from 128.223.87.2: seq=316 ttl=64 time=0.168 ms
ping_1  | 64 bytes from 128.223.87.2: seq=315 ttl=64 time=0.168 ms
ping_2  | 64 bytes from 128.223.87.2: seq=317 ttl=64 time=0.209 ms
ping_1  | 64 bytes from 128.223.87.2: seq=316 ttl=64 time=0.208 ms
ping_1  | 64 bytes from 128.223.87.2: seq=317 ttl=64 time=0.147 ms
ping_2  | 64 bytes from 128.223.87.2: seq=318 ttl=64 time=0.148 ms
ping_2  | 64 bytes from 128.223.87.2: seq=319 ttl=64 time=0.148 ms
ping_1  | 64 bytes from 128.223.87.2: seq=318 ttl=64 time=0.148 ms
ping_2  | 64 bytes from 128.223.87.2: seq=320 ttl=64 time=0.165 ms
ping_1  | 64 bytes from 128.223.87.2: seq=319 ttl=64 time=0.165 ms
ping_2  | 64 bytes from 128.223.87.2: seq=321 ttl=64 time=0.169 ms
ping_1  | 64 bytes from 128.223.87.2: seq=320 ttl=64 time=0.129 ms
ping_1  | 64 bytes from 128.223.87.2: seq=321 ttl=64 time=0.165 ms
ping_2  | 64 bytes from 128.223.87.2: seq=322 ttl=64 time=0.165 ms
ping_2  | 64 bytes from 128.223.87.2: seq=323 ttl=64 time=0.168 ms
ping_1  | 64 bytes from 128.223.87.2: seq=322 ttl=64 time=0.168 ms
ping_1  | 64 bytes from 128.223.87.2: seq=323 ttl=64 time=0.167 ms
ping_2  | 64 bytes from 128.223.87.2: seq=324 ttl=64 time=0.167 ms
ping_2  | 64 bytes from 128.223.87.2: seq=325 ttl=64 time=0.114 ms
ping_1  | 64 bytes from 128.223.87.2: seq=324 ttl=64 time=0.141 ms
ping_2  | 64 bytes from 128.223.87.2: seq=326 ttl=64 time=0.148 ms
ping_1  | 64 bytes from 128.223.87.2: seq=325 ttl=64 time=0.148 ms
ping_2  | 64 bytes from 128.223.87.2: seq=327 ttl=64 time=0.134 ms
ping_1  | 64 bytes from 128.223.87.2: seq=326 ttl=64 time=0.166 ms
ping_1  | 64 bytes from 128.223.87.2: seq=327 ttl=64 time=0.165 ms
ping_2  | 64 bytes from 128.223.87.2: seq=328 ttl=64 time=0.166 ms
ping_2  | 64 bytes from 128.223.87.2: seq=329 ttl=64 time=0.165 ms
ping_1  | 64 bytes from 128.223.87.2: seq=328 ttl=64 time=0.165 ms
ping_1  | 64 bytes from 128.223.87.2: seq=329 ttl=64 time=0.168 ms
ping_2  | 64 bytes from 128.223.87.2: seq=330 ttl=64 time=0.154 ms
ping_2  | 64 bytes from 128.223.87.2: seq=331 ttl=64 time=0.166 ms
ping_1  | 64 bytes from 128.223.87.2: seq=330 ttl=64 time=0.166 ms
ping_2  | 64 bytes from 128.223.87.2: seq=332 ttl=64 time=0.117 ms
ping_1  | 64 bytes from 128.223.87.2: seq=331 ttl=64 time=0.140 ms
ping_2  | 64 bytes from 128.223.87.2: seq=333 ttl=64 time=0.150 ms
ping_1  | 64 bytes from 128.223.87.2: seq=332 ttl=64 time=0.149 ms
ping_2  | 64 bytes from 128.223.87.2: seq=334 ttl=64 time=0.170 ms
ping_1  | 64 bytes from 128.223.87.2: seq=333 ttl=64 time=0.170 ms
ping_1  | 64 bytes from 128.223.87.2: seq=334 ttl=64 time=0.143 ms
ping_2  | 64 bytes from 128.223.87.2: seq=335 ttl=64 time=0.119 ms
ping_2  | 64 bytes from 128.223.87.2: seq=336 ttl=64 time=0.167 ms
ping_1  | 64 bytes from 128.223.87.2: seq=335 ttl=64 time=0.167 ms
ping_1  | 64 bytes from 128.223.87.2: seq=336 ttl=64 time=0.167 ms
ping_2  | 64 bytes from 128.223.87.2: seq=337 ttl=64 time=0.167 ms
ping_2  | 64 bytes from 128.223.87.2: seq=338 ttl=64 time=0.168 ms
ping_1  | 64 bytes from 128.223.87.2: seq=337 ttl=64 time=0.167 ms
ping_1  | 64 bytes from 128.223.87.2: seq=338 ttl=64 time=0.133 ms
ping_2  | 64 bytes from 128.223.87.2: seq=339 ttl=64 time=0.172 ms
ping_1  | 64 bytes from 128.223.87.2: seq=339 ttl=64 time=0.172 ms
ping_2  | 64 bytes from 128.223.87.2: seq=340 ttl=64 time=0.172 ms
ping_2  | 64 bytes from 128.223.87.2: seq=341 ttl=64 time=0.149 ms
ping_1  | 64 bytes from 128.223.87.2: seq=340 ttl=64 time=0.149 ms
ping_2  | 64 bytes from 128.223.87.2: seq=342 ttl=64 time=0.167 ms
ping_1  | 64 bytes from 128.223.87.2: seq=341 ttl=64 time=0.167 ms
ping_2  | 64 bytes from 128.223.87.2: seq=343 ttl=64 time=0.165 ms
ping_1  | 64 bytes from 128.223.87.2: seq=342 ttl=64 time=0.165 ms
ping_1  | 64 bytes from 128.223.87.2: seq=343 ttl=64 time=0.166 ms
ping_2  | 64 bytes from 128.223.87.2: seq=344 ttl=64 time=0.166 ms
ping_1  | 64 bytes from 128.223.87.2: seq=344 ttl=64 time=0.168 ms
ping_2  | 64 bytes from 128.223.87.2: seq=345 ttl=64 time=0.168 ms
ping_2  | 64 bytes from 128.223.87.2: seq=346 ttl=64 time=0.137 ms
ping_1  | 64 bytes from 128.223.87.2: seq=345 ttl=64 time=0.137 ms
ping_1  | 64 bytes from 128.223.87.2: seq=346 ttl=64 time=0.166 ms
ping_2  | 64 bytes from 128.223.87.2: seq=347 ttl=64 time=0.166 ms
ping_2  | 64 bytes from 128.223.87.2: seq=348 ttl=64 time=0.125 ms
ping_1  | 64 bytes from 128.223.87.2: seq=347 ttl=64 time=0.125 ms
ping_2  | 64 bytes from 128.223.87.2: seq=349 ttl=64 time=0.163 ms
ping_1  | 64 bytes from 128.223.87.2: seq=348 ttl=64 time=0.163 ms
ping_2  | 64 bytes from 128.223.87.2: seq=350 ttl=64 time=0.166 ms
ping_1  | 64 bytes from 128.223.87.2: seq=349 ttl=64 time=0.166 ms
ping_1  | 64 bytes from 128.223.87.2: seq=350 ttl=64 time=0.164 ms
ping_2  | 64 bytes from 128.223.87.2: seq=351 ttl=64 time=0.164 ms
ping_2  | 64 bytes from 128.223.87.2: seq=352 ttl=64 time=0.120 ms
ping_1  | 64 bytes from 128.223.87.2: seq=351 ttl=64 time=0.110 ms
ping_2  | 64 bytes from 128.223.87.2: seq=353 ttl=64 time=0.167 ms
ping_1  | 64 bytes from 128.223.87.2: seq=352 ttl=64 time=0.167 ms
ping_2  | 64 bytes from 128.223.87.2: seq=354 ttl=64 time=0.149 ms
ping_1  | 64 bytes from 128.223.87.2: seq=353 ttl=64 time=0.149 ms
ping_1  | 64 bytes from 128.223.87.2: seq=354 ttl=64 time=0.166 ms
ping_2  | 64 bytes from 128.223.87.2: seq=355 ttl=64 time=0.166 ms
ping_2  | 64 bytes from 128.223.87.2: seq=356 ttl=64 time=0.165 ms
ping_1  | 64 bytes from 128.223.87.2: seq=355 ttl=64 time=0.165 ms
ping_2  | 64 bytes from 128.223.87.2: seq=357 ttl=64 time=0.172 ms
ping_1  | 64 bytes from 128.223.87.2: seq=356 ttl=64 time=0.183 ms
ping_1  | 64 bytes from 128.223.87.2: seq=357 ttl=64 time=0.112 ms
ping_2  | 64 bytes from 128.223.87.2: seq=358 ttl=64 time=0.151 ms
ping_2  | 64 bytes from 128.223.87.2: seq=359 ttl=64 time=0.135 ms
ping_1  | 64 bytes from 128.223.87.2: seq=358 ttl=64 time=0.146 ms
ping_2  | 64 bytes from 128.223.87.2: seq=360 ttl=64 time=0.165 ms
ping_1  | 64 bytes from 128.223.87.2: seq=359 ttl=64 time=0.165 ms
ping_1  | 64 bytes from 128.223.87.2: seq=360 ttl=64 time=0.166 ms
ping_2  | 64 bytes from 128.223.87.2: seq=361 ttl=64 time=0.166 ms
ping_2  | 64 bytes from 128.223.87.2: seq=362 ttl=64 time=0.166 ms
ping_1  | 64 bytes from 128.223.87.2: seq=361 ttl=64 time=0.166 ms
ping_1  | 64 bytes from 128.223.87.2: seq=362 ttl=64 time=0.148 ms
ping_2  | 64 bytes from 128.223.87.2: seq=363 ttl=64 time=0.148 ms
ping_2  | 64 bytes from 128.223.87.2: seq=364 ttl=64 time=0.147 ms
ping_1  | 64 bytes from 128.223.87.2: seq=363 ttl=64 time=0.147 ms
ping_2  | 64 bytes from 128.223.87.2: seq=365 ttl=64 time=0.170 ms
ping_1  | 64 bytes from 128.223.87.2: seq=364 ttl=64 time=0.171 ms
ping_2  | 64 bytes from 128.223.87.2: seq=366 ttl=64 time=0.167 ms
ping_1  | 64 bytes from 128.223.87.2: seq=365 ttl=64 time=0.166 ms
ping_1  | 64 bytes from 128.223.87.2: seq=366 ttl=64 time=0.174 ms
ping_2  | 64 bytes from 128.223.87.2: seq=367 ttl=64 time=0.174 ms
ping_1  | 64 bytes from 128.223.87.2: seq=367 ttl=64 time=0.169 ms
ping_2  | 64 bytes from 128.223.87.2: seq=368 ttl=64 time=0.168 ms
ping_1  | 64 bytes from 128.223.87.2: seq=368 ttl=64 time=0.169 ms
ping_2  | 64 bytes from 128.223.87.2: seq=369 ttl=64 time=0.170 ms
ping_1  | 64 bytes from 128.223.87.2: seq=369 ttl=64 time=0.166 ms
ping_2  | 64 bytes from 128.223.87.2: seq=370 ttl=64 time=0.167 ms
ping_1  | 64 bytes from 128.223.87.2: seq=370 ttl=64 time=0.163 ms
ping_2  | 64 bytes from 128.223.87.2: seq=371 ttl=64 time=0.163 ms
ping_1  | 64 bytes from 128.223.87.2: seq=371 ttl=64 time=0.147 ms
ping_2  | 64 bytes from 128.223.87.2: seq=372 ttl=64 time=0.147 ms
ping_2  | 64 bytes from 128.223.87.2: seq=373 ttl=64 time=0.105 ms
ping_1  | 64 bytes from 128.223.87.2: seq=372 ttl=64 time=0.071 ms
ping_2  | 64 bytes from 128.223.87.2: seq=374 ttl=64 time=0.165 ms
ping_1  | 64 bytes from 128.223.87.2: seq=373 ttl=64 time=0.165 ms
ping_1  | 64 bytes from 128.223.87.2: seq=374 ttl=64 time=0.166 ms
ping_2  | 64 bytes from 128.223.87.2: seq=375 ttl=64 time=0.166 ms
ping_2  | 64 bytes from 128.223.87.2: seq=376 ttl=64 time=0.148 ms
ping_1  | 64 bytes from 128.223.87.2: seq=375 ttl=64 time=0.149 ms
ping_2  | 64 bytes from 128.223.87.2: seq=377 ttl=64 time=0.167 ms
ping_1  | 64 bytes from 128.223.87.2: seq=376 ttl=64 time=0.167 ms
ping_2  | 64 bytes from 128.223.87.2: seq=378 ttl=64 time=0.195 ms
ping_1  | 64 bytes from 128.223.87.2: seq=377 ttl=64 time=0.195 ms
ping_1  | 64 bytes from 128.223.87.2: seq=378 ttl=64 time=0.127 ms
ping_2  | 64 bytes from 128.223.87.2: seq=379 ttl=64 time=0.165 ms
ping_1  | 64 bytes from 128.223.87.2: seq=379 ttl=64 time=0.166 ms
ping_2  | 64 bytes from 128.223.87.2: seq=380 ttl=64 time=0.166 ms
ping_1  | 64 bytes from 128.223.87.2: seq=380 ttl=64 time=0.164 ms
ping_2  | 64 bytes from 128.223.87.2: seq=381 ttl=64 time=0.164 ms
ping_1  | 64 bytes from 128.223.87.2: seq=381 ttl=64 time=0.165 ms
ping_2  | 64 bytes from 128.223.87.2: seq=382 ttl=64 time=0.165 ms
ping_2  | 64 bytes from 128.223.87.2: seq=383 ttl=64 time=0.164 ms
ping_1  | 64 bytes from 128.223.87.2: seq=382 ttl=64 time=0.164 ms
ping_1  | 64 bytes from 128.223.87.2: seq=383 ttl=64 time=0.149 ms
ping_2  | 64 bytes from 128.223.87.2: seq=384 ttl=64 time=0.149 ms
ping_1  | 64 bytes from 128.223.87.2: seq=384 ttl=64 time=0.149 ms
ping_2  | 64 bytes from 128.223.87.2: seq=385 ttl=64 time=0.149 ms
ping_2  | 64 bytes from 128.223.87.2: seq=386 ttl=64 time=0.149 ms
ping_1  | 64 bytes from 128.223.87.2: seq=385 ttl=64 time=0.148 ms
ping_1  | 64 bytes from 128.223.87.2: seq=386 ttl=64 time=0.150 ms
ping_2  | 64 bytes from 128.223.87.2: seq=387 ttl=64 time=0.150 ms
ping_1  | 64 bytes from 128.223.87.2: seq=387 ttl=64 time=0.145 ms
ping_2  | 64 bytes from 128.223.87.2: seq=388 ttl=64 time=0.145 ms
ping_1  | 64 bytes from 128.223.87.2: seq=388 ttl=64 time=0.142 ms
ping_2  | 64 bytes from 128.223.87.2: seq=389 ttl=64 time=0.142 ms
ping_2  | 64 bytes from 128.223.87.2: seq=390 ttl=64 time=0.110 ms
ping_1  | 64 bytes from 128.223.87.2: seq=389 ttl=64 time=0.110 ms
ping_2  | 64 bytes from 128.223.87.2: seq=391 ttl=64 time=0.071 ms
ping_1  | 64 bytes from 128.223.87.2: seq=390 ttl=64 time=0.071 ms
ping_1  | 64 bytes from 128.223.87.2: seq=391 ttl=64 time=0.176 ms
ping_2  | 64 bytes from 128.223.87.2: seq=392 ttl=64 time=0.144 ms
ping_1  | 64 bytes from 128.223.87.2: seq=392 ttl=64 time=0.169 ms
ping_2  | 64 bytes from 128.223.87.2: seq=393 ttl=64 time=0.168 ms
ping_2  | 64 bytes from 128.223.87.2: seq=394 ttl=64 time=0.157 ms
ping_1  | 64 bytes from 128.223.87.2: seq=393 ttl=64 time=0.157 ms
ping_1  | 64 bytes from 128.223.87.2: seq=394 ttl=64 time=0.193 ms
ping_2  | 64 bytes from 128.223.87.2: seq=395 ttl=64 time=0.187 ms
ping_1  | 64 bytes from 128.223.87.2: seq=395 ttl=64 time=0.167 ms
ping_2  | 64 bytes from 128.223.87.2: seq=396 ttl=64 time=0.165 ms
ping_2  | 64 bytes from 128.223.87.2: seq=397 ttl=64 time=0.167 ms
ping_1  | 64 bytes from 128.223.87.2: seq=396 ttl=64 time=0.167 ms
ping_2  | 64 bytes from 128.223.87.2: seq=398 ttl=64 time=0.166 ms
ping_1  | 64 bytes from 128.223.87.2: seq=397 ttl=64 time=0.165 ms
ping_2  | 64 bytes from 128.223.87.2: seq=399 ttl=64 time=0.143 ms
ping_1  | 64 bytes from 128.223.87.2: seq=398 ttl=64 time=0.120 ms
ping_1  | 64 bytes from 128.223.87.2: seq=399 ttl=64 time=0.119 ms
ping_2  | 64 bytes from 128.223.87.2: seq=400 ttl=64 time=0.142 ms
ping_2  | 64 bytes from 128.223.87.2: seq=401 ttl=64 time=0.167 ms
ping_1  | 64 bytes from 128.223.87.2: seq=400 ttl=64 time=0.167 ms
ping_2  | 64 bytes from 128.223.87.2: seq=402 ttl=64 time=0.166 ms
ping_1  | 64 bytes from 128.223.87.2: seq=401 ttl=64 time=0.166 ms
ping_2  | 64 bytes from 128.223.87.2: seq=403 ttl=64 time=0.168 ms
ping_1  | 64 bytes from 128.223.87.2: seq=402 ttl=64 time=0.168 ms
ping_1  | 64 bytes from 128.223.87.2: seq=403 ttl=64 time=0.168 ms
ping_2  | 64 bytes from 128.223.87.2: seq=404 ttl=64 time=0.168 ms
ping_1  | 64 bytes from 128.223.87.2: seq=404 ttl=64 time=0.168 ms
ping_2  | 64 bytes from 128.223.87.2: seq=405 ttl=64 time=0.168 ms
ping_1  | 64 bytes from 128.223.87.2: seq=405 ttl=64 time=0.166 ms
ping_2  | 64 bytes from 128.223.87.2: seq=406 ttl=64 time=0.166 ms
ping_2  | 64 bytes from 128.223.87.2: seq=407 ttl=64 time=0.168 ms
ping_1  | 64 bytes from 128.223.87.2: seq=406 ttl=64 time=0.168 ms
ping_2  | 64 bytes from 128.223.87.2: seq=408 ttl=64 time=0.169 ms
ping_1  | 64 bytes from 128.223.87.2: seq=407 ttl=64 time=0.169 ms
ping_2  | 64 bytes from 128.223.87.2: seq=409 ttl=64 time=0.165 ms
ping_1  | 64 bytes from 128.223.87.2: seq=408 ttl=64 time=0.165 ms
ping_1  | 64 bytes from 128.223.87.2: seq=409 ttl=64 time=0.173 ms
ping_2  | 64 bytes from 128.223.87.2: seq=410 ttl=64 time=0.173 ms
ping_1  | 64 bytes from 128.223.87.2: seq=410 ttl=64 time=0.168 ms
ping_2  | 64 bytes from 128.223.87.2: seq=411 ttl=64 time=0.168 ms
ping_1  | 64 bytes from 128.223.87.2: seq=411 ttl=64 time=0.167 ms
ping_2  | 64 bytes from 128.223.87.2: seq=412 ttl=64 time=0.167 ms
ping_2  | 64 bytes from 128.223.87.2: seq=413 ttl=64 time=0.170 ms
ping_1  | 64 bytes from 128.223.87.2: seq=412 ttl=64 time=0.170 ms
ping_1  | 64 bytes from 128.223.87.2: seq=413 ttl=64 time=0.167 ms
ping_2  | 64 bytes from 128.223.87.2: seq=414 ttl=64 time=0.167 ms
ping_2  | 64 bytes from 128.223.87.2: seq=415 ttl=64 time=0.167 ms
ping_1  | 64 bytes from 128.223.87.2: seq=414 ttl=64 time=0.167 ms
ping_1  | 64 bytes from 128.223.87.2: seq=415 ttl=64 time=0.142 ms
ping_2  | 64 bytes from 128.223.87.2: seq=416 ttl=64 time=0.148 ms
ping_1  | 64 bytes from 128.223.87.2: seq=416 ttl=64 time=0.166 ms
ping_2  | 64 bytes from 128.223.87.2: seq=417 ttl=64 time=0.167 ms
ping_1  | 64 bytes from 128.223.87.2: seq=417 ttl=64 time=0.145 ms
ping_2  | 64 bytes from 128.223.87.2: seq=418 ttl=64 time=0.144 ms
ping_2  | 64 bytes from 128.223.87.2: seq=419 ttl=64 time=0.145 ms
ping_1  | 64 bytes from 128.223.87.2: seq=418 ttl=64 time=0.144 ms
ping_1  | 64 bytes from 128.223.87.2: seq=419 ttl=64 time=0.167 ms
ping_2  | 64 bytes from 128.223.87.2: seq=420 ttl=64 time=0.167 ms
ping_1  | 64 bytes from 128.223.87.2: seq=420 ttl=64 time=0.169 ms
ping_2  | 64 bytes from 128.223.87.2: seq=421 ttl=64 time=0.169 ms
ping_2  | 64 bytes from 128.223.87.2: seq=422 ttl=64 time=0.148 ms
ping_1  | 64 bytes from 128.223.87.2: seq=421 ttl=64 time=0.148 ms
ping_1  | 64 bytes from 128.223.87.2: seq=422 ttl=64 time=0.181 ms
ping_2  | 64 bytes from 128.223.87.2: seq=423 ttl=64 time=0.181 ms
ping_1  | 64 bytes from 128.223.87.2: seq=423 ttl=64 time=0.167 ms
ping_2  | 64 bytes from 128.223.87.2: seq=424 ttl=64 time=0.167 ms
ping_1  | 64 bytes from 128.223.87.2: seq=424 ttl=64 time=0.167 ms
ping_2  | 64 bytes from 128.223.87.2: seq=425 ttl=64 time=0.167 ms
ping_1  | 64 bytes from 128.223.87.2: seq=425 ttl=64 time=0.150 ms
ping_2  | 64 bytes from 128.223.87.2: seq=426 ttl=64 time=0.150 ms
ping_1  | 64 bytes from 128.223.87.2: seq=426 ttl=64 time=0.150 ms
ping_2  | 64 bytes from 128.223.87.2: seq=427 ttl=64 time=0.150 ms
ping_2  | 64 bytes from 128.223.87.2: seq=428 ttl=64 time=0.176 ms
ping_1  | 64 bytes from 128.223.87.2: seq=427 ttl=64 time=0.176 ms
ping_1  | 64 bytes from 128.223.87.2: seq=428 ttl=64 time=0.158 ms
ping_2  | 64 bytes from 128.223.87.2: seq=429 ttl=64 time=0.169 ms
ping_1  | 64 bytes from 128.223.87.2: seq=429 ttl=64 time=0.120 ms
ping_2  | 64 bytes from 128.223.87.2: seq=430 ttl=64 time=0.146 ms
ping_2  | 64 bytes from 128.223.87.2: seq=431 ttl=64 time=0.150 ms
ping_1  | 64 bytes from 128.223.87.2: seq=430 ttl=64 time=0.150 ms
ping_2  | 64 bytes from 128.223.87.2: seq=432 ttl=64 time=0.179 ms
ping_1  | 64 bytes from 128.223.87.2: seq=431 ttl=64 time=0.179 ms
ping_2  | 64 bytes from 128.223.87.2: seq=433 ttl=64 time=0.159 ms
ping_1  | 64 bytes from 128.223.87.2: seq=432 ttl=64 time=0.135 ms
ping_1  | 64 bytes from 128.223.87.2: seq=433 ttl=64 time=0.116 ms
ping_2  | 64 bytes from 128.223.87.2: seq=434 ttl=64 time=0.142 ms
ping_1  | 64 bytes from 128.223.87.2: seq=434 ttl=64 time=0.167 ms
ping_2  | 64 bytes from 128.223.87.2: seq=435 ttl=64 time=0.167 ms
ping_2  | 64 bytes from 128.223.87.2: seq=436 ttl=64 time=0.176 ms
ping_1  | 64 bytes from 128.223.87.2: seq=435 ttl=64 time=0.176 ms
ping_2  | 64 bytes from 128.223.87.2: seq=437 ttl=64 time=0.150 ms
ping_1  | 64 bytes from 128.223.87.2: seq=436 ttl=64 time=0.150 ms
ping_2  | 64 bytes from 128.223.87.2: seq=438 ttl=64 time=0.141 ms
ping_1  | 64 bytes from 128.223.87.2: seq=437 ttl=64 time=0.115 ms
ping_2  | 64 bytes from 128.223.87.2: seq=439 ttl=64 time=0.183 ms
ping_1  | 64 bytes from 128.223.87.2: seq=438 ttl=64 time=0.184 ms
ping_2  | 64 bytes from 128.223.87.2: seq=440 ttl=64 time=0.166 ms
ping_1  | 64 bytes from 128.223.87.2: seq=439 ttl=64 time=0.166 ms
ping_1  | 64 bytes from 128.223.87.2: seq=440 ttl=64 time=0.144 ms
ping_2  | 64 bytes from 128.223.87.2: seq=441 ttl=64 time=0.143 ms
ping_1  | 64 bytes from 128.223.87.2: seq=441 ttl=64 time=0.169 ms
ping_2  | 64 bytes from 128.223.87.2: seq=442 ttl=64 time=0.169 ms
ping_1  | 64 bytes from 128.223.87.2: seq=442 ttl=64 time=0.148 ms
ping_2  | 64 bytes from 128.223.87.2: seq=443 ttl=64 time=0.148 ms
ping_1  | 64 bytes from 128.223.87.2: seq=443 ttl=64 time=0.148 ms
ping_2  | 64 bytes from 128.223.87.2: seq=444 ttl=64 time=0.148 ms
ping_2  | 64 bytes from 128.223.87.2: seq=445 ttl=64 time=0.166 ms
ping_1  | 64 bytes from 128.223.87.2: seq=444 ttl=64 time=0.166 ms
ping_1  | 64 bytes from 128.223.87.2: seq=445 ttl=64 time=0.150 ms
ping_2  | 64 bytes from 128.223.87.2: seq=446 ttl=64 time=0.150 ms
ping_2  | 64 bytes from 128.223.87.2: seq=447 ttl=64 time=0.165 ms
ping_1  | 64 bytes from 128.223.87.2: seq=446 ttl=64 time=0.165 ms
ping_1  | 64 bytes from 128.223.87.2: seq=447 ttl=64 time=0.170 ms
ping_2  | 64 bytes from 128.223.87.2: seq=448 ttl=64 time=0.170 ms
ping_2  | 64 bytes from 128.223.87.2: seq=449 ttl=64 time=0.117 ms
ping_1  | 64 bytes from 128.223.87.2: seq=448 ttl=64 time=0.154 ms
ping_2  | 64 bytes from 128.223.87.2: seq=450 ttl=64 time=0.149 ms
ping_1  | 64 bytes from 128.223.87.2: seq=449 ttl=64 time=0.149 ms
ping_2  | 64 bytes from 128.223.87.2: seq=451 ttl=64 time=0.168 ms
ping_1  | 64 bytes from 128.223.87.2: seq=450 ttl=64 time=0.168 ms
ping_1  | 64 bytes from 128.223.87.2: seq=451 ttl=64 time=0.169 ms
ping_2  | 64 bytes from 128.223.87.2: seq=452 ttl=64 time=0.169 ms
ping_1  | 64 bytes from 128.223.87.2: seq=452 ttl=64 time=0.150 ms
ping_2  | 64 bytes from 128.223.87.2: seq=453 ttl=64 time=0.150 ms
ping_2  | 64 bytes from 128.223.87.2: seq=454 ttl=64 time=0.136 ms
ping_1  | 64 bytes from 128.223.87.2: seq=453 ttl=64 time=0.138 ms
ping_2  | 64 bytes from 128.223.87.2: seq=455 ttl=64 time=0.134 ms
ping_1  | 64 bytes from 128.223.87.2: seq=454 ttl=64 time=0.145 ms
ping_2  | 64 bytes from 128.223.87.2: seq=456 ttl=64 time=0.150 ms
ping_1  | 64 bytes from 128.223.87.2: seq=455 ttl=64 time=0.150 ms
ping_1  | 64 bytes from 128.223.87.2: seq=456 ttl=64 time=0.170 ms
ping_2  | 64 bytes from 128.223.87.2: seq=457 ttl=64 time=0.170 ms
ping_1  | 64 bytes from 128.223.87.2: seq=457 ttl=64 time=0.167 ms
ping_2  | 64 bytes from 128.223.87.2: seq=458 ttl=64 time=0.167 ms
ping_2  | 64 bytes from 128.223.87.2: seq=459 ttl=64 time=0.140 ms
ping_1  | 64 bytes from 128.223.87.2: seq=458 ttl=64 time=0.140 ms
ping_2  | 64 bytes from 128.223.87.2: seq=460 ttl=64 time=0.146 ms
ping_1  | 64 bytes from 128.223.87.2: seq=459 ttl=64 time=0.146 ms
ping_2  | 64 bytes from 128.223.87.2: seq=461 ttl=64 time=0.143 ms
ping_1  | 64 bytes from 128.223.87.2: seq=460 ttl=64 time=0.143 ms
ping_1  | 64 bytes from 128.223.87.2: seq=461 ttl=64 time=0.151 ms
ping_2  | 64 bytes from 128.223.87.2: seq=462 ttl=64 time=0.151 ms
ping_1  | 64 bytes from 128.223.87.2: seq=462 ttl=64 time=0.164 ms
ping_2  | 64 bytes from 128.223.87.2: seq=463 ttl=64 time=0.164 ms
ping_2  | 64 bytes from 128.223.87.2: seq=464 ttl=64 time=0.126 ms
ping_1  | 64 bytes from 128.223.87.2: seq=463 ttl=64 time=0.126 ms
ping_2  | 64 bytes from 128.223.87.2: seq=465 ttl=64 time=0.102 ms
ping_1  | 64 bytes from 128.223.87.2: seq=464 ttl=64 time=0.102 ms
ping_2  | 64 bytes from 128.223.87.2: seq=466 ttl=64 time=0.080 ms
ping_1  | 64 bytes from 128.223.87.2: seq=465 ttl=64 time=0.119 ms
ping_2  | 64 bytes from 128.223.87.2: seq=467 ttl=64 time=0.042 ms
ping_1  | 64 bytes from 128.223.87.2: seq=466 ttl=64 time=0.067 ms
ping_2  | 64 bytes from 128.223.87.2: seq=468 ttl=64 time=0.148 ms
ping_1  | 64 bytes from 128.223.87.2: seq=467 ttl=64 time=0.148 ms
ping_1  | 64 bytes from 128.223.87.2: seq=468 ttl=64 time=0.146 ms
ping_2  | 64 bytes from 128.223.87.2: seq=469 ttl=64 time=0.146 ms
ping_1  | 64 bytes from 128.223.87.2: seq=469 ttl=64 time=0.137 ms
ping_2  | 64 bytes from 128.223.87.2: seq=470 ttl=64 time=0.138 ms
ping_2  | 64 bytes from 128.223.87.2: seq=471 ttl=64 time=0.151 ms
ping_1  | 64 bytes from 128.223.87.2: seq=470 ttl=64 time=0.139 ms
ping_1  | 64 bytes from 128.223.87.2: seq=471 ttl=64 time=0.165 ms
ping_2  | 64 bytes from 128.223.87.2: seq=472 ttl=64 time=0.165 ms
ping_1  | 64 bytes from 128.223.87.2: seq=472 ttl=64 time=0.164 ms
ping_2  | 64 bytes from 128.223.87.2: seq=473 ttl=64 time=0.164 ms
ping_2  | 64 bytes from 128.223.87.2: seq=474 ttl=64 time=0.166 ms
ping_1  | 64 bytes from 128.223.87.2: seq=473 ttl=64 time=0.166 ms
ping_1  | 64 bytes from 128.223.87.2: seq=474 ttl=64 time=0.145 ms
ping_2  | 64 bytes from 128.223.87.2: seq=475 ttl=64 time=0.145 ms
ping_2  | 64 bytes from 128.223.87.2: seq=476 ttl=64 time=0.148 ms
ping_1  | 64 bytes from 128.223.87.2: seq=475 ttl=64 time=0.147 ms
ping_2  | 64 bytes from 128.223.87.2: seq=477 ttl=64 time=0.139 ms
ping_1  | 64 bytes from 128.223.87.2: seq=476 ttl=64 time=0.128 ms
ping_1  | 64 bytes from 128.223.87.2: seq=477 ttl=64 time=0.147 ms
ping_2  | 64 bytes from 128.223.87.2: seq=478 ttl=64 time=0.147 ms
ping_1  | 64 bytes from 128.223.87.2: seq=478 ttl=64 time=0.147 ms
ping_2  | 64 bytes from 128.223.87.2: seq=479 ttl=64 time=0.128 ms
ping_2  | 64 bytes from 128.223.87.2: seq=480 ttl=64 time=0.147 ms
ping_1  | 64 bytes from 128.223.87.2: seq=479 ttl=64 time=0.147 ms
ping_2  | 64 bytes from 128.223.87.2: seq=481 ttl=64 time=0.137 ms
ping_1  | 64 bytes from 128.223.87.2: seq=480 ttl=64 time=0.135 ms
ping_2  | 64 bytes from 128.223.87.2: seq=482 ttl=64 time=0.164 ms
ping_1  | 64 bytes from 128.223.87.2: seq=481 ttl=64 time=0.164 ms
ping_1  | 64 bytes from 128.223.87.2: seq=482 ttl=64 time=0.123 ms
ping_2  | 64 bytes from 128.223.87.2: seq=483 ttl=64 time=0.100 ms
ping_1  | 64 bytes from 128.223.87.2: seq=483 ttl=64 time=0.145 ms
ping_2  | 64 bytes from 128.223.87.2: seq=484 ttl=64 time=0.114 ms
ping_2  | 64 bytes from 128.223.87.2: seq=485 ttl=64 time=0.165 ms
ping_1  | 64 bytes from 128.223.87.2: seq=484 ttl=64 time=0.165 ms
ping_1  | 64 bytes from 128.223.87.2: seq=485 ttl=64 time=0.148 ms
ping_2  | 64 bytes from 128.223.87.2: seq=486 ttl=64 time=0.148 ms
ping_1  | 64 bytes from 128.223.87.2: seq=486 ttl=64 time=0.144 ms
ping_2  | 64 bytes from 128.223.87.2: seq=487 ttl=64 time=0.120 ms
ping_1  | 64 bytes from 128.223.87.2: seq=487 ttl=64 time=0.148 ms
ping_2  | 64 bytes from 128.223.87.2: seq=488 ttl=64 time=0.148 ms
ping_2  | 64 bytes from 128.223.87.2: seq=489 ttl=64 time=0.118 ms
ping_1  | 64 bytes from 128.223.87.2: seq=488 ttl=64 time=0.146 ms
ping_1  | 64 bytes from 128.223.87.2: seq=489 ttl=64 time=0.143 ms
ping_2  | 64 bytes from 128.223.87.2: seq=490 ttl=64 time=0.119 ms
ping_2  | 64 bytes from 128.223.87.2: seq=491 ttl=64 time=0.167 ms
ping_1  | 64 bytes from 128.223.87.2: seq=490 ttl=64 time=0.167 ms
ping_2  | 64 bytes from 128.223.87.2: seq=492 ttl=64 time=0.166 ms
ping_1  | 64 bytes from 128.223.87.2: seq=491 ttl=64 time=0.166 ms
ping_2  | 64 bytes from 128.223.87.2: seq=493 ttl=64 time=0.167 ms
ping_1  | 64 bytes from 128.223.87.2: seq=492 ttl=64 time=0.167 ms
ping_1  | 64 bytes from 128.223.87.2: seq=493 ttl=64 time=0.147 ms
ping_2  | 64 bytes from 128.223.87.2: seq=494 ttl=64 time=0.143 ms
ping_2  | 64 bytes from 128.223.87.2: seq=495 ttl=64 time=0.147 ms
ping_1  | 64 bytes from 128.223.87.2: seq=494 ttl=64 time=0.147 ms
ping_2  | 64 bytes from 128.223.87.2: seq=496 ttl=64 time=0.112 ms
ping_1  | 64 bytes from 128.223.87.2: seq=495 ttl=64 time=0.144 ms
ping_2  | 64 bytes from 128.223.87.2: seq=497 ttl=64 time=0.111 ms
ping_1  | 64 bytes from 128.223.87.2: seq=496 ttl=64 time=0.143 ms
ping_1  | 64 bytes from 128.223.87.2: seq=497 ttl=64 time=0.150 ms
ping_2  | 64 bytes from 128.223.87.2: seq=498 ttl=64 time=0.123 ms
ping_2  | 64 bytes from 128.223.87.2: seq=499 ttl=64 time=0.161 ms
ping_2  | 
ping_2  | --- 128.223.87.2 ping statistics ---
ping_2  | 500 packets transmitted, 500 packets received, 0% packet loss
ping_2  | round-trip min/avg/max = 0.042/0.154/0.211 ms
ping_1  | 64 bytes from 128.223.87.2: seq=498 ttl=64 time=0.161 ms
softwareoverhead_ping_2 exited with code 0
ping_1  | 64 bytes from 128.223.87.2: seq=499 ttl=64 time=0.200 ms
ping_1  | 
ping_1  | --- 128.223.87.2 ping statistics ---
ping_1  | 500 packets transmitted, 500 packets received, 0% packet loss
ping_1  | round-trip min/avg/max = 0.035/0.151/0.208 ms
softwareoverhead_ping_1 exited with code 0
