     1	297 
     2	298 
     3	309 
     4	306 
     5	316 
     6	312 
     7	311 
     8	311 
     9	311 
    10	311 
    11	311 
    12	311 
    13	311 
    14	311 
    15	311 
    16	311 
    17	311 
    18	311 
    19	311 
    20	311 
    21	311 
    22	311 
    23	311 
    24	311 
    25	311 
    26	311 
    27	311 
    28	311 
    29	311 
    30	311 
    31	311 
    32	311 
    33	311 
    34	311 
    35	311 
    36	311 
    37	311 
    38	311 
    39	311 
    40	311 
    41	311 
    42	311 
    43	311 
    44	311 
    45	311 
    46	311 
    47	311 
    48	311 
    49	311 
    50	311 
    51	311 
    52	311 
    53	311 
    54	311 
    55	311 
    56	311 
    57	309 
    58	308 
    59	307 
    60	307 
    61	307 
    62	307 
    63	307 
    64	307 
    65	307 
    66	307 
    67	307 
    68	307 
    69	307 
    70	307 
    71	307 
    72	307 
    73	307 
    74	307 
    75	307 
    76	307 
    77	307 
    78	307 
    79	307 
    80	307 
    81	307 
    82	307 
    83	307 
    84	307 
    85	307 
    86	307 
    87	307 
    88	307 
    89	307 
    90	307 
    91	307 
    92	307 
    93	307 
    94	307 
    95	307 
    96	307 
    97	307 
    98	307 
    99	307 
   100	307 
   101	307 
   102	307 
   103	307 
   104	307 
   105	307 
   106	307 
   107	307 
   108	307 
   109	307 
   110	307 
   111	307 
   112	307 
   113	307 
   114	307 
   115	307 
   116	307 
   117	307 
   118	307 
   119	307 
   120	307 
   121	307 
   122	307 
   123	307 
   124	307 
   125	307 
   126	307 
   127	307 
   128	307 
   129	307 
   130	307 
   131	307 
   132	307 
   133	307 
   134	307 
   135	307 
   136	307 
   137	307 
   138	307 
   139	307 
   140	307 
   141	307 
   142	307 
   143	307 
   144	307 
   145	307 
   146	307 
   147	307 
   148	307 
   149	307 
   150	307 
   151	307 
   152	307 
   153	307 
   154	307 
   155	307 
   156	307 
   157	307 
   158	307 
   159	307 
   160	307 
   161	307 
   162	307 
   163	307 
   164	307 
   165	307 
   166	307 
   167	307 
   168	307 
   169	307 
   170	307 
   171	307 
   172	307 
   173	307 
   174	307 
   175	307 
   176	307 
   177	307 
   178	307 
   179	307 
   180	307 
   181	307 
   182	307 
   183	307 
   184	307 
   185	307 
   186	307 
   187	307 
   188	307 
   189	307 
   190	307 
   191	307 
   192	307 
   193	307 
   194	307 
   195	307 
   196	307 
   197	307 
   198	307 
   199	307 
   200	307 
   201	307 
   202	307 
   203	307 
   204	307 
   205	307 
   206	307 
   207	307 
   208	307 
   209	307 
   210	307 
   211	307 
   212	307 
   213	307 
   214	307 
   215	307 
   216	307 
   217	307 
   218	306 
   219	306 
   220	306 
   221	306 
   222	306 
   223	306 
   224	306 
   225	306 
   226	306 
   227	306 
   228	306 
   229	306 
   230	306 
   231	306 
   232	306 
   233	306 
   234	306 
   235	306 
   236	306 
   237	306 
   238	306 
   239	306 
   240	306 
   241	306 
   242	306 
   243	306 
   244	306 
   245	306 
   246	306 
   247	306 
   248	306 
   249	306 
   250	306 
   251	305 
