     1	.3 
     2	.1 
     3	.8 
     4	.6 
     5	.5 
     6	.1 
     7	.4 
     8	.1 
     9	.6 
    10	.9 
    11	.1 
    12	.2 
    13	.5 
    14	.0 
    15	.5 
    16	.3 
    17	.1 
    18	.2 
    19	.8 
    20	.4 
    21	.0 
    22	.9 
    23	.5 
    24	.0 
    25	.6 
    26	.1 
    27	.4 
    28	.9 
    29	.2 
    30	.0 
    31	.0 
    32	.8 
    33	.8 
    34	.6 
    35	.9 
    36	.5 
    37	.3 
    38	.6 
    39	.2 
    40	.1 
    41	.2 
    42	.6 
    43	.9 
    44	.1 
    45	.5 
    46	.7 
    47	.0 
    48	.6 
    49	.8 
    50	.3 
    51	.5 
    52	.2 
    53	.3 
    54	.8 
    55	.9 
    56	.9 
    57	.8 
    58	.1 
    59	.6 
    60	.3 
    61	.6 
    62	.8 
    63	.9 
    64	.7 
    65	.0 
    66	.8 
    67	.9 
    68	.3 
    69	.4 
    70	.8 
    71	.1 
    72	.6 
    73	.7 
    74	.8 
    75	.5 
    76	.7 
    77	.4 
    78	.4 
    79	.3 
    80	.4 
    81	.7 
    82	.4 
    83	.1 
    84	.9 
    85	.6 
    86	.5 
    87	.5 
    88	.4 
    89	.3 
    90	.2 
    91	.8 
    92	.6 
    93	.7 
    94	.9 
    95	.1 
    96	.3 
    97	.1 
    98	.3 
    99	.8 
   100	.3 
   101	.5 
   102	.3 
   103	.4 
   104	.9 
   105	.7 
   106	.2 
   107	.6 
   108	.3 
   109	.6 
   110	.6 
   111	.4 
   112	.8 
   113	.5 
   114	.3 
   115	.5 
   116	.8 
   117	.5 
   118	.6 
   119	.6 
   120	.8 
   121	.0 
   122	.6 
   123	.8 
   124	.8 
   125	.6 
   126	.6 
   127	.9 
   128	.8 
   129	.6 
   130	.8 
   131	.6 
   132	.9 
   133	.8 
   134	.9 
   135	.6 
   136	.8 
   137	.0 
   138	.9 
   139	.8 
   140	.4 
   141	.6 
   142	.4 
   143	.5 
   144	.4 
   145	.4 
   146	.6 
   147	.6 
   148	.6 
   149	.1 
   150	.0 
   151	.3 
   152	.8 
