     1	1429424 
     2	1429424 
     3	1429424 
     4	1429872 
     5	1429872 
     6	1429872 
     7	1429896 
     8	1429896 
     9	1429896 
    10	1429916 
    11	1429916 
    12	1429916 
    13	1429916 
    14	1429916 
    15	1429916 
    16	1429940 
    17	1429940 
    18	1429940 
    19	1429972 
    20	1429972 
    21	1429972 
    22	1430092 
    23	1430092 
    24	1430092 
    25	1430120 
    26	1430120 
    27	1430120 
    28	1430108 
    29	1430108 
    30	1430108 
    31	1430140 
    32	1430140 
    33	1430140 
    34	1430128 
    35	1430128 
    36	1430128 
    37	1430164 
    38	1430164 
    39	1430164 
    40	1430188 
    41	1430188 
    42	1430188 
    43	1430184 
    44	1430184 
    45	1430184 
    46	1430208 
    47	1430208 
    48	1430208 
    49	1430208 
    50	1430208 
    51	1430208 
    52	1430208 
    53	1430208 
    54	1430228 
    55	1430228 
    56	1430228 
    57	1430252 
    58	1430252 
    59	1430252 
    60	1430252 
    61	1430252 
    62	1430252 
    63	1430284 
    64	1430284 
    65	1430284 
    66	1430308 
    67	1430308 
    68	1430308 
    69	1430304 
    70	1430304 
    71	1430304 
    72	1430336 
    73	1430336 
    74	1430336 
    75	1430352 
    76	1430352 
    77	1430352 
    78	1430348 
    79	1430348 
    80	1430348 
    81	1430496 
    82	1430496 
    83	1430496 
    84	1430488 
    85	1430488 
    86	1430488 
    87	1430480 
    88	1430480 
    89	1430480 
    90	1430512 
    91	1430512 
    92	1430512 
    93	1430528 
    94	1430528 
    95	1430528 
    96	1430528 
    97	1430528 
    98	1430528 
