top - 14:40:27 up  1:15,  1 user,  load average: 0.00, 0.10, 0.72
Tasks: 287 total,   1 running, 226 sleeping,   0 stopped,   0 zombie
%Cpu(s):  2.9 us,  1.6 sy,  0.0 ni, 95.4 id,  0.1 wa,  0.0 hi,  0.0 si,  0.0 st
KiB Mem : 16278772 total, 13556472 free,  1429424 used,  1292876 buff/cache
KiB Swap: 16630780 total, 16630780 free,        0 used. 14439924 avail Mem 

  PID USER      PR  NI    VIRT    RES    SHR S  %CPU %MEM     TIME+ COMMAND
26307 kenenth   20   0   41936   3684   3092 R  12.5  0.0   0:00.02 top
  692 systemd+  20   0   71256   6696   5504 S   6.2  0.0   0:03.25 systemd-re+

top - 14:40:28 up  1:15,  1 user,  load average: 0.00, 0.10, 0.72
Tasks: 287 total,   3 running, 224 sleeping,   0 stopped,   0 zombie
%Cpu(s):  0.1 us,  0.2 sy,  0.0 ni, 99.6 id,  0.0 wa,  0.0 hi,  0.0 si,  0.0 st
KiB Mem : 16278772 total, 13556472 free,  1429424 used,  1292876 buff/cache
KiB Swap: 16630780 total, 16630780 free,        0 used. 14439924 avail Mem 

  PID USER      PR  NI    VIRT    RES    SHR S  %CPU %MEM     TIME+ COMMAND
 2178 root      20   0  469124 128872  61656 S   1.9  0.8   0:26.18 Xorg
26307 kenenth   20   0   41904   3820   3092 R   1.9  0.0   0:00.04 top
  990 root      20   0 4988324  40536  26236 S   1.0  0.2   0:21.24 containerd
 1502 root      20   0 6054224 105808  39280 S   1.0  0.6   1:15.49 dockerd
25862 root      20   0       0      0      0 I   1.0  0.0   0:00.04 kworker/u1+
25965 root      20   0       0      0      0 I   1.0  0.0   0:00.01 kworker/1:2

top - 14:40:29 up  1:15,  1 user,  load average: 0.00, 0.10, 0.72
Tasks: 287 total,   1 running, 226 sleeping,   0 stopped,   0 zombie
%Cpu(s):  0.1 us,  0.1 sy,  0.0 ni, 99.8 id,  0.0 wa,  0.0 hi,  0.0 si,  0.0 st
KiB Mem : 16278772 total, 13556472 free,  1429424 used,  1292876 buff/cache
KiB Swap: 16630780 total, 16630780 free,        0 used. 14439924 avail Mem 

  PID USER      PR  NI    VIRT    RES    SHR S  %CPU %MEM     TIME+ COMMAND
26307 kenenth   20   0   41904   3820   3092 R   2.0  0.0   0:00.06 top

top - 14:40:30 up  1:15,  1 user,  load average: 0.00, 0.10, 0.72
Tasks: 287 total,   1 running, 226 sleeping,   0 stopped,   0 zombie
%Cpu(s):  0.4 us,  0.4 sy,  0.0 ni, 99.3 id,  0.0 wa,  0.0 hi,  0.0 si,  0.0 st
KiB Mem : 16278772 total, 13556048 free,  1429872 used,  1292852 buff/cache
KiB Swap: 16630780 total, 16630780 free,        0 used. 14439468 avail Mem 

  PID USER      PR  NI    VIRT    RES    SHR S  %CPU %MEM     TIME+ COMMAND
 2390 kenenth   20   0 3566072 277064  91588 S   2.0  1.7   0:54.94 gnome-shell
 2178 root      20   0  469124 128872  61656 S   1.0  0.8   0:26.19 Xorg
 2179 root     -51   0       0      0      0 S   1.0  0.0   0:03.20 irq/142-nv+

top - 14:40:31 up  1:15,  1 user,  load average: 0.00, 0.10, 0.72
Tasks: 287 total,   1 running, 226 sleeping,   0 stopped,   0 zombie
%Cpu(s):  0.1 us,  0.7 sy,  0.0 ni, 99.1 id,  0.0 wa,  0.0 hi,  0.0 si,  0.0 st
KiB Mem : 16278772 total, 13556048 free,  1429872 used,  1292852 buff/cache
KiB Swap: 16630780 total, 16630780 free,        0 used. 14439468 avail Mem 

  PID USER      PR  NI    VIRT    RES    SHR S  %CPU %MEM     TIME+ COMMAND
26307 kenenth   20   0   41904   3820   3092 R   2.0  0.0   0:00.08 top
 2178 root      20   0  469124 128872  61656 S   1.0  0.8   0:26.20 Xorg
 2390 kenenth   20   0 3566072 277064  91588 S   1.0  1.7   0:54.95 gnome-shell

top - 14:40:32 up  1:15,  1 user,  load average: 0.00, 0.10, 0.72
Tasks: 287 total,   1 running, 226 sleeping,   0 stopped,   0 zombie
%Cpu(s):  0.2 us,  0.1 sy,  0.0 ni, 99.6 id,  0.0 wa,  0.0 hi,  0.0 si,  0.0 st
KiB Mem : 16278772 total, 13556048 free,  1429872 used,  1292852 buff/cache
KiB Swap: 16630780 total, 16630780 free,        0 used. 14439468 avail Mem 

  PID USER      PR  NI    VIRT    RES    SHR S  %CPU %MEM     TIME+ COMMAND
 2178 root      20   0  469124 128872  61656 S   1.0  0.8   0:26.21 Xorg
26307 kenenth   20   0   41904   3820   3092 R   1.0  0.0   0:00.09 top

top - 14:40:33 up  1:16,  1 user,  load average: 0.00, 0.10, 0.72
Tasks: 287 total,   1 running, 226 sleeping,   0 stopped,   0 zombie
%Cpu(s):  0.2 us,  0.1 sy,  0.0 ni, 99.6 id,  0.0 wa,  0.0 hi,  0.0 si,  0.0 st
KiB Mem : 16278772 total, 13556016 free,  1429896 used,  1292860 buff/cache
KiB Swap: 16630780 total, 16630780 free,        0 used. 14439436 avail Mem 

  PID USER      PR  NI    VIRT    RES    SHR S  %CPU %MEM     TIME+ COMMAND
  906 root      20   0  493260  23404  13984 S   1.0  0.1   0:35.23 NetworkMan+
 2390 kenenth   20   0 3566072 277064  91588 S   1.0  1.7   0:54.96 gnome-shell
26307 kenenth   20   0   41904   3820   3092 R   1.0  0.0   0:00.10 top

top - 14:40:34 up  1:16,  1 user,  load average: 0.00, 0.09, 0.72
Tasks: 287 total,   1 running, 226 sleeping,   0 stopped,   0 zombie
%Cpu(s):  0.0 us,  0.2 sy,  0.0 ni, 99.8 id,  0.0 wa,  0.0 hi,  0.0 si,  0.0 st
KiB Mem : 16278772 total, 13556016 free,  1429896 used,  1292860 buff/cache
KiB Swap: 16630780 total, 16630780 free,        0 used. 14439436 avail Mem 

  PID USER      PR  NI    VIRT    RES    SHR S  %CPU %MEM     TIME+ COMMAND
26307 kenenth   20   0   41904   3820   3092 R   2.0  0.0   0:00.12 top
 2179 root     -51   0       0      0      0 S   1.0  0.0   0:03.21 irq/142-nv+
 2390 kenenth   20   0 3566072 277064  91588 S   1.0  1.7   0:54.97 gnome-shell
 2800 kenenth   20   0  792648  36808  27432 S   1.0  0.2   0:03.03 gnome-term+

top - 14:40:35 up  1:16,  1 user,  load average: 0.00, 0.09, 0.72
Tasks: 287 total,   1 running, 226 sleeping,   0 stopped,   0 zombie
%Cpu(s):  0.2 us,  0.1 sy,  0.0 ni, 99.6 id,  0.0 wa,  0.0 hi,  0.0 si,  0.0 st
KiB Mem : 16278772 total, 13556016 free,  1429896 used,  1292860 buff/cache
KiB Swap: 16630780 total, 16630780 free,        0 used. 14439436 avail Mem 

  PID USER      PR  NI    VIRT    RES    SHR S  %CPU %MEM     TIME+ COMMAND
  990 root      20   0 4988324  40536  26236 S   1.0  0.2   0:21.25 containerd
 2178 root      20   0  469124 128872  61656 S   1.0  0.8   0:26.22 Xorg
26307 kenenth   20   0   41904   3820   3092 R   1.0  0.0   0:00.13 top

top - 14:40:36 up  1:16,  1 user,  load average: 0.00, 0.09, 0.72
Tasks: 287 total,   1 running, 226 sleeping,   0 stopped,   0 zombie
%Cpu(s):  0.0 us,  0.5 sy,  0.0 ni, 99.5 id,  0.0 wa,  0.0 hi,  0.0 si,  0.0 st
KiB Mem : 16278772 total, 13555984 free,  1429916 used,  1292872 buff/cache
KiB Swap: 16630780 total, 16630780 free,        0 used. 14439404 avail Mem 

  PID USER      PR  NI    VIRT    RES    SHR S  %CPU %MEM     TIME+ COMMAND
 2178 root      20   0  469124 128872  61656 S   1.0  0.8   0:26.23 Xorg
 2390 kenenth   20   0 3566072 277064  91588 S   1.0  1.7   0:54.98 gnome-shell
26307 kenenth   20   0   41904   3820   3092 R   1.0  0.0   0:00.14 top

top - 14:40:37 up  1:16,  1 user,  load average: 0.00, 0.09, 0.72
Tasks: 287 total,   1 running, 226 sleeping,   0 stopped,   0 zombie
%Cpu(s):  0.1 us,  0.4 sy,  0.0 ni, 99.5 id,  0.0 wa,  0.0 hi,  0.0 si,  0.0 st
KiB Mem : 16278772 total, 13555984 free,  1429916 used,  1292872 buff/cache
KiB Swap: 16630780 total, 16630780 free,        0 used. 14439404 avail Mem 

  PID USER      PR  NI    VIRT    RES    SHR S  %CPU %MEM     TIME+ COMMAND
 2178 root      20   0  469124 128872  61656 S   1.0  0.8   0:26.24 Xorg
 2390 kenenth   20   0 3566072 277064  91588 S   1.0  1.7   0:54.99 gnome-shell
26307 kenenth   20   0   41904   3820   3092 R   1.0  0.0   0:00.15 top

top - 14:40:38 up  1:16,  1 user,  load average: 0.00, 0.09, 0.72
Tasks: 287 total,   1 running, 226 sleeping,   0 stopped,   0 zombie
%Cpu(s):  0.1 us,  0.2 sy,  0.0 ni, 99.6 id,  0.0 wa,  0.0 hi,  0.0 si,  0.0 st
KiB Mem : 16278772 total, 13555984 free,  1429916 used,  1292872 buff/cache
KiB Swap: 16630780 total, 16630780 free,        0 used. 14439404 avail Mem 

  PID USER      PR  NI    VIRT    RES    SHR S  %CPU %MEM     TIME+ COMMAND
 2178 root      20   0  469124 128872  61656 S   1.0  0.8   0:26.25 Xorg
 2179 root     -51   0       0      0      0 S   1.0  0.0   0:03.22 irq/142-nv+
 2390 kenenth   20   0 3566072 277064  91588 S   1.0  1.7   0:55.00 gnome-shell
26307 kenenth   20   0   41904   3820   3092 R   1.0  0.0   0:00.16 top

top - 14:40:39 up  1:16,  1 user,  load average: 0.00, 0.09, 0.71
Tasks: 287 total,   1 running, 226 sleeping,   0 stopped,   0 zombie
%Cpu(s):  0.1 us,  0.1 sy,  0.0 ni, 99.8 id,  0.0 wa,  0.0 hi,  0.0 si,  0.0 st
KiB Mem : 16278772 total, 13555984 free,  1429916 used,  1292872 buff/cache
KiB Swap: 16630780 total, 16630780 free,        0 used. 14439404 avail Mem 

  PID USER      PR  NI    VIRT    RES    SHR S  %CPU %MEM     TIME+ COMMAND
26307 kenenth   20   0   41904   3820   3092 R   2.0  0.0   0:00.18 top
26284 root      20   0       0      0      0 I   1.0  0.0   0:00.11 kworker/7:0

top - 14:40:40 up  1:16,  1 user,  load average: 0.00, 0.09, 0.71
Tasks: 287 total,   1 running, 226 sleeping,   0 stopped,   0 zombie
%Cpu(s):  0.0 us,  0.1 sy,  0.0 ni, 99.9 id,  0.0 wa,  0.0 hi,  0.0 si,  0.0 st
KiB Mem : 16278772 total, 13555984 free,  1429916 used,  1292872 buff/cache
KiB Swap: 16630780 total, 16630780 free,        0 used. 14439404 avail Mem 

  PID USER      PR  NI    VIRT    RES    SHR S  %CPU %MEM     TIME+ COMMAND
  990 root      20   0 4988324  40536  26236 S   1.0  0.2   0:21.26 containerd
26307 kenenth   20   0   41904   3820   3092 R   1.0  0.0   0:00.19 top

top - 14:40:41 up  1:16,  1 user,  load average: 0.00, 0.09, 0.71
Tasks: 287 total,   1 running, 226 sleeping,   0 stopped,   0 zombie
%Cpu(s):  0.1 us,  0.1 sy,  0.0 ni, 99.6 id,  0.1 wa,  0.0 hi,  0.0 si,  0.0 st
KiB Mem : 16278772 total, 13555984 free,  1429916 used,  1292872 buff/cache
KiB Swap: 16630780 total, 16630780 free,        0 used. 14439404 avail Mem 

  PID USER      PR  NI    VIRT    RES    SHR S  %CPU %MEM     TIME+ COMMAND
26307 kenenth   20   0   41904   3820   3092 R   2.0  0.0   0:00.21 top
    8 root      20   0       0      0      0 I   1.0  0.0   0:02.94 rcu_sched
 2178 root      20   0  469124 128872  61656 S   1.0  0.8   0:26.26 Xorg

top - 14:40:42 up  1:16,  1 user,  load average: 0.00, 0.09, 0.71
Tasks: 287 total,   1 running, 226 sleeping,   0 stopped,   0 zombie
%Cpu(s):  0.0 us,  0.1 sy,  0.0 ni, 99.9 id,  0.0 wa,  0.0 hi,  0.0 si,  0.0 st
KiB Mem : 16278772 total, 13555952 free,  1429940 used,  1292880 buff/cache
KiB Swap: 16630780 total, 16630780 free,        0 used. 14439372 avail Mem 

  PID USER      PR  NI    VIRT    RES    SHR S  %CPU %MEM     TIME+ COMMAND
26307 kenenth   20   0   41904   3820   3092 R   1.0  0.0   0:00.22 top

top - 14:40:43 up  1:16,  1 user,  load average: 0.00, 0.09, 0.71
Tasks: 287 total,   2 running, 225 sleeping,   0 stopped,   0 zombie
%Cpu(s):  0.1 us,  0.2 sy,  0.0 ni, 99.6 id,  0.0 wa,  0.0 hi,  0.0 si,  0.0 st
KiB Mem : 16278772 total, 13555952 free,  1429940 used,  1292880 buff/cache
KiB Swap: 16630780 total, 16630780 free,        0 used. 14439372 avail Mem 

  PID USER      PR  NI    VIRT    RES    SHR S  %CPU %MEM     TIME+ COMMAND
26307 kenenth   20   0   41904   3820   3092 R   1.0  0.0   0:00.23 top

top - 14:40:44 up  1:16,  1 user,  load average: 0.00, 0.09, 0.71
Tasks: 287 total,   2 running, 226 sleeping,   0 stopped,   0 zombie
%Cpu(s):  0.1 us,  0.1 sy,  0.0 ni, 99.8 id,  0.0 wa,  0.0 hi,  0.0 si,  0.0 st
KiB Mem : 16278772 total, 13555952 free,  1429940 used,  1292880 buff/cache
KiB Swap: 16630780 total, 16630780 free,        0 used. 14439372 avail Mem 

  PID USER      PR  NI    VIRT    RES    SHR S  %CPU %MEM     TIME+ COMMAND

top - 14:40:45 up  1:16,  1 user,  load average: 0.00, 0.09, 0.71
Tasks: 287 total,   1 running, 226 sleeping,   0 stopped,   0 zombie
%Cpu(s):  0.0 us,  0.1 sy,  0.0 ni, 99.9 id,  0.0 wa,  0.0 hi,  0.0 si,  0.0 st
KiB Mem : 16278772 total, 13555912 free,  1429972 used,  1292888 buff/cache
KiB Swap: 16630780 total, 16630780 free,        0 used. 14439332 avail Mem 

  PID USER      PR  NI    VIRT    RES    SHR S  %CPU %MEM     TIME+ COMMAND
26307 kenenth   20   0   41904   3820   3092 R   2.0  0.0   0:00.25 top
 2178 root      20   0  469124 128872  61656 S   1.0  0.8   0:26.27 Xorg

top - 14:40:46 up  1:16,  1 user,  load average: 0.00, 0.09, 0.71
Tasks: 287 total,   1 running, 226 sleeping,   0 stopped,   0 zombie
%Cpu(s):  0.0 us,  0.2 sy,  0.0 ni, 99.8 id,  0.0 wa,  0.0 hi,  0.0 si,  0.0 st
KiB Mem : 16278772 total, 13555912 free,  1429972 used,  1292888 buff/cache
KiB Swap: 16630780 total, 16630780 free,        0 used. 14439332 avail Mem 

  PID USER      PR  NI    VIRT    RES    SHR S  %CPU %MEM     TIME+ COMMAND
  920 avahi     20   0   48208   4760   3308 S   1.0  0.0   0:07.13 avahi-daem+
 2178 root      20   0  469124 128872  61656 S   1.0  0.8   0:26.28 Xorg
26307 kenenth   20   0   41904   3820   3092 R   1.0  0.0   0:00.26 top

top - 14:40:47 up  1:16,  1 user,  load average: 0.00, 0.09, 0.71
Tasks: 287 total,   1 running, 226 sleeping,   0 stopped,   0 zombie
%Cpu(s):  0.2 us,  0.1 sy,  0.0 ni, 99.6 id,  0.0 wa,  0.0 hi,  0.0 si,  0.0 st
KiB Mem : 16278772 total, 13555912 free,  1429972 used,  1292888 buff/cache
KiB Swap: 16630780 total, 16630780 free,        0 used. 14439332 avail Mem 

  PID USER      PR  NI    VIRT    RES    SHR S  %CPU %MEM     TIME+ COMMAND
26307 kenenth   20   0   41904   3820   3092 R   2.0  0.0   0:00.28 top

top - 14:40:48 up  1:16,  1 user,  load average: 0.00, 0.09, 0.71
Tasks: 287 total,   1 running, 226 sleeping,   0 stopped,   0 zombie
%Cpu(s):  0.0 us,  0.1 sy,  0.0 ni, 99.9 id,  0.0 wa,  0.0 hi,  0.0 si,  0.0 st
KiB Mem : 16278772 total, 13555788 free,  1430092 used,  1292892 buff/cache
KiB Swap: 16630780 total, 16630780 free,        0 used. 14439216 avail Mem 

  PID USER      PR  NI    VIRT    RES    SHR S  %CPU %MEM     TIME+ COMMAND
26307 kenenth   20   0   41904   3820   3092 R   1.0  0.0   0:00.29 top

top - 14:40:49 up  1:16,  1 user,  load average: 0.00, 0.09, 0.70
Tasks: 287 total,   1 running, 226 sleeping,   0 stopped,   0 zombie
%Cpu(s):  0.1 us,  0.1 sy,  0.0 ni, 99.8 id,  0.0 wa,  0.0 hi,  0.0 si,  0.0 st
KiB Mem : 16278772 total, 13555788 free,  1430092 used,  1292892 buff/cache
KiB Swap: 16630780 total, 16630780 free,        0 used. 14439216 avail Mem 

  PID USER      PR  NI    VIRT    RES    SHR S  %CPU %MEM     TIME+ COMMAND
  990 root      20   0 4988324  40536  26236 S   1.0  0.2   0:21.27 containerd
 2178 root      20   0  469124 128872  61656 S   1.0  0.8   0:26.29 Xorg
26307 kenenth   20   0   41904   3820   3092 R   1.0  0.0   0:00.30 top

top - 14:40:50 up  1:16,  1 user,  load average: 0.00, 0.09, 0.70
Tasks: 287 total,   1 running, 226 sleeping,   0 stopped,   0 zombie
%Cpu(s):  0.1 us,  0.1 sy,  0.0 ni, 99.8 id,  0.0 wa,  0.0 hi,  0.0 si,  0.0 st
KiB Mem : 16278772 total, 13555788 free,  1430092 used,  1292892 buff/cache
KiB Swap: 16630780 total, 16630780 free,        0 used. 14439216 avail Mem 

  PID USER      PR  NI    VIRT    RES    SHR S  %CPU %MEM     TIME+ COMMAND
26307 kenenth   20   0   41904   3820   3092 R   2.0  0.0   0:00.32 top
  990 root      20   0 4988324  40536  26236 S   1.0  0.2   0:21.28 containerd

top - 14:40:51 up  1:16,  1 user,  load average: 0.00, 0.09, 0.70
Tasks: 287 total,   1 running, 226 sleeping,   0 stopped,   0 zombie
%Cpu(s):  0.0 us,  0.1 sy,  0.0 ni, 99.9 id,  0.0 wa,  0.0 hi,  0.0 si,  0.0 st
KiB Mem : 16278772 total, 13555756 free,  1430120 used,  1292896 buff/cache
KiB Swap: 16630780 total, 16630780 free,        0 used. 14439184 avail Mem 

  PID USER      PR  NI    VIRT    RES    SHR S  %CPU %MEM     TIME+ COMMAND
26307 kenenth   20   0   41904   3820   3092 R   1.0  0.0   0:00.33 top

top - 14:40:52 up  1:16,  1 user,  load average: 0.00, 0.09, 0.70
Tasks: 287 total,   1 running, 226 sleeping,   0 stopped,   0 zombie
%Cpu(s):  0.1 us,  0.1 sy,  0.0 ni, 99.8 id,  0.0 wa,  0.0 hi,  0.0 si,  0.0 st
KiB Mem : 16278772 total, 13555756 free,  1430120 used,  1292896 buff/cache
KiB Swap: 16630780 total, 16630780 free,        0 used. 14439184 avail Mem 

  PID USER      PR  NI    VIRT    RES    SHR S  %CPU %MEM     TIME+ COMMAND
 2178 root      20   0  469124 128872  61656 S   1.0  0.8   0:26.30 Xorg
26307 kenenth   20   0   41904   3820   3092 R   1.0  0.0   0:00.34 top

top - 14:40:53 up  1:16,  1 user,  load average: 0.00, 0.09, 0.70
Tasks: 287 total,   1 running, 226 sleeping,   0 stopped,   0 zombie
%Cpu(s):  0.1 us,  0.2 sy,  0.0 ni, 99.6 id,  0.0 wa,  0.0 hi,  0.0 si,  0.0 st
KiB Mem : 16278772 total, 13555756 free,  1430120 used,  1292896 buff/cache
KiB Swap: 16630780 total, 16630780 free,        0 used. 14439184 avail Mem 

  PID USER      PR  NI    VIRT    RES    SHR S  %CPU %MEM     TIME+ COMMAND
26307 kenenth   20   0   41904   3820   3092 R   1.0  0.0   0:00.35 top

top - 14:40:54 up  1:16,  1 user,  load average: 0.00, 0.09, 0.70
Tasks: 287 total,   1 running, 226 sleeping,   0 stopped,   0 zombie
%Cpu(s):  0.4 us,  0.4 sy,  0.0 ni, 99.3 id,  0.0 wa,  0.0 hi,  0.0 si,  0.0 st
KiB Mem : 16278772 total, 13555756 free,  1430108 used,  1292908 buff/cache
KiB Swap: 16630780 total, 16630780 free,        0 used. 14439184 avail Mem 

  PID USER      PR  NI    VIRT    RES    SHR S  %CPU %MEM     TIME+ COMMAND
  906 root      20   0  493260  23404  13984 S   1.0  0.1   0:35.24 NetworkMan+
 1062 gdm       20   0 3332008 122416  66272 S   1.0  0.8   0:53.83 gnome-shell
 2178 root      20   0  469124 128872  61656 S   1.0  0.8   0:26.31 Xorg
26307 kenenth   20   0   41904   3820   3092 R   1.0  0.0   0:00.36 top

top - 14:40:55 up  1:16,  1 user,  load average: 0.00, 0.09, 0.70
Tasks: 287 total,   1 running, 226 sleeping,   0 stopped,   0 zombie
%Cpu(s):  0.1 us,  0.1 sy,  0.0 ni, 99.6 id,  0.0 wa,  0.0 hi,  0.1 si,  0.0 st
KiB Mem : 16278772 total, 13555756 free,  1430108 used,  1292908 buff/cache
KiB Swap: 16630780 total, 16630780 free,        0 used. 14439184 avail Mem 

  PID USER      PR  NI    VIRT    RES    SHR S  %CPU %MEM     TIME+ COMMAND
26307 kenenth   20   0   41904   3820   3092 R   1.0  0.0   0:00.37 top

top - 14:40:56 up  1:16,  1 user,  load average: 0.00, 0.09, 0.70
Tasks: 287 total,   1 running, 226 sleeping,   0 stopped,   0 zombie
%Cpu(s):  0.0 us,  0.1 sy,  0.0 ni, 99.9 id,  0.0 wa,  0.0 hi,  0.0 si,  0.0 st
KiB Mem : 16278772 total, 13555756 free,  1430108 used,  1292908 buff/cache
KiB Swap: 16630780 total, 16630780 free,        0 used. 14439184 avail Mem 

  PID USER      PR  NI    VIRT    RES    SHR S  %CPU %MEM     TIME+ COMMAND
  990 root      20   0 4988324  40536  26236 S   1.0  0.2   0:21.29 containerd
 2178 root      20   0  469124 128872  61656 S   1.0  0.8   0:26.32 Xorg
26307 kenenth   20   0   41904   3820   3092 R   1.0  0.0   0:00.38 top

top - 14:40:57 up  1:16,  1 user,  load average: 0.00, 0.09, 0.70
Tasks: 287 total,   1 running, 226 sleeping,   0 stopped,   0 zombie
%Cpu(s):  0.0 us,  0.1 sy,  0.0 ni, 99.9 id,  0.0 wa,  0.0 hi,  0.0 si,  0.0 st
KiB Mem : 16278772 total, 13555724 free,  1430140 used,  1292908 buff/cache
KiB Swap: 16630780 total, 16630780 free,        0 used. 14439152 avail Mem 

  PID USER      PR  NI    VIRT    RES    SHR S  %CPU %MEM     TIME+ COMMAND
26307 kenenth   20   0   41904   3820   3092 R   2.0  0.0   0:00.40 top

top - 14:40:58 up  1:16,  1 user,  load average: 0.00, 0.09, 0.70
Tasks: 287 total,   1 running, 226 sleeping,   0 stopped,   0 zombie
%Cpu(s):  0.1 us,  0.2 sy,  0.0 ni, 99.6 id,  0.0 wa,  0.0 hi,  0.0 si,  0.0 st
KiB Mem : 16278772 total, 13555724 free,  1430140 used,  1292908 buff/cache
KiB Swap: 16630780 total, 16630780 free,        0 used. 14439152 avail Mem 

  PID USER      PR  NI    VIRT    RES    SHR S  %CPU %MEM     TIME+ COMMAND
  937 root      20   0  269672   5864   5120 S   1.0  0.0   0:00.85 iio-sensor+
 2178 root      20   0  469124 128872  61656 S   1.0  0.8   0:26.33 Xorg
26307 kenenth   20   0   41904   3820   3092 R   1.0  0.0   0:00.41 top

top - 14:40:59 up  1:16,  1 user,  load average: 0.00, 0.08, 0.70
Tasks: 287 total,   1 running, 226 sleeping,   0 stopped,   0 zombie
%Cpu(s):  0.2 us,  0.1 sy,  0.0 ni, 99.6 id,  0.0 wa,  0.0 hi,  0.0 si,  0.0 st
KiB Mem : 16278772 total, 13555724 free,  1430140 used,  1292908 buff/cache
KiB Swap: 16630780 total, 16630780 free,        0 used. 14439152 avail Mem 

  PID USER      PR  NI    VIRT    RES    SHR S  %CPU %MEM     TIME+ COMMAND
 2178 root      20   0  469124 128872  61656 S   1.0  0.8   0:26.34 Xorg
 2502 kenenth   20   0  448012  12916   7944 S   1.0  0.1   0:21.48 gsd-sharing
26307 kenenth   20   0   41904   3820   3092 R   1.0  0.0   0:00.42 top
26313 kenenth   20   0   22648   2548   2372 S   1.0  0.0   0:00.01 ping

top - 14:41:00 up  1:16,  1 user,  load average: 0.00, 0.08, 0.70
Tasks: 287 total,   1 running, 226 sleeping,   0 stopped,   0 zombie
%Cpu(s):  0.4 us,  0.4 sy,  0.0 ni, 99.3 id,  0.0 wa,  0.0 hi,  0.0 si,  0.0 st
KiB Mem : 16278772 total, 13555724 free,  1430128 used,  1292920 buff/cache
KiB Swap: 16630780 total, 16630780 free,        0 used. 14439160 avail Mem 

  PID USER      PR  NI    VIRT    RES    SHR S  %CPU %MEM     TIME+ COMMAND
  990 root      20   0 4988324  40536  26236 S   2.0  0.2   0:21.31 containerd
 2390 kenenth   20   0 3566072 277064  91588 S   1.0  1.7   0:55.01 gnome-shell
26307 kenenth   20   0   41904   3820   3092 R   1.0  0.0   0:00.43 top

top - 14:41:01 up  1:16,  1 user,  load average: 0.00, 0.08, 0.70
Tasks: 287 total,   1 running, 226 sleeping,   0 stopped,   0 zombie
%Cpu(s):  0.0 us,  0.2 sy,  0.0 ni, 99.8 id,  0.0 wa,  0.0 hi,  0.0 si,  0.0 st
KiB Mem : 16278772 total, 13555724 free,  1430128 used,  1292920 buff/cache
KiB Swap: 16630780 total, 16630780 free,        0 used. 14439160 avail Mem 

  PID USER      PR  NI    VIRT    RES    SHR S  %CPU %MEM     TIME+ COMMAND
26307 kenenth   20   0   41904   3820   3092 R   2.0  0.0   0:00.45 top
  907 root      20   0  110512   3472   3136 S   1.0  0.0   0:00.81 irqbalance
26312 kenenth   20   0   22648   2492   2316 S   1.0  0.0   0:00.01 ping

top - 14:41:02 up  1:16,  1 user,  load average: 0.00, 0.08, 0.70
Tasks: 287 total,   1 running, 226 sleeping,   0 stopped,   0 zombie
%Cpu(s):  1.0 us,  0.1 sy,  0.0 ni, 98.9 id,  0.0 wa,  0.0 hi,  0.0 si,  0.0 st
KiB Mem : 16278772 total, 13555724 free,  1430128 used,  1292920 buff/cache
KiB Swap: 16630780 total, 16630780 free,        0 used. 14439160 avail Mem 

  PID USER      PR  NI    VIRT    RES    SHR S  %CPU %MEM     TIME+ COMMAND
 1502 root      20   0 6054224 105808  39280 S   5.0  0.6   1:15.54 dockerd
26307 kenenth   20   0   41904   3820   3092 R   3.0  0.0   0:00.48 top
  920 avahi     20   0   48208   4760   3308 S   1.0  0.0   0:07.14 avahi-daem+
  990 root      20   0 4988324  40536  26236 S   1.0  0.2   0:21.32 containerd
 2178 root      20   0  469124 128872  61656 S   1.0  0.8   0:26.35 Xorg

top - 14:41:03 up  1:16,  1 user,  load average: 0.00, 0.08, 0.70
Tasks: 287 total,   2 running, 225 sleeping,   0 stopped,   0 zombie
%Cpu(s):  1.2 us,  1.3 sy,  0.0 ni, 97.4 id,  0.0 wa,  0.0 hi,  0.0 si,  0.0 st
KiB Mem : 16278772 total, 13555684 free,  1430164 used,  1292924 buff/cache
KiB Swap: 16630780 total, 16630780 free,        0 used. 14439160 avail Mem 

  PID USER      PR  NI    VIRT    RES    SHR S  %CPU %MEM     TIME+ COMMAND
 2390 kenenth   20   0 3566072 277064  91588 S   9.7  1.7   0:55.11 gnome-shell
 2178 root      20   0  469124 128872  61656 R   3.9  0.8   0:26.39 Xorg
 2179 root     -51   0       0      0      0 S   1.9  0.0   0:03.24 irq/142-nv+
 2800 kenenth   20   0  792648  36808  27432 S   1.9  0.2   0:03.05 gnome-term+
26307 kenenth   20   0   41904   3820   3092 R   1.9  0.0   0:00.50 top
  520 root     -51   0       0      0      0 S   1.0  0.0   0:01.12 irq/109-EL+
 2601 kenenth   20   0 1359708  63248  49732 S   1.0  0.4   0:01.46 nautilus-d+
26310 kenenth   20   0   22648   2528   2356 S   1.0  0.0   0:00.01 ping

top - 14:41:04 up  1:16,  1 user,  load average: 0.00, 0.08, 0.69
Tasks: 287 total,   1 running, 226 sleeping,   0 stopped,   0 zombie
%Cpu(s):  0.2 us,  0.2 sy,  0.0 ni, 99.5 id,  0.0 wa,  0.0 hi,  0.0 si,  0.0 st
KiB Mem : 16278772 total, 13555684 free,  1430164 used,  1292924 buff/cache
KiB Swap: 16630780 total, 16630780 free,        0 used. 14439160 avail Mem 

  PID USER      PR  NI    VIRT    RES    SHR S  %CPU %MEM     TIME+ COMMAND
 2178 root      20   0  469124 128872  61656 S   1.0  0.8   0:26.40 Xorg
26307 kenenth   20   0   41904   3820   3092 R   1.0  0.0   0:00.51 top

top - 14:41:05 up  1:16,  1 user,  load average: 0.00, 0.08, 0.69
Tasks: 288 total,   1 running, 226 sleeping,   0 stopped,   0 zombie
%Cpu(s):  0.2 us,  0.1 sy,  0.0 ni, 99.6 id,  0.0 wa,  0.0 hi,  0.0 si,  0.0 st
KiB Mem : 16278772 total, 13555684 free,  1430164 used,  1292924 buff/cache
KiB Swap: 16630780 total, 16630780 free,        0 used. 14439160 avail Mem 

  PID USER      PR  NI    VIRT    RES    SHR S  %CPU %MEM     TIME+ COMMAND
 2178 root      20   0  469124 128872  61656 S   1.0  0.8   0:26.41 Xorg
 2390 kenenth   20   0 3566072 277064  91588 S   1.0  1.7   0:55.12 gnome-shell
26307 kenenth   20   0   41904   3820   3092 R   1.0  0.0   0:00.52 top

top - 14:41:06 up  1:16,  1 user,  load average: 0.00, 0.08, 0.69
Tasks: 288 total,   1 running, 226 sleeping,   0 stopped,   0 zombie
%Cpu(s):  0.5 us,  0.4 sy,  0.0 ni, 99.0 id,  0.1 wa,  0.0 hi,  0.0 si,  0.0 st
KiB Mem : 16278772 total, 13555652 free,  1430188 used,  1292932 buff/cache
KiB Swap: 16630780 total, 16630780 free,        0 used. 14439132 avail Mem 

  PID USER      PR  NI    VIRT    RES    SHR S  %CPU %MEM     TIME+ COMMAND
 2390 kenenth   20   0 3566072 277072  91588 S   2.0  1.7   0:55.14 gnome-shell
26307 kenenth   20   0   41904   3820   3092 R   2.0  0.0   0:00.54 top
26284 root      20   0       0      0      0 I   1.0  0.0   0:00.12 kworker/7:0

top - 14:41:07 up  1:16,  1 user,  load average: 0.00, 0.08, 0.69
Tasks: 288 total,   1 running, 226 sleeping,   0 stopped,   0 zombie
%Cpu(s):  0.0 us,  0.2 sy,  0.0 ni, 99.8 id,  0.0 wa,  0.0 hi,  0.0 si,  0.0 st
KiB Mem : 16278772 total, 13555652 free,  1430188 used,  1292932 buff/cache
KiB Swap: 16630780 total, 16630780 free,        0 used. 14439132 avail Mem 

  PID USER      PR  NI    VIRT    RES    SHR S  %CPU %MEM     TIME+ COMMAND
26307 kenenth   20   0   41904   3820   3092 R   1.9  0.0   0:00.56 top

top - 14:41:08 up  1:16,  1 user,  load average: 0.00, 0.08, 0.69
Tasks: 288 total,   1 running, 226 sleeping,   0 stopped,   0 zombie
%Cpu(s):  0.1 us,  0.2 sy,  0.0 ni, 99.6 id,  0.0 wa,  0.0 hi,  0.0 si,  0.0 st
KiB Mem : 16278772 total, 13555652 free,  1430188 used,  1292932 buff/cache
KiB Swap: 16630780 total, 16630780 free,        0 used. 14439132 avail Mem 

  PID USER      PR  NI    VIRT    RES    SHR S  %CPU %MEM     TIME+ COMMAND
 2178 root      20   0  469124 128872  61656 S   1.0  0.8   0:26.42 Xorg

top - 14:41:09 up  1:16,  1 user,  load average: 0.00, 0.08, 0.69
Tasks: 288 total,   1 running, 226 sleeping,   0 stopped,   0 zombie
%Cpu(s):  0.1 us,  0.2 sy,  0.0 ni, 99.6 id,  0.0 wa,  0.0 hi,  0.0 si,  0.0 st
KiB Mem : 16278772 total, 13555652 free,  1430184 used,  1292936 buff/cache
KiB Swap: 16630780 total, 16630780 free,        0 used. 14439148 avail Mem 

  PID USER      PR  NI    VIRT    RES    SHR S  %CPU %MEM     TIME+ COMMAND
26307 kenenth   20   0   41904   3820   3092 R   2.0  0.0   0:00.58 top
    8 root      20   0       0      0      0 I   1.0  0.0   0:02.95 rcu_sched
 2179 root     -51   0       0      0      0 S   1.0  0.0   0:03.25 irq/142-nv+

top - 14:41:10 up  1:16,  1 user,  load average: 0.00, 0.08, 0.69
Tasks: 288 total,   1 running, 226 sleeping,   0 stopped,   0 zombie
%Cpu(s):  0.2 us,  0.2 sy,  0.0 ni, 99.5 id,  0.0 wa,  0.0 hi,  0.0 si,  0.0 st
KiB Mem : 16278772 total, 13555652 free,  1430184 used,  1292936 buff/cache
KiB Swap: 16630780 total, 16630780 free,        0 used. 14439148 avail Mem 

  PID USER      PR  NI    VIRT    RES    SHR S  %CPU %MEM     TIME+ COMMAND
26307 kenenth   20   0   41904   3820   3092 R   2.0  0.0   0:00.60 top
  906 root      20   0  493260  23404  13984 S   1.0  0.1   0:35.25 NetworkMan+
  990 root      20   0 4988324  40536  26236 S   1.0  0.2   0:21.33 containerd
 1062 gdm       20   0 3332008 122416  66272 S   1.0  0.8   0:53.84 gnome-shell

top - 14:41:11 up  1:16,  1 user,  load average: 0.00, 0.08, 0.69
Tasks: 288 total,   1 running, 226 sleeping,   0 stopped,   0 zombie
%Cpu(s):  0.0 us,  0.2 sy,  0.0 ni, 99.8 id,  0.0 wa,  0.0 hi,  0.0 si,  0.0 st
KiB Mem : 16278772 total, 13555652 free,  1430184 used,  1292936 buff/cache
KiB Swap: 16630780 total, 16630780 free,        0 used. 14439148 avail Mem 

  PID USER      PR  NI    VIRT    RES    SHR S  %CPU %MEM     TIME+ COMMAND
 2178 root      20   0  469124 128872  61656 S   1.0  0.8   0:26.43 Xorg
26284 root      20   0       0      0      0 I   1.0  0.0   0:00.13 kworker/7:0
26307 kenenth   20   0   41904   3820   3092 R   1.0  0.0   0:00.61 top

top - 14:41:13 up  1:16,  1 user,  load average: 0.00, 0.08, 0.69
Tasks: 288 total,   1 running, 226 sleeping,   0 stopped,   0 zombie
%Cpu(s):  0.0 us,  0.1 sy,  0.0 ni, 99.9 id,  0.0 wa,  0.0 hi,  0.0 si,  0.0 st
KiB Mem : 16278772 total, 13555620 free,  1430208 used,  1292944 buff/cache
KiB Swap: 16630780 total, 16630780 free,        0 used. 14439116 avail Mem 

  PID USER      PR  NI    VIRT    RES    SHR S  %CPU %MEM     TIME+ COMMAND
  920 avahi     20   0   48208   4760   3308 S   1.0  0.0   0:07.15 avahi-daem+
26307 kenenth   20   0   41904   3820   3092 R   1.0  0.0   0:00.62 top

top - 14:41:14 up  1:16,  1 user,  load average: 0.00, 0.08, 0.69
Tasks: 288 total,   1 running, 226 sleeping,   0 stopped,   0 zombie
%Cpu(s):  0.1 us,  0.1 sy,  0.0 ni, 99.8 id,  0.0 wa,  0.0 hi,  0.0 si,  0.0 st
KiB Mem : 16278772 total, 13555620 free,  1430208 used,  1292944 buff/cache
KiB Swap: 16630780 total, 16630780 free,        0 used. 14439116 avail Mem 

  PID USER      PR  NI    VIRT    RES    SHR S  %CPU %MEM     TIME+ COMMAND
 2178 root      20   0  469124 128872  61656 S   1.0  0.8   0:26.44 Xorg
26307 kenenth   20   0   41904   3820   3092 R   1.0  0.0   0:00.63 top

top - 14:41:15 up  1:16,  1 user,  load average: 0.00, 0.08, 0.68
Tasks: 288 total,   1 running, 226 sleeping,   0 stopped,   0 zombie
%Cpu(s):  0.0 us,  0.1 sy,  0.0 ni, 99.9 id,  0.0 wa,  0.0 hi,  0.0 si,  0.0 st
KiB Mem : 16278772 total, 13555620 free,  1430208 used,  1292944 buff/cache
KiB Swap: 16630780 total, 16630780 free,        0 used. 14439116 avail Mem 

  PID USER      PR  NI    VIRT    RES    SHR S  %CPU %MEM     TIME+ COMMAND
26307 kenenth   20   0   41904   3820   3092 R   2.0  0.0   0:00.65 top
  990 root      20   0 4988324  40536  26236 S   1.0  0.2   0:21.34 containerd

top - 14:41:16 up  1:16,  1 user,  load average: 0.00, 0.08, 0.68
Tasks: 288 total,   1 running, 226 sleeping,   0 stopped,   0 zombie
%Cpu(s):  0.4 us,  0.1 sy,  0.0 ni, 99.5 id,  0.0 wa,  0.0 hi,  0.0 si,  0.0 st
KiB Mem : 16278772 total, 13555620 free,  1430208 used,  1292944 buff/cache
KiB Swap: 16630780 total, 16630780 free,        0 used. 14439116 avail Mem 

  PID USER      PR  NI    VIRT    RES    SHR S  %CPU %MEM     TIME+ COMMAND
 2178 root      20   0  469124 128872  61656 S   1.0  0.8   0:26.45 Xorg

top - 14:41:17 up  1:16,  1 user,  load average: 0.00, 0.08, 0.68
Tasks: 288 total,   1 running, 226 sleeping,   0 stopped,   0 zombie
%Cpu(s):  0.1 us,  0.1 sy,  0.0 ni, 99.8 id,  0.0 wa,  0.0 hi,  0.0 si,  0.0 st
KiB Mem : 16278772 total, 13555620 free,  1430208 used,  1292944 buff/cache
KiB Swap: 16630780 total, 16630780 free,        0 used. 14439116 avail Mem 

  PID USER      PR  NI    VIRT    RES    SHR S  %CPU %MEM     TIME+ COMMAND
26307 kenenth   20   0   41904   3820   3092 R   2.0  0.0   0:00.67 top

top - 14:41:18 up  1:16,  1 user,  load average: 0.00, 0.08, 0.68
Tasks: 288 total,   1 running, 226 sleeping,   0 stopped,   0 zombie
%Cpu(s):  0.1 us,  0.1 sy,  0.0 ni, 99.8 id,  0.0 wa,  0.0 hi,  0.0 si,  0.0 st
KiB Mem : 16278772 total, 13555620 free,  1430208 used,  1292944 buff/cache
KiB Swap: 16630780 total, 16630780 free,        0 used. 14439116 avail Mem 

  PID USER      PR  NI    VIRT    RES    SHR S  %CPU %MEM     TIME+ COMMAND
26307 kenenth   20   0   41904   3820   3092 R   1.0  0.0   0:00.68 top
26314 kenenth   20   0   22648   2652   2476 S   1.0  0.0   0:00.01 ping
26318 kenenth   20   0   22648   2616   2444 S   1.0  0.0   0:00.01 ping

top - 14:41:19 up  1:16,  1 user,  load average: 0.00, 0.08, 0.68
Tasks: 288 total,   1 running, 226 sleeping,   0 stopped,   0 zombie
%Cpu(s):  0.1 us,  0.2 sy,  0.0 ni, 99.6 id,  0.0 wa,  0.0 hi,  0.0 si,  0.0 st
KiB Mem : 16278772 total, 13555620 free,  1430208 used,  1292944 buff/cache
KiB Swap: 16630780 total, 16630780 free,        0 used. 14439116 avail Mem 

  PID USER      PR  NI    VIRT    RES    SHR S  %CPU %MEM     TIME+ COMMAND
26307 kenenth   20   0   41904   3820   3092 R   2.0  0.0   0:00.70 top
 2178 root      20   0  469124 128872  61656 S   1.0  0.8   0:26.46 Xorg
26315 kenenth   20   0   22648   2468   2296 S   1.0  0.0   0:00.01 ping

top - 14:41:20 up  1:16,  1 user,  load average: 0.00, 0.08, 0.68
Tasks: 288 total,   1 running, 226 sleeping,   0 stopped,   0 zombie
%Cpu(s):  0.0 us,  0.2 sy,  0.0 ni, 99.8 id,  0.0 wa,  0.0 hi,  0.0 si,  0.0 st
KiB Mem : 16278772 total, 13555620 free,  1430208 used,  1292944 buff/cache
KiB Swap: 16630780 total, 16630780 free,        0 used. 14439116 avail Mem 

  PID USER      PR  NI    VIRT    RES    SHR S  %CPU %MEM     TIME+ COMMAND
  990 root      20   0 4988324  40536  26236 S   1.0  0.2   0:21.35 containerd
26307 kenenth   20   0   41904   3820   3092 R   1.0  0.0   0:00.71 top
26311 kenenth   20   0   22648   2464   2292 S   1.0  0.0   0:00.01 ping

top - 14:41:21 up  1:16,  1 user,  load average: 0.00, 0.08, 0.68
Tasks: 288 total,   1 running, 226 sleeping,   0 stopped,   0 zombie
%Cpu(s):  0.1 us,  0.2 sy,  0.0 ni, 99.6 id,  0.0 wa,  0.0 hi,  0.0 si,  0.0 st
KiB Mem : 16278772 total, 13555588 free,  1430228 used,  1292956 buff/cache
KiB Swap: 16630780 total, 16630780 free,        0 used. 14439084 avail Mem 

  PID USER      PR  NI    VIRT    RES    SHR S  %CPU %MEM     TIME+ COMMAND
 2178 root      20   0  469124 128872  61656 S   1.0  0.8   0:26.47 Xorg
26307 kenenth   20   0   41904   3820   3092 R   1.0  0.0   0:00.72 top

top - 14:41:22 up  1:16,  1 user,  load average: 0.00, 0.08, 0.68
Tasks: 288 total,   1 running, 226 sleeping,   0 stopped,   0 zombie
%Cpu(s):  0.5 us,  0.1 sy,  0.0 ni, 99.4 id,  0.0 wa,  0.0 hi,  0.0 si,  0.0 st
KiB Mem : 16278772 total, 13555588 free,  1430228 used,  1292956 buff/cache
KiB Swap: 16630780 total, 16630780 free,        0 used. 14439084 avail Mem 

  PID USER      PR  NI    VIRT    RES    SHR S  %CPU %MEM     TIME+ COMMAND
  922 root      20   0 1090076  29828  17936 S   3.0  0.2   0:10.83 snapd
 2178 root      20   0  469124 128872  61656 S   1.0  0.8   0:26.48 Xorg
26317 kenenth   20   0   22648   2416   2244 S   1.0  0.0   0:00.01 ping
26319 kenenth   20   0   22648   2468   2296 S   1.0  0.0   0:00.01 ping

top - 14:41:23 up  1:16,  1 user,  load average: 0.00, 0.08, 0.68
Tasks: 288 total,   1 running, 226 sleeping,   0 stopped,   0 zombie
%Cpu(s):  0.1 us,  0.1 sy,  0.0 ni, 99.8 id,  0.0 wa,  0.0 hi,  0.0 si,  0.0 st
KiB Mem : 16278772 total, 13555588 free,  1430228 used,  1292956 buff/cache
KiB Swap: 16630780 total, 16630780 free,        0 used. 14439084 avail Mem 

  PID USER      PR  NI    VIRT    RES    SHR S  %CPU %MEM     TIME+ COMMAND
26307 kenenth   20   0   41904   3820   3092 R   2.0  0.0   0:00.74 top
  990 root      20   0 4988324  40536  26236 S   1.0  0.2   0:21.36 containerd

top - 14:41:24 up  1:16,  1 user,  load average: 0.00, 0.08, 0.68
Tasks: 288 total,   1 running, 226 sleeping,   0 stopped,   0 zombie
%Cpu(s):  0.2 us,  0.2 sy,  0.0 ni, 99.5 id,  0.0 wa,  0.0 hi,  0.0 si,  0.0 st
KiB Mem : 16278772 total, 13555556 free,  1430252 used,  1292964 buff/cache
KiB Swap: 16630780 total, 16630780 free,        0 used. 14439064 avail Mem 

  PID USER      PR  NI    VIRT    RES    SHR S  %CPU %MEM     TIME+ COMMAND
26307 kenenth   20   0   41904   3820   3092 R   2.0  0.0   0:00.76 top
 2178 root      20   0  469124 128872  61656 S   1.0  0.8   0:26.49 Xorg

top - 14:41:25 up  1:16,  1 user,  load average: 0.00, 0.08, 0.68
Tasks: 288 total,   1 running, 226 sleeping,   0 stopped,   0 zombie
%Cpu(s):  1.3 us,  1.2 sy,  0.0 ni, 97.4 id,  0.0 wa,  0.0 hi,  0.0 si,  0.0 st
KiB Mem : 16278772 total, 13555556 free,  1430252 used,  1292964 buff/cache
KiB Swap: 16630780 total, 16630780 free,        0 used. 14439064 avail Mem 

  PID USER      PR  NI    VIRT    RES    SHR S  %CPU %MEM     TIME+ COMMAND
 2390 kenenth   20   0 3566072 277072  91588 S   7.8  1.7   0:55.22 gnome-shell
 2178 root      20   0  469124 128872  61656 S   3.9  0.8   0:26.53 Xorg
26307 kenenth   20   0   41904   3820   3092 R   2.0  0.0   0:00.78 top
  520 root     -51   0       0      0      0 S   1.0  0.0   0:01.13 irq/109-EL+
 2179 root     -51   0       0      0      0 S   1.0  0.0   0:03.26 irq/142-nv+
 2601 kenenth   20   0 1359708  63248  49732 S   1.0  0.4   0:01.47 nautilus-d+
 2800 kenenth   20   0  792648  36808  27432 S   1.0  0.2   0:03.06 gnome-term+
26284 root      20   0       0      0      0 I   1.0  0.0   0:00.14 kworker/7:0

top - 14:41:26 up  1:16,  1 user,  load average: 0.00, 0.08, 0.68
Tasks: 288 total,   1 running, 226 sleeping,   0 stopped,   0 zombie
%Cpu(s):  1.0 us,  0.7 sy,  0.0 ni, 98.3 id,  0.0 wa,  0.0 hi,  0.0 si,  0.0 st
KiB Mem : 16278772 total, 13555556 free,  1430252 used,  1292964 buff/cache
KiB Swap: 16630780 total, 16630780 free,        0 used. 14439064 avail Mem 

  PID USER      PR  NI    VIRT    RES    SHR S  %CPU %MEM     TIME+ COMMAND
 2390 kenenth   20   0 3566072 277072  91588 S   9.8  1.7   0:55.32 gnome-shell
 2178 root      20   0  469124 128872  61656 S   2.0  0.8   0:26.55 Xorg
 2800 kenenth   20   0  792648  36808  27432 S   1.0  0.2   0:03.07 gnome-term+
26307 kenenth   20   0   41904   3820   3092 R   1.0  0.0   0:00.79 top

top - 14:41:27 up  1:16,  1 user,  load average: 0.00, 0.08, 0.68
Tasks: 288 total,   1 running, 226 sleeping,   0 stopped,   0 zombie
%Cpu(s):  0.1 us,  0.2 sy,  0.0 ni, 99.5 id,  0.1 wa,  0.0 hi,  0.0 si,  0.0 st
KiB Mem : 16278772 total, 13555556 free,  1430252 used,  1292964 buff/cache
KiB Swap: 16630780 total, 16630780 free,        0 used. 14439064 avail Mem 

  PID USER      PR  NI    VIRT    RES    SHR S  %CPU %MEM     TIME+ COMMAND
26307 kenenth   20   0   41904   3820   3092 R   2.0  0.0   0:00.81 top
 1318 gdm       20   0  730068  31000  23232 S   1.0  0.2   0:00.65 gsd-color
 1502 root      20   0 6054224 105808  39280 S   1.0  0.6   1:15.55 dockerd
 2178 root      20   0  469124 128872  61656 S   1.0  0.8   0:26.56 Xorg

top - 14:41:28 up  1:16,  1 user,  load average: 0.00, 0.08, 0.68
Tasks: 288 total,   1 running, 226 sleeping,   0 stopped,   0 zombie
%Cpu(s):  0.1 us,  0.1 sy,  0.0 ni, 99.8 id,  0.0 wa,  0.0 hi,  0.0 si,  0.0 st
KiB Mem : 16278772 total, 13555556 free,  1430252 used,  1292964 buff/cache
KiB Swap: 16630780 total, 16630780 free,        0 used. 14439064 avail Mem 

  PID USER      PR  NI    VIRT    RES    SHR S  %CPU %MEM     TIME+ COMMAND
 2179 root     -51   0       0      0      0 S   1.0  0.0   0:03.27 irq/142-nv+
26307 kenenth   20   0   41904   3820   3092 R   1.0  0.0   0:00.82 top

top - 14:41:29 up  1:16,  1 user,  load average: 0.00, 0.08, 0.68
Tasks: 288 total,   1 running, 226 sleeping,   0 stopped,   0 zombie
%Cpu(s):  0.2 us,  0.2 sy,  0.0 ni, 99.5 id,  0.0 wa,  0.0 hi,  0.0 si,  0.0 st
KiB Mem : 16278772 total, 13555556 free,  1430252 used,  1292964 buff/cache
KiB Swap: 16630780 total, 16630780 free,        0 used. 14439064 avail Mem 

  PID USER      PR  NI    VIRT    RES    SHR S  %CPU %MEM     TIME+ COMMAND
  920 avahi     20   0   48208   4760   3308 S   1.0  0.0   0:07.16 avahi-daem+
 2178 root      20   0  469124 128872  61656 S   1.0  0.8   0:26.57 Xorg
26307 kenenth   20   0   41904   3820   3092 R   1.0  0.0   0:00.83 top

top - 14:41:30 up  1:16,  1 user,  load average: 0.00, 0.08, 0.67
Tasks: 288 total,   1 running, 226 sleeping,   0 stopped,   0 zombie
%Cpu(s):  0.0 us,  0.1 sy,  0.0 ni, 99.9 id,  0.0 wa,  0.0 hi,  0.0 si,  0.0 st
KiB Mem : 16278772 total, 13555516 free,  1430284 used,  1292972 buff/cache
KiB Swap: 16630780 total, 16630780 free,        0 used. 14439024 avail Mem 

  PID USER      PR  NI    VIRT    RES    SHR S  %CPU %MEM     TIME+ COMMAND
 3330 root      20   0  547576  20736  14036 S   1.0  0.1   0:00.24 fwupd
26307 kenenth   20   0   41904   3820   3092 R   1.0  0.0   0:00.84 top

top - 14:41:31 up  1:16,  1 user,  load average: 0.00, 0.08, 0.67
Tasks: 288 total,   1 running, 226 sleeping,   0 stopped,   0 zombie
%Cpu(s):  0.2 us,  0.1 sy,  0.0 ni, 99.6 id,  0.0 wa,  0.0 hi,  0.0 si,  0.0 st
KiB Mem : 16278772 total, 13555516 free,  1430284 used,  1292972 buff/cache
KiB Swap: 16630780 total, 16630780 free,        0 used. 14439024 avail Mem 

  PID USER      PR  NI    VIRT    RES    SHR S  %CPU %MEM     TIME+ COMMAND
  906 root      20   0  493260  23404  13984 S   1.0  0.1   0:35.26 NetworkMan+
 2178 root      20   0  469124 128872  61656 S   1.0  0.8   0:26.58 Xorg
26307 kenenth   20   0   41904   3820   3092 R   1.0  0.0   0:00.85 top

top - 14:41:32 up  1:16,  1 user,  load average: 0.00, 0.08, 0.67
Tasks: 288 total,   1 running, 226 sleeping,   0 stopped,   0 zombie
%Cpu(s):  0.1 us,  0.1 sy,  0.0 ni, 99.8 id,  0.0 wa,  0.0 hi,  0.0 si,  0.0 st
KiB Mem : 16278772 total, 13555516 free,  1430284 used,  1292972 buff/cache
KiB Swap: 16630780 total, 16630780 free,        0 used. 14439024 avail Mem 

  PID USER      PR  NI    VIRT    RES    SHR S  %CPU %MEM     TIME+ COMMAND
26307 kenenth   20   0   41904   3820   3092 R   1.0  0.0   0:00.86 top

top - 14:41:33 up  1:17,  1 user,  load average: 0.00, 0.08, 0.67
Tasks: 288 total,   1 running, 226 sleeping,   0 stopped,   0 zombie
%Cpu(s):  0.1 us,  0.1 sy,  0.0 ni, 99.8 id,  0.0 wa,  0.0 hi,  0.0 si,  0.0 st
KiB Mem : 16278772 total, 13555484 free,  1430308 used,  1292980 buff/cache
KiB Swap: 16630780 total, 16630780 free,        0 used. 14438992 avail Mem 

  PID USER      PR  NI    VIRT    RES    SHR S  %CPU %MEM     TIME+ COMMAND
26307 kenenth   20   0   41904   3820   3092 R   2.0  0.0   0:00.88 top
  990 root      20   0 4988324  40536  26236 S   1.0  0.2   0:21.37 containerd

top - 14:41:34 up  1:17,  1 user,  load average: 0.00, 0.08, 0.67
Tasks: 288 total,   1 running, 226 sleeping,   0 stopped,   0 zombie
%Cpu(s):  0.0 us,  0.1 sy,  0.0 ni, 99.9 id,  0.0 wa,  0.0 hi,  0.0 si,  0.0 st
KiB Mem : 16278772 total, 13555484 free,  1430308 used,  1292980 buff/cache
KiB Swap: 16630780 total, 16630780 free,        0 used. 14438992 avail Mem 

  PID USER      PR  NI    VIRT    RES    SHR S  %CPU %MEM     TIME+ COMMAND
26307 kenenth   20   0   41904   3820   3092 R   1.0  0.0   0:00.89 top

top - 14:41:35 up  1:17,  1 user,  load average: 0.00, 0.07, 0.67
Tasks: 288 total,   1 running, 226 sleeping,   0 stopped,   0 zombie
%Cpu(s):  0.2 us,  0.4 sy,  0.0 ni, 99.4 id,  0.0 wa,  0.0 hi,  0.0 si,  0.0 st
KiB Mem : 16278772 total, 13555484 free,  1430308 used,  1292980 buff/cache
KiB Swap: 16630780 total, 16630780 free,        0 used. 14438992 avail Mem 

  PID USER      PR  NI    VIRT    RES    SHR S  %CPU %MEM     TIME+ COMMAND
 2178 root      20   0  469124 128872  61656 S   1.0  0.8   0:26.59 Xorg
26307 kenenth   20   0   41904   3820   3092 R   1.0  0.0   0:00.90 top

top - 14:41:36 up  1:17,  1 user,  load average: 0.00, 0.07, 0.67
Tasks: 288 total,   1 running, 226 sleeping,   0 stopped,   0 zombie
%Cpu(s):  0.0 us,  0.1 sy,  0.0 ni, 99.9 id,  0.0 wa,  0.0 hi,  0.0 si,  0.0 st
KiB Mem : 16278772 total, 13555484 free,  1430304 used,  1292984 buff/cache
KiB Swap: 16630780 total, 16630780 free,        0 used. 14438996 avail Mem 

  PID USER      PR  NI    VIRT    RES    SHR S  %CPU %MEM     TIME+ COMMAND
 1062 gdm       20   0 3332008 122416  66272 S   1.0  0.8   0:53.85 gnome-shell
 2178 root      20   0  469124 128872  61656 S   1.0  0.8   0:26.60 Xorg
26307 kenenth   20   0   41904   3820   3092 R   1.0  0.0   0:00.91 top

top - 14:41:37 up  1:17,  1 user,  load average: 0.00, 0.07, 0.67
Tasks: 288 total,   1 running, 226 sleeping,   0 stopped,   0 zombie
%Cpu(s):  0.0 us,  0.1 sy,  0.0 ni, 99.9 id,  0.0 wa,  0.0 hi,  0.0 si,  0.0 st
KiB Mem : 16278772 total, 13555484 free,  1430304 used,  1292984 buff/cache
KiB Swap: 16630780 total, 16630780 free,        0 used. 14438996 avail Mem 

  PID USER      PR  NI    VIRT    RES    SHR S  %CPU %MEM     TIME+ COMMAND
26307 kenenth   20   0   41904   3820   3092 R   2.0  0.0   0:00.93 top
 2390 kenenth   20   0 3566072 277072  91588 S   1.0  1.7   0:55.33 gnome-shell

top - 14:41:38 up  1:17,  1 user,  load average: 0.00, 0.07, 0.67
Tasks: 288 total,   1 running, 226 sleeping,   0 stopped,   0 zombie
%Cpu(s):  0.1 us,  0.2 sy,  0.0 ni, 99.6 id,  0.0 wa,  0.0 hi,  0.0 si,  0.0 st
KiB Mem : 16278772 total, 13555484 free,  1430304 used,  1292984 buff/cache
KiB Swap: 16630780 total, 16630780 free,        0 used. 14438996 avail Mem 

  PID USER      PR  NI    VIRT    RES    SHR S  %CPU %MEM     TIME+ COMMAND
   28 root      20   0       0      0      0 S   1.0  0.0   0:00.63 ksoftirqd/3
  990 root      20   0 4988324  40536  26236 S   1.0  0.2   0:21.38 containerd
26307 kenenth   20   0   41904   3820   3092 R   1.0  0.0   0:00.94 top
26316 kenenth   20   0   22648   2552   2380 S   1.0  0.0   0:00.01 ping

top - 14:41:39 up  1:17,  1 user,  load average: 0.00, 0.07, 0.67
Tasks: 288 total,   1 running, 226 sleeping,   0 stopped,   0 zombie
%Cpu(s):  0.1 us,  0.1 sy,  0.0 ni, 99.8 id,  0.0 wa,  0.0 hi,  0.0 si,  0.0 st
KiB Mem : 16278772 total, 13555452 free,  1430336 used,  1292984 buff/cache
KiB Swap: 16630780 total, 16630780 free,        0 used. 14438964 avail Mem 

  PID USER      PR  NI    VIRT    RES    SHR S  %CPU %MEM     TIME+ COMMAND
 2178 root      20   0  469124 128872  61656 S   1.0  0.8   0:26.61 Xorg
26307 kenenth   20   0   41904   3820   3092 R   1.0  0.0   0:00.95 top

top - 14:41:40 up  1:17,  1 user,  load average: 0.00, 0.07, 0.66
Tasks: 288 total,   1 running, 226 sleeping,   0 stopped,   0 zombie
%Cpu(s):  0.0 us,  0.1 sy,  0.0 ni, 99.9 id,  0.0 wa,  0.0 hi,  0.0 si,  0.0 st
KiB Mem : 16278772 total, 13555452 free,  1430336 used,  1292984 buff/cache
KiB Swap: 16630780 total, 16630780 free,        0 used. 14438964 avail Mem 

  PID USER      PR  NI    VIRT    RES    SHR S  %CPU %MEM     TIME+ COMMAND
    8 root      20   0       0      0      0 I   1.0  0.0   0:02.96 rcu_sched
 2178 root      20   0  469124 128872  61656 S   1.0  0.8   0:26.62 Xorg
26307 kenenth   20   0   41904   3820   3092 R   1.0  0.0   0:00.96 top

top - 14:41:41 up  1:17,  1 user,  load average: 0.00, 0.07, 0.66
Tasks: 288 total,   1 running, 226 sleeping,   0 stopped,   0 zombie
%Cpu(s):  0.2 us,  0.1 sy,  0.0 ni, 99.6 id,  0.0 wa,  0.0 hi,  0.0 si,  0.0 st
KiB Mem : 16278772 total, 13555452 free,  1430336 used,  1292984 buff/cache
KiB Swap: 16630780 total, 16630780 free,        0 used. 14438964 avail Mem 

  PID USER      PR  NI    VIRT    RES    SHR S  %CPU %MEM     TIME+ COMMAND
26307 kenenth   20   0   41904   3820   3092 R   2.0  0.0   0:00.98 top
  920 avahi     20   0   48208   4760   3308 S   1.0  0.0   0:07.17 avahi-daem+

top - 14:41:42 up  1:17,  1 user,  load average: 0.00, 0.07, 0.66
Tasks: 288 total,   1 running, 226 sleeping,   0 stopped,   0 zombie
%Cpu(s):  0.0 us,  0.5 sy,  0.0 ni, 99.4 id,  0.1 wa,  0.0 hi,  0.0 si,  0.0 st
KiB Mem : 16278772 total, 13555420 free,  1430352 used,  1293000 buff/cache
KiB Swap: 16630780 total, 16630780 free,        0 used. 14438936 avail Mem 

  PID USER      PR  NI    VIRT    RES    SHR S  %CPU %MEM     TIME+ COMMAND
  932 root      20   0  179856   9520   8716 S   1.0  0.1   0:03.17 thermald

top - 14:41:43 up  1:17,  1 user,  load average: 0.00, 0.07, 0.66
Tasks: 288 total,   1 running, 226 sleeping,   0 stopped,   0 zombie
%Cpu(s):  0.1 us,  0.1 sy,  0.0 ni, 99.8 id,  0.0 wa,  0.0 hi,  0.0 si,  0.0 st
KiB Mem : 16278772 total, 13555420 free,  1430352 used,  1293000 buff/cache
KiB Swap: 16630780 total, 16630780 free,        0 used. 14438936 avail Mem 

  PID USER      PR  NI    VIRT    RES    SHR S  %CPU %MEM     TIME+ COMMAND
26307 kenenth   20   0   41904   3820   3092 R   2.0  0.0   0:01.00 top

top - 14:41:44 up  1:17,  1 user,  load average: 0.00, 0.07, 0.66
Tasks: 288 total,   1 running, 226 sleeping,   0 stopped,   0 zombie
%Cpu(s):  0.1 us,  0.1 sy,  0.0 ni, 99.8 id,  0.0 wa,  0.0 hi,  0.0 si,  0.0 st
KiB Mem : 16278772 total, 13555420 free,  1430352 used,  1293000 buff/cache
KiB Swap: 16630780 total, 16630780 free,        0 used. 14438936 avail Mem 

  PID USER      PR  NI    VIRT    RES    SHR S  %CPU %MEM     TIME+ COMMAND
 2178 root      20   0  469124 128872  61656 S   1.0  0.8   0:26.63 Xorg
 2179 root     -51   0       0      0      0 S   1.0  0.0   0:03.28 irq/142-nv+
26307 kenenth   20   0   41904   3820   3092 R   1.0  0.0   0:01.01 top

top - 14:41:45 up  1:17,  1 user,  load average: 0.08, 0.09, 0.67
Tasks: 288 total,   1 running, 226 sleeping,   0 stopped,   0 zombie
%Cpu(s):  0.1 us,  0.1 sy,  0.0 ni, 99.8 id,  0.0 wa,  0.0 hi,  0.0 si,  0.0 st
KiB Mem : 16278772 total, 13555420 free,  1430348 used,  1293004 buff/cache
KiB Swap: 16630780 total, 16630780 free,        0 used. 14438936 avail Mem 

  PID USER      PR  NI    VIRT    RES    SHR S  %CPU %MEM     TIME+ COMMAND
26307 kenenth   20   0   41904   3820   3092 R   1.0  0.0   0:01.02 top

top - 14:41:46 up  1:17,  1 user,  load average: 0.08, 0.09, 0.67
Tasks: 288 total,   1 running, 226 sleeping,   0 stopped,   0 zombie
%Cpu(s):  0.1 us,  0.1 sy,  0.0 ni, 99.8 id,  0.0 wa,  0.0 hi,  0.0 si,  0.0 st
KiB Mem : 16278772 total, 13555420 free,  1430348 used,  1293004 buff/cache
KiB Swap: 16630780 total, 16630780 free,        0 used. 14438936 avail Mem 

  PID USER      PR  NI    VIRT    RES    SHR S  %CPU %MEM     TIME+ COMMAND
 2178 root      20   0  469124 128872  61656 S   1.0  0.8   0:26.64 Xorg
 2390 kenenth   20   0 3566072 277072  91588 S   1.0  1.7   0:55.34 gnome-shell
 2502 kenenth   20   0  448012  12916   7944 S   1.0  0.1   0:21.49 gsd-sharing
26307 kenenth   20   0   41904   3820   3092 R   1.0  0.0   0:01.03 top

top - 14:41:47 up  1:17,  1 user,  load average: 0.08, 0.09, 0.67
Tasks: 288 total,   1 running, 226 sleeping,   0 stopped,   0 zombie
%Cpu(s):  0.0 us,  0.1 sy,  0.0 ni, 99.9 id,  0.0 wa,  0.0 hi,  0.0 si,  0.0 st
KiB Mem : 16278772 total, 13555420 free,  1430348 used,  1293004 buff/cache
KiB Swap: 16630780 total, 16630780 free,        0 used. 14438936 avail Mem 

  PID USER      PR  NI    VIRT    RES    SHR S  %CPU %MEM     TIME+ COMMAND
26307 kenenth   20   0   41904   3820   3092 R   2.0  0.0   0:01.05 top

top - 14:41:48 up  1:17,  1 user,  load average: 0.08, 0.09, 0.67
Tasks: 288 total,   1 running, 226 sleeping,   0 stopped,   0 zombie
%Cpu(s):  0.1 us,  0.1 sy,  0.0 ni, 99.8 id,  0.0 wa,  0.0 hi,  0.0 si,  0.0 st
KiB Mem : 16278772 total, 13555264 free,  1430496 used,  1293012 buff/cache
KiB Swap: 16630780 total, 16630780 free,        0 used. 14438804 avail Mem 

  PID USER      PR  NI    VIRT    RES    SHR S  %CPU %MEM     TIME+ COMMAND
  990 root      20   0 4988324  40536  26236 S   1.0  0.2   0:21.39 containerd
26307 kenenth   20   0   41904   3820   3092 R   1.0  0.0   0:01.06 top
26313 kenenth   20   0   22648   2548   2372 S   1.0  0.0   0:00.02 ping

top - 14:41:49 up  1:17,  1 user,  load average: 0.07, 0.09, 0.66
Tasks: 288 total,   1 running, 226 sleeping,   0 stopped,   0 zombie
%Cpu(s):  0.0 us,  0.1 sy,  0.0 ni, 99.9 id,  0.0 wa,  0.0 hi,  0.0 si,  0.0 st
KiB Mem : 16278772 total, 13555264 free,  1430496 used,  1293012 buff/cache
KiB Swap: 16630780 total, 16630780 free,        0 used. 14438804 avail Mem 

  PID USER      PR  NI    VIRT    RES    SHR S  %CPU %MEM     TIME+ COMMAND
 2178 root      20   0  469124 128872  61656 S   2.0  0.8   0:26.66 Xorg
  937 root      20   0  269672   5864   5120 S   1.0  0.0   0:00.86 iio-sensor+
26307 kenenth   20   0   41904   3820   3092 R   1.0  0.0   0:01.07 top

top - 14:41:50 up  1:17,  1 user,  load average: 0.07, 0.09, 0.66
Tasks: 288 total,   1 running, 226 sleeping,   0 stopped,   0 zombie
%Cpu(s):  0.2 us,  0.1 sy,  0.0 ni, 99.6 id,  0.0 wa,  0.0 hi,  0.0 si,  0.0 st
KiB Mem : 16278772 total, 13555264 free,  1430496 used,  1293012 buff/cache
KiB Swap: 16630780 total, 16630780 free,        0 used. 14438804 avail Mem 

  PID USER      PR  NI    VIRT    RES    SHR S  %CPU %MEM     TIME+ COMMAND
26307 kenenth   20   0   41904   3820   3092 R   1.0  0.0   0:01.08 top

top - 14:41:51 up  1:17,  1 user,  load average: 0.07, 0.09, 0.66
Tasks: 288 total,   1 running, 226 sleeping,   0 stopped,   0 zombie
%Cpu(s):  0.1 us,  0.1 sy,  0.0 ni, 99.8 id,  0.0 wa,  0.0 hi,  0.0 si,  0.0 st
KiB Mem : 16278772 total, 13555264 free,  1430488 used,  1293020 buff/cache
KiB Swap: 16630780 total, 16630780 free,        0 used. 14438804 avail Mem 

  PID USER      PR  NI    VIRT    RES    SHR S  %CPU %MEM     TIME+ COMMAND
26307 kenenth   20   0   41904   3820   3092 R   2.0  0.0   0:01.10 top
  864 message+  20   0   51776   6084   3720 S   1.0  0.0   1:04.39 dbus-daemon
  906 root      20   0  493260  23404  13984 S   1.0  0.1   0:35.27 NetworkMan+
  907 root      20   0  110512   3472   3136 S   1.0  0.0   0:00.82 irqbalance
 2178 root      20   0  469124 128872  61656 S   1.0  0.8   0:26.67 Xorg
26310 kenenth   20   0   22648   2528   2356 S   1.0  0.0   0:00.02 ping

top - 14:41:52 up  1:17,  1 user,  load average: 0.07, 0.09, 0.66
Tasks: 288 total,   1 running, 226 sleeping,   0 stopped,   0 zombie
%Cpu(s):  0.2 us,  0.1 sy,  0.0 ni, 99.6 id,  0.0 wa,  0.0 hi,  0.0 si,  0.0 st
KiB Mem : 16278772 total, 13555264 free,  1430488 used,  1293020 buff/cache
KiB Swap: 16630780 total, 16630780 free,        0 used. 14438804 avail Mem 

  PID USER      PR  NI    VIRT    RES    SHR S  %CPU %MEM     TIME+ COMMAND

top - 14:41:53 up  1:17,  1 user,  load average: 0.07, 0.09, 0.66
Tasks: 288 total,   1 running, 226 sleeping,   0 stopped,   0 zombie
%Cpu(s):  0.0 us,  0.2 sy,  0.0 ni, 99.8 id,  0.0 wa,  0.0 hi,  0.0 si,  0.0 st
KiB Mem : 16278772 total, 13555264 free,  1430488 used,  1293020 buff/cache
KiB Swap: 16630780 total, 16630780 free,        0 used. 14438804 avail Mem 

  PID USER      PR  NI    VIRT    RES    SHR S  %CPU %MEM     TIME+ COMMAND
 2178 root      20   0  469124 128872  61656 S   1.0  0.8   0:26.68 Xorg
26307 kenenth   20   0   41904   3820   3092 R   1.0  0.0   0:01.11 top

top - 14:41:54 up  1:17,  1 user,  load average: 0.07, 0.08, 0.66
Tasks: 288 total,   1 running, 226 sleeping,   0 stopped,   0 zombie
%Cpu(s):  0.1 us,  0.1 sy,  0.0 ni, 99.8 id,  0.0 wa,  0.0 hi,  0.0 si,  0.0 st
KiB Mem : 16278772 total, 13555264 free,  1430480 used,  1293028 buff/cache
KiB Swap: 16630780 total, 16630780 free,        0 used. 14438804 avail Mem 

  PID USER      PR  NI    VIRT    RES    SHR S  %CPU %MEM     TIME+ COMMAND
26307 kenenth   20   0   41904   3820   3092 R   2.0  0.0   0:01.13 top

top - 14:41:55 up  1:17,  1 user,  load average: 0.07, 0.08, 0.66
Tasks: 288 total,   1 running, 226 sleeping,   0 stopped,   0 zombie
%Cpu(s):  0.2 us,  0.2 sy,  0.0 ni, 99.5 id,  0.0 wa,  0.0 hi,  0.0 si,  0.0 st
KiB Mem : 16278772 total, 13555264 free,  1430480 used,  1293028 buff/cache
KiB Swap: 16630780 total, 16630780 free,        0 used. 14438804 avail Mem 

  PID USER      PR  NI    VIRT    RES    SHR S  %CPU %MEM     TIME+ COMMAND
  990 root      20   0 4988324  40536  26236 S   1.0  0.2   0:21.40 containerd
26307 kenenth   20   0   41904   3820   3092 R   1.0  0.0   0:01.14 top

top - 14:41:56 up  1:17,  1 user,  load average: 0.07, 0.08, 0.66
Tasks: 288 total,   1 running, 226 sleeping,   0 stopped,   0 zombie
%Cpu(s):  0.1 us,  0.2 sy,  0.0 ni, 99.6 id,  0.0 wa,  0.0 hi,  0.0 si,  0.0 st
KiB Mem : 16278772 total, 13555264 free,  1430480 used,  1293028 buff/cache
KiB Swap: 16630780 total, 16630780 free,        0 used. 14438804 avail Mem 

  PID USER      PR  NI    VIRT    RES    SHR S  %CPU %MEM     TIME+ COMMAND
 2178 root      20   0  469124 128872  61656 S   1.0  0.8   0:26.69 Xorg
26307 kenenth   20   0   41904   3820   3092 R   1.0  0.0   0:01.15 top

top - 14:41:57 up  1:17,  1 user,  load average: 0.07, 0.08, 0.66
Tasks: 288 total,   1 running, 226 sleeping,   0 stopped,   0 zombie
%Cpu(s):  0.0 us,  0.1 sy,  0.0 ni, 99.9 id,  0.0 wa,  0.0 hi,  0.0 si,  0.0 st
KiB Mem : 16278772 total, 13555232 free,  1430512 used,  1293028 buff/cache
KiB Swap: 16630780 total, 16630780 free,        0 used. 14438772 avail Mem 

  PID USER      PR  NI    VIRT    RES    SHR S  %CPU %MEM     TIME+ COMMAND
26307 kenenth   20   0   41904   3820   3092 R   2.0  0.0   0:01.17 top
 2179 root     -51   0       0      0      0 S   1.0  0.0   0:03.29 irq/142-nv+

top - 14:41:58 up  1:17,  1 user,  load average: 0.07, 0.08, 0.66
Tasks: 288 total,   1 running, 226 sleeping,   0 stopped,   0 zombie
%Cpu(s):  0.1 us,  0.1 sy,  0.0 ni, 99.8 id,  0.0 wa,  0.0 hi,  0.0 si,  0.0 st
KiB Mem : 16278772 total, 13555232 free,  1430512 used,  1293028 buff/cache
KiB Swap: 16630780 total, 16630780 free,        0 used. 14438772 avail Mem 

  PID USER      PR  NI    VIRT    RES    SHR S  %CPU %MEM     TIME+ COMMAND
 2178 root      20   0  469124 128872  61656 S   1.0  0.8   0:26.70 Xorg
26307 kenenth   20   0   41904   3820   3092 R   1.0  0.0   0:01.18 top

top - 14:41:59 up  1:17,  1 user,  load average: 0.06, 0.08, 0.66
Tasks: 288 total,   1 running, 226 sleeping,   0 stopped,   0 zombie
%Cpu(s):  0.1 us,  0.2 sy,  0.0 ni, 99.6 id,  0.0 wa,  0.0 hi,  0.0 si,  0.0 st
KiB Mem : 16278772 total, 13555232 free,  1430512 used,  1293028 buff/cache
KiB Swap: 16630780 total, 16630780 free,        0 used. 14438772 avail Mem 

  PID USER      PR  NI    VIRT    RES    SHR S  %CPU %MEM     TIME+ COMMAND
 2542 kenenth   20   0  661104  23204  17736 S   1.0  0.1   0:00.53 gsd-color
26284 root      20   0       0      0      0 I   1.0  0.0   0:00.15 kworker/7:0
26307 kenenth   20   0   41904   3820   3092 R   1.0  0.0   0:01.19 top

top - 14:42:00 up  1:17,  1 user,  load average: 0.06, 0.08, 0.66
Tasks: 288 total,   2 running, 225 sleeping,   0 stopped,   0 zombie
%Cpu(s):  0.0 us,  0.2 sy,  0.0 ni, 99.8 id,  0.0 wa,  0.0 hi,  0.0 si,  0.0 st
KiB Mem : 16278772 total, 13555200 free,  1430528 used,  1293044 buff/cache
KiB Swap: 16630780 total, 16630780 free,        0 used. 14438740 avail Mem 

  PID USER      PR  NI    VIRT    RES    SHR S  %CPU %MEM     TIME+ COMMAND
 2390 kenenth   20   0 3566072 277072  91588 S   1.0  1.7   0:55.35 gnome-shell
26307 kenenth   20   0   41904   3820   3092 R   1.0  0.0   0:01.20 top

top - 14:42:01 up  1:17,  1 user,  load average: 0.06, 0.08, 0.66
Tasks: 288 total,   1 running, 226 sleeping,   0 stopped,   0 zombie
%Cpu(s):  0.2 us,  0.2 sy,  0.0 ni, 99.5 id,  0.0 wa,  0.0 hi,  0.0 si,  0.0 st
KiB Mem : 16278772 total, 13555200 free,  1430528 used,  1293044 buff/cache
KiB Swap: 16630780 total, 16630780 free,        0 used. 14438740 avail Mem 

  PID USER      PR  NI    VIRT    RES    SHR S  %CPU %MEM     TIME+ COMMAND
 2178 root      20   0  469124 128872  61656 S   1.0  0.8   0:26.71 Xorg
26307 kenenth   20   0   41904   3820   3092 R   1.0  0.0   0:01.21 top
26318 kenenth   20   0   22648   2616   2444 S   1.0  0.0   0:00.02 ping

top - 14:42:02 up  1:17,  1 user,  load average: 0.06, 0.08, 0.66
Tasks: 288 total,   1 running, 226 sleeping,   0 stopped,   0 zombie
%Cpu(s):  0.0 us,  0.2 sy,  0.0 ni, 99.8 id,  0.0 wa,  0.0 hi,  0.0 si,  0.0 st
KiB Mem : 16278772 total, 13555200 free,  1430528 used,  1293044 buff/cache
KiB Swap: 16630780 total, 16630780 free,        0 used. 14438740 avail Mem 

  PID USER      PR  NI    VIRT    RES    SHR S  %CPU %MEM     TIME+ COMMAND
26307 kenenth   20   0   41904   3820   3092 R   2.0  0.0   0:01.23 top
 2178 root      20   0  469124 128872  61656 S   1.0  0.8   0:26.72 Xorg

top - 14:42:03 up  1:17,  1 user,  load average: 0.06, 0.08, 0.66
Tasks: 288 total,   1 running, 226 sleeping,   0 stopped,   0 zombie
%Cpu(s):  0.0 us,  0.1 sy,  0.0 ni, 99.9 id,  0.0 wa,  0.0 hi,  0.0 si,  0.0 st
KiB Mem : 16278772 total, 13555200 free,  1430528 used,  1293044 buff/cache
KiB Swap: 16630780 total, 16630780 free,        0 used. 14438740 avail Mem 

  PID USER      PR  NI    VIRT    RES    SHR S  %CPU %MEM     TIME+ COMMAND
  990 root      20   0 4988324  40536  26236 S   1.0  0.2   0:21.41 containerd
26307 kenenth   20   0   41904   3820   3092 R   1.0  0.0   0:01.24 top

top - 14:42:04 up  1:17,  1 user,  load average: 0.06, 0.08, 0.65
Tasks: 288 total,   1 running, 226 sleeping,   0 stopped,   0 zombie
%Cpu(s):  0.2 us,  0.1 sy,  0.0 ni, 99.6 id,  0.0 wa,  0.0 hi,  0.0 si,  0.0 st
KiB Mem : 16278772 total, 13555200 free,  1430528 used,  1293044 buff/cache
KiB Swap: 16630780 total, 16630780 free,        0 used. 14438740 avail Mem 

  PID USER      PR  NI    VIRT    RES    SHR S  %CPU %MEM     TIME+ COMMAND
26307 kenenth   20   0   41904   3820   3092 R   1.0  0.0   0:01.25 top

top - 14:42:05 up  1:17,  1 user,  load average: 0.06, 0.08, 0.65
Tasks: 288 total,   1 running, 226 sleeping,   0 stopped,   0 zombie
%Cpu(s):  0.1 us,  0.1 sy,  0.0 ni, 99.8 id,  0.0 wa,  0.0 hi,  0.0 si,  0.0 st
KiB Mem : 16278772 total, 13555200 free,  1430528 used,  1293044 buff/cache
KiB Swap: 16630780 total, 16630780 free,        0 used. 14438740 avail Mem 

  PID USER      PR  NI    VIRT    RES    SHR S  %CPU %MEM     TIME+ COMMAND
 2178 root      20   0  469124 128872  61656 S   1.0  0.8   0:26.73 Xorg
26307 kenenth   20   0   41904   3820   3092 R   1.0  0.0   0:01.26 top