     1	 94.8 
     2	 99.3 
     3	 99.6 
     4	 99.4 
     5	 99.8 
     6	 99.5 
     7	 99.6 
     8	 99.6 
     9	 99.6 
    10	 99.6 
    11	 99.5 
    12	 99.8 
    13	 99.4 
    14	 99.9 
    15	 99.4 
    16	 99.9 
    17	 99.6 
    18	 99.8 
    19	 99.6 
