ping_68 | round-trip min/avg/max = 21.429/21.618/21.798 ms
ping_74 | round-trip min/avg/max = 21.405/22.211/25.060 ms
ping_1  | round-trip min/avg/max = 21.411/21.702/22.376 ms
ping_12 | round-trip min/avg/max = 21.447/21.504/21.631 ms
ping_57 | round-trip min/avg/max = 21.443/21.557/21.652 ms
ping_31 | round-trip min/avg/max = 21.455/21.478/21.526 ms
ping_34 | round-trip min/avg/max = 21.478/21.516/21.558 ms
ping_75 | round-trip min/avg/max = 21.441/23.228/29.937 ms
ping_41 | round-trip min/avg/max = 21.424/21.498/21.624 ms
ping_54 | round-trip min/avg/max = 21.427/21.745/22.728 ms
ping_81 | round-trip min/avg/max = 21.435/21.553/21.729 ms
ping_55 | round-trip min/avg/max = 21.454/23.087/29.450 ms
ping_89 | round-trip min/avg/max = 21.456/21.565/21.879 ms
ping_27 | round-trip min/avg/max = 21.481/21.573/21.692 ms
ping_23 | round-trip min/avg/max = 21.433/21.710/22.562 ms
ping_5  | round-trip min/avg/max = 21.486/22.784/27.759 ms
ping_95 | round-trip min/avg/max = 21.460/21.527/21.575 ms
ping_10 | round-trip min/avg/max = 21.490/21.522/21.578 ms
ping_8  | round-trip min/avg/max = 21.462/21.833/23.179 ms
ping_30 | round-trip min/avg/max = 21.449/21.482/21.540 ms
ping_73 | round-trip min/avg/max = 21.473/22.126/23.678 ms
ping_88 | round-trip min/avg/max = 21.444/21.687/22.414 ms
ping_14 | round-trip min/avg/max = 21.391/21.521/21.645 ms
ping_56 | round-trip min/avg/max = 21.483/22.827/24.946 ms
ping_44 | round-trip min/avg/max = 21.456/21.545/21.591 ms
ping_51 | round-trip min/avg/max = 21.491/21.532/21.568 ms
ping_50 | round-trip min/avg/max = 21.443/21.591/21.923 ms
ping_84 | round-trip min/avg/max = 21.442/21.493/21.572 ms
ping_86 | round-trip min/avg/max = 21.448/21.707/22.502 ms
ping_100 | round-trip min/avg/max = 21.408/21.587/22.062 ms
ping_35 | round-trip min/avg/max = 21.423/21.620/21.844 ms
ping_39 | round-trip min/avg/max = 21.442/21.542/21.710 ms
ping_69 | round-trip min/avg/max = 21.447/21.504/21.642 ms
ping_90 | round-trip min/avg/max = 21.436/21.510/21.571 ms
ping_82 | round-trip min/avg/max = 21.458/21.612/22.039 ms
ping_91 | round-trip min/avg/max = 21.349/21.485/21.678 ms
ping_24 | round-trip min/avg/max = 21.431/21.511/21.622 ms
ping_59 | round-trip min/avg/max = 21.474/21.564/21.676 ms
ping_60 | round-trip min/avg/max = 21.422/21.553/21.647 ms
ping_65 | round-trip min/avg/max = 21.405/21.569/21.759 ms
ping_77 | round-trip min/avg/max = 21.376/21.593/21.838 ms
ping_46 | round-trip min/avg/max = 21.403/21.578/21.770 ms
ping_47 | round-trip min/avg/max = 21.350/21.730/22.022 ms
ping_99 | round-trip min/avg/max = 21.374/21.546/21.720 ms
ping_40 | round-trip min/avg/max = 21.450/22.515/26.474 ms
ping_9  | round-trip min/avg/max = 21.427/21.532/21.659 ms
ping_18 | round-trip min/avg/max = 21.370/21.605/21.824 ms
ping_70 | round-trip min/avg/max = 21.405/21.527/21.645 ms
ping_78 | round-trip min/avg/max = 21.369/21.593/21.891 ms
ping_17 | round-trip min/avg/max = 21.255/21.532/21.855 ms
ping_16 | round-trip min/avg/max = 21.434/21.572/21.721 ms
ping_67 | round-trip min/avg/max = 21.429/21.524/21.775 ms
ping_43 | round-trip min/avg/max = 21.408/21.795/22.780 ms
ping_37 | round-trip min/avg/max = 21.434/21.497/21.587 ms
ping_26 | round-trip min/avg/max = 21.420/21.583/21.704 ms
ping_83 | round-trip min/avg/max = 21.397/21.596/21.987 ms
ping_11 | round-trip min/avg/max = 21.373/21.490/21.627 ms
ping_94 | round-trip min/avg/max = 21.353/21.554/21.743 ms
ping_85 | round-trip min/avg/max = 21.425/21.554/21.687 ms
ping_76 | round-trip min/avg/max = 21.482/21.617/21.840 ms
ping_22 | round-trip min/avg/max = 21.398/21.475/21.625 ms
ping_6  | round-trip min/avg/max = 21.412/21.554/21.660 ms
ping_72 | round-trip min/avg/max = 21.393/21.563/21.907 ms
ping_64 | round-trip min/avg/max = 21.425/21.513/21.715 ms
ping_97 | round-trip min/avg/max = 21.439/21.543/21.620 ms
ping_36 | round-trip min/avg/max = 21.434/21.610/21.772 ms
ping_42 | round-trip min/avg/max = 21.470/21.611/21.957 ms
ping_80 | round-trip min/avg/max = 21.405/21.606/22.017 ms
ping_32 | round-trip min/avg/max = 21.488/21.731/22.018 ms
ping_63 | round-trip min/avg/max = 21.399/21.496/21.634 ms
ping_13 | round-trip min/avg/max = 21.370/21.672/21.946 ms
ping_61 | round-trip min/avg/max = 21.473/21.688/21.968 ms
ping_49 | round-trip min/avg/max = 21.334/21.427/21.474 ms
ping_7  | round-trip min/avg/max = 21.465/21.554/21.674 ms
ping_33 | round-trip min/avg/max = 21.450/21.559/21.702 ms
ping_79 | round-trip min/avg/max = 21.445/21.776/22.131 ms
ping_2  | round-trip min/avg/max = 21.414/21.623/21.962 ms
ping_45 | round-trip min/avg/max = 21.500/21.633/21.996 ms
ping_66 | round-trip min/avg/max = 21.405/21.644/22.083 ms
ping_29 | round-trip min/avg/max = 21.360/22.387/26.184 ms
ping_4  | round-trip min/avg/max = 21.490/21.657/21.832 ms
ping_96 | round-trip min/avg/max = 21.683/21.782/21.982 ms
ping_87 | round-trip min/avg/max = 21.363/21.481/21.713 ms
ping_52 | round-trip min/avg/max = 21.423/21.623/21.813 ms
ping_21 | round-trip min/avg/max = 21.514/21.624/21.897 ms
ping_38 | round-trip min/avg/max = 21.370/21.571/21.941 ms
ping_3  | round-trip min/avg/max = 21.457/21.625/21.809 ms
ping_48 | round-trip min/avg/max = 21.377/21.480/21.653 ms
ping_58 | round-trip min/avg/max = 21.441/21.668/21.918 ms
ping_62 | round-trip min/avg/max = 21.316/21.610/22.137 ms
ping_25 | round-trip min/avg/max = 21.407/22.393/25.893 ms
ping_53 | round-trip min/avg/max = 21.379/21.606/21.921 ms
ping_71 | round-trip min/avg/max = 21.380/21.614/22.020 ms
ping_20 | round-trip min/avg/max = 21.377/21.473/21.604 ms
ping_19 | round-trip min/avg/max = 21.386/21.615/21.888 ms
ping_93 | round-trip min/avg/max = 21.381/21.620/21.848 ms
ping_28 | round-trip min/avg/max = 21.383/21.549/21.957 ms
ping_92 | round-trip min/avg/max = 21.477/21.630/21.960 ms
ping_160 | round-trip min/avg/max = 21.405/21.445/21.499 ms
ping_98 | round-trip min/avg/max = 21.444/22.522/25.288 ms
ping_146 | round-trip min/avg/max = 21.545/21.921/22.416 ms
ping_15 | round-trip min/avg/max = 21.408/21.499/21.636 ms
ping_181 | round-trip min/avg/max = 21.529/22.203/23.691 ms
ping_113 | round-trip min/avg/max = 21.461/21.533/21.673 ms
ping_168 | round-trip min/avg/max = 21.466/21.505/21.555 ms
ping_186 | round-trip min/avg/max = 21.426/21.526/21.778 ms
ping_175 | round-trip min/avg/max = 21.455/21.613/21.920 ms
ping_117 | round-trip min/avg/max = 21.478/21.543/21.653 ms
ping_136 | round-trip min/avg/max = 21.378/22.039/24.063 ms
ping_123 | round-trip min/avg/max = 21.391/21.615/21.876 ms
ping_199 | round-trip min/avg/max = 21.401/21.498/21.559 ms
ping_162 | round-trip min/avg/max = 21.408/21.474/21.572 ms
ping_141 | round-trip min/avg/max = 21.454/21.599/21.977 ms
ping_163 | round-trip min/avg/max = 21.469/21.484/21.496 ms
ping_134 | round-trip min/avg/max = 21.471/21.580/21.884 ms
ping_125 | round-trip min/avg/max = 21.451/21.506/21.585 ms
ping_187 | round-trip min/avg/max = 21.460/22.640/27.084 ms
ping_174 | round-trip min/avg/max = 21.439/22.149/24.672 ms
ping_154 | round-trip min/avg/max = 21.438/21.516/21.624 ms
ping_155 | round-trip min/avg/max = 21.500/21.569/21.705 ms
ping_118 | round-trip min/avg/max = 21.445/21.478/21.518 ms
ping_180 | round-trip min/avg/max = 21.467/21.519/21.587 ms
ping_150 | round-trip min/avg/max = 21.426/21.559/21.661 ms
ping_138 | round-trip min/avg/max = 21.373/21.448/21.508 ms
ping_152 | round-trip min/avg/max = 21.538/21.878/22.678 ms
ping_135 | round-trip min/avg/max = 21.472/21.530/21.578 ms
ping_105 | round-trip min/avg/max = 21.454/22.100/23.210 ms
ping_149 | round-trip min/avg/max = 21.470/21.508/21.546 ms
ping_189 | round-trip min/avg/max = 21.471/21.539/21.583 ms
ping_148 | round-trip min/avg/max = 21.475/22.523/26.515 ms
ping_170 | round-trip min/avg/max = 21.430/22.189/24.933 ms
ping_188 | round-trip min/avg/max = 21.472/21.537/21.608 ms
ping_132 | round-trip min/avg/max = 21.456/21.964/23.683 ms
ping_116 | round-trip min/avg/max = 21.437/21.502/21.578 ms
ping_193 | round-trip min/avg/max = 21.479/21.906/23.337 ms
ping_166 | round-trip min/avg/max = 21.417/21.830/23.207 ms
ping_165 | round-trip min/avg/max = 21.470/21.526/21.593 ms
ping_101 | round-trip min/avg/max = 21.467/21.668/21.938 ms
ping_145 | round-trip min/avg/max = 21.451/21.684/22.114 ms
ping_140 | round-trip min/avg/max = 21.422/21.509/21.765 ms
ping_198 | round-trip min/avg/max = 21.441/21.513/21.603 ms
ping_192 | round-trip min/avg/max = 21.443/21.612/21.825 ms
ping_196 | round-trip min/avg/max = 21.433/21.546/21.778 ms
ping_112 | round-trip min/avg/max = 21.361/21.551/21.684 ms
ping_190 | round-trip min/avg/max = 21.388/21.517/21.659 ms
ping_197 | round-trip min/avg/max = 21.506/21.687/21.927 ms
ping_169 | round-trip min/avg/max = 21.474/21.595/21.847 ms
ping_158 | round-trip min/avg/max = 21.377/21.566/21.970 ms
ping_103 | round-trip min/avg/max = 21.449/21.631/21.800 ms
ping_159 | round-trip min/avg/max = 21.352/21.964/23.774 ms
ping_164 | round-trip min/avg/max = 21.565/22.244/24.108 ms
ping_127 | round-trip min/avg/max = 21.405/21.655/21.850 ms
ping_194 | round-trip min/avg/max = 21.421/21.494/21.571 ms
ping_143 | round-trip min/avg/max = 21.418/21.528/21.690 ms
ping_178 | round-trip min/avg/max = 21.416/21.592/21.694 ms
ping_183 | round-trip min/avg/max = 21.378/21.512/21.624 ms
ping_172 | round-trip min/avg/max = 21.409/21.593/21.759 ms
ping_109 | round-trip min/avg/max = 21.385/21.599/21.846 ms
ping_120 | round-trip min/avg/max = 21.407/21.555/21.682 ms
ping_131 | round-trip min/avg/max = 21.407/21.452/21.488 ms
ping_191 | round-trip min/avg/max = 21.593/22.965/27.841 ms
ping_142 | round-trip min/avg/max = 21.562/21.660/21.953 ms
ping_167 | round-trip min/avg/max = 21.433/21.653/21.959 ms
ping_122 | round-trip min/avg/max = 21.355/21.587/21.923 ms
ping_107 | round-trip min/avg/max = 21.238/21.415/21.620 ms
ping_147 | round-trip min/avg/max = 21.373/21.559/21.745 ms
ping_139 | round-trip min/avg/max = 21.429/23.406/30.837 ms
ping_128 | round-trip min/avg/max = 21.337/21.440/21.533 ms
ping_115 | round-trip min/avg/max = 21.359/21.558/21.820 ms
ping_184 | round-trip min/avg/max = 21.300/23.052/29.673 ms
ping_161 | round-trip min/avg/max = 21.337/21.466/21.637 ms
ping_176 | round-trip min/avg/max = 21.471/21.683/21.881 ms
ping_151 | round-trip min/avg/max = 21.362/21.530/21.759 ms
ping_200 | round-trip min/avg/max = 21.326/21.478/21.606 ms
ping_153 | round-trip min/avg/max = 21.334/21.462/21.742 ms
ping_102 | round-trip min/avg/max = 21.362/21.608/21.942 ms
ping_157 | round-trip min/avg/max = 21.425/21.598/21.915 ms
ping_195 | round-trip min/avg/max = 21.368/21.464/21.590 ms
ping_121 | round-trip min/avg/max = 21.285/21.455/21.813 ms
ping_108 | round-trip min/avg/max = 21.356/21.484/21.609 ms
ping_156 | round-trip min/avg/max = 21.322/21.550/21.820 ms
ping_104 | round-trip min/avg/max = 21.484/21.612/21.764 ms
ping_144 | round-trip min/avg/max = 21.318/21.472/21.712 ms
ping_110 | round-trip min/avg/max = 21.394/21.657/21.903 ms
ping_111 | round-trip min/avg/max = 21.373/21.435/21.553 ms
ping_130 | round-trip min/avg/max = 21.367/21.680/22.007 ms
ping_182 | round-trip min/avg/max = 21.319/21.544/21.744 ms
ping_126 | round-trip min/avg/max = 21.351/21.553/21.848 ms
ping_133 | round-trip min/avg/max = 21.338/21.509/21.651 ms
ping_177 | round-trip min/avg/max = 21.308/21.457/21.711 ms
ping_173 | round-trip min/avg/max = 21.529/21.649/21.903 ms
ping_119 | round-trip min/avg/max = 21.334/21.399/21.484 ms
ping_185 | round-trip min/avg/max = 21.331/21.467/21.770 ms
ping_124 | round-trip min/avg/max = 21.350/21.511/21.692 ms
ping_137 | round-trip min/avg/max = 21.330/21.719/22.631 ms
ping_171 | round-trip min/avg/max = 21.358/21.525/21.954 ms
ping_114 | round-trip min/avg/max = 21.357/21.673/22.030 ms
ping_129 | round-trip min/avg/max = 21.402/21.725/22.146 ms
ping_106 | round-trip min/avg/max = 21.391/21.738/22.008 ms
ping_179 | round-trip min/avg/max = 21.330/21.756/22.927 ms
