ping_2  | round-trip min/avg/max = 79.812/80.405/87.346 ms
ping_1  | round-trip min/avg/max = 79.654/80.357/86.782 ms
ping_5  | round-trip min/avg/max = 79.804/80.447/85.888 ms
ping_7  | round-trip min/avg/max = 79.684/80.325/85.015 ms
ping_6  | round-trip min/avg/max = 79.798/80.356/90.227 ms
ping_9  | round-trip min/avg/max = 79.810/80.449/86.005 ms
ping_8  | round-trip min/avg/max = 79.782/80.420/85.080 ms
ping_3  | round-trip min/avg/max = 79.768/80.319/83.613 ms
ping_10 | round-trip min/avg/max = 79.819/80.358/85.435 ms
ping_4  | round-trip min/avg/max = 79.797/80.409/85.908 ms
