     1	286 
     2	287 
     3	305 
     4	399 
     5	417 
     6	407 
     7	401 
     8	393 
     9	383 
    10	380 
    11	376 
    12	372 
    13	368 
    14	364 
    15	360 
    16	356 
    17	352 
    18	348 
    19	387 
    20	481 
    21	478 
    22	471 
    23	464 
    24	451 
    25	444 
    26	434 
    27	429 
    28	426 
    29	416 
    30	408 
    31	397 
    32	387 
    33	381 
    34	378 
    35	375 
    36	372 
    37	369 
    38	367 
    39	364 
    40	361 
    41	358 
    42	355 
    43	352 
    44	352 
    45	349 
    46	340 
    47	337 
    48	331 
    49	325 
    50	318 
    51	313 
    52	309 
    53	307 
    54	304 
    55	300 
    56	298 
    57	295 
