     1	295 
     2	296 
     3	296 
     4	314 
     5	375 
     6	441 
     7	535 
     8	618 
     9	683 
    10	713 
    11	740 
    12	741 
    13	742 
    14	745 
    15	750 
    16	746 
    17	741 
    18	748 
    19	761 
    20	751 
    21	745 
    22	739 
    23	750 
    24	744 
    25	757 
    26	757 
    27	740 
    28	760 
    29	744 
    30	754 
    31	746 
    32	730 
    33	717 
    34	701 
    35	683 
    36	655 
    37	642 
    38	629 
    39	610 
    40	576 
    41	551 
    42	532 
    43	504 
    44	482 
    45	464 
    46	433 
    47	404 
    48	388 
    49	373 
    50	359 
    51	346 
    52	337 
    53	325 
    54	317 
    55	310 
    56	318 
    57	368 
    58	397 
    59	436 
    60	502 
    61	533 
    62	592 
    63	649 
    64	674 
    65	700 
    66	722 
    67	738 
    68	753 
    69	751 
    70	747 
    71	758 
    72	745 
    73	757 
    74	750 
    75	759 
    76	743 
    77	748 
    78	751 
    79	748 
    80	746 
    81	744 
    82	757 
    83	746 
    84	731 
    85	710 
    86	685 
    87	671 
    88	651 
    89	634 
    90	606 
    91	583 
    92	565 
    93	549 
    94	525 
    95	503 
    96	482 
    97	464 
    98	440 
    99	423 
   100	405 
   101	394 
   102	382 
   103	368 
   104	354 
   105	347 
   106	339 
   107	328 
   108	319 
   109	315 
   110	309 
   111	305 
   112	300 
