     1	 94.1 
     2	 99.6 
     3	 99.6 
     4	 99.6 
     5	 99.6 
     6	 99.5 
     7	 99.6 
     8	 99.6 
     9	 99.6 
    10	 99.5 
    11	 99.6 
    12	 99.8 
    13	 99.8 
    14	 99.8 
    15	 99.8 
    16	 99.0 
    17	 99.4 
    18	 99.6 
    19	 99.8 
    20	 99.6 
    21	 99.9 
    22	 99.8 
    23	 99.6 
    24	 99.8 
    25	 99.9 
    26	 99.8 
    27	 99.9 
    28	 99.6 
    29	 99.8 
    30	 99.5 
    31	 99.8 
    32	 99.9 
    33	 99.8 
    34	 99.8 
    35	 99.6 
    36	 99.6 
    37	 99.8 
    38	 99.9 
    39	 99.6 
    40	 99.8 
    41	 99.8 
    42	 99.6 
    43	 99.6 
    44	 99.1 
    45	 99.9 
    46	 99.8 
    47	 99.8 
    48	 99.6 
    49	100.0 
    50	 99.6 
    51	 99.8 
    52	 99.8 
    53	 99.9 
    54	 99.9 
    55	 99.6 
    56	 99.9 
    57	 99.8 
    58	 99.4 
    59	 99.9 
    60	 99.6 
    61	 99.9 
    62	 99.9 
    63	 99.8 
    64	 99.8 
    65	 99.9 
    66	 99.9 
    67	 99.8 
    68	 99.8 
    69	 99.8 
    70	 99.8 
    71	 99.8 
    72	 99.8 
    73	 99.6 
    74	 99.9 
    75	 99.8 
    76	 99.8 
    77	 99.6 
    78	 99.9 
    79	 99.8 
    80	 99.8 
    81	 99.9 
    82	 99.6 
    83	 99.9 
    84	 99.9 
    85	 99.4 
    86	 99.6 
    87	 99.5 
    88	 99.8 
    89	 99.8 
    90	 99.8 
    91	 99.8 
    92	 99.8 
    93	 99.8 
    94	 99.6 
    95	 99.6 
    96	 99.8 
    97	 99.8 
    98	 99.8 
    99	 99.8 
   100	 99.6 
   101	 99.9 
   102	 99.5 
   103	 99.5 
   104	 99.9 
   105	 99.8 
   106	 99.8 
   107	 99.9 
   108	 99.3 
   109	 99.8 
   110	 99.9 
   111	 99.8 
   112	 99.9 
   113	 99.8 
   114	 99.6 
   115	 99.6 
   116	 99.8 
   117	100.0 
   118	 99.8 
   119	 99.8 
   120	 99.6 
   121	 99.6 
   122	 99.9 
   123	 99.8 
   124	 99.5 
   125	 99.9 
   126	 99.8 
   127	 99.8 
   128	 99.9 
   129	 99.8 
   130	 99.6 
   131	 99.9 
   132	 99.8 
   133	 99.9 
   134	 99.9 
   135	 99.0 
   136	 99.5 
   137	 99.6 
   138	 99.8 
   139	 99.8 
   140	 99.9 
   141	 99.5 
   142	 99.9 
   143	 99.6 
   144	 99.6 
   145	 99.9 
   146	 99.4 
   147	 99.9 
   148	 99.6 
   149	 99.6 
   150	 99.9 
   151	 99.5 
   152	 99.8 
   153	 99.8 
   154	 99.9 
   155	 99.6 
   156	 99.8 
   157	 99.8 
   158	 99.8 
   159	 99.4 
   160	 99.9 
   161	 99.8 
   162	 99.5 
   163	 99.9 
   164	 99.9 
   165	 99.6 
   166	 99.8 
   167	 99.9 
   168	 99.9 
   169	 99.8 
   170	 99.8 
   171	100.0 
   172	 99.5 
   173	100.0 
   174	 99.8 
   175	 99.8 
   176	 99.8 
   177	 99.5 
   178	 99.9 
   179	 99.6 
   180	 99.9 
   181	 99.8 
   182	 99.8 
   183	 99.9 
   184	 99.5 
   185	 99.9 
   186	 99.8 
   187	 99.8 
   188	 99.6 
   189	 99.5 
   190	 99.6 
   191	 99.8 
   192	 99.8 
   193	 99.8 
   194	 99.9 
   195	 99.8 
   196	 99.8 
   197	 99.6 
   198	 99.6 
   199	 99.6 
   200	 99.9 
   201	 99.8 
   202	 99.6 
   203	 99.8 
   204	 99.8 
   205	 99.8 
   206	 99.6 
   207	 99.9 
   208	 99.5 
   209	 99.8 
   210	 99.6 
   211	 99.6 
   212	 99.9 
   213	 99.6 
   214	 99.9 
   215	 99.8 
   216	 99.8 
   217	 99.8 
   218	 99.5 
   219	 99.6 
   220	 99.8 
   221	 99.6 
   222	 99.8 
   223	 99.8 
   224	 99.8 
   225	 99.9 
   226	 99.8 
   227	 99.6 
   228	 99.6 
   229	 99.5 
   230	 99.9 
   231	 99.6 
   232	 99.9 
   233	 99.8 
   234	 99.9 
   235	 99.5 
   236	 99.9 
   237	 99.6 
   238	 99.9 
   239	 99.8 
   240	 99.8 
   241	 99.6 
   242	 99.9 
   243	 99.6 
   244	 99.8 
   245	 99.9 
   246	 99.9 
   247	 99.8 
   248	 99.8 
   249	 99.9 
   250	 99.8 
   251	 99.6 
   252	 99.6 
   253	 99.3 
   254	 99.8 
   255	 99.8 
   256	 99.4 
   257	 99.5 
   258	 99.6 
   259	 99.5 
   260	 99.6 
   261	 99.6 
   262	100.0 
   263	 99.8 
   264	 99.6 
   265	 99.9 
   266	 99.8 
   267	 93.5 
   268	 97.3 
   269	 99.6 
   270	 99.5 
   271	 99.8 
   272	 99.6 
   273	 99.8 
   274	 99.6 
   275	 99.9 
   276	 99.5 
   277	 99.6 
   278	 99.6 
   279	 99.9 
   280	 99.5 
   281	 99.8 
   282	 99.6 
   283	 99.8 
   284	100.0 
   285	 99.8 
   286	 99.8 
   287	 99.8 
   288	 99.8 
   289	 99.9 
   290	 99.8 
   291	 99.5 
   292	 99.6 
   293	 99.5 
   294	 99.9 
   295	 99.8 
   296	 99.9 
   297	 99.6 
   298	 99.9 
   299	 99.8 
   300	 99.9 
   301	 99.8 
   302	 99.8 
   303	 99.8 
   304	 99.8 
   305	 99.8 
   306	 99.8 
   307	 99.6 
   308	 99.6 
   309	 99.8 
   310	 99.9 
   311	 99.8 
   312	 99.6 
   313	 99.4 
   314	 99.6 
   315	 99.9 
   316	 99.6 
   317	 99.8 
   318	 99.8 
   319	 99.9 
   320	 99.8 
   321	 99.8 
   322	 99.9 
   323	 99.9 
   324	 99.8 
   325	 99.9 
   326	 99.8 
   327	 99.8 
   328	 99.8 
   329	 99.8 
   330	 99.5 
   331	 99.6 
   332	 99.8 
   333	 99.5 
   334	 99.6 
   335	 99.8 
   336	 99.8 
   337	 99.8 
   338	 99.8 
   339	 99.5 
   340	 99.5 
   341	 99.8 
   342	 99.5 
   343	 99.9 
   344	 99.8 
   345	 99.8 
   346	 99.8 
   347	 99.8 
   348	 99.9 
   349	 99.9 
   350	 99.9 
   351	 99.5 
   352	 99.8 
   353	 99.6 
   354	 99.6 
   355	 99.8 
   356	 99.6 
   357	 99.8 
   358	 99.8 
   359	 99.9 
   360	 99.6 
   361	 99.6 
   362	 99.9 
   363	 99.6 
   364	 99.6 
   365	 99.8 
   366	 99.8 
   367	 99.8 
   368	 99.5 
   369	 99.6 
   370	 99.9 
   371	 99.6 
   372	 99.4 
   373	 99.6 
   374	 99.8 
   375	 99.8 
   376	 99.8 
   377	 99.8 
   378	 99.8 
   379	 99.9 
   380	 99.8 
   381	 99.8 
   382	 99.8 
   383	 99.8 
   384	 99.6 
   385	 99.8 
   386	 99.5 
   387	 99.6 
   388	 99.6 
   389	 99.5 
   390	 99.8 
   391	 99.6 
   392	 99.6 
   393	 99.9 
   394	 99.6 
   395	 99.8 
   396	 99.4 
   397	 99.8 
   398	 99.8 
   399	 99.8 
   400	 99.8 
   401	 99.8 
   402	 99.9 
   403	 99.8 
   404	 99.8 
   405	 99.8 
   406	 99.9 
   407	 99.9 
   408	 99.8 
   409	 99.9 
   410	 99.6 
   411	 99.8 
   412	 99.6 
   413	 99.9 
   414	 99.8 
   415	 99.6 
   416	 99.8 
   417	 99.8 
   418	 99.8 
   419	 99.8 
   420	 99.9 
   421	 99.6 
   422	100.0 
   423	 99.8 
   424	 99.8 
   425	 99.5 
   426	 99.9 
   427	 99.9 
   428	 99.5 
   429	 99.8 
   430	 99.6 
   431	100.0 
   432	 99.6 
   433	 99.8 
   434	 99.8 
   435	 99.5 
   436	 99.9 
   437	 99.9 
   438	 99.8 
   439	 99.8 
   440	 99.8 
   441	 99.9 
   442	 99.9 
   443	 99.8 
   444	 99.5 
   445	 99.6 
   446	 99.8 
   447	 99.6 
   448	 99.9 
   449	 99.8 
   450	 99.6 
   451	 99.8 
   452	 99.8 
   453	 99.9 
   454	 99.8 
   455	 99.4 
   456	 99.8 
   457	 99.9 
   458	 99.5 
   459	 99.6 
   460	 99.8 
   461	100.0 
   462	 99.8 
   463	 99.9 
   464	 99.5 
   465	 99.9 
   466	 99.8 
   467	 99.9 
   468	 99.8 
   469	 99.8 
   470	 99.6 
   471	 99.8 
   472	 99.8 
   473	 99.8 
   474	 99.9 
   475	 96.1 
   476	 98.8 
   477	 93.9 
   478	 89.3 
   479	 98.5 
   480	 98.1 
   481	 87.0 
   482	 85.4 
   483	 87.2 
   484	 89.2 
   485	 95.4 
   486	 96.4 
   487	 96.2 
   488	 99.6 
   489	 99.6 
   490	 98.9 
   491	 99.6 
   492	 99.8 
   493	 99.8 
   494	 99.8 
