100 packets transmitted, 94 received, 6% packet loss, time 101284ms
100 packets transmitted, 94 received, 6% packet loss, time 101283ms
100 packets transmitted, 93 received, 7% packet loss, time 101315ms
100 packets transmitted, 99 received, 1% packet loss, time 101348ms
100 packets transmitted, 34 received, 66% packet loss, time 101380ms
100 packets transmitted, 27 received, 73% packet loss, time 101380ms
100 packets transmitted, 27 received, 73% packet loss, time 101380ms
100 packets transmitted, 30 received, 70% packet loss, time 101380ms
100 packets transmitted, 27 received, 73% packet loss, time 101380ms
100 packets transmitted, 31 received, 69% packet loss, time 101380ms
