     1	.7 
     2	.4 
     3	.6 
     4	.6 
     5	.2 
     6	.6 
     7	.9 
     8	.4 
     9	.1 
    10	.3 
    11	.6 
    12	.3 
    13	.5 
    14	.5 
    15	.6 
    16	.5 
    17	.5 
    18	.5 
    19	.6 
    20	.8 
    21	.6 
    22	.6 
    23	.8 
    24	.6 
    25	.5 
    26	.6 
    27	.8 
    28	.0 
    29	.8 
    30	.5 
    31	.6 
    32	.6 
    33	.5 
    34	.8 
    35	.6 
    36	.4 
    37	.6 
    38	.8 
    39	.6 
    40	.3 
    41	.5 
    42	.5 
    43	.6 
    44	.8 
    45	.5 
    46	.6 
    47	.4 
    48	.5 
    49	.8 
    50	.4 
    51	.5 
    52	.6 
    53	.6 
    54	.6 
    55	.4 
    56	.8 
    57	.6 
    58	.8 
    59	.5 
    60	.8 
    61	.6 
    62	.4 
    63	.8 
    64	.4 
    65	.6 
    66	.4 
    67	.6 
    68	.5 
    69	.8 
    70	.6 
    71	.5 
    72	.5 
    73	.8 
    74	.6 
    75	.5 
    76	.6 
    77	.8 
    78	.6 
    79	.8 
    80	.6 
    81	.4 
    82	.5 
    83	.6 
    84	.8 
    85	.6 
    86	.6 
    87	.5 
    88	.5 
    89	.6 
    90	.6 
    91	.8 
    92	.6 
    93	.5 
    94	.4 
    95	.8 
    96	.4 
    97	.8 
    98	.6 
    99	.6 
   100	.5 
   101	.3 
   102	.6 
   103	.6 
   104	.4 
   105	.3 
   106	.8 
   107	.4 
   108	.6 
   109	.6 
   110	.4 
   111	.9 
   112	.6 
   113	.5 
   114	.6 
   115	.6 
   116	.6 
   117	.5 
   118	.6 
   119	.8 
   120	.5 
   121	.4 
   122	.6 
   123	.9 
   124	.6 
   125	.5 
   126	.6 
   127	.6 
   128	.5 
   129	.8 
   130	.5 
   131	.6 
   132	.8 
   133	.8 
   134	.4 
   135	.8 
   136	.5 
   137	.8 
   138	.8 
   139	.5 
   140	.9 
   141	.4 
   142	.6 
   143	.4 
   144	.1 
   145	.3 
   146	.5 
   147	.6 
   148	.5 
   149	.9 
   150	.8 
   151	.6 
   152	.5 
   153	.4 
   154	.4 
   155	.8 
   156	.6 
   157	.5 
   158	.4 
   159	.6 
   160	.6 
   161	.6 
   162	.5 
   163	.8 
   164	.1 
   165	.6 
   166	.3 
   167	.5 
   168	.5 
   169	.6 
   170	.6 
   171	.5 
   172	.6 
   173	.5 
   174	.6 
   175	.4 
   176	.6 
   177	.6 
   178	.3 
   179	.5 
   180	.5 
   181	.3 
   182	.6 
   183	.8 
   184	.3 
   185	.9 
   186	.6 
   187	.8 
   188	.6 
   189	.6 
   190	.6 
   191	.5 
   192	.4 
   193	.5 
   194	.4 
   195	.5 
   196	.6 
   197	.6 
   198	.6 
   199	.4 
   200	.6 
   201	.4 
   202	.5 
   203	.5 
   204	.5 
   205	.8 
   206	.4 
   207	.5 
   208	.6 
   209	.6 
   210	.4 
   211	.6 
   212	.6 
   213	.8 
   214	.4 
   215	.8 
   216	.5 
   217	.6 
   218	.3 
   219	.9 
   220	.1 
   221	.4 
   222	.6 
   223	.3 
   224	.8 
   225	.6 
   226	.6 
   227	.8 
   228	.4 
   229	.5 
   230	.6 
   231	.5 
   232	.6 
   233	.6 
   234	.5 
   235	.5 
   236	.5 
   237	.8 
   238	.5 
   239	.6 
   240	.3 
   241	.3 
   242	.1 
   243	.5 
   244	.8 
   245	.6 
   246	.6 
   247	.4 
   248	.5 
   249	.3 
   250	.6 
   251	.3 
