     1	1370404 
     2	1370404 
     3	1370404 
     4	1371064 
     5	1371064 
     6	1371064 
     7	1371108 
     8	1371108 
     9	1371108 
    10	1371084 
    11	1371084 
    12	1371084 
    13	1371248 
    14	1371248 
    15	1371248 
    16	1371224 
    17	1371224 
    18	1371224 
    19	1371220 
    20	1371220 
    21	1371220 
    22	1371240 
    23	1371240 
    24	1371240 
    25	1371284 
    26	1371284 
    27	1371284 
    28	1371284 
    29	1371284 
    30	1371284 
    31	1371316 
    32	1371316 
    33	1371316 
    34	1371340 
    35	1371340 
    36	1371340 
    37	1371344 
    38	1371344 
    39	1371344 
    40	1371344 
    41	1371344 
    42	1371344 
    43	1371372 
    44	1371372 
    45	1371372 
    46	1371392 
    47	1371392 
    48	1371384 
    49	1371384 
