     1	285 
     2	286 
     3	289 
     4	293 
     5	293 
     6	293 
     7	293 
     8	293 
     9	293 
    10	293 
    11	293 
    12	292 
    13	292 
    14	292 
    15	292 
    16	292 
    17	292 
    18	292 
    19	292 
    20	292 
    21	292 
    22	292 
    23	292 
    24	294 
    25	294 
    26	294 
    27	294 
    28	294 
    29	294 
    30	294 
    31	294 
    32	294 
    33	294 
    34	294 
    35	294 
    36	294 
    37	294 
    38	294 
    39	294 
    40	294 
    41	294 
    42	294 
    43	294 
    44	295 
    45	295 
    46	295 
    47	295 
    48	295 
    49	295 
    50	295 
    51	295 
    52	295 
    53	295 
    54	295 
    55	295 
    56	295 
    57	295 
    58	295 
    59	295 
    60	295 
    61	295 
    62	294 
    63	294 
    64	294 
    65	294 
    66	294 
    67	294 
    68	294 
    69	294 
    70	294 
    71	294 
    72	294 
    73	294 
    74	294 
    75	294 
    76	294 
    77	294 
    78	294 
    79	294 
    80	294 
    81	294 
    82	294 
    83	294 
    84	294 
    85	294 
    86	294 
    87	294 
    88	294 
    89	294 
    90	294 
    91	294 
    92	294 
    93	294 
    94	294 
    95	294 
    96	294 
    97	294 
    98	294 
    99	294 
   100	294 
   101	294 
   102	294 
   103	294 
   104	294 
   105	294 
   106	294 
   107	294 
   108	294 
   109	294 
   110	294 
   111	294 
   112	294 
   113	294 
   114	294 
   115	294 
   116	294 
   117	294 
   118	294 
   119	294 
   120	294 
   121	294 
   122	294 
   123	294 
   124	294 
   125	294 
   126	294 
   127	294 
   128	294 
   129	294 
   130	294 
   131	294 
   132	294 
   133	294 
   134	294 
   135	294 
   136	294 
   137	294 
   138	294 
   139	294 
   140	294 
   141	294 
   142	294 
   143	294 
   144	294 
   145	294 
   146	294 
   147	294 
   148	294 
   149	294 
   150	294 
   151	294 
   152	294 
   153	294 
   154	294 
   155	294 
   156	294 
   157	294 
   158	294 
   159	294 
   160	294 
   161	294 
   162	294 
   163	294 
   164	294 
   165	294 
   166	294 
   167	294 
   168	294 
   169	294 
   170	294 
   171	294 
   172	294 
   173	294 
   174	294 
   175	294 
   176	294 
   177	294 
   178	294 
   179	294 
   180	294 
   181	294 
   182	294 
   183	294 
   184	294 
   185	294 
   186	294 
   187	294 
   188	294 
   189	294 
   190	294 
   191	294 
   192	294 
   193	294 
   194	294 
   195	294 
   196	294 
   197	294 
   198	294 
   199	294 
   200	294 
   201	294 
   202	294 
   203	294 
   204	294 
   205	294 
   206	294 
   207	294 
   208	294 
   209	294 
   210	294 
   211	294 
   212	294 
   213	294 
   214	294 
   215	294 
   216	294 
   217	294 
   218	294 
   219	294 
   220	294 
   221	294 
   222	294 
   223	294 
   224	294 
   225	294 
   226	294 
   227	294 
   228	294 
   229	294 
   230	294 
   231	294 
   232	294 
   233	294 
   234	294 
   235	294 
   236	294 
   237	294 
   238	294 
   239	294 
   240	294 
   241	290 
   242	290 
   243	290 
   244	290 
   245	290 
   246	290 
   247	290 
   248	290 
   249	290 
   250	290 
   251	290 
   252	290 
   253	290 
   254	290 
   255	290 
   256	290 
   257	290 
   258	290 
   259	290 
   260	290 
   261	290 
   262	290 
   263	290 
   264	290 
   265	290 
   266	290 
   267	290 
   268	290 
   269	290 
   270	290 
   271	290 
   272	290 
   273	290 
   274	290 
   275	290 
   276	290 
   277	290 
   278	290 
   279	290 
   280	290 
   281	290 
   282	290 
   283	290 
   284	290 
   285	290 
   286	290 
   287	290 
   288	290 
   289	290 
   290	290 
   291	290 
   292	290 
   293	290 
   294	290 
   295	290 
   296	290 
   297	290 
   298	290 
   299	290 
   300	290 
   301	290 
   302	290 
   303	290 
   304	288 
   305	288 
   306	288 
   307	288 
   308	288 
   309	288 
   310	288 
   311	288 
   312	288 
   313	288 
   314	288 
   315	288 
   316	288 
   317	288 
   318	288 
   319	288 
   320	287 
   321	287 
   322	287 
   323	287 
   324	287 
   325	287 
   326	287 
   327	287 
   328	287 
   329	287 
   330	287 
   331	287 
   332	287 
   333	287 
   334	287 
   335	287 
   336	285 
   337	285 
   338	284 
   339	284 
   340	284 
   341	284 
   342	284 
   343	284 
   344	284 
   345	284 
   346	284 
   347	284 
   348	284 
   349	284 
   350	284 
   351	284 
   352	284 
   353	284 
   354	284 
   355	284 
   356	283 
   357	283 
   358	283 
   359	283 
   360	283 
   361	283 
   362	283 
   363	283 
   364	283 
   365	283 
   366	283 
   367	283 
   368	283 
   369	283 
   370	283 
   371	283 
   372	283 
   373	283 
   374	283 
   375	283 
   376	283 
   377	283 
   378	283 
   379	283 
   380	283 
   381	283 
   382	283 
   383	283 
   384	283 
   385	283 
   386	283 
   387	283 
   388	283 
   389	283 
   390	283 
   391	283 
   392	283 
   393	283 
   394	283 
   395	283 
   396	283 
   397	283 
   398	283 
   399	283 
   400	283 
   401	283 
   402	283 
   403	283 
   404	283 
   405	283 
   406	283 
   407	283 
   408	283 
   409	283 
   410	283 
   411	283 
   412	283 
   413	283 
   414	283 
   415	283 
   416	283 
   417	283 
   418	283 
   419	283 
   420	283 
   421	283 
   422	283 
   423	283 
   424	283 
   425	282 
   426	282 
   427	282 
   428	281 
   429	281 
   430	281 
   431	281 
   432	281 
   433	281 
   434	281 
   435	282 
   436	282 
   437	282 
   438	282 
   439	282 
   440	282 
   441	282 
   442	282 
   443	282 
   444	282 
   445	282 
   446	282 
   447	282 
   448	282 
   449	282 
   450	282 
   451	282 
   452	282 
   453	282 
   454	282 
   455	282 
   456	282 
   457	282 
   458	282 
   459	282 
   460	282 
   461	282 
   462	282 
   463	282 
   464	282 
   465	282 
   466	282 
   467	282 
   468	282 
   469	282 
   470	282 
   471	282 
   472	282 
   473	282 
   474	282 
   475	282 
   476	282 
   477	282 
   478	282 
   479	282 
   480	282 
   481	282 
   482	282 
   483	282 
   484	282 
   485	282 
   486	282 
   487	282 
   488	282 
   489	282 
   490	282 
   491	282 
   492	282 
   493	282 
   494	282 
   495	282 
   496	282 
   497	282 
