     1	296 
     2	296 
     3	296 
     4	296 
     5	296 
     6	296 
     7	296 
     8	294 
     9	294 
    10	294 
    11	294 
    12	293 
    13	293 
    14	293 
    15	293 
    16	293 
    17	293 
    18	292 
    19	292 
    20	292 
    21	292 
    22	292 
    23	292 
    24	292 
    25	292 
    26	292 
    27	292 
    28	292 
    29	292 
    30	292 
    31	292 
    32	292 
    33	292 
    34	292 
    35	292 
    36	292 
    37	292 
    38	290 
    39	290 
    40	290 
    41	290 
    42	290 
    43	290 
    44	290 
    45	290 
    46	290 
    47	290 
    48	290 
    49	290 
    50	290 
    51	290 
    52	290 
    53	290 
    54	290 
    55	290 
    56	290 
    57	290 
    58	290 
    59	289 
    60	289 
    61	289 
    62	289 
    63	289 
    64	289 
    65	288 
    66	288 
    67	288 
    68	288 
    69	288 
    70	288 
    71	286 
    72	286 
    73	286 
    74	286 
    75	286 
    76	286 
    77	285 
    78	285 
    79	285 
    80	284 
    81	284 
    82	284 
    83	284 
    84	284 
    85	284 
    86	282 
    87	281 
    88	281 
    89	281 
    90	281 
    91	281 
    92	281 
    93	281 
    94	281 
    95	281 
    96	281 
    97	281 
    98	281 
    99	281 
   100	281 
   101	281 
   102	281 
   103	281 
   104	281 
   105	281 
   106	280 
   107	280 
   108	280 
   109	280 
   110	280 
   111	280 
   112	280 
   113	280 
   114	280 
   115	280 
   116	280 
   117	280 
   118	280 
   119	280 
   120	280 
   121	280 
   122	280 
   123	280 
   124	280 
   125	280 
   126	280 
   127	280 
   128	280 
   129	280 
   130	280 
   131	280 
   132	280 
   133	280 
   134	280 
   135	280 
   136	280 
   137	280 
   138	280 
   139	280 
   140	280 
   141	280 
   142	280 
   143	280 
   144	280 
   145	280 
   146	280 
   147	280 
   148	280 
   149	280 
   150	280 
   151	280 
   152	280 
   153	280 
   154	280 
   155	280 
   156	280 
   157	280 
   158	280 
   159	280 
   160	280 
   161	280 
   162	280 
   163	280 
   164	280 
   165	280 
   166	280 
   167	280 
   168	280 
   169	280 
   170	280 
   171	280 
   172	280 
   173	280 
   174	280 
   175	280 
   176	280 
   177	280 
   178	280 
   179	280 
   180	280 
   181	280 
   182	280 
   183	280 
   184	280 
   185	280 
   186	280 
   187	280 
   188	280 
   189	280 
   190	280 
   191	280 
   192	280 
   193	280 
   194	280 
   195	280 
   196	280 
   197	280 
   198	280 
   199	280 
   200	280 
   201	280 
   202	280 
   203	280 
   204	280 
   205	280 
   206	280 
   207	280 
   208	280 
   209	280 
   210	280 
   211	280 
   212	280 
   213	280 
   214	280 
   215	280 
   216	280 
   217	280 
   218	280 
   219	280 
   220	280 
   221	280 
   222	280 
   223	280 
   224	280 
   225	280 
   226	280 
   227	280 
   228	280 
   229	280 
   230	280 
   231	280 
   232	280 
   233	280 
   234	280 
   235	280 
   236	280 
   237	280 
   238	280 
   239	280 
   240	280 
   241	280 
   242	280 
   243	280 
   244	280 
   245	280 
   246	280 
   247	280 
   248	280 
   249	280 
   250	280 
   251	280 
   252	280 
   253	280 
   254	280 
   255	280 
   256	280 
   257	280 
   258	280 
   259	280 
   260	280 
   261	280 
   262	280 
   263	280 
   264	280 
   265	280 
   266	280 
   267	280 
   268	280 
   269	280 
   270	280 
   271	280 
   272	280 
   273	280 
   274	280 
   275	280 
   276	280 
   277	280 
   278	280 
   279	280 
   280	280 
   281	280 
   282	280 
   283	280 
   284	280 
   285	280 
   286	280 
   287	280 
   288	280 
   289	280 
   290	280 
   291	280 
   292	280 
   293	280 
   294	280 
   295	280 
   296	280 
   297	280 
   298	280 
   299	280 
   300	280 
   301	280 
   302	280 
   303	280 
   304	280 
   305	280 
   306	280 
   307	280 
   308	280 
   309	280 
   310	280 
   311	280 
   312	280 
   313	280 
   314	280 
   315	280 
   316	280 
   317	280 
   318	280 
   319	280 
   320	280 
   321	280 
   322	280 
   323	280 
   324	280 
   325	280 
   326	280 
   327	280 
   328	280 
   329	280 
   330	280 
   331	280 
   332	280 
   333	280 
   334	280 
   335	280 
   336	280 
   337	280 
   338	280 
   339	280 
   340	280 
   341	280 
   342	280 
   343	280 
   344	280 
   345	280 
   346	280 
   347	280 
   348	280 
   349	280 
   350	280 
   351	280 
   352	280 
   353	280 
   354	280 
   355	280 
   356	280 
   357	280 
   358	280 
   359	280 
   360	280 
   361	280 
   362	280 
   363	280 
   364	280 
   365	280 
   366	280 
   367	280 
   368	280 
   369	280 
   370	280 
   371	280 
   372	280 
   373	280 
   374	280 
   375	280 
   376	280 
   377	280 
   378	280 
   379	280 
   380	280 
   381	280 
   382	280 
   383	280 
   384	280 
   385	280 
   386	280 
   387	280 
   388	280 
   389	280 
   390	280 
   391	280 
   392	280 
   393	280 
   394	280 
   395	280 
   396	280 
   397	280 
   398	280 
   399	280 
   400	280 
   401	280 
   402	280 
   403	280 
   404	280 
   405	280 
   406	280 
   407	280 
   408	280 
   409	280 
   410	280 
   411	280 
   412	280 
   413	280 
   414	280 
   415	280 
   416	280 
   417	280 
   418	280 
   419	280 
   420	280 
   421	280 
   422	280 
   423	280 
   424	280 
   425	280 
   426	280 
   427	280 
   428	280 
   429	280 
   430	280 
   431	280 
   432	280 
   433	280 
   434	280 
   435	280 
   436	280 
   437	280 
   438	280 
   439	280 
   440	280 
   441	280 
   442	280 
   443	280 
   444	280 
   445	280 
   446	280 
   447	280 
   448	280 
   449	280 
   450	280 
   451	280 
   452	280 
   453	280 
   454	280 
   455	280 
   456	280 
   457	280 
   458	280 
   459	280 
   460	280 
   461	280 
   462	280 
   463	280 
   464	280 
   465	280 
   466	280 
   467	280 
   468	280 
   469	280 
   470	280 
   471	280 
   472	280 
   473	280 
   474	280 
   475	280 
   476	280 
   477	280 
   478	280 
   479	280 
   480	280 
   481	280 
   482	280 
   483	280 
   484	280 
   485	280 
   486	280 
   487	280 
   488	280 
   489	280 
   490	280 
   491	280 
   492	280 
   493	280 
