     1	1428916 
     2	1428916 
     3	1428916 
     4	1979516 
     5	1979516 
     6	1979516 
     7	1670336 
     8	1670336 
     9	1670336 
    10	1485328 
    11	1485328 
    12	1485328 
    13	1868568 
    14	1868568 
    15	1708200 
    16	1708200 
    17	1708200 
    18	1523928 
    19	1523928 
    20	1523928 
    21	1523928 
    22	1523928 
    23	1523928 
    24	1523916 
    25	1523916 
    26	1523916 
    27	1523896 
    28	1523896 
    29	1523896 
    30	1523888 
    31	1523888 
    32	1523888 
    33	1518296 
    34	1518296 
    35	1518296 
    36	1518112 
    37	1518112 
    38	1518112 
    39	1518088 
    40	1518088 
    41	1518088 
    42	1511856 
    43	1511856 
    44	1511856 
    45	1511708 
    46	1511708 
    47	1511708 
    48	1511444 
    49	1511444 
    50	1511444 
    51	1511444 
    52	1511444 
    53	1511444 
    54	1503008 
    55	1503008 
    56	1503008 
    57	1491988 
    58	1491988 
    59	1491988 
    60	1484060 
    61	1484060 
    62	1484060 
    63	1471556 
    64	1471556 
    65	1471556 
