PING csl2.hkspeedtest.com (203.210.4.91) 56(84) bytes of data.
64 bytes from 203-210-4-091.static.pccw-hkt.com (203.210.4.91): icmp_seq=1 ttl=52 time=171 ms
PING csl2.hkspeedtest.com (203.210.4.91) 56(84) bytes of data.
64 bytes from 203-210-4-091.static.pccw-hkt.com (203.210.4.91): icmp_seq=1 ttl=52 time=171 ms
PING csl2.hkspeedtest.com (203.210.4.91) 56(84) bytes of data.
64 bytes from 203-210-4-091.static.pccw-hkt.com (203.210.4.91): icmp_seq=1 ttl=52 time=171 ms
PING csl2.hkspeedtest.com (203.210.4.91) 56(84) bytes of data.
64 bytes from 203-210-4-091.static.pccw-hkt.com (203.210.4.91): icmp_seq=1 ttl=52 time=171 ms
PING csl2.hkspeedtest.com (203.210.4.91) 56(84) bytes of data.
64 bytes from 203-210-4-091.static.pccw-hkt.com (203.210.4.91): icmp_seq=1 ttl=52 time=171 ms
PING csl2.hkspeedtest.com (203.210.4.91) 56(84) bytes of data.
64 bytes from 203-210-4-091.static.pccw-hkt.com (203.210.4.91): icmp_seq=1 ttl=52 time=171 ms
PING csl2.hkspeedtest.com (203.210.4.91) 56(84) bytes of data.
64 bytes from 203-210-4-091.static.pccw-hkt.com (203.210.4.91): icmp_seq=1 ttl=52 time=171 ms
PING csl2.hkspeedtest.com (203.210.4.91) 56(84) bytes of data.
64 bytes from 203-210-4-091.static.pccw-hkt.com (203.210.4.91): icmp_seq=1 ttl=52 time=171 ms
PING csl2.hkspeedtest.com (203.210.4.91) 56(84) bytes of data.
64 bytes from 203-210-4-091.static.pccw-hkt.com (203.210.4.91): icmp_seq=1 ttl=52 time=171 ms
PING csl2.hkspeedtest.com (203.210.4.91) 56(84) bytes of data.
64 bytes from 203-210-4-091.static.pccw-hkt.com (203.210.4.91): icmp_seq=1 ttl=52 time=171 ms
PING csl2.hkspeedtest.com (203.210.4.91) 56(84) bytes of data.
64 bytes from 203-210-4-091.static.pccw-hkt.com (203.210.4.91): icmp_seq=1 ttl=52 time=171 ms
PING csl2.hkspeedtest.com (203.210.4.91) 56(84) bytes of data.
64 bytes from 203-210-4-091.static.pccw-hkt.com (203.210.4.91): icmp_seq=1 ttl=52 time=171 ms
PING csl2.hkspeedtest.com (203.210.4.91) 56(84) bytes of data.
64 bytes from 203-210-4-091.static.pccw-hkt.com (203.210.4.91): icmp_seq=1 ttl=52 time=171 ms
PING csl2.hkspeedtest.com (203.210.4.91) 56(84) bytes of data.
64 bytes from 203-210-4-091.static.pccw-hkt.com (203.210.4.91): icmp_seq=1 ttl=52 time=171 ms
PING csl2.hkspeedtest.com (203.210.4.91) 56(84) bytes of data.
64 bytes from 203-210-4-091.static.pccw-hkt.com (203.210.4.91): icmp_seq=1 ttl=52 time=171 ms
PING csl2.hkspeedtest.com (203.210.4.91) 56(84) bytes of data.
64 bytes from 203-210-4-091.static.pccw-hkt.com (203.210.4.91): icmp_seq=1 ttl=52 time=171 ms
PING csl2.hkspeedtest.com (203.210.4.91) 56(84) bytes of data.
64 bytes from 203-210-4-091.static.pccw-hkt.com (203.210.4.91): icmp_seq=1 ttl=52 time=171 ms
PING csl2.hkspeedtest.com (203.210.4.91) 56(84) bytes of data.
64 bytes from 203-210-4-091.static.pccw-hkt.com (203.210.4.91): icmp_seq=1 ttl=52 time=171 ms
PING csl2.hkspeedtest.com (203.210.4.91) 56(84) bytes of data.
64 bytes from 203-210-4-091.static.pccw-hkt.com (203.210.4.91): icmp_seq=1 ttl=52 time=171 ms
PING csl2.hkspeedtest.com (203.210.4.91) 56(84) bytes of data.
64 bytes from 203-210-4-091.static.pccw-hkt.com (203.210.4.91): icmp_seq=1 ttl=52 time=171 ms
64 bytes from 203-210-4-091.static.pccw-hkt.com (203.210.4.91): icmp_seq=2 ttl=52 time=172 ms
64 bytes from 203-210-4-091.static.pccw-hkt.com (203.210.4.91): icmp_seq=2 ttl=52 time=172 ms
64 bytes from 203-210-4-091.static.pccw-hkt.com (203.210.4.91): icmp_seq=2 ttl=52 time=172 ms
64 bytes from 203-210-4-091.static.pccw-hkt.com (203.210.4.91): icmp_seq=2 ttl=52 time=172 ms
64 bytes from 203-210-4-091.static.pccw-hkt.com (203.210.4.91): icmp_seq=2 ttl=52 time=171 ms
64 bytes from 203-210-4-091.static.pccw-hkt.com (203.210.4.91): icmp_seq=2 ttl=52 time=172 ms
64 bytes from 203-210-4-091.static.pccw-hkt.com (203.210.4.91): icmp_seq=2 ttl=52 time=171 ms
64 bytes from 203-210-4-091.static.pccw-hkt.com (203.210.4.91): icmp_seq=2 ttl=52 time=171 ms
64 bytes from 203-210-4-091.static.pccw-hkt.com (203.210.4.91): icmp_seq=2 ttl=52 time=171 ms
64 bytes from 203-210-4-091.static.pccw-hkt.com (203.210.4.91): icmp_seq=2 ttl=52 time=171 ms
64 bytes from 203-210-4-091.static.pccw-hkt.com (203.210.4.91): icmp_seq=2 ttl=52 time=171 ms
64 bytes from 203-210-4-091.static.pccw-hkt.com (203.210.4.91): icmp_seq=2 ttl=52 time=171 ms
64 bytes from 203-210-4-091.static.pccw-hkt.com (203.210.4.91): icmp_seq=2 ttl=52 time=171 ms
64 bytes from 203-210-4-091.static.pccw-hkt.com (203.210.4.91): icmp_seq=2 ttl=52 time=171 ms
64 bytes from 203-210-4-091.static.pccw-hkt.com (203.210.4.91): icmp_seq=2 ttl=52 time=171 ms
64 bytes from 203-210-4-091.static.pccw-hkt.com (203.210.4.91): icmp_seq=2 ttl=52 time=171 ms
64 bytes from 203-210-4-091.static.pccw-hkt.com (203.210.4.91): icmp_seq=2 ttl=52 time=171 ms
64 bytes from 203-210-4-091.static.pccw-hkt.com (203.210.4.91): icmp_seq=2 ttl=52 time=171 ms
64 bytes from 203-210-4-091.static.pccw-hkt.com (203.210.4.91): icmp_seq=2 ttl=52 time=172 ms
64 bytes from 203-210-4-091.static.pccw-hkt.com (203.210.4.91): icmp_seq=2 ttl=52 time=172 ms
64 bytes from 203-210-4-091.static.pccw-hkt.com (203.210.4.91): icmp_seq=3 ttl=52 time=172 ms
64 bytes from 203-210-4-091.static.pccw-hkt.com (203.210.4.91): icmp_seq=3 ttl=52 time=172 ms
64 bytes from 203-210-4-091.static.pccw-hkt.com (203.210.4.91): icmp_seq=3 ttl=52 time=172 ms
64 bytes from 203-210-4-091.static.pccw-hkt.com (203.210.4.91): icmp_seq=3 ttl=52 time=172 ms
64 bytes from 203-210-4-091.static.pccw-hkt.com (203.210.4.91): icmp_seq=3 ttl=52 time=172 ms
64 bytes from 203-210-4-091.static.pccw-hkt.com (203.210.4.91): icmp_seq=3 ttl=52 time=171 ms
64 bytes from 203-210-4-091.static.pccw-hkt.com (203.210.4.91): icmp_seq=3 ttl=52 time=172 ms
64 bytes from 203-210-4-091.static.pccw-hkt.com (203.210.4.91): icmp_seq=3 ttl=52 time=172 ms
64 bytes from 203-210-4-091.static.pccw-hkt.com (203.210.4.91): icmp_seq=3 ttl=52 time=171 ms
64 bytes from 203-210-4-091.static.pccw-hkt.com (203.210.4.91): icmp_seq=3 ttl=52 time=171 ms
64 bytes from 203-210-4-091.static.pccw-hkt.com (203.210.4.91): icmp_seq=3 ttl=52 time=171 ms
64 bytes from 203-210-4-091.static.pccw-hkt.com (203.210.4.91): icmp_seq=3 ttl=52 time=171 ms
64 bytes from 203-210-4-091.static.pccw-hkt.com (203.210.4.91): icmp_seq=3 ttl=52 time=171 ms
64 bytes from 203-210-4-091.static.pccw-hkt.com (203.210.4.91): icmp_seq=3 ttl=52 time=171 ms
64 bytes from 203-210-4-091.static.pccw-hkt.com (203.210.4.91): icmp_seq=3 ttl=52 time=171 ms
64 bytes from 203-210-4-091.static.pccw-hkt.com (203.210.4.91): icmp_seq=3 ttl=52 time=171 ms
64 bytes from 203-210-4-091.static.pccw-hkt.com (203.210.4.91): icmp_seq=3 ttl=52 time=171 ms
64 bytes from 203-210-4-091.static.pccw-hkt.com (203.210.4.91): icmp_seq=3 ttl=52 time=171 ms
64 bytes from 203-210-4-091.static.pccw-hkt.com (203.210.4.91): icmp_seq=3 ttl=52 time=171 ms
64 bytes from 203-210-4-091.static.pccw-hkt.com (203.210.4.91): icmp_seq=3 ttl=52 time=171 ms
64 bytes from 203-210-4-091.static.pccw-hkt.com (203.210.4.91): icmp_seq=4 ttl=52 time=172 ms
64 bytes from 203-210-4-091.static.pccw-hkt.com (203.210.4.91): icmp_seq=4 ttl=52 time=171 ms
64 bytes from 203-210-4-091.static.pccw-hkt.com (203.210.4.91): icmp_seq=4 ttl=52 time=171 ms
64 bytes from 203-210-4-091.static.pccw-hkt.com (203.210.4.91): icmp_seq=4 ttl=52 time=171 ms
64 bytes from 203-210-4-091.static.pccw-hkt.com (203.210.4.91): icmp_seq=4 ttl=52 time=171 ms
64 bytes from 203-210-4-091.static.pccw-hkt.com (203.210.4.91): icmp_seq=4 ttl=52 time=171 ms
64 bytes from 203-210-4-091.static.pccw-hkt.com (203.210.4.91): icmp_seq=4 ttl=52 time=171 ms
64 bytes from 203-210-4-091.static.pccw-hkt.com (203.210.4.91): icmp_seq=4 ttl=52 time=171 ms
64 bytes from 203-210-4-091.static.pccw-hkt.com (203.210.4.91): icmp_seq=4 ttl=52 time=171 ms
64 bytes from 203-210-4-091.static.pccw-hkt.com (203.210.4.91): icmp_seq=4 ttl=52 time=171 ms
64 bytes from 203-210-4-091.static.pccw-hkt.com (203.210.4.91): icmp_seq=4 ttl=52 time=171 ms
64 bytes from 203-210-4-091.static.pccw-hkt.com (203.210.4.91): icmp_seq=4 ttl=52 time=171 ms
64 bytes from 203-210-4-091.static.pccw-hkt.com (203.210.4.91): icmp_seq=4 ttl=52 time=171 ms
64 bytes from 203-210-4-091.static.pccw-hkt.com (203.210.4.91): icmp_seq=4 ttl=52 time=171 ms
64 bytes from 203-210-4-091.static.pccw-hkt.com (203.210.4.91): icmp_seq=4 ttl=52 time=171 ms
64 bytes from 203-210-4-091.static.pccw-hkt.com (203.210.4.91): icmp_seq=4 ttl=52 time=171 ms
64 bytes from 203-210-4-091.static.pccw-hkt.com (203.210.4.91): icmp_seq=4 ttl=52 time=171 ms
64 bytes from 203-210-4-091.static.pccw-hkt.com (203.210.4.91): icmp_seq=4 ttl=52 time=171 ms
64 bytes from 203-210-4-091.static.pccw-hkt.com (203.210.4.91): icmp_seq=4 ttl=52 time=171 ms
64 bytes from 203-210-4-091.static.pccw-hkt.com (203.210.4.91): icmp_seq=4 ttl=52 time=171 ms
64 bytes from 203-210-4-091.static.pccw-hkt.com (203.210.4.91): icmp_seq=5 ttl=52 time=173 ms
64 bytes from 203-210-4-091.static.pccw-hkt.com (203.210.4.91): icmp_seq=5 ttl=52 time=172 ms
64 bytes from 203-210-4-091.static.pccw-hkt.com (203.210.4.91): icmp_seq=5 ttl=52 time=172 ms
64 bytes from 203-210-4-091.static.pccw-hkt.com (203.210.4.91): icmp_seq=5 ttl=52 time=172 ms
64 bytes from 203-210-4-091.static.pccw-hkt.com (203.210.4.91): icmp_seq=5 ttl=52 time=172 ms
64 bytes from 203-210-4-091.static.pccw-hkt.com (203.210.4.91): icmp_seq=5 ttl=52 time=172 ms
64 bytes from 203-210-4-091.static.pccw-hkt.com (203.210.4.91): icmp_seq=5 ttl=52 time=173 ms
64 bytes from 203-210-4-091.static.pccw-hkt.com (203.210.4.91): icmp_seq=5 ttl=52 time=173 ms
64 bytes from 203-210-4-091.static.pccw-hkt.com (203.210.4.91): icmp_seq=5 ttl=52 time=173 ms
64 bytes from 203-210-4-091.static.pccw-hkt.com (203.210.4.91): icmp_seq=5 ttl=52 time=173 ms
64 bytes from 203-210-4-091.static.pccw-hkt.com (203.210.4.91): icmp_seq=5 ttl=52 time=172 ms
64 bytes from 203-210-4-091.static.pccw-hkt.com (203.210.4.91): icmp_seq=5 ttl=52 time=172 ms
64 bytes from 203-210-4-091.static.pccw-hkt.com (203.210.4.91): icmp_seq=5 ttl=52 time=172 ms
64 bytes from 203-210-4-091.static.pccw-hkt.com (203.210.4.91): icmp_seq=5 ttl=52 time=172 ms
64 bytes from 203-210-4-091.static.pccw-hkt.com (203.210.4.91): icmp_seq=5 ttl=52 time=172 ms
64 bytes from 203-210-4-091.static.pccw-hkt.com (203.210.4.91): icmp_seq=5 ttl=52 time=172 ms
64 bytes from 203-210-4-091.static.pccw-hkt.com (203.210.4.91): icmp_seq=5 ttl=52 time=172 ms
64 bytes from 203-210-4-091.static.pccw-hkt.com (203.210.4.91): icmp_seq=5 ttl=52 time=172 ms
64 bytes from 203-210-4-091.static.pccw-hkt.com (203.210.4.91): icmp_seq=5 ttl=52 time=172 ms
64 bytes from 203-210-4-091.static.pccw-hkt.com (203.210.4.91): icmp_seq=5 ttl=52 time=172 ms
64 bytes from 203-210-4-091.static.pccw-hkt.com (203.210.4.91): icmp_seq=6 ttl=52 time=172 ms
64 bytes from 203-210-4-091.static.pccw-hkt.com (203.210.4.91): icmp_seq=6 ttl=52 time=172 ms
64 bytes from 203-210-4-091.static.pccw-hkt.com (203.210.4.91): icmp_seq=6 ttl=52 time=172 ms
64 bytes from 203-210-4-091.static.pccw-hkt.com (203.210.4.91): icmp_seq=6 ttl=52 time=171 ms
64 bytes from 203-210-4-091.static.pccw-hkt.com (203.210.4.91): icmp_seq=6 ttl=52 time=171 ms
64 bytes from 203-210-4-091.static.pccw-hkt.com (203.210.4.91): icmp_seq=6 ttl=52 time=171 ms
64 bytes from 203-210-4-091.static.pccw-hkt.com (203.210.4.91): icmp_seq=6 ttl=52 time=171 ms
64 bytes from 203-210-4-091.static.pccw-hkt.com (203.210.4.91): icmp_seq=6 ttl=52 time=171 ms
64 bytes from 203-210-4-091.static.pccw-hkt.com (203.210.4.91): icmp_seq=6 ttl=52 time=171 ms
64 bytes from 203-210-4-091.static.pccw-hkt.com (203.210.4.91): icmp_seq=6 ttl=52 time=171 ms
64 bytes from 203-210-4-091.static.pccw-hkt.com (203.210.4.91): icmp_seq=6 ttl=52 time=172 ms
64 bytes from 203-210-4-091.static.pccw-hkt.com (203.210.4.91): icmp_seq=6 ttl=52 time=172 ms
64 bytes from 203-210-4-091.static.pccw-hkt.com (203.210.4.91): icmp_seq=6 ttl=52 time=172 ms
64 bytes from 203-210-4-091.static.pccw-hkt.com (203.210.4.91): icmp_seq=6 ttl=52 time=172 ms
64 bytes from 203-210-4-091.static.pccw-hkt.com (203.210.4.91): icmp_seq=6 ttl=52 time=172 ms
64 bytes from 203-210-4-091.static.pccw-hkt.com (203.210.4.91): icmp_seq=6 ttl=52 time=172 ms
64 bytes from 203-210-4-091.static.pccw-hkt.com (203.210.4.91): icmp_seq=6 ttl=52 time=172 ms
64 bytes from 203-210-4-091.static.pccw-hkt.com (203.210.4.91): icmp_seq=6 ttl=52 time=172 ms
64 bytes from 203-210-4-091.static.pccw-hkt.com (203.210.4.91): icmp_seq=6 ttl=52 time=172 ms
64 bytes from 203-210-4-091.static.pccw-hkt.com (203.210.4.91): icmp_seq=6 ttl=52 time=172 ms
64 bytes from 203-210-4-091.static.pccw-hkt.com (203.210.4.91): icmp_seq=7 ttl=52 time=172 ms
64 bytes from 203-210-4-091.static.pccw-hkt.com (203.210.4.91): icmp_seq=7 ttl=52 time=172 ms
64 bytes from 203-210-4-091.static.pccw-hkt.com (203.210.4.91): icmp_seq=7 ttl=52 time=172 ms
64 bytes from 203-210-4-091.static.pccw-hkt.com (203.210.4.91): icmp_seq=7 ttl=52 time=172 ms
64 bytes from 203-210-4-091.static.pccw-hkt.com (203.210.4.91): icmp_seq=7 ttl=52 time=172 ms
64 bytes from 203-210-4-091.static.pccw-hkt.com (203.210.4.91): icmp_seq=7 ttl=52 time=172 ms
64 bytes from 203-210-4-091.static.pccw-hkt.com (203.210.4.91): icmp_seq=7 ttl=52 time=172 ms
64 bytes from 203-210-4-091.static.pccw-hkt.com (203.210.4.91): icmp_seq=7 ttl=52 time=172 ms
64 bytes from 203-210-4-091.static.pccw-hkt.com (203.210.4.91): icmp_seq=7 ttl=52 time=172 ms
64 bytes from 203-210-4-091.static.pccw-hkt.com (203.210.4.91): icmp_seq=7 ttl=52 time=171 ms
64 bytes from 203-210-4-091.static.pccw-hkt.com (203.210.4.91): icmp_seq=7 ttl=52 time=172 ms
64 bytes from 203-210-4-091.static.pccw-hkt.com (203.210.4.91): icmp_seq=7 ttl=52 time=172 ms
64 bytes from 203-210-4-091.static.pccw-hkt.com (203.210.4.91): icmp_seq=7 ttl=52 time=172 ms
64 bytes from 203-210-4-091.static.pccw-hkt.com (203.210.4.91): icmp_seq=7 ttl=52 time=172 ms
64 bytes from 203-210-4-091.static.pccw-hkt.com (203.210.4.91): icmp_seq=7 ttl=52 time=172 ms
64 bytes from 203-210-4-091.static.pccw-hkt.com (203.210.4.91): icmp_seq=7 ttl=52 time=171 ms
64 bytes from 203-210-4-091.static.pccw-hkt.com (203.210.4.91): icmp_seq=7 ttl=52 time=171 ms
64 bytes from 203-210-4-091.static.pccw-hkt.com (203.210.4.91): icmp_seq=7 ttl=52 time=171 ms
64 bytes from 203-210-4-091.static.pccw-hkt.com (203.210.4.91): icmp_seq=7 ttl=52 time=171 ms
64 bytes from 203-210-4-091.static.pccw-hkt.com (203.210.4.91): icmp_seq=7 ttl=52 time=171 ms
64 bytes from 203-210-4-091.static.pccw-hkt.com (203.210.4.91): icmp_seq=8 ttl=52 time=172 ms
64 bytes from 203-210-4-091.static.pccw-hkt.com (203.210.4.91): icmp_seq=8 ttl=52 time=172 ms
64 bytes from 203-210-4-091.static.pccw-hkt.com (203.210.4.91): icmp_seq=8 ttl=52 time=172 ms
64 bytes from 203-210-4-091.static.pccw-hkt.com (203.210.4.91): icmp_seq=8 ttl=52 time=172 ms
64 bytes from 203-210-4-091.static.pccw-hkt.com (203.210.4.91): icmp_seq=8 ttl=52 time=172 ms
64 bytes from 203-210-4-091.static.pccw-hkt.com (203.210.4.91): icmp_seq=8 ttl=52 time=172 ms
64 bytes from 203-210-4-091.static.pccw-hkt.com (203.210.4.91): icmp_seq=8 ttl=52 time=172 ms
64 bytes from 203-210-4-091.static.pccw-hkt.com (203.210.4.91): icmp_seq=8 ttl=52 time=172 ms
64 bytes from 203-210-4-091.static.pccw-hkt.com (203.210.4.91): icmp_seq=8 ttl=52 time=172 ms
64 bytes from 203-210-4-091.static.pccw-hkt.com (203.210.4.91): icmp_seq=8 ttl=52 time=172 ms
64 bytes from 203-210-4-091.static.pccw-hkt.com (203.210.4.91): icmp_seq=8 ttl=52 time=172 ms
64 bytes from 203-210-4-091.static.pccw-hkt.com (203.210.4.91): icmp_seq=8 ttl=52 time=172 ms
64 bytes from 203-210-4-091.static.pccw-hkt.com (203.210.4.91): icmp_seq=8 ttl=52 time=172 ms
64 bytes from 203-210-4-091.static.pccw-hkt.com (203.210.4.91): icmp_seq=8 ttl=52 time=172 ms
64 bytes from 203-210-4-091.static.pccw-hkt.com (203.210.4.91): icmp_seq=8 ttl=52 time=172 ms
64 bytes from 203-210-4-091.static.pccw-hkt.com (203.210.4.91): icmp_seq=8 ttl=52 time=172 ms
64 bytes from 203-210-4-091.static.pccw-hkt.com (203.210.4.91): icmp_seq=8 ttl=52 time=172 ms
64 bytes from 203-210-4-091.static.pccw-hkt.com (203.210.4.91): icmp_seq=8 ttl=52 time=172 ms
64 bytes from 203-210-4-091.static.pccw-hkt.com (203.210.4.91): icmp_seq=8 ttl=52 time=172 ms
64 bytes from 203-210-4-091.static.pccw-hkt.com (203.210.4.91): icmp_seq=8 ttl=52 time=172 ms
64 bytes from 203-210-4-091.static.pccw-hkt.com (203.210.4.91): icmp_seq=9 ttl=52 time=172 ms
64 bytes from 203-210-4-091.static.pccw-hkt.com (203.210.4.91): icmp_seq=9 ttl=52 time=171 ms
64 bytes from 203-210-4-091.static.pccw-hkt.com (203.210.4.91): icmp_seq=9 ttl=52 time=171 ms
64 bytes from 203-210-4-091.static.pccw-hkt.com (203.210.4.91): icmp_seq=9 ttl=52 time=171 ms
64 bytes from 203-210-4-091.static.pccw-hkt.com (203.210.4.91): icmp_seq=9 ttl=52 time=171 ms
64 bytes from 203-210-4-091.static.pccw-hkt.com (203.210.4.91): icmp_seq=9 ttl=52 time=171 ms
64 bytes from 203-210-4-091.static.pccw-hkt.com (203.210.4.91): icmp_seq=9 ttl=52 time=172 ms
64 bytes from 203-210-4-091.static.pccw-hkt.com (203.210.4.91): icmp_seq=9 ttl=52 time=171 ms
64 bytes from 203-210-4-091.static.pccw-hkt.com (203.210.4.91): icmp_seq=9 ttl=52 time=171 ms
64 bytes from 203-210-4-091.static.pccw-hkt.com (203.210.4.91): icmp_seq=9 ttl=52 time=172 ms
64 bytes from 203-210-4-091.static.pccw-hkt.com (203.210.4.91): icmp_seq=9 ttl=52 time=171 ms
64 bytes from 203-210-4-091.static.pccw-hkt.com (203.210.4.91): icmp_seq=9 ttl=52 time=171 ms
64 bytes from 203-210-4-091.static.pccw-hkt.com (203.210.4.91): icmp_seq=9 ttl=52 time=171 ms
64 bytes from 203-210-4-091.static.pccw-hkt.com (203.210.4.91): icmp_seq=9 ttl=52 time=171 ms
64 bytes from 203-210-4-091.static.pccw-hkt.com (203.210.4.91): icmp_seq=9 ttl=52 time=171 ms
64 bytes from 203-210-4-091.static.pccw-hkt.com (203.210.4.91): icmp_seq=9 ttl=52 time=171 ms
64 bytes from 203-210-4-091.static.pccw-hkt.com (203.210.4.91): icmp_seq=9 ttl=52 time=171 ms
64 bytes from 203-210-4-091.static.pccw-hkt.com (203.210.4.91): icmp_seq=9 ttl=52 time=171 ms
64 bytes from 203-210-4-091.static.pccw-hkt.com (203.210.4.91): icmp_seq=9 ttl=52 time=171 ms
64 bytes from 203-210-4-091.static.pccw-hkt.com (203.210.4.91): icmp_seq=9 ttl=52 time=171 ms
64 bytes from 203-210-4-091.static.pccw-hkt.com (203.210.4.91): icmp_seq=10 ttl=52 time=171 ms
64 bytes from 203-210-4-091.static.pccw-hkt.com (203.210.4.91): icmp_seq=10 ttl=52 time=171 ms
64 bytes from 203-210-4-091.static.pccw-hkt.com (203.210.4.91): icmp_seq=10 ttl=52 time=171 ms
64 bytes from 203-210-4-091.static.pccw-hkt.com (203.210.4.91): icmp_seq=10 ttl=52 time=171 ms
64 bytes from 203-210-4-091.static.pccw-hkt.com (203.210.4.91): icmp_seq=10 ttl=52 time=171 ms
64 bytes from 203-210-4-091.static.pccw-hkt.com (203.210.4.91): icmp_seq=10 ttl=52 time=171 ms
64 bytes from 203-210-4-091.static.pccw-hkt.com (203.210.4.91): icmp_seq=10 ttl=52 time=171 ms
64 bytes from 203-210-4-091.static.pccw-hkt.com (203.210.4.91): icmp_seq=10 ttl=52 time=171 ms
64 bytes from 203-210-4-091.static.pccw-hkt.com (203.210.4.91): icmp_seq=10 ttl=52 time=171 ms
64 bytes from 203-210-4-091.static.pccw-hkt.com (203.210.4.91): icmp_seq=10 ttl=52 time=171 ms
64 bytes from 203-210-4-091.static.pccw-hkt.com (203.210.4.91): icmp_seq=10 ttl=52 time=172 ms
64 bytes from 203-210-4-091.static.pccw-hkt.com (203.210.4.91): icmp_seq=10 ttl=52 time=172 ms
64 bytes from 203-210-4-091.static.pccw-hkt.com (203.210.4.91): icmp_seq=10 ttl=52 time=172 ms
64 bytes from 203-210-4-091.static.pccw-hkt.com (203.210.4.91): icmp_seq=10 ttl=52 time=172 ms
64 bytes from 203-210-4-091.static.pccw-hkt.com (203.210.4.91): icmp_seq=10 ttl=52 time=172 ms
64 bytes from 203-210-4-091.static.pccw-hkt.com (203.210.4.91): icmp_seq=10 ttl=52 time=172 ms
64 bytes from 203-210-4-091.static.pccw-hkt.com (203.210.4.91): icmp_seq=10 ttl=52 time=172 ms
64 bytes from 203-210-4-091.static.pccw-hkt.com (203.210.4.91): icmp_seq=10 ttl=52 time=172 ms
64 bytes from 203-210-4-091.static.pccw-hkt.com (203.210.4.91): icmp_seq=10 ttl=52 time=172 ms
64 bytes from 203-210-4-091.static.pccw-hkt.com (203.210.4.91): icmp_seq=10 ttl=52 time=172 ms
64 bytes from 203-210-4-091.static.pccw-hkt.com (203.210.4.91): icmp_seq=11 ttl=52 time=172 ms
64 bytes from 203-210-4-091.static.pccw-hkt.com (203.210.4.91): icmp_seq=11 ttl=52 time=172 ms
64 bytes from 203-210-4-091.static.pccw-hkt.com (203.210.4.91): icmp_seq=11 ttl=52 time=171 ms
64 bytes from 203-210-4-091.static.pccw-hkt.com (203.210.4.91): icmp_seq=11 ttl=52 time=171 ms
64 bytes from 203-210-4-091.static.pccw-hkt.com (203.210.4.91): icmp_seq=11 ttl=52 time=171 ms
64 bytes from 203-210-4-091.static.pccw-hkt.com (203.210.4.91): icmp_seq=11 ttl=52 time=171 ms
64 bytes from 203-210-4-091.static.pccw-hkt.com (203.210.4.91): icmp_seq=11 ttl=52 time=171 ms
64 bytes from 203-210-4-091.static.pccw-hkt.com (203.210.4.91): icmp_seq=11 ttl=52 time=171 ms
64 bytes from 203-210-4-091.static.pccw-hkt.com (203.210.4.91): icmp_seq=11 ttl=52 time=171 ms
64 bytes from 203-210-4-091.static.pccw-hkt.com (203.210.4.91): icmp_seq=11 ttl=52 time=171 ms
64 bytes from 203-210-4-091.static.pccw-hkt.com (203.210.4.91): icmp_seq=11 ttl=52 time=171 ms
64 bytes from 203-210-4-091.static.pccw-hkt.com (203.210.4.91): icmp_seq=11 ttl=52 time=171 ms
64 bytes from 203-210-4-091.static.pccw-hkt.com (203.210.4.91): icmp_seq=11 ttl=52 time=171 ms
64 bytes from 203-210-4-091.static.pccw-hkt.com (203.210.4.91): icmp_seq=11 ttl=52 time=171 ms
64 bytes from 203-210-4-091.static.pccw-hkt.com (203.210.4.91): icmp_seq=11 ttl=52 time=171 ms
64 bytes from 203-210-4-091.static.pccw-hkt.com (203.210.4.91): icmp_seq=11 ttl=52 time=171 ms
64 bytes from 203-210-4-091.static.pccw-hkt.com (203.210.4.91): icmp_seq=11 ttl=52 time=171 ms
64 bytes from 203-210-4-091.static.pccw-hkt.com (203.210.4.91): icmp_seq=11 ttl=52 time=171 ms
64 bytes from 203-210-4-091.static.pccw-hkt.com (203.210.4.91): icmp_seq=11 ttl=52 time=171 ms
64 bytes from 203-210-4-091.static.pccw-hkt.com (203.210.4.91): icmp_seq=11 ttl=52 time=172 ms
64 bytes from 203-210-4-091.static.pccw-hkt.com (203.210.4.91): icmp_seq=12 ttl=52 time=172 ms
64 bytes from 203-210-4-091.static.pccw-hkt.com (203.210.4.91): icmp_seq=12 ttl=52 time=172 ms
64 bytes from 203-210-4-091.static.pccw-hkt.com (203.210.4.91): icmp_seq=12 ttl=52 time=172 ms
64 bytes from 203-210-4-091.static.pccw-hkt.com (203.210.4.91): icmp_seq=12 ttl=52 time=172 ms
64 bytes from 203-210-4-091.static.pccw-hkt.com (203.210.4.91): icmp_seq=12 ttl=52 time=172 ms
64 bytes from 203-210-4-091.static.pccw-hkt.com (203.210.4.91): icmp_seq=12 ttl=52 time=172 ms
64 bytes from 203-210-4-091.static.pccw-hkt.com (203.210.4.91): icmp_seq=12 ttl=52 time=172 ms
64 bytes from 203-210-4-091.static.pccw-hkt.com (203.210.4.91): icmp_seq=12 ttl=52 time=172 ms
64 bytes from 203-210-4-091.static.pccw-hkt.com (203.210.4.91): icmp_seq=12 ttl=52 time=172 ms
64 bytes from 203-210-4-091.static.pccw-hkt.com (203.210.4.91): icmp_seq=12 ttl=52 time=172 ms
64 bytes from 203-210-4-091.static.pccw-hkt.com (203.210.4.91): icmp_seq=12 ttl=52 time=172 ms
64 bytes from 203-210-4-091.static.pccw-hkt.com (203.210.4.91): icmp_seq=12 ttl=52 time=172 ms
64 bytes from 203-210-4-091.static.pccw-hkt.com (203.210.4.91): icmp_seq=12 ttl=52 time=172 ms
64 bytes from 203-210-4-091.static.pccw-hkt.com (203.210.4.91): icmp_seq=12 ttl=52 time=172 ms
64 bytes from 203-210-4-091.static.pccw-hkt.com (203.210.4.91): icmp_seq=12 ttl=52 time=172 ms
64 bytes from 203-210-4-091.static.pccw-hkt.com (203.210.4.91): icmp_seq=12 ttl=52 time=172 ms
64 bytes from 203-210-4-091.static.pccw-hkt.com (203.210.4.91): icmp_seq=12 ttl=52 time=172 ms
64 bytes from 203-210-4-091.static.pccw-hkt.com (203.210.4.91): icmp_seq=12 ttl=52 time=172 ms
64 bytes from 203-210-4-091.static.pccw-hkt.com (203.210.4.91): icmp_seq=12 ttl=52 time=172 ms
64 bytes from 203-210-4-091.static.pccw-hkt.com (203.210.4.91): icmp_seq=12 ttl=52 time=172 ms
64 bytes from 203-210-4-091.static.pccw-hkt.com (203.210.4.91): icmp_seq=13 ttl=52 time=172 ms
64 bytes from 203-210-4-091.static.pccw-hkt.com (203.210.4.91): icmp_seq=13 ttl=52 time=172 ms
64 bytes from 203-210-4-091.static.pccw-hkt.com (203.210.4.91): icmp_seq=13 ttl=52 time=172 ms
64 bytes from 203-210-4-091.static.pccw-hkt.com (203.210.4.91): icmp_seq=13 ttl=52 time=172 ms
64 bytes from 203-210-4-091.static.pccw-hkt.com (203.210.4.91): icmp_seq=13 ttl=52 time=172 ms
64 bytes from 203-210-4-091.static.pccw-hkt.com (203.210.4.91): icmp_seq=13 ttl=52 time=172 ms
64 bytes from 203-210-4-091.static.pccw-hkt.com (203.210.4.91): icmp_seq=13 ttl=52 time=172 ms
64 bytes from 203-210-4-091.static.pccw-hkt.com (203.210.4.91): icmp_seq=13 ttl=52 time=172 ms
64 bytes from 203-210-4-091.static.pccw-hkt.com (203.210.4.91): icmp_seq=13 ttl=52 time=172 ms
64 bytes from 203-210-4-091.static.pccw-hkt.com (203.210.4.91): icmp_seq=13 ttl=52 time=172 ms
64 bytes from 203-210-4-091.static.pccw-hkt.com (203.210.4.91): icmp_seq=13 ttl=52 time=172 ms
64 bytes from 203-210-4-091.static.pccw-hkt.com (203.210.4.91): icmp_seq=13 ttl=52 time=172 ms
64 bytes from 203-210-4-091.static.pccw-hkt.com (203.210.4.91): icmp_seq=13 ttl=52 time=172 ms
64 bytes from 203-210-4-091.static.pccw-hkt.com (203.210.4.91): icmp_seq=13 ttl=52 time=172 ms
64 bytes from 203-210-4-091.static.pccw-hkt.com (203.210.4.91): icmp_seq=13 ttl=52 time=172 ms
64 bytes from 203-210-4-091.static.pccw-hkt.com (203.210.4.91): icmp_seq=13 ttl=52 time=172 ms
64 bytes from 203-210-4-091.static.pccw-hkt.com (203.210.4.91): icmp_seq=13 ttl=52 time=172 ms
64 bytes from 203-210-4-091.static.pccw-hkt.com (203.210.4.91): icmp_seq=13 ttl=52 time=172 ms
64 bytes from 203-210-4-091.static.pccw-hkt.com (203.210.4.91): icmp_seq=13 ttl=52 time=172 ms
64 bytes from 203-210-4-091.static.pccw-hkt.com (203.210.4.91): icmp_seq=13 ttl=52 time=172 ms
64 bytes from 203-210-4-091.static.pccw-hkt.com (203.210.4.91): icmp_seq=14 ttl=52 time=172 ms
64 bytes from 203-210-4-091.static.pccw-hkt.com (203.210.4.91): icmp_seq=14 ttl=52 time=172 ms
64 bytes from 203-210-4-091.static.pccw-hkt.com (203.210.4.91): icmp_seq=14 ttl=52 time=172 ms
64 bytes from 203-210-4-091.static.pccw-hkt.com (203.210.4.91): icmp_seq=14 ttl=52 time=171 ms
64 bytes from 203-210-4-091.static.pccw-hkt.com (203.210.4.91): icmp_seq=14 ttl=52 time=171 ms
64 bytes from 203-210-4-091.static.pccw-hkt.com (203.210.4.91): icmp_seq=14 ttl=52 time=171 ms
64 bytes from 203-210-4-091.static.pccw-hkt.com (203.210.4.91): icmp_seq=14 ttl=52 time=171 ms
64 bytes from 203-210-4-091.static.pccw-hkt.com (203.210.4.91): icmp_seq=14 ttl=52 time=171 ms
64 bytes from 203-210-4-091.static.pccw-hkt.com (203.210.4.91): icmp_seq=14 ttl=52 time=172 ms
64 bytes from 203-210-4-091.static.pccw-hkt.com (203.210.4.91): icmp_seq=14 ttl=52 time=172 ms
64 bytes from 203-210-4-091.static.pccw-hkt.com (203.210.4.91): icmp_seq=14 ttl=52 time=172 ms
64 bytes from 203-210-4-091.static.pccw-hkt.com (203.210.4.91): icmp_seq=14 ttl=52 time=172 ms
64 bytes from 203-210-4-091.static.pccw-hkt.com (203.210.4.91): icmp_seq=14 ttl=52 time=172 ms
64 bytes from 203-210-4-091.static.pccw-hkt.com (203.210.4.91): icmp_seq=14 ttl=52 time=172 ms
64 bytes from 203-210-4-091.static.pccw-hkt.com (203.210.4.91): icmp_seq=14 ttl=52 time=172 ms
64 bytes from 203-210-4-091.static.pccw-hkt.com (203.210.4.91): icmp_seq=14 ttl=52 time=172 ms
64 bytes from 203-210-4-091.static.pccw-hkt.com (203.210.4.91): icmp_seq=14 ttl=52 time=172 ms
64 bytes from 203-210-4-091.static.pccw-hkt.com (203.210.4.91): icmp_seq=14 ttl=52 time=172 ms
64 bytes from 203-210-4-091.static.pccw-hkt.com (203.210.4.91): icmp_seq=14 ttl=52 time=171 ms
64 bytes from 203-210-4-091.static.pccw-hkt.com (203.210.4.91): icmp_seq=14 ttl=52 time=171 ms
64 bytes from 203-210-4-091.static.pccw-hkt.com (203.210.4.91): icmp_seq=15 ttl=52 time=172 ms
64 bytes from 203-210-4-091.static.pccw-hkt.com (203.210.4.91): icmp_seq=15 ttl=52 time=172 ms
64 bytes from 203-210-4-091.static.pccw-hkt.com (203.210.4.91): icmp_seq=15 ttl=52 time=172 ms
64 bytes from 203-210-4-091.static.pccw-hkt.com (203.210.4.91): icmp_seq=15 ttl=52 time=172 ms
64 bytes from 203-210-4-091.static.pccw-hkt.com (203.210.4.91): icmp_seq=15 ttl=52 time=172 ms
64 bytes from 203-210-4-091.static.pccw-hkt.com (203.210.4.91): icmp_seq=15 ttl=52 time=172 ms
64 bytes from 203-210-4-091.static.pccw-hkt.com (203.210.4.91): icmp_seq=15 ttl=52 time=172 ms
64 bytes from 203-210-4-091.static.pccw-hkt.com (203.210.4.91): icmp_seq=15 ttl=52 time=172 ms
64 bytes from 203-210-4-091.static.pccw-hkt.com (203.210.4.91): icmp_seq=15 ttl=52 time=172 ms
64 bytes from 203-210-4-091.static.pccw-hkt.com (203.210.4.91): icmp_seq=15 ttl=52 time=172 ms
64 bytes from 203-210-4-091.static.pccw-hkt.com (203.210.4.91): icmp_seq=15 ttl=52 time=172 ms
64 bytes from 203-210-4-091.static.pccw-hkt.com (203.210.4.91): icmp_seq=15 ttl=52 time=172 ms
64 bytes from 203-210-4-091.static.pccw-hkt.com (203.210.4.91): icmp_seq=15 ttl=52 time=172 ms
64 bytes from 203-210-4-091.static.pccw-hkt.com (203.210.4.91): icmp_seq=15 ttl=52 time=172 ms
64 bytes from 203-210-4-091.static.pccw-hkt.com (203.210.4.91): icmp_seq=15 ttl=52 time=172 ms
64 bytes from 203-210-4-091.static.pccw-hkt.com (203.210.4.91): icmp_seq=15 ttl=52 time=172 ms
64 bytes from 203-210-4-091.static.pccw-hkt.com (203.210.4.91): icmp_seq=15 ttl=52 time=172 ms
64 bytes from 203-210-4-091.static.pccw-hkt.com (203.210.4.91): icmp_seq=15 ttl=52 time=172 ms
64 bytes from 203-210-4-091.static.pccw-hkt.com (203.210.4.91): icmp_seq=15 ttl=52 time=171 ms
64 bytes from 203-210-4-091.static.pccw-hkt.com (203.210.4.91): icmp_seq=15 ttl=52 time=172 ms
64 bytes from 203-210-4-091.static.pccw-hkt.com (203.210.4.91): icmp_seq=16 ttl=52 time=172 ms
64 bytes from 203-210-4-091.static.pccw-hkt.com (203.210.4.91): icmp_seq=16 ttl=52 time=172 ms
64 bytes from 203-210-4-091.static.pccw-hkt.com (203.210.4.91): icmp_seq=16 ttl=52 time=172 ms
64 bytes from 203-210-4-091.static.pccw-hkt.com (203.210.4.91): icmp_seq=16 ttl=52 time=172 ms
64 bytes from 203-210-4-091.static.pccw-hkt.com (203.210.4.91): icmp_seq=16 ttl=52 time=172 ms
64 bytes from 203-210-4-091.static.pccw-hkt.com (203.210.4.91): icmp_seq=16 ttl=52 time=172 ms
64 bytes from 203-210-4-091.static.pccw-hkt.com (203.210.4.91): icmp_seq=16 ttl=52 time=172 ms
64 bytes from 203-210-4-091.static.pccw-hkt.com (203.210.4.91): icmp_seq=16 ttl=52 time=172 ms
64 bytes from 203-210-4-091.static.pccw-hkt.com (203.210.4.91): icmp_seq=16 ttl=52 time=172 ms
64 bytes from 203-210-4-091.static.pccw-hkt.com (203.210.4.91): icmp_seq=16 ttl=52 time=172 ms
64 bytes from 203-210-4-091.static.pccw-hkt.com (203.210.4.91): icmp_seq=16 ttl=52 time=172 ms
64 bytes from 203-210-4-091.static.pccw-hkt.com (203.210.4.91): icmp_seq=16 ttl=52 time=172 ms
64 bytes from 203-210-4-091.static.pccw-hkt.com (203.210.4.91): icmp_seq=16 ttl=52 time=172 ms
64 bytes from 203-210-4-091.static.pccw-hkt.com (203.210.4.91): icmp_seq=16 ttl=52 time=172 ms
64 bytes from 203-210-4-091.static.pccw-hkt.com (203.210.4.91): icmp_seq=16 ttl=52 time=172 ms
64 bytes from 203-210-4-091.static.pccw-hkt.com (203.210.4.91): icmp_seq=16 ttl=52 time=172 ms
64 bytes from 203-210-4-091.static.pccw-hkt.com (203.210.4.91): icmp_seq=16 ttl=52 time=172 ms
64 bytes from 203-210-4-091.static.pccw-hkt.com (203.210.4.91): icmp_seq=16 ttl=52 time=172 ms
64 bytes from 203-210-4-091.static.pccw-hkt.com (203.210.4.91): icmp_seq=16 ttl=52 time=171 ms
64 bytes from 203-210-4-091.static.pccw-hkt.com (203.210.4.91): icmp_seq=16 ttl=52 time=171 ms
64 bytes from 203-210-4-091.static.pccw-hkt.com (203.210.4.91): icmp_seq=17 ttl=52 time=172 ms
64 bytes from 203-210-4-091.static.pccw-hkt.com (203.210.4.91): icmp_seq=17 ttl=52 time=172 ms
64 bytes from 203-210-4-091.static.pccw-hkt.com (203.210.4.91): icmp_seq=17 ttl=52 time=172 ms
64 bytes from 203-210-4-091.static.pccw-hkt.com (203.210.4.91): icmp_seq=17 ttl=52 time=172 ms
64 bytes from 203-210-4-091.static.pccw-hkt.com (203.210.4.91): icmp_seq=17 ttl=52 time=171 ms
64 bytes from 203-210-4-091.static.pccw-hkt.com (203.210.4.91): icmp_seq=17 ttl=52 time=172 ms
64 bytes from 203-210-4-091.static.pccw-hkt.com (203.210.4.91): icmp_seq=17 ttl=52 time=171 ms
64 bytes from 203-210-4-091.static.pccw-hkt.com (203.210.4.91): icmp_seq=17 ttl=52 time=171 ms
64 bytes from 203-210-4-091.static.pccw-hkt.com (203.210.4.91): icmp_seq=17 ttl=52 time=171 ms
64 bytes from 203-210-4-091.static.pccw-hkt.com (203.210.4.91): icmp_seq=17 ttl=52 time=171 ms
64 bytes from 203-210-4-091.static.pccw-hkt.com (203.210.4.91): icmp_seq=17 ttl=52 time=172 ms
64 bytes from 203-210-4-091.static.pccw-hkt.com (203.210.4.91): icmp_seq=17 ttl=52 time=171 ms
64 bytes from 203-210-4-091.static.pccw-hkt.com (203.210.4.91): icmp_seq=17 ttl=52 time=171 ms
64 bytes from 203-210-4-091.static.pccw-hkt.com (203.210.4.91): icmp_seq=17 ttl=52 time=171 ms
64 bytes from 203-210-4-091.static.pccw-hkt.com (203.210.4.91): icmp_seq=17 ttl=52 time=172 ms
64 bytes from 203-210-4-091.static.pccw-hkt.com (203.210.4.91): icmp_seq=17 ttl=52 time=171 ms
64 bytes from 203-210-4-091.static.pccw-hkt.com (203.210.4.91): icmp_seq=17 ttl=52 time=171 ms
64 bytes from 203-210-4-091.static.pccw-hkt.com (203.210.4.91): icmp_seq=17 ttl=52 time=172 ms
64 bytes from 203-210-4-091.static.pccw-hkt.com (203.210.4.91): icmp_seq=17 ttl=52 time=171 ms
64 bytes from 203-210-4-091.static.pccw-hkt.com (203.210.4.91): icmp_seq=17 ttl=52 time=171 ms
64 bytes from 203-210-4-091.static.pccw-hkt.com (203.210.4.91): icmp_seq=18 ttl=52 time=172 ms
64 bytes from 203-210-4-091.static.pccw-hkt.com (203.210.4.91): icmp_seq=18 ttl=52 time=172 ms
64 bytes from 203-210-4-091.static.pccw-hkt.com (203.210.4.91): icmp_seq=18 ttl=52 time=172 ms
64 bytes from 203-210-4-091.static.pccw-hkt.com (203.210.4.91): icmp_seq=18 ttl=52 time=172 ms
64 bytes from 203-210-4-091.static.pccw-hkt.com (203.210.4.91): icmp_seq=18 ttl=52 time=172 ms
64 bytes from 203-210-4-091.static.pccw-hkt.com (203.210.4.91): icmp_seq=18 ttl=52 time=172 ms
64 bytes from 203-210-4-091.static.pccw-hkt.com (203.210.4.91): icmp_seq=18 ttl=52 time=171 ms
64 bytes from 203-210-4-091.static.pccw-hkt.com (203.210.4.91): icmp_seq=18 ttl=52 time=171 ms
64 bytes from 203-210-4-091.static.pccw-hkt.com (203.210.4.91): icmp_seq=18 ttl=52 time=171 ms
64 bytes from 203-210-4-091.static.pccw-hkt.com (203.210.4.91): icmp_seq=18 ttl=52 time=171 ms
64 bytes from 203-210-4-091.static.pccw-hkt.com (203.210.4.91): icmp_seq=18 ttl=52 time=171 ms
64 bytes from 203-210-4-091.static.pccw-hkt.com (203.210.4.91): icmp_seq=18 ttl=52 time=171 ms
64 bytes from 203-210-4-091.static.pccw-hkt.com (203.210.4.91): icmp_seq=18 ttl=52 time=171 ms
64 bytes from 203-210-4-091.static.pccw-hkt.com (203.210.4.91): icmp_seq=18 ttl=52 time=171 ms
64 bytes from 203-210-4-091.static.pccw-hkt.com (203.210.4.91): icmp_seq=18 ttl=52 time=172 ms
64 bytes from 203-210-4-091.static.pccw-hkt.com (203.210.4.91): icmp_seq=18 ttl=52 time=171 ms
64 bytes from 203-210-4-091.static.pccw-hkt.com (203.210.4.91): icmp_seq=18 ttl=52 time=171 ms
64 bytes from 203-210-4-091.static.pccw-hkt.com (203.210.4.91): icmp_seq=18 ttl=52 time=171 ms
64 bytes from 203-210-4-091.static.pccw-hkt.com (203.210.4.91): icmp_seq=18 ttl=52 time=172 ms
64 bytes from 203-210-4-091.static.pccw-hkt.com (203.210.4.91): icmp_seq=18 ttl=52 time=172 ms
64 bytes from 203-210-4-091.static.pccw-hkt.com (203.210.4.91): icmp_seq=19 ttl=52 time=172 ms
64 bytes from 203-210-4-091.static.pccw-hkt.com (203.210.4.91): icmp_seq=19 ttl=52 time=172 ms
64 bytes from 203-210-4-091.static.pccw-hkt.com (203.210.4.91): icmp_seq=19 ttl=52 time=172 ms
64 bytes from 203-210-4-091.static.pccw-hkt.com (203.210.4.91): icmp_seq=19 ttl=52 time=172 ms
64 bytes from 203-210-4-091.static.pccw-hkt.com (203.210.4.91): icmp_seq=19 ttl=52 time=172 ms
64 bytes from 203-210-4-091.static.pccw-hkt.com (203.210.4.91): icmp_seq=19 ttl=52 time=172 ms
64 bytes from 203-210-4-091.static.pccw-hkt.com (203.210.4.91): icmp_seq=19 ttl=52 time=172 ms
64 bytes from 203-210-4-091.static.pccw-hkt.com (203.210.4.91): icmp_seq=19 ttl=52 time=172 ms
64 bytes from 203-210-4-091.static.pccw-hkt.com (203.210.4.91): icmp_seq=19 ttl=52 time=172 ms
64 bytes from 203-210-4-091.static.pccw-hkt.com (203.210.4.91): icmp_seq=19 ttl=52 time=171 ms
64 bytes from 203-210-4-091.static.pccw-hkt.com (203.210.4.91): icmp_seq=19 ttl=52 time=171 ms
64 bytes from 203-210-4-091.static.pccw-hkt.com (203.210.4.91): icmp_seq=19 ttl=52 time=171 ms
64 bytes from 203-210-4-091.static.pccw-hkt.com (203.210.4.91): icmp_seq=19 ttl=52 time=171 ms
64 bytes from 203-210-4-091.static.pccw-hkt.com (203.210.4.91): icmp_seq=19 ttl=52 time=171 ms
64 bytes from 203-210-4-091.static.pccw-hkt.com (203.210.4.91): icmp_seq=19 ttl=52 time=171 ms
64 bytes from 203-210-4-091.static.pccw-hkt.com (203.210.4.91): icmp_seq=19 ttl=52 time=171 ms
64 bytes from 203-210-4-091.static.pccw-hkt.com (203.210.4.91): icmp_seq=19 ttl=52 time=171 ms
64 bytes from 203-210-4-091.static.pccw-hkt.com (203.210.4.91): icmp_seq=19 ttl=52 time=171 ms
64 bytes from 203-210-4-091.static.pccw-hkt.com (203.210.4.91): icmp_seq=19 ttl=52 time=172 ms
64 bytes from 203-210-4-091.static.pccw-hkt.com (203.210.4.91): icmp_seq=19 ttl=52 time=172 ms
64 bytes from 203-210-4-091.static.pccw-hkt.com (203.210.4.91): icmp_seq=20 ttl=52 time=172 ms
64 bytes from 203-210-4-091.static.pccw-hkt.com (203.210.4.91): icmp_seq=20 ttl=52 time=172 ms
64 bytes from 203-210-4-091.static.pccw-hkt.com (203.210.4.91): icmp_seq=20 ttl=52 time=172 ms
64 bytes from 203-210-4-091.static.pccw-hkt.com (203.210.4.91): icmp_seq=20 ttl=52 time=172 ms
64 bytes from 203-210-4-091.static.pccw-hkt.com (203.210.4.91): icmp_seq=20 ttl=52 time=172 ms
64 bytes from 203-210-4-091.static.pccw-hkt.com (203.210.4.91): icmp_seq=20 ttl=52 time=172 ms
64 bytes from 203-210-4-091.static.pccw-hkt.com (203.210.4.91): icmp_seq=20 ttl=52 time=172 ms
64 bytes from 203-210-4-091.static.pccw-hkt.com (203.210.4.91): icmp_seq=20 ttl=52 time=172 ms
64 bytes from 203-210-4-091.static.pccw-hkt.com (203.210.4.91): icmp_seq=20 ttl=52 time=172 ms
64 bytes from 203-210-4-091.static.pccw-hkt.com (203.210.4.91): icmp_seq=20 ttl=52 time=172 ms
64 bytes from 203-210-4-091.static.pccw-hkt.com (203.210.4.91): icmp_seq=20 ttl=52 time=172 ms
64 bytes from 203-210-4-091.static.pccw-hkt.com (203.210.4.91): icmp_seq=20 ttl=52 time=172 ms
64 bytes from 203-210-4-091.static.pccw-hkt.com (203.210.4.91): icmp_seq=20 ttl=52 time=171 ms
64 bytes from 203-210-4-091.static.pccw-hkt.com (203.210.4.91): icmp_seq=20 ttl=52 time=171 ms
64 bytes from 203-210-4-091.static.pccw-hkt.com (203.210.4.91): icmp_seq=20 ttl=52 time=171 ms
64 bytes from 203-210-4-091.static.pccw-hkt.com (203.210.4.91): icmp_seq=20 ttl=52 time=171 ms
64 bytes from 203-210-4-091.static.pccw-hkt.com (203.210.4.91): icmp_seq=20 ttl=52 time=171 ms
64 bytes from 203-210-4-091.static.pccw-hkt.com (203.210.4.91): icmp_seq=20 ttl=52 time=171 ms
64 bytes from 203-210-4-091.static.pccw-hkt.com (203.210.4.91): icmp_seq=20 ttl=52 time=171 ms
64 bytes from 203-210-4-091.static.pccw-hkt.com (203.210.4.91): icmp_seq=20 ttl=52 time=171 ms
64 bytes from 203-210-4-091.static.pccw-hkt.com (203.210.4.91): icmp_seq=21 ttl=52 time=172 ms
64 bytes from 203-210-4-091.static.pccw-hkt.com (203.210.4.91): icmp_seq=21 ttl=52 time=172 ms
64 bytes from 203-210-4-091.static.pccw-hkt.com (203.210.4.91): icmp_seq=21 ttl=52 time=172 ms
64 bytes from 203-210-4-091.static.pccw-hkt.com (203.210.4.91): icmp_seq=21 ttl=52 time=172 ms
64 bytes from 203-210-4-091.static.pccw-hkt.com (203.210.4.91): icmp_seq=21 ttl=52 time=172 ms
64 bytes from 203-210-4-091.static.pccw-hkt.com (203.210.4.91): icmp_seq=21 ttl=52 time=172 ms
64 bytes from 203-210-4-091.static.pccw-hkt.com (203.210.4.91): icmp_seq=21 ttl=52 time=172 ms
64 bytes from 203-210-4-091.static.pccw-hkt.com (203.210.4.91): icmp_seq=21 ttl=52 time=172 ms
64 bytes from 203-210-4-091.static.pccw-hkt.com (203.210.4.91): icmp_seq=21 ttl=52 time=172 ms
64 bytes from 203-210-4-091.static.pccw-hkt.com (203.210.4.91): icmp_seq=21 ttl=52 time=172 ms
64 bytes from 203-210-4-091.static.pccw-hkt.com (203.210.4.91): icmp_seq=21 ttl=52 time=172 ms
64 bytes from 203-210-4-091.static.pccw-hkt.com (203.210.4.91): icmp_seq=21 ttl=52 time=172 ms
64 bytes from 203-210-4-091.static.pccw-hkt.com (203.210.4.91): icmp_seq=21 ttl=52 time=172 ms
64 bytes from 203-210-4-091.static.pccw-hkt.com (203.210.4.91): icmp_seq=21 ttl=52 time=172 ms
64 bytes from 203-210-4-091.static.pccw-hkt.com (203.210.4.91): icmp_seq=21 ttl=52 time=172 ms
64 bytes from 203-210-4-091.static.pccw-hkt.com (203.210.4.91): icmp_seq=21 ttl=52 time=172 ms
64 bytes from 203-210-4-091.static.pccw-hkt.com (203.210.4.91): icmp_seq=21 ttl=52 time=172 ms
64 bytes from 203-210-4-091.static.pccw-hkt.com (203.210.4.91): icmp_seq=21 ttl=52 time=172 ms
64 bytes from 203-210-4-091.static.pccw-hkt.com (203.210.4.91): icmp_seq=21 ttl=52 time=172 ms
64 bytes from 203-210-4-091.static.pccw-hkt.com (203.210.4.91): icmp_seq=21 ttl=52 time=172 ms
64 bytes from 203-210-4-091.static.pccw-hkt.com (203.210.4.91): icmp_seq=22 ttl=52 time=172 ms
64 bytes from 203-210-4-091.static.pccw-hkt.com (203.210.4.91): icmp_seq=22 ttl=52 time=172 ms
64 bytes from 203-210-4-091.static.pccw-hkt.com (203.210.4.91): icmp_seq=22 ttl=52 time=172 ms
64 bytes from 203-210-4-091.static.pccw-hkt.com (203.210.4.91): icmp_seq=22 ttl=52 time=172 ms
64 bytes from 203-210-4-091.static.pccw-hkt.com (203.210.4.91): icmp_seq=22 ttl=52 time=171 ms
64 bytes from 203-210-4-091.static.pccw-hkt.com (203.210.4.91): icmp_seq=22 ttl=52 time=172 ms
64 bytes from 203-210-4-091.static.pccw-hkt.com (203.210.4.91): icmp_seq=22 ttl=52 time=171 ms
64 bytes from 203-210-4-091.static.pccw-hkt.com (203.210.4.91): icmp_seq=22 ttl=52 time=171 ms
64 bytes from 203-210-4-091.static.pccw-hkt.com (203.210.4.91): icmp_seq=22 ttl=52 time=171 ms
64 bytes from 203-210-4-091.static.pccw-hkt.com (203.210.4.91): icmp_seq=22 ttl=52 time=171 ms
64 bytes from 203-210-4-091.static.pccw-hkt.com (203.210.4.91): icmp_seq=22 ttl=52 time=171 ms
64 bytes from 203-210-4-091.static.pccw-hkt.com (203.210.4.91): icmp_seq=22 ttl=52 time=171 ms
64 bytes from 203-210-4-091.static.pccw-hkt.com (203.210.4.91): icmp_seq=22 ttl=52 time=171 ms
64 bytes from 203-210-4-091.static.pccw-hkt.com (203.210.4.91): icmp_seq=22 ttl=52 time=171 ms
64 bytes from 203-210-4-091.static.pccw-hkt.com (203.210.4.91): icmp_seq=22 ttl=52 time=172 ms
64 bytes from 203-210-4-091.static.pccw-hkt.com (203.210.4.91): icmp_seq=22 ttl=52 time=172 ms
64 bytes from 203-210-4-091.static.pccw-hkt.com (203.210.4.91): icmp_seq=22 ttl=52 time=172 ms
64 bytes from 203-210-4-091.static.pccw-hkt.com (203.210.4.91): icmp_seq=22 ttl=52 time=172 ms
64 bytes from 203-210-4-091.static.pccw-hkt.com (203.210.4.91): icmp_seq=22 ttl=52 time=171 ms
64 bytes from 203-210-4-091.static.pccw-hkt.com (203.210.4.91): icmp_seq=22 ttl=52 time=172 ms
64 bytes from 203-210-4-091.static.pccw-hkt.com (203.210.4.91): icmp_seq=23 ttl=52 time=172 ms
64 bytes from 203-210-4-091.static.pccw-hkt.com (203.210.4.91): icmp_seq=23 ttl=52 time=172 ms
64 bytes from 203-210-4-091.static.pccw-hkt.com (203.210.4.91): icmp_seq=23 ttl=52 time=172 ms
64 bytes from 203-210-4-091.static.pccw-hkt.com (203.210.4.91): icmp_seq=23 ttl=52 time=172 ms
64 bytes from 203-210-4-091.static.pccw-hkt.com (203.210.4.91): icmp_seq=23 ttl=52 time=172 ms
64 bytes from 203-210-4-091.static.pccw-hkt.com (203.210.4.91): icmp_seq=23 ttl=52 time=172 ms
64 bytes from 203-210-4-091.static.pccw-hkt.com (203.210.4.91): icmp_seq=23 ttl=52 time=172 ms
64 bytes from 203-210-4-091.static.pccw-hkt.com (203.210.4.91): icmp_seq=23 ttl=52 time=172 ms
64 bytes from 203-210-4-091.static.pccw-hkt.com (203.210.4.91): icmp_seq=23 ttl=52 time=172 ms
64 bytes from 203-210-4-091.static.pccw-hkt.com (203.210.4.91): icmp_seq=23 ttl=52 time=172 ms
64 bytes from 203-210-4-091.static.pccw-hkt.com (203.210.4.91): icmp_seq=23 ttl=52 time=172 ms
64 bytes from 203-210-4-091.static.pccw-hkt.com (203.210.4.91): icmp_seq=23 ttl=52 time=172 ms
64 bytes from 203-210-4-091.static.pccw-hkt.com (203.210.4.91): icmp_seq=23 ttl=52 time=172 ms
64 bytes from 203-210-4-091.static.pccw-hkt.com (203.210.4.91): icmp_seq=23 ttl=52 time=172 ms
64 bytes from 203-210-4-091.static.pccw-hkt.com (203.210.4.91): icmp_seq=23 ttl=52 time=172 ms
64 bytes from 203-210-4-091.static.pccw-hkt.com (203.210.4.91): icmp_seq=23 ttl=52 time=172 ms
64 bytes from 203-210-4-091.static.pccw-hkt.com (203.210.4.91): icmp_seq=23 ttl=52 time=172 ms
64 bytes from 203-210-4-091.static.pccw-hkt.com (203.210.4.91): icmp_seq=23 ttl=52 time=172 ms
64 bytes from 203-210-4-091.static.pccw-hkt.com (203.210.4.91): icmp_seq=23 ttl=52 time=172 ms
64 bytes from 203-210-4-091.static.pccw-hkt.com (203.210.4.91): icmp_seq=23 ttl=52 time=172 ms
64 bytes from 203-210-4-091.static.pccw-hkt.com (203.210.4.91): icmp_seq=24 ttl=52 time=171 ms
64 bytes from 203-210-4-091.static.pccw-hkt.com (203.210.4.91): icmp_seq=24 ttl=52 time=171 ms
64 bytes from 203-210-4-091.static.pccw-hkt.com (203.210.4.91): icmp_seq=24 ttl=52 time=171 ms
64 bytes from 203-210-4-091.static.pccw-hkt.com (203.210.4.91): icmp_seq=24 ttl=52 time=171 ms
64 bytes from 203-210-4-091.static.pccw-hkt.com (203.210.4.91): icmp_seq=24 ttl=52 time=171 ms
64 bytes from 203-210-4-091.static.pccw-hkt.com (203.210.4.91): icmp_seq=24 ttl=52 time=171 ms
64 bytes from 203-210-4-091.static.pccw-hkt.com (203.210.4.91): icmp_seq=24 ttl=52 time=172 ms
64 bytes from 203-210-4-091.static.pccw-hkt.com (203.210.4.91): icmp_seq=24 ttl=52 time=172 ms
64 bytes from 203-210-4-091.static.pccw-hkt.com (203.210.4.91): icmp_seq=24 ttl=52 time=171 ms
64 bytes from 203-210-4-091.static.pccw-hkt.com (203.210.4.91): icmp_seq=24 ttl=52 time=172 ms
64 bytes from 203-210-4-091.static.pccw-hkt.com (203.210.4.91): icmp_seq=24 ttl=52 time=172 ms
64 bytes from 203-210-4-091.static.pccw-hkt.com (203.210.4.91): icmp_seq=24 ttl=52 time=172 ms
64 bytes from 203-210-4-091.static.pccw-hkt.com (203.210.4.91): icmp_seq=24 ttl=52 time=172 ms
64 bytes from 203-210-4-091.static.pccw-hkt.com (203.210.4.91): icmp_seq=24 ttl=52 time=172 ms
64 bytes from 203-210-4-091.static.pccw-hkt.com (203.210.4.91): icmp_seq=24 ttl=52 time=172 ms
64 bytes from 203-210-4-091.static.pccw-hkt.com (203.210.4.91): icmp_seq=24 ttl=52 time=172 ms
64 bytes from 203-210-4-091.static.pccw-hkt.com (203.210.4.91): icmp_seq=24 ttl=52 time=172 ms
64 bytes from 203-210-4-091.static.pccw-hkt.com (203.210.4.91): icmp_seq=24 ttl=52 time=172 ms
64 bytes from 203-210-4-091.static.pccw-hkt.com (203.210.4.91): icmp_seq=24 ttl=52 time=172 ms
64 bytes from 203-210-4-091.static.pccw-hkt.com (203.210.4.91): icmp_seq=24 ttl=52 time=172 ms
64 bytes from 203-210-4-091.static.pccw-hkt.com (203.210.4.91): icmp_seq=25 ttl=52 time=172 ms
64 bytes from 203-210-4-091.static.pccw-hkt.com (203.210.4.91): icmp_seq=25 ttl=52 time=172 ms
64 bytes from 203-210-4-091.static.pccw-hkt.com (203.210.4.91): icmp_seq=25 ttl=52 time=172 ms
64 bytes from 203-210-4-091.static.pccw-hkt.com (203.210.4.91): icmp_seq=25 ttl=52 time=172 ms
64 bytes from 203-210-4-091.static.pccw-hkt.com (203.210.4.91): icmp_seq=25 ttl=52 time=172 ms
64 bytes from 203-210-4-091.static.pccw-hkt.com (203.210.4.91): icmp_seq=25 ttl=52 time=172 ms
64 bytes from 203-210-4-091.static.pccw-hkt.com (203.210.4.91): icmp_seq=25 ttl=52 time=172 ms
64 bytes from 203-210-4-091.static.pccw-hkt.com (203.210.4.91): icmp_seq=25 ttl=52 time=172 ms
64 bytes from 203-210-4-091.static.pccw-hkt.com (203.210.4.91): icmp_seq=25 ttl=52 time=172 ms
64 bytes from 203-210-4-091.static.pccw-hkt.com (203.210.4.91): icmp_seq=25 ttl=52 time=172 ms
64 bytes from 203-210-4-091.static.pccw-hkt.com (203.210.4.91): icmp_seq=25 ttl=52 time=172 ms
64 bytes from 203-210-4-091.static.pccw-hkt.com (203.210.4.91): icmp_seq=25 ttl=52 time=172 ms
64 bytes from 203-210-4-091.static.pccw-hkt.com (203.210.4.91): icmp_seq=25 ttl=52 time=172 ms
64 bytes from 203-210-4-091.static.pccw-hkt.com (203.210.4.91): icmp_seq=25 ttl=52 time=172 ms
64 bytes from 203-210-4-091.static.pccw-hkt.com (203.210.4.91): icmp_seq=25 ttl=52 time=172 ms
64 bytes from 203-210-4-091.static.pccw-hkt.com (203.210.4.91): icmp_seq=25 ttl=52 time=172 ms
64 bytes from 203-210-4-091.static.pccw-hkt.com (203.210.4.91): icmp_seq=25 ttl=52 time=172 ms
64 bytes from 203-210-4-091.static.pccw-hkt.com (203.210.4.91): icmp_seq=25 ttl=52 time=172 ms
64 bytes from 203-210-4-091.static.pccw-hkt.com (203.210.4.91): icmp_seq=25 ttl=52 time=172 ms
64 bytes from 203-210-4-091.static.pccw-hkt.com (203.210.4.91): icmp_seq=25 ttl=52 time=172 ms
64 bytes from 203-210-4-091.static.pccw-hkt.com (203.210.4.91): icmp_seq=26 ttl=52 time=172 ms
64 bytes from 203-210-4-091.static.pccw-hkt.com (203.210.4.91): icmp_seq=26 ttl=52 time=172 ms
64 bytes from 203-210-4-091.static.pccw-hkt.com (203.210.4.91): icmp_seq=26 ttl=52 time=172 ms
64 bytes from 203-210-4-091.static.pccw-hkt.com (203.210.4.91): icmp_seq=26 ttl=52 time=172 ms
64 bytes from 203-210-4-091.static.pccw-hkt.com (203.210.4.91): icmp_seq=26 ttl=52 time=172 ms
64 bytes from 203-210-4-091.static.pccw-hkt.com (203.210.4.91): icmp_seq=26 ttl=52 time=172 ms
64 bytes from 203-210-4-091.static.pccw-hkt.com (203.210.4.91): icmp_seq=26 ttl=52 time=172 ms
64 bytes from 203-210-4-091.static.pccw-hkt.com (203.210.4.91): icmp_seq=26 ttl=52 time=172 ms
64 bytes from 203-210-4-091.static.pccw-hkt.com (203.210.4.91): icmp_seq=26 ttl=52 time=172 ms
64 bytes from 203-210-4-091.static.pccw-hkt.com (203.210.4.91): icmp_seq=26 ttl=52 time=172 ms
64 bytes from 203-210-4-091.static.pccw-hkt.com (203.210.4.91): icmp_seq=26 ttl=52 time=172 ms
64 bytes from 203-210-4-091.static.pccw-hkt.com (203.210.4.91): icmp_seq=26 ttl=52 time=172 ms
64 bytes from 203-210-4-091.static.pccw-hkt.com (203.210.4.91): icmp_seq=26 ttl=52 time=172 ms
64 bytes from 203-210-4-091.static.pccw-hkt.com (203.210.4.91): icmp_seq=26 ttl=52 time=172 ms
64 bytes from 203-210-4-091.static.pccw-hkt.com (203.210.4.91): icmp_seq=26 ttl=52 time=172 ms
64 bytes from 203-210-4-091.static.pccw-hkt.com (203.210.4.91): icmp_seq=26 ttl=52 time=172 ms
64 bytes from 203-210-4-091.static.pccw-hkt.com (203.210.4.91): icmp_seq=26 ttl=52 time=172 ms
64 bytes from 203-210-4-091.static.pccw-hkt.com (203.210.4.91): icmp_seq=26 ttl=52 time=172 ms
64 bytes from 203-210-4-091.static.pccw-hkt.com (203.210.4.91): icmp_seq=26 ttl=52 time=172 ms
64 bytes from 203-210-4-091.static.pccw-hkt.com (203.210.4.91): icmp_seq=26 ttl=52 time=172 ms
64 bytes from 203-210-4-091.static.pccw-hkt.com (203.210.4.91): icmp_seq=27 ttl=52 time=171 ms
64 bytes from 203-210-4-091.static.pccw-hkt.com (203.210.4.91): icmp_seq=27 ttl=52 time=172 ms
64 bytes from 203-210-4-091.static.pccw-hkt.com (203.210.4.91): icmp_seq=27 ttl=52 time=172 ms
64 bytes from 203-210-4-091.static.pccw-hkt.com (203.210.4.91): icmp_seq=27 ttl=52 time=172 ms
64 bytes from 203-210-4-091.static.pccw-hkt.com (203.210.4.91): icmp_seq=27 ttl=52 time=172 ms
64 bytes from 203-210-4-091.static.pccw-hkt.com (203.210.4.91): icmp_seq=27 ttl=52 time=172 ms
64 bytes from 203-210-4-091.static.pccw-hkt.com (203.210.4.91): icmp_seq=27 ttl=52 time=172 ms
64 bytes from 203-210-4-091.static.pccw-hkt.com (203.210.4.91): icmp_seq=27 ttl=52 time=172 ms
64 bytes from 203-210-4-091.static.pccw-hkt.com (203.210.4.91): icmp_seq=27 ttl=52 time=172 ms
64 bytes from 203-210-4-091.static.pccw-hkt.com (203.210.4.91): icmp_seq=27 ttl=52 time=172 ms
64 bytes from 203-210-4-091.static.pccw-hkt.com (203.210.4.91): icmp_seq=27 ttl=52 time=172 ms
64 bytes from 203-210-4-091.static.pccw-hkt.com (203.210.4.91): icmp_seq=27 ttl=52 time=172 ms
64 bytes from 203-210-4-091.static.pccw-hkt.com (203.210.4.91): icmp_seq=27 ttl=52 time=172 ms
64 bytes from 203-210-4-091.static.pccw-hkt.com (203.210.4.91): icmp_seq=27 ttl=52 time=172 ms
64 bytes from 203-210-4-091.static.pccw-hkt.com (203.210.4.91): icmp_seq=27 ttl=52 time=172 ms
64 bytes from 203-210-4-091.static.pccw-hkt.com (203.210.4.91): icmp_seq=27 ttl=52 time=172 ms
64 bytes from 203-210-4-091.static.pccw-hkt.com (203.210.4.91): icmp_seq=27 ttl=52 time=172 ms
64 bytes from 203-210-4-091.static.pccw-hkt.com (203.210.4.91): icmp_seq=27 ttl=52 time=172 ms
64 bytes from 203-210-4-091.static.pccw-hkt.com (203.210.4.91): icmp_seq=27 ttl=52 time=172 ms
64 bytes from 203-210-4-091.static.pccw-hkt.com (203.210.4.91): icmp_seq=27 ttl=52 time=172 ms
64 bytes from 203-210-4-091.static.pccw-hkt.com (203.210.4.91): icmp_seq=28 ttl=52 time=171 ms
64 bytes from 203-210-4-091.static.pccw-hkt.com (203.210.4.91): icmp_seq=28 ttl=52 time=172 ms
64 bytes from 203-210-4-091.static.pccw-hkt.com (203.210.4.91): icmp_seq=28 ttl=52 time=171 ms
64 bytes from 203-210-4-091.static.pccw-hkt.com (203.210.4.91): icmp_seq=28 ttl=52 time=171 ms
64 bytes from 203-210-4-091.static.pccw-hkt.com (203.210.4.91): icmp_seq=28 ttl=52 time=171 ms
64 bytes from 203-210-4-091.static.pccw-hkt.com (203.210.4.91): icmp_seq=28 ttl=52 time=172 ms
64 bytes from 203-210-4-091.static.pccw-hkt.com (203.210.4.91): icmp_seq=28 ttl=52 time=172 ms
64 bytes from 203-210-4-091.static.pccw-hkt.com (203.210.4.91): icmp_seq=28 ttl=52 time=172 ms
64 bytes from 203-210-4-091.static.pccw-hkt.com (203.210.4.91): icmp_seq=28 ttl=52 time=172 ms
64 bytes from 203-210-4-091.static.pccw-hkt.com (203.210.4.91): icmp_seq=28 ttl=52 time=172 ms
64 bytes from 203-210-4-091.static.pccw-hkt.com (203.210.4.91): icmp_seq=28 ttl=52 time=172 ms
64 bytes from 203-210-4-091.static.pccw-hkt.com (203.210.4.91): icmp_seq=28 ttl=52 time=172 ms
64 bytes from 203-210-4-091.static.pccw-hkt.com (203.210.4.91): icmp_seq=28 ttl=52 time=172 ms
64 bytes from 203-210-4-091.static.pccw-hkt.com (203.210.4.91): icmp_seq=28 ttl=52 time=172 ms
64 bytes from 203-210-4-091.static.pccw-hkt.com (203.210.4.91): icmp_seq=28 ttl=52 time=172 ms
64 bytes from 203-210-4-091.static.pccw-hkt.com (203.210.4.91): icmp_seq=28 ttl=52 time=172 ms
64 bytes from 203-210-4-091.static.pccw-hkt.com (203.210.4.91): icmp_seq=28 ttl=52 time=172 ms
64 bytes from 203-210-4-091.static.pccw-hkt.com (203.210.4.91): icmp_seq=28 ttl=52 time=172 ms
64 bytes from 203-210-4-091.static.pccw-hkt.com (203.210.4.91): icmp_seq=28 ttl=52 time=172 ms
64 bytes from 203-210-4-091.static.pccw-hkt.com (203.210.4.91): icmp_seq=28 ttl=52 time=172 ms
64 bytes from 203-210-4-091.static.pccw-hkt.com (203.210.4.91): icmp_seq=29 ttl=52 time=172 ms
64 bytes from 203-210-4-091.static.pccw-hkt.com (203.210.4.91): icmp_seq=29 ttl=52 time=172 ms
64 bytes from 203-210-4-091.static.pccw-hkt.com (203.210.4.91): icmp_seq=29 ttl=52 time=172 ms
64 bytes from 203-210-4-091.static.pccw-hkt.com (203.210.4.91): icmp_seq=29 ttl=52 time=172 ms
64 bytes from 203-210-4-091.static.pccw-hkt.com (203.210.4.91): icmp_seq=29 ttl=52 time=172 ms
64 bytes from 203-210-4-091.static.pccw-hkt.com (203.210.4.91): icmp_seq=29 ttl=52 time=172 ms
64 bytes from 203-210-4-091.static.pccw-hkt.com (203.210.4.91): icmp_seq=29 ttl=52 time=172 ms
64 bytes from 203-210-4-091.static.pccw-hkt.com (203.210.4.91): icmp_seq=29 ttl=52 time=172 ms
64 bytes from 203-210-4-091.static.pccw-hkt.com (203.210.4.91): icmp_seq=29 ttl=52 time=172 ms
64 bytes from 203-210-4-091.static.pccw-hkt.com (203.210.4.91): icmp_seq=29 ttl=52 time=172 ms
64 bytes from 203-210-4-091.static.pccw-hkt.com (203.210.4.91): icmp_seq=29 ttl=52 time=172 ms
64 bytes from 203-210-4-091.static.pccw-hkt.com (203.210.4.91): icmp_seq=29 ttl=52 time=172 ms
64 bytes from 203-210-4-091.static.pccw-hkt.com (203.210.4.91): icmp_seq=29 ttl=52 time=172 ms
64 bytes from 203-210-4-091.static.pccw-hkt.com (203.210.4.91): icmp_seq=29 ttl=52 time=172 ms
64 bytes from 203-210-4-091.static.pccw-hkt.com (203.210.4.91): icmp_seq=29 ttl=52 time=172 ms
64 bytes from 203-210-4-091.static.pccw-hkt.com (203.210.4.91): icmp_seq=29 ttl=52 time=172 ms
64 bytes from 203-210-4-091.static.pccw-hkt.com (203.210.4.91): icmp_seq=29 ttl=52 time=172 ms
64 bytes from 203-210-4-091.static.pccw-hkt.com (203.210.4.91): icmp_seq=29 ttl=52 time=172 ms
64 bytes from 203-210-4-091.static.pccw-hkt.com (203.210.4.91): icmp_seq=29 ttl=52 time=172 ms
64 bytes from 203-210-4-091.static.pccw-hkt.com (203.210.4.91): icmp_seq=29 ttl=52 time=172 ms
64 bytes from 203-210-4-091.static.pccw-hkt.com (203.210.4.91): icmp_seq=30 ttl=52 time=172 ms
64 bytes from 203-210-4-091.static.pccw-hkt.com (203.210.4.91): icmp_seq=30 ttl=52 time=172 ms
64 bytes from 203-210-4-091.static.pccw-hkt.com (203.210.4.91): icmp_seq=30 ttl=52 time=172 ms
64 bytes from 203-210-4-091.static.pccw-hkt.com (203.210.4.91): icmp_seq=30 ttl=52 time=172 ms
64 bytes from 203-210-4-091.static.pccw-hkt.com (203.210.4.91): icmp_seq=30 ttl=52 time=172 ms
64 bytes from 203-210-4-091.static.pccw-hkt.com (203.210.4.91): icmp_seq=30 ttl=52 time=172 ms
64 bytes from 203-210-4-091.static.pccw-hkt.com (203.210.4.91): icmp_seq=30 ttl=52 time=172 ms
64 bytes from 203-210-4-091.static.pccw-hkt.com (203.210.4.91): icmp_seq=30 ttl=52 time=172 ms
64 bytes from 203-210-4-091.static.pccw-hkt.com (203.210.4.91): icmp_seq=30 ttl=52 time=172 ms
64 bytes from 203-210-4-091.static.pccw-hkt.com (203.210.4.91): icmp_seq=30 ttl=52 time=172 ms
64 bytes from 203-210-4-091.static.pccw-hkt.com (203.210.4.91): icmp_seq=30 ttl=52 time=172 ms
64 bytes from 203-210-4-091.static.pccw-hkt.com (203.210.4.91): icmp_seq=30 ttl=52 time=172 ms
64 bytes from 203-210-4-091.static.pccw-hkt.com (203.210.4.91): icmp_seq=30 ttl=52 time=172 ms
64 bytes from 203-210-4-091.static.pccw-hkt.com (203.210.4.91): icmp_seq=30 ttl=52 time=172 ms
64 bytes from 203-210-4-091.static.pccw-hkt.com (203.210.4.91): icmp_seq=30 ttl=52 time=172 ms
64 bytes from 203-210-4-091.static.pccw-hkt.com (203.210.4.91): icmp_seq=30 ttl=52 time=172 ms
64 bytes from 203-210-4-091.static.pccw-hkt.com (203.210.4.91): icmp_seq=30 ttl=52 time=172 ms
64 bytes from 203-210-4-091.static.pccw-hkt.com (203.210.4.91): icmp_seq=30 ttl=52 time=172 ms
64 bytes from 203-210-4-091.static.pccw-hkt.com (203.210.4.91): icmp_seq=30 ttl=52 time=172 ms
64 bytes from 203-210-4-091.static.pccw-hkt.com (203.210.4.91): icmp_seq=30 ttl=52 time=172 ms
64 bytes from 203-210-4-091.static.pccw-hkt.com (203.210.4.91): icmp_seq=31 ttl=52 time=172 ms
64 bytes from 203-210-4-091.static.pccw-hkt.com (203.210.4.91): icmp_seq=31 ttl=52 time=172 ms
64 bytes from 203-210-4-091.static.pccw-hkt.com (203.210.4.91): icmp_seq=31 ttl=52 time=172 ms
64 bytes from 203-210-4-091.static.pccw-hkt.com (203.210.4.91): icmp_seq=31 ttl=52 time=172 ms
64 bytes from 203-210-4-091.static.pccw-hkt.com (203.210.4.91): icmp_seq=31 ttl=52 time=172 ms
64 bytes from 203-210-4-091.static.pccw-hkt.com (203.210.4.91): icmp_seq=31 ttl=52 time=172 ms
64 bytes from 203-210-4-091.static.pccw-hkt.com (203.210.4.91): icmp_seq=31 ttl=52 time=172 ms
64 bytes from 203-210-4-091.static.pccw-hkt.com (203.210.4.91): icmp_seq=31 ttl=52 time=172 ms
64 bytes from 203-210-4-091.static.pccw-hkt.com (203.210.4.91): icmp_seq=31 ttl=52 time=172 ms
64 bytes from 203-210-4-091.static.pccw-hkt.com (203.210.4.91): icmp_seq=31 ttl=52 time=172 ms
64 bytes from 203-210-4-091.static.pccw-hkt.com (203.210.4.91): icmp_seq=31 ttl=52 time=172 ms
64 bytes from 203-210-4-091.static.pccw-hkt.com (203.210.4.91): icmp_seq=31 ttl=52 time=172 ms
64 bytes from 203-210-4-091.static.pccw-hkt.com (203.210.4.91): icmp_seq=31 ttl=52 time=172 ms
64 bytes from 203-210-4-091.static.pccw-hkt.com (203.210.4.91): icmp_seq=31 ttl=52 time=172 ms
64 bytes from 203-210-4-091.static.pccw-hkt.com (203.210.4.91): icmp_seq=31 ttl=52 time=172 ms
64 bytes from 203-210-4-091.static.pccw-hkt.com (203.210.4.91): icmp_seq=31 ttl=52 time=172 ms
64 bytes from 203-210-4-091.static.pccw-hkt.com (203.210.4.91): icmp_seq=31 ttl=52 time=172 ms
64 bytes from 203-210-4-091.static.pccw-hkt.com (203.210.4.91): icmp_seq=31 ttl=52 time=172 ms
64 bytes from 203-210-4-091.static.pccw-hkt.com (203.210.4.91): icmp_seq=31 ttl=52 time=172 ms
64 bytes from 203-210-4-091.static.pccw-hkt.com (203.210.4.91): icmp_seq=31 ttl=52 time=172 ms
64 bytes from 203-210-4-091.static.pccw-hkt.com (203.210.4.91): icmp_seq=32 ttl=52 time=172 ms
64 bytes from 203-210-4-091.static.pccw-hkt.com (203.210.4.91): icmp_seq=32 ttl=52 time=172 ms
64 bytes from 203-210-4-091.static.pccw-hkt.com (203.210.4.91): icmp_seq=32 ttl=52 time=172 ms
64 bytes from 203-210-4-091.static.pccw-hkt.com (203.210.4.91): icmp_seq=32 ttl=52 time=172 ms
64 bytes from 203-210-4-091.static.pccw-hkt.com (203.210.4.91): icmp_seq=32 ttl=52 time=172 ms
64 bytes from 203-210-4-091.static.pccw-hkt.com (203.210.4.91): icmp_seq=32 ttl=52 time=172 ms
64 bytes from 203-210-4-091.static.pccw-hkt.com (203.210.4.91): icmp_seq=32 ttl=52 time=172 ms
64 bytes from 203-210-4-091.static.pccw-hkt.com (203.210.4.91): icmp_seq=32 ttl=52 time=172 ms
64 bytes from 203-210-4-091.static.pccw-hkt.com (203.210.4.91): icmp_seq=32 ttl=52 time=172 ms
64 bytes from 203-210-4-091.static.pccw-hkt.com (203.210.4.91): icmp_seq=32 ttl=52 time=172 ms
64 bytes from 203-210-4-091.static.pccw-hkt.com (203.210.4.91): icmp_seq=32 ttl=52 time=172 ms
64 bytes from 203-210-4-091.static.pccw-hkt.com (203.210.4.91): icmp_seq=32 ttl=52 time=172 ms
64 bytes from 203-210-4-091.static.pccw-hkt.com (203.210.4.91): icmp_seq=32 ttl=52 time=172 ms
64 bytes from 203-210-4-091.static.pccw-hkt.com (203.210.4.91): icmp_seq=32 ttl=52 time=172 ms
64 bytes from 203-210-4-091.static.pccw-hkt.com (203.210.4.91): icmp_seq=32 ttl=52 time=172 ms
64 bytes from 203-210-4-091.static.pccw-hkt.com (203.210.4.91): icmp_seq=32 ttl=52 time=172 ms
64 bytes from 203-210-4-091.static.pccw-hkt.com (203.210.4.91): icmp_seq=32 ttl=52 time=172 ms
64 bytes from 203-210-4-091.static.pccw-hkt.com (203.210.4.91): icmp_seq=32 ttl=52 time=172 ms
64 bytes from 203-210-4-091.static.pccw-hkt.com (203.210.4.91): icmp_seq=32 ttl=52 time=172 ms
64 bytes from 203-210-4-091.static.pccw-hkt.com (203.210.4.91): icmp_seq=32 ttl=52 time=171 ms
64 bytes from 203-210-4-091.static.pccw-hkt.com (203.210.4.91): icmp_seq=33 ttl=52 time=172 ms
64 bytes from 203-210-4-091.static.pccw-hkt.com (203.210.4.91): icmp_seq=33 ttl=52 time=172 ms
64 bytes from 203-210-4-091.static.pccw-hkt.com (203.210.4.91): icmp_seq=33 ttl=52 time=172 ms
64 bytes from 203-210-4-091.static.pccw-hkt.com (203.210.4.91): icmp_seq=33 ttl=52 time=172 ms
64 bytes from 203-210-4-091.static.pccw-hkt.com (203.210.4.91): icmp_seq=33 ttl=52 time=172 ms
64 bytes from 203-210-4-091.static.pccw-hkt.com (203.210.4.91): icmp_seq=33 ttl=52 time=172 ms
64 bytes from 203-210-4-091.static.pccw-hkt.com (203.210.4.91): icmp_seq=33 ttl=52 time=172 ms
64 bytes from 203-210-4-091.static.pccw-hkt.com (203.210.4.91): icmp_seq=33 ttl=52 time=172 ms
64 bytes from 203-210-4-091.static.pccw-hkt.com (203.210.4.91): icmp_seq=33 ttl=52 time=172 ms
64 bytes from 203-210-4-091.static.pccw-hkt.com (203.210.4.91): icmp_seq=33 ttl=52 time=172 ms
64 bytes from 203-210-4-091.static.pccw-hkt.com (203.210.4.91): icmp_seq=33 ttl=52 time=172 ms
64 bytes from 203-210-4-091.static.pccw-hkt.com (203.210.4.91): icmp_seq=33 ttl=52 time=172 ms
64 bytes from 203-210-4-091.static.pccw-hkt.com (203.210.4.91): icmp_seq=33 ttl=52 time=172 ms
64 bytes from 203-210-4-091.static.pccw-hkt.com (203.210.4.91): icmp_seq=33 ttl=52 time=172 ms
64 bytes from 203-210-4-091.static.pccw-hkt.com (203.210.4.91): icmp_seq=33 ttl=52 time=172 ms
64 bytes from 203-210-4-091.static.pccw-hkt.com (203.210.4.91): icmp_seq=33 ttl=52 time=171 ms
64 bytes from 203-210-4-091.static.pccw-hkt.com (203.210.4.91): icmp_seq=33 ttl=52 time=172 ms
64 bytes from 203-210-4-091.static.pccw-hkt.com (203.210.4.91): icmp_seq=33 ttl=52 time=172 ms
64 bytes from 203-210-4-091.static.pccw-hkt.com (203.210.4.91): icmp_seq=33 ttl=52 time=172 ms
64 bytes from 203-210-4-091.static.pccw-hkt.com (203.210.4.91): icmp_seq=33 ttl=52 time=172 ms
64 bytes from 203-210-4-091.static.pccw-hkt.com (203.210.4.91): icmp_seq=34 ttl=52 time=172 ms
64 bytes from 203-210-4-091.static.pccw-hkt.com (203.210.4.91): icmp_seq=34 ttl=52 time=172 ms
64 bytes from 203-210-4-091.static.pccw-hkt.com (203.210.4.91): icmp_seq=34 ttl=52 time=172 ms
64 bytes from 203-210-4-091.static.pccw-hkt.com (203.210.4.91): icmp_seq=34 ttl=52 time=172 ms
64 bytes from 203-210-4-091.static.pccw-hkt.com (203.210.4.91): icmp_seq=34 ttl=52 time=172 ms
64 bytes from 203-210-4-091.static.pccw-hkt.com (203.210.4.91): icmp_seq=34 ttl=52 time=172 ms
64 bytes from 203-210-4-091.static.pccw-hkt.com (203.210.4.91): icmp_seq=34 ttl=52 time=172 ms
64 bytes from 203-210-4-091.static.pccw-hkt.com (203.210.4.91): icmp_seq=34 ttl=52 time=172 ms
64 bytes from 203-210-4-091.static.pccw-hkt.com (203.210.4.91): icmp_seq=34 ttl=52 time=172 ms
64 bytes from 203-210-4-091.static.pccw-hkt.com (203.210.4.91): icmp_seq=34 ttl=52 time=172 ms
64 bytes from 203-210-4-091.static.pccw-hkt.com (203.210.4.91): icmp_seq=34 ttl=52 time=172 ms
64 bytes from 203-210-4-091.static.pccw-hkt.com (203.210.4.91): icmp_seq=34 ttl=52 time=172 ms
64 bytes from 203-210-4-091.static.pccw-hkt.com (203.210.4.91): icmp_seq=34 ttl=52 time=172 ms
64 bytes from 203-210-4-091.static.pccw-hkt.com (203.210.4.91): icmp_seq=34 ttl=52 time=172 ms
64 bytes from 203-210-4-091.static.pccw-hkt.com (203.210.4.91): icmp_seq=34 ttl=52 time=172 ms
64 bytes from 203-210-4-091.static.pccw-hkt.com (203.210.4.91): icmp_seq=34 ttl=52 time=172 ms
64 bytes from 203-210-4-091.static.pccw-hkt.com (203.210.4.91): icmp_seq=34 ttl=52 time=172 ms
64 bytes from 203-210-4-091.static.pccw-hkt.com (203.210.4.91): icmp_seq=34 ttl=52 time=172 ms
64 bytes from 203-210-4-091.static.pccw-hkt.com (203.210.4.91): icmp_seq=34 ttl=52 time=172 ms
64 bytes from 203-210-4-091.static.pccw-hkt.com (203.210.4.91): icmp_seq=34 ttl=52 time=172 ms
64 bytes from 203-210-4-091.static.pccw-hkt.com (203.210.4.91): icmp_seq=35 ttl=52 time=171 ms
64 bytes from 203-210-4-091.static.pccw-hkt.com (203.210.4.91): icmp_seq=35 ttl=52 time=172 ms
64 bytes from 203-210-4-091.static.pccw-hkt.com (203.210.4.91): icmp_seq=35 ttl=52 time=172 ms
64 bytes from 203-210-4-091.static.pccw-hkt.com (203.210.4.91): icmp_seq=35 ttl=52 time=172 ms
64 bytes from 203-210-4-091.static.pccw-hkt.com (203.210.4.91): icmp_seq=35 ttl=52 time=172 ms
64 bytes from 203-210-4-091.static.pccw-hkt.com (203.210.4.91): icmp_seq=35 ttl=52 time=172 ms
64 bytes from 203-210-4-091.static.pccw-hkt.com (203.210.4.91): icmp_seq=35 ttl=52 time=172 ms
64 bytes from 203-210-4-091.static.pccw-hkt.com (203.210.4.91): icmp_seq=35 ttl=52 time=171 ms
64 bytes from 203-210-4-091.static.pccw-hkt.com (203.210.4.91): icmp_seq=35 ttl=52 time=172 ms
64 bytes from 203-210-4-091.static.pccw-hkt.com (203.210.4.91): icmp_seq=35 ttl=52 time=172 ms
64 bytes from 203-210-4-091.static.pccw-hkt.com (203.210.4.91): icmp_seq=35 ttl=52 time=172 ms
64 bytes from 203-210-4-091.static.pccw-hkt.com (203.210.4.91): icmp_seq=35 ttl=52 time=172 ms
64 bytes from 203-210-4-091.static.pccw-hkt.com (203.210.4.91): icmp_seq=35 ttl=52 time=172 ms
64 bytes from 203-210-4-091.static.pccw-hkt.com (203.210.4.91): icmp_seq=35 ttl=52 time=172 ms
64 bytes from 203-210-4-091.static.pccw-hkt.com (203.210.4.91): icmp_seq=35 ttl=52 time=172 ms
64 bytes from 203-210-4-091.static.pccw-hkt.com (203.210.4.91): icmp_seq=35 ttl=52 time=172 ms
64 bytes from 203-210-4-091.static.pccw-hkt.com (203.210.4.91): icmp_seq=35 ttl=52 time=172 ms
64 bytes from 203-210-4-091.static.pccw-hkt.com (203.210.4.91): icmp_seq=35 ttl=52 time=172 ms
64 bytes from 203-210-4-091.static.pccw-hkt.com (203.210.4.91): icmp_seq=35 ttl=52 time=172 ms
64 bytes from 203-210-4-091.static.pccw-hkt.com (203.210.4.91): icmp_seq=35 ttl=52 time=172 ms
64 bytes from 203-210-4-091.static.pccw-hkt.com (203.210.4.91): icmp_seq=36 ttl=52 time=172 ms
64 bytes from 203-210-4-091.static.pccw-hkt.com (203.210.4.91): icmp_seq=36 ttl=52 time=172 ms
64 bytes from 203-210-4-091.static.pccw-hkt.com (203.210.4.91): icmp_seq=36 ttl=52 time=172 ms
64 bytes from 203-210-4-091.static.pccw-hkt.com (203.210.4.91): icmp_seq=36 ttl=52 time=172 ms
64 bytes from 203-210-4-091.static.pccw-hkt.com (203.210.4.91): icmp_seq=36 ttl=52 time=172 ms
64 bytes from 203-210-4-091.static.pccw-hkt.com (203.210.4.91): icmp_seq=36 ttl=52 time=172 ms
64 bytes from 203-210-4-091.static.pccw-hkt.com (203.210.4.91): icmp_seq=36 ttl=52 time=172 ms
64 bytes from 203-210-4-091.static.pccw-hkt.com (203.210.4.91): icmp_seq=36 ttl=52 time=172 ms
64 bytes from 203-210-4-091.static.pccw-hkt.com (203.210.4.91): icmp_seq=36 ttl=52 time=172 ms
64 bytes from 203-210-4-091.static.pccw-hkt.com (203.210.4.91): icmp_seq=36 ttl=52 time=172 ms
64 bytes from 203-210-4-091.static.pccw-hkt.com (203.210.4.91): icmp_seq=36 ttl=52 time=172 ms
64 bytes from 203-210-4-091.static.pccw-hkt.com (203.210.4.91): icmp_seq=36 ttl=52 time=172 ms
64 bytes from 203-210-4-091.static.pccw-hkt.com (203.210.4.91): icmp_seq=36 ttl=52 time=172 ms
64 bytes from 203-210-4-091.static.pccw-hkt.com (203.210.4.91): icmp_seq=36 ttl=52 time=172 ms
64 bytes from 203-210-4-091.static.pccw-hkt.com (203.210.4.91): icmp_seq=36 ttl=52 time=172 ms
64 bytes from 203-210-4-091.static.pccw-hkt.com (203.210.4.91): icmp_seq=36 ttl=52 time=172 ms
64 bytes from 203-210-4-091.static.pccw-hkt.com (203.210.4.91): icmp_seq=36 ttl=52 time=172 ms
64 bytes from 203-210-4-091.static.pccw-hkt.com (203.210.4.91): icmp_seq=36 ttl=52 time=172 ms
64 bytes from 203-210-4-091.static.pccw-hkt.com (203.210.4.91): icmp_seq=36 ttl=52 time=172 ms
64 bytes from 203-210-4-091.static.pccw-hkt.com (203.210.4.91): icmp_seq=36 ttl=52 time=172 ms
64 bytes from 203-210-4-091.static.pccw-hkt.com (203.210.4.91): icmp_seq=37 ttl=52 time=172 ms
64 bytes from 203-210-4-091.static.pccw-hkt.com (203.210.4.91): icmp_seq=37 ttl=52 time=172 ms
64 bytes from 203-210-4-091.static.pccw-hkt.com (203.210.4.91): icmp_seq=37 ttl=52 time=172 ms
64 bytes from 203-210-4-091.static.pccw-hkt.com (203.210.4.91): icmp_seq=37 ttl=52 time=172 ms
64 bytes from 203-210-4-091.static.pccw-hkt.com (203.210.4.91): icmp_seq=37 ttl=52 time=172 ms
64 bytes from 203-210-4-091.static.pccw-hkt.com (203.210.4.91): icmp_seq=37 ttl=52 time=172 ms
64 bytes from 203-210-4-091.static.pccw-hkt.com (203.210.4.91): icmp_seq=37 ttl=52 time=172 ms
64 bytes from 203-210-4-091.static.pccw-hkt.com (203.210.4.91): icmp_seq=37 ttl=52 time=172 ms
64 bytes from 203-210-4-091.static.pccw-hkt.com (203.210.4.91): icmp_seq=37 ttl=52 time=172 ms
64 bytes from 203-210-4-091.static.pccw-hkt.com (203.210.4.91): icmp_seq=37 ttl=52 time=172 ms
64 bytes from 203-210-4-091.static.pccw-hkt.com (203.210.4.91): icmp_seq=37 ttl=52 time=172 ms
64 bytes from 203-210-4-091.static.pccw-hkt.com (203.210.4.91): icmp_seq=37 ttl=52 time=172 ms
64 bytes from 203-210-4-091.static.pccw-hkt.com (203.210.4.91): icmp_seq=37 ttl=52 time=172 ms
64 bytes from 203-210-4-091.static.pccw-hkt.com (203.210.4.91): icmp_seq=37 ttl=52 time=172 ms
64 bytes from 203-210-4-091.static.pccw-hkt.com (203.210.4.91): icmp_seq=37 ttl=52 time=172 ms
64 bytes from 203-210-4-091.static.pccw-hkt.com (203.210.4.91): icmp_seq=37 ttl=52 time=172 ms
64 bytes from 203-210-4-091.static.pccw-hkt.com (203.210.4.91): icmp_seq=37 ttl=52 time=172 ms
64 bytes from 203-210-4-091.static.pccw-hkt.com (203.210.4.91): icmp_seq=37 ttl=52 time=172 ms
64 bytes from 203-210-4-091.static.pccw-hkt.com (203.210.4.91): icmp_seq=37 ttl=52 time=172 ms
64 bytes from 203-210-4-091.static.pccw-hkt.com (203.210.4.91): icmp_seq=37 ttl=52 time=172 ms
64 bytes from 203-210-4-091.static.pccw-hkt.com (203.210.4.91): icmp_seq=38 ttl=52 time=172 ms
64 bytes from 203-210-4-091.static.pccw-hkt.com (203.210.4.91): icmp_seq=38 ttl=52 time=172 ms
64 bytes from 203-210-4-091.static.pccw-hkt.com (203.210.4.91): icmp_seq=38 ttl=52 time=172 ms
64 bytes from 203-210-4-091.static.pccw-hkt.com (203.210.4.91): icmp_seq=38 ttl=52 time=172 ms
64 bytes from 203-210-4-091.static.pccw-hkt.com (203.210.4.91): icmp_seq=38 ttl=52 time=172 ms
64 bytes from 203-210-4-091.static.pccw-hkt.com (203.210.4.91): icmp_seq=38 ttl=52 time=172 ms
64 bytes from 203-210-4-091.static.pccw-hkt.com (203.210.4.91): icmp_seq=38 ttl=52 time=172 ms
64 bytes from 203-210-4-091.static.pccw-hkt.com (203.210.4.91): icmp_seq=38 ttl=52 time=172 ms
64 bytes from 203-210-4-091.static.pccw-hkt.com (203.210.4.91): icmp_seq=38 ttl=52 time=172 ms
64 bytes from 203-210-4-091.static.pccw-hkt.com (203.210.4.91): icmp_seq=38 ttl=52 time=172 ms
64 bytes from 203-210-4-091.static.pccw-hkt.com (203.210.4.91): icmp_seq=38 ttl=52 time=172 ms
64 bytes from 203-210-4-091.static.pccw-hkt.com (203.210.4.91): icmp_seq=38 ttl=52 time=172 ms
64 bytes from 203-210-4-091.static.pccw-hkt.com (203.210.4.91): icmp_seq=38 ttl=52 time=172 ms
64 bytes from 203-210-4-091.static.pccw-hkt.com (203.210.4.91): icmp_seq=38 ttl=52 time=172 ms
64 bytes from 203-210-4-091.static.pccw-hkt.com (203.210.4.91): icmp_seq=38 ttl=52 time=172 ms
64 bytes from 203-210-4-091.static.pccw-hkt.com (203.210.4.91): icmp_seq=38 ttl=52 time=172 ms
64 bytes from 203-210-4-091.static.pccw-hkt.com (203.210.4.91): icmp_seq=38 ttl=52 time=172 ms
64 bytes from 203-210-4-091.static.pccw-hkt.com (203.210.4.91): icmp_seq=38 ttl=52 time=172 ms
64 bytes from 203-210-4-091.static.pccw-hkt.com (203.210.4.91): icmp_seq=38 ttl=52 time=172 ms
64 bytes from 203-210-4-091.static.pccw-hkt.com (203.210.4.91): icmp_seq=38 ttl=52 time=172 ms
64 bytes from 203-210-4-091.static.pccw-hkt.com (203.210.4.91): icmp_seq=39 ttl=52 time=172 ms
64 bytes from 203-210-4-091.static.pccw-hkt.com (203.210.4.91): icmp_seq=39 ttl=52 time=172 ms
64 bytes from 203-210-4-091.static.pccw-hkt.com (203.210.4.91): icmp_seq=39 ttl=52 time=172 ms
64 bytes from 203-210-4-091.static.pccw-hkt.com (203.210.4.91): icmp_seq=39 ttl=52 time=172 ms
64 bytes from 203-210-4-091.static.pccw-hkt.com (203.210.4.91): icmp_seq=39 ttl=52 time=172 ms
64 bytes from 203-210-4-091.static.pccw-hkt.com (203.210.4.91): icmp_seq=39 ttl=52 time=172 ms
64 bytes from 203-210-4-091.static.pccw-hkt.com (203.210.4.91): icmp_seq=39 ttl=52 time=172 ms
64 bytes from 203-210-4-091.static.pccw-hkt.com (203.210.4.91): icmp_seq=39 ttl=52 time=172 ms
64 bytes from 203-210-4-091.static.pccw-hkt.com (203.210.4.91): icmp_seq=39 ttl=52 time=172 ms
64 bytes from 203-210-4-091.static.pccw-hkt.com (203.210.4.91): icmp_seq=39 ttl=52 time=172 ms
64 bytes from 203-210-4-091.static.pccw-hkt.com (203.210.4.91): icmp_seq=39 ttl=52 time=172 ms
64 bytes from 203-210-4-091.static.pccw-hkt.com (203.210.4.91): icmp_seq=39 ttl=52 time=172 ms
64 bytes from 203-210-4-091.static.pccw-hkt.com (203.210.4.91): icmp_seq=39 ttl=52 time=172 ms
64 bytes from 203-210-4-091.static.pccw-hkt.com (203.210.4.91): icmp_seq=39 ttl=52 time=172 ms
64 bytes from 203-210-4-091.static.pccw-hkt.com (203.210.4.91): icmp_seq=39 ttl=52 time=172 ms
64 bytes from 203-210-4-091.static.pccw-hkt.com (203.210.4.91): icmp_seq=39 ttl=52 time=172 ms
64 bytes from 203-210-4-091.static.pccw-hkt.com (203.210.4.91): icmp_seq=39 ttl=52 time=172 ms
64 bytes from 203-210-4-091.static.pccw-hkt.com (203.210.4.91): icmp_seq=39 ttl=52 time=172 ms
64 bytes from 203-210-4-091.static.pccw-hkt.com (203.210.4.91): icmp_seq=39 ttl=52 time=172 ms
64 bytes from 203-210-4-091.static.pccw-hkt.com (203.210.4.91): icmp_seq=39 ttl=52 time=172 ms
64 bytes from 203-210-4-091.static.pccw-hkt.com (203.210.4.91): icmp_seq=40 ttl=52 time=172 ms
64 bytes from 203-210-4-091.static.pccw-hkt.com (203.210.4.91): icmp_seq=40 ttl=52 time=172 ms
64 bytes from 203-210-4-091.static.pccw-hkt.com (203.210.4.91): icmp_seq=40 ttl=52 time=172 ms
64 bytes from 203-210-4-091.static.pccw-hkt.com (203.210.4.91): icmp_seq=40 ttl=52 time=172 ms
64 bytes from 203-210-4-091.static.pccw-hkt.com (203.210.4.91): icmp_seq=40 ttl=52 time=172 ms
64 bytes from 203-210-4-091.static.pccw-hkt.com (203.210.4.91): icmp_seq=40 ttl=52 time=172 ms
64 bytes from 203-210-4-091.static.pccw-hkt.com (203.210.4.91): icmp_seq=40 ttl=52 time=172 ms
64 bytes from 203-210-4-091.static.pccw-hkt.com (203.210.4.91): icmp_seq=40 ttl=52 time=172 ms
64 bytes from 203-210-4-091.static.pccw-hkt.com (203.210.4.91): icmp_seq=40 ttl=52 time=172 ms
64 bytes from 203-210-4-091.static.pccw-hkt.com (203.210.4.91): icmp_seq=40 ttl=52 time=172 ms
64 bytes from 203-210-4-091.static.pccw-hkt.com (203.210.4.91): icmp_seq=40 ttl=52 time=172 ms
64 bytes from 203-210-4-091.static.pccw-hkt.com (203.210.4.91): icmp_seq=40 ttl=52 time=172 ms
64 bytes from 203-210-4-091.static.pccw-hkt.com (203.210.4.91): icmp_seq=40 ttl=52 time=172 ms
64 bytes from 203-210-4-091.static.pccw-hkt.com (203.210.4.91): icmp_seq=40 ttl=52 time=172 ms
64 bytes from 203-210-4-091.static.pccw-hkt.com (203.210.4.91): icmp_seq=40 ttl=52 time=172 ms
64 bytes from 203-210-4-091.static.pccw-hkt.com (203.210.4.91): icmp_seq=40 ttl=52 time=172 ms
64 bytes from 203-210-4-091.static.pccw-hkt.com (203.210.4.91): icmp_seq=40 ttl=52 time=172 ms
64 bytes from 203-210-4-091.static.pccw-hkt.com (203.210.4.91): icmp_seq=40 ttl=52 time=172 ms
64 bytes from 203-210-4-091.static.pccw-hkt.com (203.210.4.91): icmp_seq=40 ttl=52 time=172 ms
64 bytes from 203-210-4-091.static.pccw-hkt.com (203.210.4.91): icmp_seq=40 ttl=52 time=172 ms
64 bytes from 203-210-4-091.static.pccw-hkt.com (203.210.4.91): icmp_seq=41 ttl=52 time=172 ms
64 bytes from 203-210-4-091.static.pccw-hkt.com (203.210.4.91): icmp_seq=41 ttl=52 time=172 ms
64 bytes from 203-210-4-091.static.pccw-hkt.com (203.210.4.91): icmp_seq=41 ttl=52 time=172 ms
64 bytes from 203-210-4-091.static.pccw-hkt.com (203.210.4.91): icmp_seq=41 ttl=52 time=172 ms
64 bytes from 203-210-4-091.static.pccw-hkt.com (203.210.4.91): icmp_seq=41 ttl=52 time=172 ms
64 bytes from 203-210-4-091.static.pccw-hkt.com (203.210.4.91): icmp_seq=41 ttl=52 time=172 ms
64 bytes from 203-210-4-091.static.pccw-hkt.com (203.210.4.91): icmp_seq=41 ttl=52 time=172 ms
64 bytes from 203-210-4-091.static.pccw-hkt.com (203.210.4.91): icmp_seq=41 ttl=52 time=172 ms
64 bytes from 203-210-4-091.static.pccw-hkt.com (203.210.4.91): icmp_seq=41 ttl=52 time=172 ms
64 bytes from 203-210-4-091.static.pccw-hkt.com (203.210.4.91): icmp_seq=41 ttl=52 time=172 ms
64 bytes from 203-210-4-091.static.pccw-hkt.com (203.210.4.91): icmp_seq=41 ttl=52 time=172 ms
64 bytes from 203-210-4-091.static.pccw-hkt.com (203.210.4.91): icmp_seq=41 ttl=52 time=172 ms
64 bytes from 203-210-4-091.static.pccw-hkt.com (203.210.4.91): icmp_seq=41 ttl=52 time=172 ms
64 bytes from 203-210-4-091.static.pccw-hkt.com (203.210.4.91): icmp_seq=41 ttl=52 time=172 ms
64 bytes from 203-210-4-091.static.pccw-hkt.com (203.210.4.91): icmp_seq=41 ttl=52 time=172 ms
64 bytes from 203-210-4-091.static.pccw-hkt.com (203.210.4.91): icmp_seq=41 ttl=52 time=172 ms
64 bytes from 203-210-4-091.static.pccw-hkt.com (203.210.4.91): icmp_seq=41 ttl=52 time=172 ms
64 bytes from 203-210-4-091.static.pccw-hkt.com (203.210.4.91): icmp_seq=41 ttl=52 time=172 ms
64 bytes from 203-210-4-091.static.pccw-hkt.com (203.210.4.91): icmp_seq=41 ttl=52 time=172 ms
64 bytes from 203-210-4-091.static.pccw-hkt.com (203.210.4.91): icmp_seq=41 ttl=52 time=172 ms
64 bytes from 203-210-4-091.static.pccw-hkt.com (203.210.4.91): icmp_seq=42 ttl=52 time=172 ms
64 bytes from 203-210-4-091.static.pccw-hkt.com (203.210.4.91): icmp_seq=42 ttl=52 time=172 ms
64 bytes from 203-210-4-091.static.pccw-hkt.com (203.210.4.91): icmp_seq=42 ttl=52 time=172 ms
64 bytes from 203-210-4-091.static.pccw-hkt.com (203.210.4.91): icmp_seq=42 ttl=52 time=172 ms
64 bytes from 203-210-4-091.static.pccw-hkt.com (203.210.4.91): icmp_seq=42 ttl=52 time=172 ms
64 bytes from 203-210-4-091.static.pccw-hkt.com (203.210.4.91): icmp_seq=42 ttl=52 time=172 ms
64 bytes from 203-210-4-091.static.pccw-hkt.com (203.210.4.91): icmp_seq=42 ttl=52 time=172 ms
64 bytes from 203-210-4-091.static.pccw-hkt.com (203.210.4.91): icmp_seq=42 ttl=52 time=172 ms
64 bytes from 203-210-4-091.static.pccw-hkt.com (203.210.4.91): icmp_seq=42 ttl=52 time=172 ms
64 bytes from 203-210-4-091.static.pccw-hkt.com (203.210.4.91): icmp_seq=42 ttl=52 time=172 ms
64 bytes from 203-210-4-091.static.pccw-hkt.com (203.210.4.91): icmp_seq=42 ttl=52 time=172 ms
64 bytes from 203-210-4-091.static.pccw-hkt.com (203.210.4.91): icmp_seq=42 ttl=52 time=172 ms
64 bytes from 203-210-4-091.static.pccw-hkt.com (203.210.4.91): icmp_seq=42 ttl=52 time=172 ms
64 bytes from 203-210-4-091.static.pccw-hkt.com (203.210.4.91): icmp_seq=42 ttl=52 time=172 ms
64 bytes from 203-210-4-091.static.pccw-hkt.com (203.210.4.91): icmp_seq=42 ttl=52 time=172 ms
64 bytes from 203-210-4-091.static.pccw-hkt.com (203.210.4.91): icmp_seq=42 ttl=52 time=172 ms
64 bytes from 203-210-4-091.static.pccw-hkt.com (203.210.4.91): icmp_seq=42 ttl=52 time=172 ms
64 bytes from 203-210-4-091.static.pccw-hkt.com (203.210.4.91): icmp_seq=42 ttl=52 time=172 ms
64 bytes from 203-210-4-091.static.pccw-hkt.com (203.210.4.91): icmp_seq=42 ttl=52 time=172 ms
64 bytes from 203-210-4-091.static.pccw-hkt.com (203.210.4.91): icmp_seq=42 ttl=52 time=172 ms
64 bytes from 203-210-4-091.static.pccw-hkt.com (203.210.4.91): icmp_seq=43 ttl=52 time=172 ms
64 bytes from 203-210-4-091.static.pccw-hkt.com (203.210.4.91): icmp_seq=43 ttl=52 time=172 ms
64 bytes from 203-210-4-091.static.pccw-hkt.com (203.210.4.91): icmp_seq=43 ttl=52 time=172 ms
64 bytes from 203-210-4-091.static.pccw-hkt.com (203.210.4.91): icmp_seq=43 ttl=52 time=172 ms
64 bytes from 203-210-4-091.static.pccw-hkt.com (203.210.4.91): icmp_seq=43 ttl=52 time=172 ms
64 bytes from 203-210-4-091.static.pccw-hkt.com (203.210.4.91): icmp_seq=43 ttl=52 time=172 ms
64 bytes from 203-210-4-091.static.pccw-hkt.com (203.210.4.91): icmp_seq=43 ttl=52 time=172 ms
64 bytes from 203-210-4-091.static.pccw-hkt.com (203.210.4.91): icmp_seq=43 ttl=52 time=172 ms
64 bytes from 203-210-4-091.static.pccw-hkt.com (203.210.4.91): icmp_seq=43 ttl=52 time=172 ms
64 bytes from 203-210-4-091.static.pccw-hkt.com (203.210.4.91): icmp_seq=43 ttl=52 time=172 ms
64 bytes from 203-210-4-091.static.pccw-hkt.com (203.210.4.91): icmp_seq=43 ttl=52 time=172 ms
64 bytes from 203-210-4-091.static.pccw-hkt.com (203.210.4.91): icmp_seq=43 ttl=52 time=172 ms
64 bytes from 203-210-4-091.static.pccw-hkt.com (203.210.4.91): icmp_seq=43 ttl=52 time=172 ms
64 bytes from 203-210-4-091.static.pccw-hkt.com (203.210.4.91): icmp_seq=43 ttl=52 time=172 ms
64 bytes from 203-210-4-091.static.pccw-hkt.com (203.210.4.91): icmp_seq=43 ttl=52 time=172 ms
64 bytes from 203-210-4-091.static.pccw-hkt.com (203.210.4.91): icmp_seq=43 ttl=52 time=172 ms
64 bytes from 203-210-4-091.static.pccw-hkt.com (203.210.4.91): icmp_seq=43 ttl=52 time=172 ms
64 bytes from 203-210-4-091.static.pccw-hkt.com (203.210.4.91): icmp_seq=43 ttl=52 time=172 ms
64 bytes from 203-210-4-091.static.pccw-hkt.com (203.210.4.91): icmp_seq=43 ttl=52 time=172 ms
64 bytes from 203-210-4-091.static.pccw-hkt.com (203.210.4.91): icmp_seq=43 ttl=52 time=172 ms
64 bytes from 203-210-4-091.static.pccw-hkt.com (203.210.4.91): icmp_seq=44 ttl=52 time=172 ms
64 bytes from 203-210-4-091.static.pccw-hkt.com (203.210.4.91): icmp_seq=44 ttl=52 time=172 ms
64 bytes from 203-210-4-091.static.pccw-hkt.com (203.210.4.91): icmp_seq=44 ttl=52 time=172 ms
64 bytes from 203-210-4-091.static.pccw-hkt.com (203.210.4.91): icmp_seq=44 ttl=52 time=172 ms
64 bytes from 203-210-4-091.static.pccw-hkt.com (203.210.4.91): icmp_seq=44 ttl=52 time=172 ms
64 bytes from 203-210-4-091.static.pccw-hkt.com (203.210.4.91): icmp_seq=44 ttl=52 time=172 ms
64 bytes from 203-210-4-091.static.pccw-hkt.com (203.210.4.91): icmp_seq=44 ttl=52 time=172 ms
64 bytes from 203-210-4-091.static.pccw-hkt.com (203.210.4.91): icmp_seq=44 ttl=52 time=172 ms
64 bytes from 203-210-4-091.static.pccw-hkt.com (203.210.4.91): icmp_seq=44 ttl=52 time=172 ms
64 bytes from 203-210-4-091.static.pccw-hkt.com (203.210.4.91): icmp_seq=44 ttl=52 time=172 ms
64 bytes from 203-210-4-091.static.pccw-hkt.com (203.210.4.91): icmp_seq=44 ttl=52 time=172 ms
64 bytes from 203-210-4-091.static.pccw-hkt.com (203.210.4.91): icmp_seq=44 ttl=52 time=172 ms
64 bytes from 203-210-4-091.static.pccw-hkt.com (203.210.4.91): icmp_seq=44 ttl=52 time=172 ms
64 bytes from 203-210-4-091.static.pccw-hkt.com (203.210.4.91): icmp_seq=44 ttl=52 time=172 ms
64 bytes from 203-210-4-091.static.pccw-hkt.com (203.210.4.91): icmp_seq=44 ttl=52 time=172 ms
64 bytes from 203-210-4-091.static.pccw-hkt.com (203.210.4.91): icmp_seq=44 ttl=52 time=172 ms
64 bytes from 203-210-4-091.static.pccw-hkt.com (203.210.4.91): icmp_seq=44 ttl=52 time=172 ms
64 bytes from 203-210-4-091.static.pccw-hkt.com (203.210.4.91): icmp_seq=44 ttl=52 time=172 ms
64 bytes from 203-210-4-091.static.pccw-hkt.com (203.210.4.91): icmp_seq=44 ttl=52 time=172 ms
64 bytes from 203-210-4-091.static.pccw-hkt.com (203.210.4.91): icmp_seq=44 ttl=52 time=172 ms
64 bytes from 203-210-4-091.static.pccw-hkt.com (203.210.4.91): icmp_seq=45 ttl=52 time=172 ms
64 bytes from 203-210-4-091.static.pccw-hkt.com (203.210.4.91): icmp_seq=45 ttl=52 time=172 ms
64 bytes from 203-210-4-091.static.pccw-hkt.com (203.210.4.91): icmp_seq=45 ttl=52 time=172 ms
64 bytes from 203-210-4-091.static.pccw-hkt.com (203.210.4.91): icmp_seq=45 ttl=52 time=172 ms
64 bytes from 203-210-4-091.static.pccw-hkt.com (203.210.4.91): icmp_seq=45 ttl=52 time=172 ms
64 bytes from 203-210-4-091.static.pccw-hkt.com (203.210.4.91): icmp_seq=45 ttl=52 time=172 ms
64 bytes from 203-210-4-091.static.pccw-hkt.com (203.210.4.91): icmp_seq=45 ttl=52 time=172 ms
64 bytes from 203-210-4-091.static.pccw-hkt.com (203.210.4.91): icmp_seq=45 ttl=52 time=172 ms
64 bytes from 203-210-4-091.static.pccw-hkt.com (203.210.4.91): icmp_seq=45 ttl=52 time=172 ms
64 bytes from 203-210-4-091.static.pccw-hkt.com (203.210.4.91): icmp_seq=45 ttl=52 time=172 ms
64 bytes from 203-210-4-091.static.pccw-hkt.com (203.210.4.91): icmp_seq=45 ttl=52 time=172 ms
64 bytes from 203-210-4-091.static.pccw-hkt.com (203.210.4.91): icmp_seq=45 ttl=52 time=172 ms
64 bytes from 203-210-4-091.static.pccw-hkt.com (203.210.4.91): icmp_seq=45 ttl=52 time=172 ms
64 bytes from 203-210-4-091.static.pccw-hkt.com (203.210.4.91): icmp_seq=45 ttl=52 time=172 ms
64 bytes from 203-210-4-091.static.pccw-hkt.com (203.210.4.91): icmp_seq=45 ttl=52 time=172 ms
64 bytes from 203-210-4-091.static.pccw-hkt.com (203.210.4.91): icmp_seq=45 ttl=52 time=172 ms
64 bytes from 203-210-4-091.static.pccw-hkt.com (203.210.4.91): icmp_seq=45 ttl=52 time=172 ms
64 bytes from 203-210-4-091.static.pccw-hkt.com (203.210.4.91): icmp_seq=45 ttl=52 time=172 ms
64 bytes from 203-210-4-091.static.pccw-hkt.com (203.210.4.91): icmp_seq=45 ttl=52 time=172 ms
64 bytes from 203-210-4-091.static.pccw-hkt.com (203.210.4.91): icmp_seq=45 ttl=52 time=172 ms
64 bytes from 203-210-4-091.static.pccw-hkt.com (203.210.4.91): icmp_seq=46 ttl=52 time=179 ms
64 bytes from 203-210-4-091.static.pccw-hkt.com (203.210.4.91): icmp_seq=46 ttl=52 time=179 ms
64 bytes from 203-210-4-091.static.pccw-hkt.com (203.210.4.91): icmp_seq=46 ttl=52 time=179 ms
64 bytes from 203-210-4-091.static.pccw-hkt.com (203.210.4.91): icmp_seq=46 ttl=52 time=179 ms
64 bytes from 203-210-4-091.static.pccw-hkt.com (203.210.4.91): icmp_seq=46 ttl=52 time=179 ms
64 bytes from 203-210-4-091.static.pccw-hkt.com (203.210.4.91): icmp_seq=46 ttl=52 time=179 ms
64 bytes from 203-210-4-091.static.pccw-hkt.com (203.210.4.91): icmp_seq=46 ttl=52 time=179 ms
64 bytes from 203-210-4-091.static.pccw-hkt.com (203.210.4.91): icmp_seq=46 ttl=52 time=179 ms
64 bytes from 203-210-4-091.static.pccw-hkt.com (203.210.4.91): icmp_seq=46 ttl=52 time=179 ms
64 bytes from 203-210-4-091.static.pccw-hkt.com (203.210.4.91): icmp_seq=46 ttl=52 time=179 ms
64 bytes from 203-210-4-091.static.pccw-hkt.com (203.210.4.91): icmp_seq=46 ttl=52 time=179 ms
64 bytes from 203-210-4-091.static.pccw-hkt.com (203.210.4.91): icmp_seq=46 ttl=52 time=179 ms
64 bytes from 203-210-4-091.static.pccw-hkt.com (203.210.4.91): icmp_seq=46 ttl=52 time=179 ms
64 bytes from 203-210-4-091.static.pccw-hkt.com (203.210.4.91): icmp_seq=46 ttl=52 time=179 ms
64 bytes from 203-210-4-091.static.pccw-hkt.com (203.210.4.91): icmp_seq=46 ttl=52 time=179 ms
64 bytes from 203-210-4-091.static.pccw-hkt.com (203.210.4.91): icmp_seq=46 ttl=52 time=179 ms
64 bytes from 203-210-4-091.static.pccw-hkt.com (203.210.4.91): icmp_seq=46 ttl=52 time=179 ms
64 bytes from 203-210-4-091.static.pccw-hkt.com (203.210.4.91): icmp_seq=46 ttl=52 time=179 ms
64 bytes from 203-210-4-091.static.pccw-hkt.com (203.210.4.91): icmp_seq=46 ttl=52 time=179 ms
64 bytes from 203-210-4-091.static.pccw-hkt.com (203.210.4.91): icmp_seq=46 ttl=52 time=179 ms
64 bytes from 203-210-4-091.static.pccw-hkt.com (203.210.4.91): icmp_seq=47 ttl=52 time=172 ms
64 bytes from 203-210-4-091.static.pccw-hkt.com (203.210.4.91): icmp_seq=47 ttl=52 time=172 ms
64 bytes from 203-210-4-091.static.pccw-hkt.com (203.210.4.91): icmp_seq=47 ttl=52 time=172 ms
64 bytes from 203-210-4-091.static.pccw-hkt.com (203.210.4.91): icmp_seq=47 ttl=52 time=172 ms
64 bytes from 203-210-4-091.static.pccw-hkt.com (203.210.4.91): icmp_seq=47 ttl=52 time=172 ms
64 bytes from 203-210-4-091.static.pccw-hkt.com (203.210.4.91): icmp_seq=47 ttl=52 time=172 ms
64 bytes from 203-210-4-091.static.pccw-hkt.com (203.210.4.91): icmp_seq=47 ttl=52 time=172 ms
64 bytes from 203-210-4-091.static.pccw-hkt.com (203.210.4.91): icmp_seq=47 ttl=52 time=172 ms
64 bytes from 203-210-4-091.static.pccw-hkt.com (203.210.4.91): icmp_seq=47 ttl=52 time=172 ms
64 bytes from 203-210-4-091.static.pccw-hkt.com (203.210.4.91): icmp_seq=47 ttl=52 time=172 ms
64 bytes from 203-210-4-091.static.pccw-hkt.com (203.210.4.91): icmp_seq=47 ttl=52 time=172 ms
64 bytes from 203-210-4-091.static.pccw-hkt.com (203.210.4.91): icmp_seq=47 ttl=52 time=172 ms
64 bytes from 203-210-4-091.static.pccw-hkt.com (203.210.4.91): icmp_seq=47 ttl=52 time=172 ms
64 bytes from 203-210-4-091.static.pccw-hkt.com (203.210.4.91): icmp_seq=47 ttl=52 time=172 ms
64 bytes from 203-210-4-091.static.pccw-hkt.com (203.210.4.91): icmp_seq=47 ttl=52 time=172 ms
64 bytes from 203-210-4-091.static.pccw-hkt.com (203.210.4.91): icmp_seq=47 ttl=52 time=172 ms
64 bytes from 203-210-4-091.static.pccw-hkt.com (203.210.4.91): icmp_seq=47 ttl=52 time=172 ms
64 bytes from 203-210-4-091.static.pccw-hkt.com (203.210.4.91): icmp_seq=47 ttl=52 time=172 ms
64 bytes from 203-210-4-091.static.pccw-hkt.com (203.210.4.91): icmp_seq=47 ttl=52 time=172 ms
64 bytes from 203-210-4-091.static.pccw-hkt.com (203.210.4.91): icmp_seq=47 ttl=52 time=172 ms
64 bytes from 203-210-4-091.static.pccw-hkt.com (203.210.4.91): icmp_seq=48 ttl=52 time=172 ms
64 bytes from 203-210-4-091.static.pccw-hkt.com (203.210.4.91): icmp_seq=48 ttl=52 time=172 ms
64 bytes from 203-210-4-091.static.pccw-hkt.com (203.210.4.91): icmp_seq=48 ttl=52 time=172 ms
64 bytes from 203-210-4-091.static.pccw-hkt.com (203.210.4.91): icmp_seq=48 ttl=52 time=172 ms
64 bytes from 203-210-4-091.static.pccw-hkt.com (203.210.4.91): icmp_seq=48 ttl=52 time=172 ms
64 bytes from 203-210-4-091.static.pccw-hkt.com (203.210.4.91): icmp_seq=48 ttl=52 time=172 ms
64 bytes from 203-210-4-091.static.pccw-hkt.com (203.210.4.91): icmp_seq=48 ttl=52 time=172 ms
64 bytes from 203-210-4-091.static.pccw-hkt.com (203.210.4.91): icmp_seq=48 ttl=52 time=172 ms
64 bytes from 203-210-4-091.static.pccw-hkt.com (203.210.4.91): icmp_seq=48 ttl=52 time=172 ms
64 bytes from 203-210-4-091.static.pccw-hkt.com (203.210.4.91): icmp_seq=48 ttl=52 time=172 ms
64 bytes from 203-210-4-091.static.pccw-hkt.com (203.210.4.91): icmp_seq=48 ttl=52 time=172 ms
64 bytes from 203-210-4-091.static.pccw-hkt.com (203.210.4.91): icmp_seq=48 ttl=52 time=172 ms
64 bytes from 203-210-4-091.static.pccw-hkt.com (203.210.4.91): icmp_seq=48 ttl=52 time=172 ms
64 bytes from 203-210-4-091.static.pccw-hkt.com (203.210.4.91): icmp_seq=48 ttl=52 time=172 ms
64 bytes from 203-210-4-091.static.pccw-hkt.com (203.210.4.91): icmp_seq=48 ttl=52 time=172 ms
64 bytes from 203-210-4-091.static.pccw-hkt.com (203.210.4.91): icmp_seq=48 ttl=52 time=172 ms
64 bytes from 203-210-4-091.static.pccw-hkt.com (203.210.4.91): icmp_seq=48 ttl=52 time=172 ms
64 bytes from 203-210-4-091.static.pccw-hkt.com (203.210.4.91): icmp_seq=48 ttl=52 time=172 ms
64 bytes from 203-210-4-091.static.pccw-hkt.com (203.210.4.91): icmp_seq=48 ttl=52 time=172 ms
64 bytes from 203-210-4-091.static.pccw-hkt.com (203.210.4.91): icmp_seq=48 ttl=52 time=172 ms
64 bytes from 203-210-4-091.static.pccw-hkt.com (203.210.4.91): icmp_seq=49 ttl=52 time=172 ms
64 bytes from 203-210-4-091.static.pccw-hkt.com (203.210.4.91): icmp_seq=49 ttl=52 time=172 ms
64 bytes from 203-210-4-091.static.pccw-hkt.com (203.210.4.91): icmp_seq=49 ttl=52 time=172 ms
64 bytes from 203-210-4-091.static.pccw-hkt.com (203.210.4.91): icmp_seq=49 ttl=52 time=172 ms
64 bytes from 203-210-4-091.static.pccw-hkt.com (203.210.4.91): icmp_seq=49 ttl=52 time=172 ms
64 bytes from 203-210-4-091.static.pccw-hkt.com (203.210.4.91): icmp_seq=49 ttl=52 time=172 ms
64 bytes from 203-210-4-091.static.pccw-hkt.com (203.210.4.91): icmp_seq=49 ttl=52 time=172 ms
64 bytes from 203-210-4-091.static.pccw-hkt.com (203.210.4.91): icmp_seq=49 ttl=52 time=172 ms
64 bytes from 203-210-4-091.static.pccw-hkt.com (203.210.4.91): icmp_seq=49 ttl=52 time=172 ms
64 bytes from 203-210-4-091.static.pccw-hkt.com (203.210.4.91): icmp_seq=49 ttl=52 time=172 ms
64 bytes from 203-210-4-091.static.pccw-hkt.com (203.210.4.91): icmp_seq=49 ttl=52 time=172 ms
64 bytes from 203-210-4-091.static.pccw-hkt.com (203.210.4.91): icmp_seq=49 ttl=52 time=172 ms
64 bytes from 203-210-4-091.static.pccw-hkt.com (203.210.4.91): icmp_seq=49 ttl=52 time=172 ms
64 bytes from 203-210-4-091.static.pccw-hkt.com (203.210.4.91): icmp_seq=49 ttl=52 time=172 ms
64 bytes from 203-210-4-091.static.pccw-hkt.com (203.210.4.91): icmp_seq=49 ttl=52 time=172 ms
64 bytes from 203-210-4-091.static.pccw-hkt.com (203.210.4.91): icmp_seq=49 ttl=52 time=172 ms
64 bytes from 203-210-4-091.static.pccw-hkt.com (203.210.4.91): icmp_seq=49 ttl=52 time=172 ms
64 bytes from 203-210-4-091.static.pccw-hkt.com (203.210.4.91): icmp_seq=49 ttl=52 time=172 ms
64 bytes from 203-210-4-091.static.pccw-hkt.com (203.210.4.91): icmp_seq=49 ttl=52 time=172 ms
64 bytes from 203-210-4-091.static.pccw-hkt.com (203.210.4.91): icmp_seq=49 ttl=52 time=172 ms
64 bytes from 203-210-4-091.static.pccw-hkt.com (203.210.4.91): icmp_seq=50 ttl=52 time=172 ms
64 bytes from 203-210-4-091.static.pccw-hkt.com (203.210.4.91): icmp_seq=50 ttl=52 time=172 ms
64 bytes from 203-210-4-091.static.pccw-hkt.com (203.210.4.91): icmp_seq=50 ttl=52 time=172 ms
64 bytes from 203-210-4-091.static.pccw-hkt.com (203.210.4.91): icmp_seq=50 ttl=52 time=172 ms
64 bytes from 203-210-4-091.static.pccw-hkt.com (203.210.4.91): icmp_seq=50 ttl=52 time=172 ms
64 bytes from 203-210-4-091.static.pccw-hkt.com (203.210.4.91): icmp_seq=50 ttl=52 time=172 ms


64 bytes from 203-210-4-091.static.pccw-hkt.com (203.210.4.91): icmp_seq=50 ttl=52 time=172 ms





--- csl2.hkspeedtest.com ping statistics ---
50 packets transmitted, 50 received, 0% packet loss, time 49043ms
rtt min/avg/max/mdev = 171.559/172.418/179.718/1.216 ms
--- csl2.hkspeedtest.com ping statistics ---
50 packets transmitted, 50 received, 0% packet loss, time 49043ms
rtt min/avg/max/mdev = 171.601/172.323/179.861/1.256 ms
--- csl2.hkspeedtest.com ping statistics ---
50 packets transmitted, 50 received, 0% packet loss, time 49045ms
rtt min/avg/max/mdev = 171.733/172.419/179.850/1.199 ms
--- csl2.hkspeedtest.com ping statistics ---
50 packets transmitted, 50 received, 0% packet loss, time 49043ms
rtt min/avg/max/mdev = 171.597/172.362/179.656/1.207 ms
--- csl2.hkspeedtest.com ping statistics ---
50 packets transmitted, 50 received, 0% packet loss, time 49043ms
rtt min/avg/max/mdev = 171.617/172.386/179.914/1.175 ms
--- csl2.hkspeedtest.com ping statistics ---
50 packets transmitted, 50 received, 0% packet loss, time 49045ms
rtt min/avg/max/mdev = 171.666/172.446/179.710/1.180 ms
--- csl2.hkspeedtest.com ping statistics ---
50 packets transmitted, 50 received, 0% packet loss, time 49046ms
rtt min/avg/max/mdev = 171.688/172.431/179.812/1.143 ms
64 bytes from 203-210-4-091.static.pccw-hkt.com (203.210.4.91): icmp_seq=50 ttl=52 time=172 ms

--- csl2.hkspeedtest.com ping statistics ---
50 packets transmitted, 50 received, 0% packet loss, time 49044ms
rtt min/avg/max/mdev = 171.606/172.469/179.794/1.187 ms
64 bytes from 203-210-4-091.static.pccw-hkt.com (203.210.4.91): icmp_seq=50 ttl=52 time=172 ms

64 bytes from 203-210-4-091.static.pccw-hkt.com (203.210.4.91): icmp_seq=50 ttl=52 time=172 ms
64 bytes from 203-210-4-091.static.pccw-hkt.com (203.210.4.91): icmp_seq=50 ttl=52 time=172 ms
64 bytes from 203-210-4-091.static.pccw-hkt.com (203.210.4.91): icmp_seq=50 ttl=52 time=172 ms
64 bytes from 203-210-4-091.static.pccw-hkt.com (203.210.4.91): icmp_seq=50 ttl=52 time=172 ms




--- csl2.hkspeedtest.com ping statistics ---
50 packets transmitted, 50 received, 0% packet loss, time 49043ms
rtt min/avg/max/mdev = 171.556/172.406/179.695/1.162 ms
--- csl2.hkspeedtest.com ping statistics ---
50 packets transmitted, 50 received, 0% packet loss, time 49043ms
rtt min/avg/max/mdev = 171.671/172.399/179.680/1.144 ms
--- csl2.hkspeedtest.com ping statistics ---
50 packets transmitted, 50 received, 0% packet loss, time 49044ms
rtt min/avg/max/mdev = 171.686/172.426/179.675/1.203 ms
--- csl2.hkspeedtest.com ping statistics ---
50 packets transmitted, 50 received, 0% packet loss, time 49044ms
rtt min/avg/max/mdev = 171.644/172.465/179.925/1.135 ms
--- csl2.hkspeedtest.com ping statistics ---
50 packets transmitted, 50 received, 0% packet loss, time 49044ms
rtt min/avg/max/mdev = 171.706/172.394/179.819/1.185 ms
64 bytes from 203-210-4-091.static.pccw-hkt.com (203.210.4.91): icmp_seq=50 ttl=52 time=172 ms

--- csl2.hkspeedtest.com ping statistics ---
50 packets transmitted, 50 received, 0% packet loss, time 49044ms
rtt min/avg/max/mdev = 171.602/172.360/179.955/1.133 ms
64 bytes from 203-210-4-091.static.pccw-hkt.com (203.210.4.91): icmp_seq=50 ttl=52 time=172 ms

--- csl2.hkspeedtest.com ping statistics ---
50 packets transmitted, 50 received, 0% packet loss, time 49044ms
rtt min/avg/max/mdev = 171.685/172.403/179.766/1.101 ms
64 bytes from 203-210-4-091.static.pccw-hkt.com (203.210.4.91): icmp_seq=50 ttl=52 time=172 ms
64 bytes from 203-210-4-091.static.pccw-hkt.com (203.210.4.91): icmp_seq=50 ttl=52 time=172 ms
64 bytes from 203-210-4-091.static.pccw-hkt.com (203.210.4.91): icmp_seq=50 ttl=52 time=172 ms
64 bytes from 203-210-4-091.static.pccw-hkt.com (203.210.4.91): icmp_seq=50 ttl=52 time=172 ms




--- csl2.hkspeedtest.com ping statistics ---
50 packets transmitted, 50 received, 0% packet loss, time 49046ms
rtt min/avg/max/mdev = 171.664/172.398/179.568/1.117 ms
--- csl2.hkspeedtest.com ping statistics ---
50 packets transmitted, 50 received, 0% packet loss, time 49044ms
rtt min/avg/max/mdev = 171.643/172.436/179.829/1.201 ms
--- csl2.hkspeedtest.com ping statistics ---
50 packets transmitted, 50 received, 0% packet loss, time 49044ms
rtt min/avg/max/mdev = 171.671/172.424/179.841/1.196 ms
--- csl2.hkspeedtest.com ping statistics ---
50 packets transmitted, 50 received, 0% packet loss, time 49045ms
rtt min/avg/max/mdev = 171.685/172.438/179.670/1.081 ms
64 bytes from 203-210-4-091.static.pccw-hkt.com (203.210.4.91): icmp_seq=50 ttl=52 time=172 ms

--- csl2.hkspeedtest.com ping statistics ---
50 packets transmitted, 50 received, 0% packet loss, time 49046ms
rtt min/avg/max/mdev = 171.725/172.450/179.832/1.109 ms
