     1	293 
     2	294 
     3	294 
     4	298 
     5	368 
     6	441 
     7	515 
     8	608 
     9	689 
    10	714 
    11	741 
    12	745 
    13	738 
    14	744 
    15	745 
    16	753 
    17	748 
    18	742 
    19	754 
    20	743 
    21	751 
    22	752 
    23	750 
    24	747 
    25	743 
    26	744 
    27	757 
    28	752 
    29	743 
    30	720 
    31	694 
    32	683 
    33	661 
    34	638 
    35	607 
    36	582 
    37	562 
    38	542 
    39	515 
    40	492 
    41	463 
    42	441 
    43	421 
    44	398 
    45	382 
    46	359 
    47	342 
    48	330 
    49	319 
    50	316 
    51	333 
    52	359 
    53	413 
    54	440 
    55	515 
    56	569 
    57	602 
    58	649 
    59	663 
    60	694 
    61	716 
    62	750 
    63	751 
    64	748 
    65	747 
    66	750 
    67	756 
    68	758 
    69	767 
    70	758 
    71	748 
    72	746 
    73	757 
    74	759 
    75	755 
    76	762 
    77	746 
    78	754 
    79	741 
    80	735 
    81	706 
    82	683 
    83	682 
    84	661 
    85	632 
    86	596 
    87	571 
    88	557 
    89	525 
    90	500 
    91	464 
    92	444 
    93	424 
    94	393 
    95	369 
    96	355 
    97	338 
    98	329 
    99	314 
   100	311 
   101	305 
