     1	 97.3 
     2	 97.5 
     3	 65.6 
     4	 10.6 
     5	  6.0 
     6	  5.9 
     7	 52.1 
     8	 90.6 
     9	 91.3 
    10	 98.4 
    11	 90.4 
    12	 86.6 
    13	 88.8 
    14	 83.4 
    15	 85.5 
    16	 90.0 
    17	 86.1 
    18	 81.4 
    19	 78.6 
    20	 91.4 
    21	 66.1 
    22	 65.9 
    23	 76.9 
    24	 78.9 
    25	 69.0 
    26	 68.3 
    27	 25.7 
    28	  5.2 
    29	  8.0 
    30	  3.2 
    31	  8.4 
    32	  5.6 
    33	  3.2 
    34	 54.2 
    35	 79.6 
    36	 83.4 
    37	 86.4 
    38	 82.8 
    39	 86.4 
    40	 87.8 
    41	 86.7 
    42	 77.8 
    43	 90.4 
    44	 73.3 
    45	 63.0 
    46	 64.8 
    47	 58.6 
    48	 82.0 
    49	 79.2 
    50	 77.6 
    51	 84.5 
    52	 83.5 
    53	 78.1 
    54	 84.2 
    55	 84.2 
    56	 81.0 
    57	 84.5 
    58	 75.7 
    59	 87.7 
    60	 86.7 
    61	 82.3 
    62	 77.9 
    63	 87.5 
    64	 86.0 
    65	 93.4 
    66	 92.2 
    67	 85.3 
    68	 88.7 
    69	 98.9 
    70	 86.8 
    71	 91.0 
    72	 99.8 
    73	 93.9 
