Attaching to softwareoverhead_ping_17, softwareoverhead_ping_13, softwareoverhead_ping_2, softwareoverhead_ping_4, softwareoverhead_ping_18, softwareoverhead_ping_15, softwareoverhead_ping_22, softwareoverhead_ping_24, softwareoverhead_ping_10, softwareoverhead_ping_19, softwareoverhead_ping_14, softwareoverhead_ping_8, softwareoverhead_ping_3, softwareoverhead_ping_21, softwareoverhead_ping_5, softwareoverhead_ping_7, softwareoverhead_ping_16, softwareoverhead_ping_11, softwareoverhead_ping_9, softwareoverhead_ping_23, softwareoverhead_ping_1, softwareoverhead_ping_12, softwareoverhead_ping_20, softwareoverhead_ping_25, softwareoverhead_ping_6, softwareoverhead_ping_45, softwareoverhead_ping_29, softwareoverhead_ping_42, softwareoverhead_ping_46, softwareoverhead_ping_50, softwareoverhead_ping_34, softwareoverhead_ping_26, softwareoverhead_ping_31, softwareoverhead_ping_37, softwareoverhead_ping_30, softwareoverhead_ping_39, softwareoverhead_ping_49, softwareoverhead_ping_48, softwareoverhead_ping_44, softwareoverhead_ping_35, softwareoverhead_ping_43, softwareoverhead_ping_38, softwareoverhead_ping_28, softwareoverhead_ping_41, softwareoverhead_ping_33, softwareoverhead_ping_27, softwareoverhead_ping_47, softwareoverhead_ping_32, softwareoverhead_ping_36, softwareoverhead_ping_40
ping_17 | PING 216.58.195.238 (216.58.195.238): 56 data bytes
ping_4  | PING 216.58.195.238 (216.58.195.238): 56 data bytes
ping_17 | 64 bytes from 216.58.195.238: seq=0 ttl=53 time=15.586 ms
ping_4  | 64 bytes from 216.58.195.238: seq=0 ttl=53 time=13.101 ms
ping_17 | 64 bytes from 216.58.195.238: seq=1 ttl=53 time=13.483 ms
ping_13 | PING 216.58.195.238 (216.58.195.238): 56 data bytes
ping_4  | 64 bytes from 216.58.195.238: seq=1 ttl=53 time=13.503 ms
ping_18 | PING 216.58.195.238 (216.58.195.238): 56 data bytes
ping_17 | 64 bytes from 216.58.195.238: seq=2 ttl=53 time=13.425 ms
ping_13 | 64 bytes from 216.58.195.238: seq=0 ttl=53 time=13.124 ms
ping_17 | 64 bytes from 216.58.195.238: seq=3 ttl=53 time=13.489 ms
ping_4  | 64 bytes from 216.58.195.238: seq=2 ttl=53 time=13.246 ms
ping_17 | 64 bytes from 216.58.195.238: seq=4 ttl=53 time=13.281 ms
ping_17 | 64 bytes from 216.58.195.238: seq=5 ttl=53 time=13.272 ms
ping_13 | 64 bytes from 216.58.195.238: seq=1 ttl=53 time=13.353 ms
ping_15 | PING 216.58.195.238 (216.58.195.238): 56 data bytes
ping_4  | 64 bytes from 216.58.195.238: seq=3 ttl=53 time=13.069 ms
ping_17 | 64 bytes from 216.58.195.238: seq=6 ttl=53 time=13.243 ms
ping_4  | 64 bytes from 216.58.195.238: seq=4 ttl=53 time=13.175 ms
ping_17 | 64 bytes from 216.58.195.238: seq=7 ttl=53 time=13.389 ms
ping_17 | 
ping_17 | --- 216.58.195.238 ping statistics ---
ping_17 | 8 packets transmitted, 8 packets received, 0% packet loss
ping_17 | round-trip min/avg/max = 13.243/13.646/15.586 ms
ping_4  | 64 bytes from 216.58.195.238: seq=5 ttl=53 time=13.506 ms
ping_18 | 64 bytes from 216.58.195.238: seq=0 ttl=53 time=13.126 ms
ping_4  | 64 bytes from 216.58.195.238: seq=6 ttl=53 time=13.316 ms
ping_4  | 64 bytes from 216.58.195.238: seq=7 ttl=53 time=13.236 ms
ping_4  | 
ping_4  | --- 216.58.195.238 ping statistics ---
ping_4  | 8 packets transmitted, 8 packets received, 0% packet loss
ping_4  | round-trip min/avg/max = 13.069/13.269/13.506 ms
ping_22 | PING 216.58.195.238 (216.58.195.238): 56 data bytes
ping_15 | 64 bytes from 216.58.195.238: seq=0 ttl=53 time=13.151 ms
ping_15 | 64 bytes from 216.58.195.238: seq=1 ttl=53 time=13.216 ms
ping_2  | PING 216.58.195.238 (216.58.195.238): 56 data bytes
ping_2  | 64 bytes from 216.58.195.238: seq=0 ttl=53 time=13.173 ms
ping_13 | 64 bytes from 216.58.195.238: seq=2 ttl=53 time=13.280 ms
ping_13 | 64 bytes from 216.58.195.238: seq=3 ttl=53 time=13.502 ms
ping_15 | 64 bytes from 216.58.195.238: seq=2 ttl=53 time=13.215 ms
ping_22 | 64 bytes from 216.58.195.238: seq=0 ttl=53 time=13.058 ms
ping_13 | 64 bytes from 216.58.195.238: seq=4 ttl=53 time=13.520 ms
ping_18 | 64 bytes from 216.58.195.238: seq=1 ttl=53 time=13.308 ms
ping_2  | 64 bytes from 216.58.195.238: seq=1 ttl=53 time=13.200 ms
softwareoverhead_ping_4 exited with code 0
ping_22 | 64 bytes from 216.58.195.238: seq=1 ttl=53 time=13.213 ms
ping_15 | 64 bytes from 216.58.195.238: seq=3 ttl=53 time=13.478 ms
ping_22 | 64 bytes from 216.58.195.238: seq=2 ttl=53 time=13.536 ms
ping_2  | 64 bytes from 216.58.195.238: seq=2 ttl=53 time=13.312 ms
ping_13 | 64 bytes from 216.58.195.238: seq=5 ttl=53 time=13.234 ms
softwareoverhead_ping_17 exited with code 0
ping_22 | 64 bytes from 216.58.195.238: seq=3 ttl=53 time=13.269 ms
ping_18 | 64 bytes from 216.58.195.238: seq=2 ttl=53 time=13.442 ms
ping_22 | 64 bytes from 216.58.195.238: seq=4 ttl=53 time=13.393 ms
ping_24 | PING 216.58.195.238 (216.58.195.238): 56 data bytes
ping_18 | 64 bytes from 216.58.195.238: seq=3 ttl=53 time=13.051 ms
ping_24 | 64 bytes from 216.58.195.238: seq=0 ttl=53 time=13.119 ms
ping_13 | 64 bytes from 216.58.195.238: seq=6 ttl=53 time=13.376 ms
ping_2  | 64 bytes from 216.58.195.238: seq=3 ttl=53 time=13.198 ms
ping_22 | 64 bytes from 216.58.195.238: seq=5 ttl=53 time=13.228 ms
ping_24 | 64 bytes from 216.58.195.238: seq=1 ttl=53 time=13.417 ms
ping_2  | 64 bytes from 216.58.195.238: seq=4 ttl=53 time=13.044 ms
ping_22 | 64 bytes from 216.58.195.238: seq=6 ttl=53 time=13.244 ms
ping_18 | 64 bytes from 216.58.195.238: seq=4 ttl=53 time=13.742 ms
ping_13 | 64 bytes from 216.58.195.238: seq=7 ttl=53 time=13.366 ms
ping_13 | 
ping_13 | --- 216.58.195.238 ping statistics ---
ping_13 | 8 packets transmitted, 8 packets received, 0% packet loss
ping_13 | round-trip min/avg/max = 13.124/13.344/13.520 ms
ping_2  | 64 bytes from 216.58.195.238: seq=5 ttl=53 time=13.208 ms
ping_18 | 64 bytes from 216.58.195.238: seq=5 ttl=53 time=13.049 ms
ping_15 | 64 bytes from 216.58.195.238: seq=4 ttl=53 time=13.087 ms
ping_15 | 64 bytes from 216.58.195.238: seq=5 ttl=53 time=13.062 ms
ping_24 | 64 bytes from 216.58.195.238: seq=2 ttl=53 time=13.083 ms
ping_18 | 64 bytes from 216.58.195.238: seq=6 ttl=53 time=13.259 ms
ping_2  | 64 bytes from 216.58.195.238: seq=6 ttl=53 time=13.099 ms
ping_22 | 64 bytes from 216.58.195.238: seq=7 ttl=53 time=13.043 ms
ping_22 | 
ping_22 | --- 216.58.195.238 ping statistics ---
ping_22 | 8 packets transmitted, 8 packets received, 0% packet loss
ping_22 | round-trip min/avg/max = 13.043/13.248/13.536 ms
ping_10 | PING 216.58.195.238 (216.58.195.238): 56 data bytes
ping_10 | 64 bytes from 216.58.195.238: seq=0 ttl=53 time=13.164 ms
ping_24 | 64 bytes from 216.58.195.238: seq=3 ttl=53 time=23.506 ms
ping_10 | 64 bytes from 216.58.195.238: seq=1 ttl=53 time=13.417 ms
ping_15 | 64 bytes from 216.58.195.238: seq=6 ttl=53 time=13.167 ms
ping_18 | 64 bytes from 216.58.195.238: seq=7 ttl=53 time=13.555 ms
ping_18 | 
ping_18 | --- 216.58.195.238 ping statistics ---
ping_18 | 8 packets transmitted, 8 packets received, 0% packet loss
ping_18 | round-trip min/avg/max = 13.049/13.316/13.742 ms
ping_24 | 64 bytes from 216.58.195.238: seq=4 ttl=53 time=13.484 ms
ping_10 | 64 bytes from 216.58.195.238: seq=2 ttl=53 time=13.220 ms
ping_19 | PING 216.58.195.238 (216.58.195.238): 56 data bytes
ping_2  | 64 bytes from 216.58.195.238: seq=7 ttl=53 time=13.613 ms
ping_2  | 
ping_2  | --- 216.58.195.238 ping statistics ---
ping_2  | 8 packets transmitted, 8 packets received, 0% packet loss
ping_2  | round-trip min/avg/max = 13.044/13.230/13.613 ms
ping_24 | 64 bytes from 216.58.195.238: seq=5 ttl=53 time=13.162 ms
ping_14 | PING 216.58.195.238 (216.58.195.238): 56 data bytes
ping_14 | 64 bytes from 216.58.195.238: seq=0 ttl=53 time=13.140 ms
ping_15 | 64 bytes from 216.58.195.238: seq=7 ttl=53 time=13.409 ms
ping_15 | 
ping_15 | --- 216.58.195.238 ping statistics ---
ping_15 | 8 packets transmitted, 8 packets received, 0% packet loss
ping_15 | round-trip min/avg/max = 13.062/13.223/13.478 ms
ping_10 | 64 bytes from 216.58.195.238: seq=3 ttl=53 time=13.475 ms
softwareoverhead_ping_22 exited with code 0
softwareoverhead_ping_13 exited with code 0
ping_24 | 64 bytes from 216.58.195.238: seq=6 ttl=53 time=13.421 ms
ping_14 | 64 bytes from 216.58.195.238: seq=1 ttl=53 time=13.454 ms
ping_19 | 64 bytes from 216.58.195.238: seq=0 ttl=53 time=13.072 ms
ping_10 | 64 bytes from 216.58.195.238: seq=4 ttl=53 time=13.267 ms
ping_8  | PING 216.58.195.238 (216.58.195.238): 56 data bytes
ping_14 | 64 bytes from 216.58.195.238: seq=2 ttl=53 time=13.232 ms
ping_24 | 64 bytes from 216.58.195.238: seq=7 ttl=53 time=13.264 ms
ping_24 | 
ping_24 | --- 216.58.195.238 ping statistics ---
ping_24 | 8 packets transmitted, 8 packets received, 0% packet loss
ping_24 | round-trip min/avg/max = 13.083/14.557/23.506 ms
ping_19 | 64 bytes from 216.58.195.238: seq=1 ttl=53 time=13.034 ms
ping_3  | PING 216.58.195.238 (216.58.195.238): 56 data bytes
ping_5  | PING 216.58.195.238 (216.58.195.238): 56 data bytes
ping_10 | 64 bytes from 216.58.195.238: seq=5 ttl=53 time=13.022 ms
ping_10 | 64 bytes from 216.58.195.238: seq=6 ttl=53 time=13.494 ms
ping_8  | 64 bytes from 216.58.195.238: seq=0 ttl=53 time=13.117 ms
ping_21 | PING 216.58.195.238 (216.58.195.238): 56 data bytes
ping_5  | 64 bytes from 216.58.195.238: seq=0 ttl=53 time=19.310 ms
ping_14 | 64 bytes from 216.58.195.238: seq=3 ttl=53 time=13.161 ms
ping_21 | 64 bytes from 216.58.195.238: seq=0 ttl=53 time=13.152 ms
ping_3  | 64 bytes from 216.58.195.238: seq=0 ttl=53 time=13.179 ms
ping_14 | 64 bytes from 216.58.195.238: seq=4 ttl=53 time=13.083 ms
ping_3  | 64 bytes from 216.58.195.238: seq=1 ttl=53 time=13.440 ms
ping_7  | PING 216.58.195.238 (216.58.195.238): 56 data bytes
ping_10 | 64 bytes from 216.58.195.238: seq=7 ttl=53 time=13.069 ms
ping_10 | 
ping_10 | --- 216.58.195.238 ping statistics ---
ping_10 | 8 packets transmitted, 8 packets received, 0% packet loss
ping_10 | round-trip min/avg/max = 13.022/13.266/13.494 ms
ping_19 | 64 bytes from 216.58.195.238: seq=2 ttl=53 time=13.245 ms
ping_7  | 64 bytes from 216.58.195.238: seq=0 ttl=53 time=13.230 ms
ping_14 | 64 bytes from 216.58.195.238: seq=5 ttl=53 time=13.558 ms
ping_5  | 64 bytes from 216.58.195.238: seq=1 ttl=53 time=13.230 ms
ping_8  | 64 bytes from 216.58.195.238: seq=1 ttl=53 time=13.261 ms
ping_19 | 64 bytes from 216.58.195.238: seq=3 ttl=53 time=13.029 ms
ping_21 | 64 bytes from 216.58.195.238: seq=1 ttl=53 time=13.093 ms
ping_7  | 64 bytes from 216.58.195.238: seq=1 ttl=53 time=13.599 ms
ping_8  | 64 bytes from 216.58.195.238: seq=2 ttl=53 time=13.144 ms
ping_21 | 64 bytes from 216.58.195.238: seq=2 ttl=53 time=13.091 ms
ping_5  | 64 bytes from 216.58.195.238: seq=2 ttl=53 time=13.252 ms
ping_14 | 64 bytes from 216.58.195.238: seq=6 ttl=53 time=19.954 ms
ping_19 | 64 bytes from 216.58.195.238: seq=4 ttl=53 time=13.257 ms
ping_3  | 64 bytes from 216.58.195.238: seq=2 ttl=53 time=13.144 ms
ping_21 | 64 bytes from 216.58.195.238: seq=3 ttl=53 time=13.223 ms
softwareoverhead_ping_18 exited with code 0
ping_8  | 64 bytes from 216.58.195.238: seq=3 ttl=53 time=13.244 ms
ping_11 | PING 216.58.195.238 (216.58.195.238): 56 data bytes
ping_16 | PING 216.58.195.238 (216.58.195.238): 56 data bytes
ping_14 | 64 bytes from 216.58.195.238: seq=7 ttl=53 time=13.167 ms
ping_14 | 
ping_14 | --- 216.58.195.238 ping statistics ---
ping_14 | 8 packets transmitted, 8 packets received, 0% packet loss
ping_14 | round-trip min/avg/max = 13.083/14.093/19.954 ms
ping_3  | 64 bytes from 216.58.195.238: seq=3 ttl=53 time=13.222 ms
ping_11 | 64 bytes from 216.58.195.238: seq=0 ttl=53 time=13.073 ms
ping_8  | 64 bytes from 216.58.195.238: seq=4 ttl=53 time=13.215 ms
softwareoverhead_ping_15 exited with code 0
ping_5  | 64 bytes from 216.58.195.238: seq=3 ttl=53 time=13.208 ms
softwareoverhead_ping_2 exited with code 0
ping_16 | 64 bytes from 216.58.195.238: seq=0 ttl=53 time=13.176 ms
ping_7  | 64 bytes from 216.58.195.238: seq=2 ttl=53 time=13.179 ms
ping_9  | PING 216.58.195.238 (216.58.195.238): 56 data bytes
ping_8  | 64 bytes from 216.58.195.238: seq=5 ttl=53 time=12.990 ms
ping_8  | 64 bytes from 216.58.195.238: seq=6 ttl=53 time=13.032 ms
ping_21 | 64 bytes from 216.58.195.238: seq=4 ttl=53 time=13.510 ms
ping_5  | 64 bytes from 216.58.195.238: seq=4 ttl=53 time=13.553 ms
ping_19 | 64 bytes from 216.58.195.238: seq=5 ttl=53 time=13.153 ms
ping_11 | 64 bytes from 216.58.195.238: seq=1 ttl=53 time=13.069 ms
ping_8  | 64 bytes from 216.58.195.238: seq=7 ttl=53 time=13.115 ms
ping_8  | 
ping_8  | --- 216.58.195.238 ping statistics ---
ping_8  | 8 packets transmitted, 8 packets received, 0% packet loss
ping_8  | round-trip min/avg/max = 12.990/13.139/13.261 ms
ping_3  | 64 bytes from 216.58.195.238: seq=4 ttl=53 time=13.517 ms
softwareoverhead_ping_24 exited with code 0
ping_21 | 64 bytes from 216.58.195.238: seq=5 ttl=53 time=13.448 ms
ping_11 | 64 bytes from 216.58.195.238: seq=2 ttl=53 time=13.217 ms
ping_21 | 64 bytes from 216.58.195.238: seq=6 ttl=53 time=13.130 ms
ping_7  | 64 bytes from 216.58.195.238: seq=3 ttl=53 time=13.109 ms
ping_19 | 64 bytes from 216.58.195.238: seq=6 ttl=53 time=13.249 ms
ping_5  | 64 bytes from 216.58.195.238: seq=5 ttl=53 time=13.190 ms
softwareoverhead_ping_14 exited with code 0
ping_11 | 64 bytes from 216.58.195.238: seq=3 ttl=53 time=13.538 ms
ping_3  | 64 bytes from 216.58.195.238: seq=5 ttl=53 time=13.011 ms
softwareoverhead_ping_10 exited with code 0
softwareoverhead_ping_8 exited with code 0
ping_5  | 64 bytes from 216.58.195.238: seq=6 ttl=53 time=13.212 ms
ping_19 | 64 bytes from 216.58.195.238: seq=7 ttl=53 time=13.065 ms
ping_19 | 
ping_19 | --- 216.58.195.238 ping statistics ---
ping_19 | 8 packets transmitted, 8 packets received, 0% packet loss
ping_19 | round-trip min/avg/max = 13.029/13.138/13.257 ms
ping_5  | 64 bytes from 216.58.195.238: seq=7 ttl=53 time=13.088 ms
ping_5  | 
ping_5  | --- 216.58.195.238 ping statistics ---
ping_5  | 8 packets transmitted, 8 packets received, 0% packet loss
ping_5  | round-trip min/avg/max = 13.088/14.005/19.310 ms
ping_23 | PING 216.58.195.238 (216.58.195.238): 56 data bytes
ping_9  | 64 bytes from 216.58.195.238: seq=0 ttl=53 time=13.150 ms
ping_9  | 64 bytes from 216.58.195.238: seq=1 ttl=53 time=13.142 ms
ping_3  | 64 bytes from 216.58.195.238: seq=6 ttl=53 time=13.127 ms
ping_11 | 64 bytes from 216.58.195.238: seq=4 ttl=53 time=13.377 ms
ping_16 | 64 bytes from 216.58.195.238: seq=1 ttl=53 time=13.214 ms
ping_7  | 64 bytes from 216.58.195.238: seq=4 ttl=53 time=13.164 ms
ping_21 | 64 bytes from 216.58.195.238: seq=7 ttl=53 time=13.308 ms
ping_21 | 
ping_21 | --- 216.58.195.238 ping statistics ---
ping_21 | 8 packets transmitted, 8 packets received, 0% packet loss
ping_21 | round-trip min/avg/max = 13.091/13.244/13.510 ms
ping_11 | 64 bytes from 216.58.195.238: seq=5 ttl=53 time=13.070 ms
ping_16 | 64 bytes from 216.58.195.238: seq=2 ttl=53 time=13.314 ms
softwareoverhead_ping_5 exited with code 0
ping_16 | 64 bytes from 216.58.195.238: seq=3 ttl=53 time=13.168 ms
ping_3  | 64 bytes from 216.58.195.238: seq=7 ttl=53 time=13.473 ms
ping_3  | 
ping_3  | --- 216.58.195.238 ping statistics ---
ping_3  | 8 packets transmitted, 8 packets received, 0% packet loss
ping_3  | round-trip min/avg/max = 13.011/13.264/13.517 ms
ping_9  | 64 bytes from 216.58.195.238: seq=2 ttl=53 time=13.283 ms
ping_11 | 64 bytes from 216.58.195.238: seq=6 ttl=53 time=13.031 ms
ping_23 | 64 bytes from 216.58.195.238: seq=0 ttl=53 time=13.053 ms
softwareoverhead_ping_19 exited with code 0
ping_16 | 64 bytes from 216.58.195.238: seq=4 ttl=53 time=13.507 ms
ping_16 | 64 bytes from 216.58.195.238: seq=5 ttl=53 time=13.507 ms
ping_9  | 64 bytes from 216.58.195.238: seq=3 ttl=53 time=15.543 ms
softwareoverhead_ping_21 exited with code 0
ping_23 | 64 bytes from 216.58.195.238: seq=1 ttl=53 time=13.119 ms
ping_7  | 64 bytes from 216.58.195.238: seq=5 ttl=53 time=13.067 ms
ping_7  | 64 bytes from 216.58.195.238: seq=6 ttl=53 time=13.066 ms
ping_20 | PING 216.58.195.238 (216.58.195.238): 56 data bytes
ping_11 | 64 bytes from 216.58.195.238: seq=7 ttl=53 time=13.161 ms
ping_11 | 
ping_11 | --- 216.58.195.238 ping statistics ---
ping_11 | 8 packets transmitted, 8 packets received, 0% packet loss
ping_11 | round-trip min/avg/max = 13.031/13.192/13.538 ms
ping_23 | 64 bytes from 216.58.195.238: seq=2 ttl=53 time=13.636 ms
ping_1  | PING 216.58.195.238 (216.58.195.238): 56 data bytes
ping_9  | 64 bytes from 216.58.195.238: seq=4 ttl=53 time=13.001 ms
ping_12 | PING 216.58.195.238 (216.58.195.238): 56 data bytes
softwareoverhead_ping_3 exited with code 0
ping_1  | 64 bytes from 216.58.195.238: seq=0 ttl=53 time=13.159 ms
ping_16 | 64 bytes from 216.58.195.238: seq=6 ttl=53 time=13.201 ms
ping_7  | 64 bytes from 216.58.195.238: seq=7 ttl=53 time=13.265 ms
ping_7  | 
ping_7  | --- 216.58.195.238 ping statistics ---
ping_7  | 8 packets transmitted, 8 packets received, 0% packet loss
ping_7  | round-trip min/avg/max = 13.066/13.209/13.599 ms
ping_9  | 64 bytes from 216.58.195.238: seq=5 ttl=53 time=13.171 ms
ping_20 | 64 bytes from 216.58.195.238: seq=0 ttl=53 time=13.109 ms
ping_1  | 64 bytes from 216.58.195.238: seq=1 ttl=53 time=13.452 ms
ping_16 | 64 bytes from 216.58.195.238: seq=7 ttl=53 time=13.543 ms
ping_16 | 
ping_16 | --- 216.58.195.238 ping statistics ---
ping_16 | 8 packets transmitted, 8 packets received, 0% packet loss
ping_16 | round-trip min/avg/max = 13.168/13.328/13.543 ms
ping_12 | 64 bytes from 216.58.195.238: seq=0 ttl=53 time=13.111 ms
ping_12 | 64 bytes from 216.58.195.238: seq=1 ttl=53 time=13.410 ms
ping_6  | PING 216.58.195.238 (216.58.195.238): 56 data bytes
ping_9  | 64 bytes from 216.58.195.238: seq=6 ttl=53 time=13.165 ms
ping_1  | 64 bytes from 216.58.195.238: seq=2 ttl=53 time=13.193 ms
ping_25 | PING 216.58.195.238 (216.58.195.238): 56 data bytes
ping_6  | 64 bytes from 216.58.195.238: seq=0 ttl=53 time=13.103 ms
ping_12 | 64 bytes from 216.58.195.238: seq=2 ttl=53 time=13.442 ms
ping_1  | 64 bytes from 216.58.195.238: seq=3 ttl=53 time=13.525 ms
ping_12 | 64 bytes from 216.58.195.238: seq=3 ttl=53 time=13.012 ms
softwareoverhead_ping_16 exited with code 0
softwareoverhead_ping_11 exited with code 0
ping_45 | PING 216.58.195.238 (216.58.195.238): 56 data bytes
ping_25 | 64 bytes from 216.58.195.238: seq=0 ttl=53 time=13.049 ms
ping_6  | 64 bytes from 216.58.195.238: seq=1 ttl=53 time=13.017 ms
ping_9  | 64 bytes from 216.58.195.238: seq=7 ttl=53 time=13.025 ms
ping_9  | 
ping_9  | --- 216.58.195.238 ping statistics ---
ping_9  | 8 packets transmitted, 8 packets received, 0% packet loss
ping_9  | round-trip min/avg/max = 13.001/13.435/15.543 ms
ping_20 | 64 bytes from 216.58.195.238: seq=1 ttl=53 time=12.956 ms
ping_1  | 64 bytes from 216.58.195.238: seq=4 ttl=53 time=13.170 ms
ping_6  | 64 bytes from 216.58.195.238: seq=2 ttl=53 time=16.943 ms
ping_23 | 64 bytes from 216.58.195.238: seq=3 ttl=53 time=13.162 ms
ping_6  | 64 bytes from 216.58.195.238: seq=3 ttl=53 time=13.065 ms
ping_25 | 64 bytes from 216.58.195.238: seq=1 ttl=53 time=13.163 ms
softwareoverhead_ping_7 exited with code 0
ping_25 | 64 bytes from 216.58.195.238: seq=2 ttl=53 time=13.013 ms
ping_1  | 64 bytes from 216.58.195.238: seq=5 ttl=53 time=13.006 ms
ping_6  | 64 bytes from 216.58.195.238: seq=4 ttl=53 time=13.225 ms
ping_29 | PING 216.58.195.238 (216.58.195.238): 56 data bytes
ping_1  | 64 bytes from 216.58.195.238: seq=6 ttl=53 time=13.170 ms
ping_29 | 64 bytes from 216.58.195.238: seq=0 ttl=53 time=13.164 ms
ping_23 | 64 bytes from 216.58.195.238: seq=4 ttl=53 time=13.512 ms
ping_25 | 64 bytes from 216.58.195.238: seq=3 ttl=53 time=15.003 ms
ping_6  | 64 bytes from 216.58.195.238: seq=5 ttl=53 time=13.071 ms
ping_20 | 64 bytes from 216.58.195.238: seq=2 ttl=53 time=13.140 ms
ping_25 | 64 bytes from 216.58.195.238: seq=4 ttl=53 time=14.620 ms
ping_6  | 64 bytes from 216.58.195.238: seq=6 ttl=53 time=13.049 ms
ping_1  | 64 bytes from 216.58.195.238: seq=7 ttl=53 time=13.062 ms
ping_1  | 
ping_1  | --- 216.58.195.238 ping statistics ---
ping_1  | 8 packets transmitted, 8 packets received, 0% packet loss
ping_1  | round-trip min/avg/max = 13.006/13.217/13.525 ms
ping_20 | 64 bytes from 216.58.195.238: seq=3 ttl=53 time=13.058 ms
ping_45 | 64 bytes from 216.58.195.238: seq=0 ttl=53 time=13.665 ms
ping_12 | 64 bytes from 216.58.195.238: seq=4 ttl=53 time=13.206 ms
ping_23 | 64 bytes from 216.58.195.238: seq=5 ttl=53 time=13.031 ms
ping_45 | 64 bytes from 216.58.195.238: seq=1 ttl=53 time=13.190 ms
ping_23 | 64 bytes from 216.58.195.238: seq=6 ttl=53 time=17.452 ms
ping_6  | 64 bytes from 216.58.195.238: seq=7 ttl=53 time=13.521 ms
ping_6  | 
ping_6  | --- 216.58.195.238 ping statistics ---
ping_6  | 8 packets transmitted, 8 packets received, 0% packet loss
ping_6  | round-trip min/avg/max = 13.017/13.624/16.943 ms
ping_25 | 64 bytes from 216.58.195.238: seq=5 ttl=53 time=13.060 ms
ping_12 | 64 bytes from 216.58.195.238: seq=5 ttl=53 time=13.037 ms
ping_29 | 64 bytes from 216.58.195.238: seq=1 ttl=53 time=13.238 ms
ping_42 | PING 216.58.195.238 (216.58.195.238): 56 data bytes
ping_45 | 64 bytes from 216.58.195.238: seq=2 ttl=53 time=13.220 ms
ping_45 | 64 bytes from 216.58.195.238: seq=3 ttl=53 time=13.454 ms
ping_25 | 64 bytes from 216.58.195.238: seq=6 ttl=53 time=13.555 ms
ping_25 | 64 bytes from 216.58.195.238: seq=7 ttl=53 time=13.582 ms
ping_25 | 
ping_25 | --- 216.58.195.238 ping statistics ---
ping_25 | 8 packets transmitted, 8 packets received, 0% packet loss
ping_25 | round-trip min/avg/max = 13.013/13.630/15.003 ms
ping_42 | 64 bytes from 216.58.195.238: seq=0 ttl=53 time=13.161 ms
ping_20 | 64 bytes from 216.58.195.238: seq=4 ttl=53 time=13.412 ms
ping_20 | 64 bytes from 216.58.195.238: seq=5 ttl=53 time=13.101 ms
ping_29 | 64 bytes from 216.58.195.238: seq=2 ttl=53 time=13.237 ms
softwareoverhead_ping_1 exited with code 0
ping_50 | PING 216.58.195.238 (216.58.195.238): 56 data bytes
ping_23 | 64 bytes from 216.58.195.238: seq=7 ttl=53 time=15.291 ms
ping_23 | 
ping_23 | --- 216.58.195.238 ping statistics ---
ping_23 | 8 packets transmitted, 8 packets received, 0% packet loss
ping_23 | round-trip min/avg/max = 13.031/14.032/17.452 ms
ping_45 | 64 bytes from 216.58.195.238: seq=4 ttl=53 time=13.033 ms
ping_12 | 64 bytes from 216.58.195.238: seq=6 ttl=53 time=14.055 ms
ping_42 | 64 bytes from 216.58.195.238: seq=1 ttl=53 time=13.222 ms
ping_45 | 64 bytes from 216.58.195.238: seq=5 ttl=53 time=13.103 ms
ping_20 | 64 bytes from 216.58.195.238: seq=6 ttl=53 time=13.094 ms
ping_29 | 64 bytes from 216.58.195.238: seq=3 ttl=53 time=13.133 ms
ping_45 | 64 bytes from 216.58.195.238: seq=6 ttl=53 time=18.613 ms
ping_20 | 64 bytes from 216.58.195.238: seq=7 ttl=53 time=13.374 ms
ping_20 | 
ping_20 | --- 216.58.195.238 ping statistics ---
ping_20 | 8 packets transmitted, 8 packets received, 0% packet loss
ping_20 | round-trip min/avg/max = 12.956/13.155/13.412 ms
ping_34 | PING 216.58.195.238 (216.58.195.238): 56 data bytes
ping_42 | 64 bytes from 216.58.195.238: seq=2 ttl=53 time=13.281 ms
ping_50 | 64 bytes from 216.58.195.238: seq=0 ttl=53 time=13.106 ms
softwareoverhead_ping_9 exited with code 0
softwareoverhead_ping_6 exited with code 0
ping_12 | 64 bytes from 216.58.195.238: seq=7 ttl=53 time=13.040 ms
ping_12 | 
ping_12 | --- 216.58.195.238 ping statistics ---
ping_12 | 8 packets transmitted, 8 packets received, 0% packet loss
ping_12 | round-trip min/avg/max = 13.012/13.289/14.055 ms
ping_29 | 64 bytes from 216.58.195.238: seq=4 ttl=53 time=13.447 ms
ping_29 | 64 bytes from 216.58.195.238: seq=5 ttl=53 time=13.044 ms
ping_42 | 64 bytes from 216.58.195.238: seq=3 ttl=53 time=13.162 ms
ping_42 | 64 bytes from 216.58.195.238: seq=4 ttl=53 time=13.340 ms
ping_29 | 64 bytes from 216.58.195.238: seq=6 ttl=53 time=13.228 ms
ping_45 | 64 bytes from 216.58.195.238: seq=7 ttl=53 time=13.451 ms
ping_45 | 
ping_45 | --- 216.58.195.238 ping statistics ---
ping_45 | 8 packets transmitted, 8 packets received, 0% packet loss
ping_45 | round-trip min/avg/max = 13.033/13.966/18.613 ms
ping_34 | 64 bytes from 216.58.195.238: seq=0 ttl=53 time=13.168 ms
softwareoverhead_ping_25 exited with code 0
ping_46 | PING 216.58.195.238 (216.58.195.238): 56 data bytes
ping_42 | 64 bytes from 216.58.195.238: seq=5 ttl=53 time=13.511 ms
ping_29 | 64 bytes from 216.58.195.238: seq=7 ttl=53 time=13.048 ms
ping_29 | 
ping_29 | --- 216.58.195.238 ping statistics ---
ping_29 | 8 packets transmitted, 8 packets received, 0% packet loss
ping_29 | round-trip min/avg/max = 13.044/13.192/13.447 ms
ping_26 | PING 216.58.195.238 (216.58.195.238): 56 data bytes
ping_26 | 64 bytes from 216.58.195.238: seq=0 ttl=53 time=13.176 ms
ping_26 | 64 bytes from 216.58.195.238: seq=1 ttl=53 time=13.351 ms
ping_46 | 64 bytes from 216.58.195.238: seq=0 ttl=53 time=13.152 ms
ping_46 | 64 bytes from 216.58.195.238: seq=1 ttl=53 time=13.174 ms
ping_42 | 64 bytes from 216.58.195.238: seq=6 ttl=53 time=12.914 ms
ping_34 | 64 bytes from 216.58.195.238: seq=1 ttl=53 time=13.616 ms
ping_26 | 64 bytes from 216.58.195.238: seq=2 ttl=53 time=13.518 ms
ping_50 | 64 bytes from 216.58.195.238: seq=1 ttl=53 time=13.533 ms
ping_46 | 64 bytes from 216.58.195.238: seq=2 ttl=53 time=13.240 ms
ping_31 | PING 216.58.195.238 (216.58.195.238): 56 data bytes
ping_46 | 64 bytes from 216.58.195.238: seq=3 ttl=53 time=13.240 ms
ping_30 | PING 216.58.195.238 (216.58.195.238): 56 data bytes
ping_50 | 64 bytes from 216.58.195.238: seq=2 ttl=53 time=13.213 ms
ping_34 | 64 bytes from 216.58.195.238: seq=2 ttl=53 time=13.371 ms
ping_37 | PING 216.58.195.238 (216.58.195.238): 56 data bytes
ping_31 | 64 bytes from 216.58.195.238: seq=0 ttl=53 time=13.141 ms
ping_26 | 64 bytes from 216.58.195.238: seq=3 ttl=53 time=13.264 ms
ping_30 | 64 bytes from 216.58.195.238: seq=0 ttl=53 time=13.185 ms
ping_42 | 64 bytes from 216.58.195.238: seq=7 ttl=53 time=13.500 ms
ping_42 | 
ping_42 | --- 216.58.195.238 ping statistics ---
ping_42 | 8 packets transmitted, 8 packets received, 0% packet loss
ping_42 | round-trip min/avg/max = 12.914/13.261/13.511 ms
ping_46 | 64 bytes from 216.58.195.238: seq=4 ttl=53 time=13.197 ms
ping_34 | 64 bytes from 216.58.195.238: seq=3 ttl=53 time=13.249 ms
ping_26 | 64 bytes from 216.58.195.238: seq=4 ttl=53 time=13.279 ms
softwareoverhead_ping_20 exited with code 0
softwareoverhead_ping_23 exited with code 0
ping_37 | 64 bytes from 216.58.195.238: seq=0 ttl=53 time=13.144 ms
ping_37 | 64 bytes from 216.58.195.238: seq=1 ttl=53 time=13.177 ms
ping_46 | 64 bytes from 216.58.195.238: seq=5 ttl=53 time=13.305 ms
ping_31 | 64 bytes from 216.58.195.238: seq=1 ttl=53 time=13.155 ms
ping_50 | 64 bytes from 216.58.195.238: seq=3 ttl=53 time=13.249 ms
ping_37 | 64 bytes from 216.58.195.238: seq=2 ttl=53 time=13.498 ms
softwareoverhead_ping_12 exited with code 0
ping_50 | 64 bytes from 216.58.195.238: seq=4 ttl=53 time=13.356 ms
ping_37 | 64 bytes from 216.58.195.238: seq=3 ttl=53 time=13.250 ms
ping_39 | PING 216.58.195.238 (216.58.195.238): 56 data bytes
ping_49 | PING 216.58.195.238 (216.58.195.238): 56 data bytes
ping_49 | 64 bytes from 216.58.195.238: seq=0 ttl=53 time=13.123 ms
ping_26 | 64 bytes from 216.58.195.238: seq=5 ttl=53 time=13.135 ms
ping_31 | 64 bytes from 216.58.195.238: seq=2 ttl=53 time=13.686 ms
ping_37 | 64 bytes from 216.58.195.238: seq=4 ttl=53 time=13.222 ms
softwareoverhead_ping_45 exited with code 0
softwareoverhead_ping_29 exited with code 0
ping_30 | 64 bytes from 216.58.195.238: seq=1 ttl=53 time=13.590 ms
ping_39 | 64 bytes from 216.58.195.238: seq=0 ttl=53 time=13.119 ms
ping_46 | 64 bytes from 216.58.195.238: seq=6 ttl=53 time=13.523 ms
ping_50 | 64 bytes from 216.58.195.238: seq=5 ttl=53 time=13.483 ms
ping_49 | 64 bytes from 216.58.195.238: seq=1 ttl=53 time=13.021 ms
ping_26 | 64 bytes from 216.58.195.238: seq=6 ttl=53 time=13.366 ms
ping_34 | 64 bytes from 216.58.195.238: seq=4 ttl=53 time=13.272 ms
ping_37 | 64 bytes from 216.58.195.238: seq=5 ttl=53 time=13.331 ms
ping_31 | 64 bytes from 216.58.195.238: seq=3 ttl=53 time=13.290 ms
ping_49 | 64 bytes from 216.58.195.238: seq=2 ttl=53 time=13.079 ms
ping_30 | 64 bytes from 216.58.195.238: seq=2 ttl=53 time=13.002 ms
ping_30 | 64 bytes from 216.58.195.238: seq=3 ttl=53 time=12.969 ms
ping_46 | 64 bytes from 216.58.195.238: seq=7 ttl=53 time=13.184 ms
ping_46 | 
ping_46 | --- 216.58.195.238 ping statistics ---
ping_46 | 8 packets transmitted, 8 packets received, 0% packet loss
ping_46 | round-trip min/avg/max = 13.152/13.251/13.523 ms
ping_26 | 64 bytes from 216.58.195.238: seq=7 ttl=53 time=13.700 ms
ping_26 | 
ping_26 | --- 216.58.195.238 ping statistics ---
ping_26 | 8 packets transmitted, 8 packets received, 0% packet loss
ping_26 | round-trip min/avg/max = 13.135/13.348/13.700 ms
ping_30 | 64 bytes from 216.58.195.238: seq=4 ttl=53 time=13.092 ms
ping_30 | 64 bytes from 216.58.195.238: seq=5 ttl=53 time=13.272 ms
ping_50 | 64 bytes from 216.58.195.238: seq=6 ttl=53 time=13.405 ms
ping_31 | 64 bytes from 216.58.195.238: seq=4 ttl=53 time=13.061 ms
ping_31 | 64 bytes from 216.58.195.238: seq=5 ttl=53 time=13.050 ms
ping_30 | 64 bytes from 216.58.195.238: seq=6 ttl=53 time=13.250 ms
ping_37 | 64 bytes from 216.58.195.238: seq=6 ttl=53 time=15.668 ms
softwareoverhead_ping_42 exited with code 0
ping_49 | 64 bytes from 216.58.195.238: seq=3 ttl=53 time=12.976 ms
ping_34 | 64 bytes from 216.58.195.238: seq=5 ttl=53 time=13.269 ms
ping_49 | 64 bytes from 216.58.195.238: seq=4 ttl=53 time=13.154 ms
ping_48 | PING 216.58.195.238 (216.58.195.238): 56 data bytes
ping_30 | 64 bytes from 216.58.195.238: seq=7 ttl=53 time=13.258 ms
ping_30 | 
ping_30 | --- 216.58.195.238 ping statistics ---
ping_30 | 8 packets transmitted, 8 packets received, 0% packet loss
ping_30 | round-trip min/avg/max = 12.969/13.202/13.590 ms
ping_44 | PING 216.58.195.238 (216.58.195.238): 56 data bytes
softwareoverhead_ping_46 exited with code 0
ping_39 | 64 bytes from 216.58.195.238: seq=1 ttl=53 time=13.158 ms
ping_48 | 64 bytes from 216.58.195.238: seq=0 ttl=53 time=13.219 ms
ping_49 | 64 bytes from 216.58.195.238: seq=5 ttl=53 time=13.074 ms
ping_35 | PING 216.58.195.238 (216.58.195.238): 56 data bytes
ping_31 | 64 bytes from 216.58.195.238: seq=6 ttl=53 time=13.259 ms
ping_37 | 64 bytes from 216.58.195.238: seq=7 ttl=53 time=13.250 ms
ping_37 | 
ping_37 | --- 216.58.195.238 ping statistics ---
ping_37 | 8 packets transmitted, 8 packets received, 0% packet loss
ping_37 | round-trip min/avg/max = 13.144/13.567/15.668 ms
ping_48 | 64 bytes from 216.58.195.238: seq=1 ttl=53 time=13.184 ms
ping_31 | 64 bytes from 216.58.195.238: seq=7 ttl=53 time=13.544 ms
ping_31 | 
ping_31 | --- 216.58.195.238 ping statistics ---
ping_31 | 8 packets transmitted, 8 packets received, 0% packet loss
ping_31 | round-trip min/avg/max = 13.050/13.273/13.686 ms
softwareoverhead_ping_37 exited with code 0
ping_44 | 64 bytes from 216.58.195.238: seq=0 ttl=53 time=13.141 ms
ping_44 | 64 bytes from 216.58.195.238: seq=1 ttl=53 time=13.006 ms
ping_48 | 64 bytes from 216.58.195.238: seq=2 ttl=53 time=13.154 ms
ping_34 | 64 bytes from 216.58.195.238: seq=6 ttl=53 time=13.010 ms
ping_38 | PING 216.58.195.238 (216.58.195.238): 56 data bytes
ping_50 | 64 bytes from 216.58.195.238: seq=7 ttl=53 time=13.248 ms
ping_50 | 
ping_50 | --- 216.58.195.238 ping statistics ---
ping_50 | 8 packets transmitted, 8 packets received, 0% packet loss
ping_50 | round-trip min/avg/max = 13.106/13.324/13.533 ms
ping_34 | 64 bytes from 216.58.195.238: seq=7 ttl=53 time=13.720 ms
ping_34 | 
ping_34 | --- 216.58.195.238 ping statistics ---
ping_34 | 8 packets transmitted, 8 packets received, 0% packet loss
ping_34 | round-trip min/avg/max = 13.010/13.334/13.720 ms
softwareoverhead_ping_26 exited with code 0
ping_49 | 64 bytes from 216.58.195.238: seq=6 ttl=53 time=13.307 ms
ping_39 | 64 bytes from 216.58.195.238: seq=2 ttl=53 time=13.035 ms
softwareoverhead_ping_30 exited with code 0
ping_49 | 64 bytes from 216.58.195.238: seq=7 ttl=53 time=13.189 ms
ping_49 | 
ping_49 | --- 216.58.195.238 ping statistics ---
ping_49 | 8 packets transmitted, 8 packets received, 0% packet loss
ping_49 | round-trip min/avg/max = 12.976/13.115/13.307 ms
ping_38 | 64 bytes from 216.58.195.238: seq=0 ttl=53 time=13.085 ms
ping_43 | PING 216.58.195.238 (216.58.195.238): 56 data bytes
ping_38 | 64 bytes from 216.58.195.238: seq=1 ttl=53 time=13.175 ms
ping_28 | PING 216.58.195.238 (216.58.195.238): 56 data bytes
ping_28 | 64 bytes from 216.58.195.238: seq=0 ttl=53 time=13.108 ms
ping_28 | 64 bytes from 216.58.195.238: seq=1 ttl=53 time=13.172 ms
ping_48 | 64 bytes from 216.58.195.238: seq=3 ttl=53 time=13.180 ms
ping_44 | 64 bytes from 216.58.195.238: seq=2 ttl=53 time=13.255 ms
softwareoverhead_ping_31 exited with code 0
ping_39 | 64 bytes from 216.58.195.238: seq=3 ttl=53 time=13.042 ms
ping_43 | 64 bytes from 216.58.195.238: seq=0 ttl=53 time=13.091 ms
ping_28 | 64 bytes from 216.58.195.238: seq=2 ttl=53 time=15.643 ms
ping_35 | 64 bytes from 216.58.195.238: seq=0 ttl=53 time=13.194 ms
ping_38 | 64 bytes from 216.58.195.238: seq=2 ttl=53 time=13.525 ms
ping_41 | PING 216.58.195.238 (216.58.195.238): 56 data bytes
ping_35 | 64 bytes from 216.58.195.238: seq=1 ttl=53 time=12.980 ms
ping_41 | 64 bytes from 216.58.195.238: seq=0 ttl=53 time=13.126 ms
ping_48 | 64 bytes from 216.58.195.238: seq=4 ttl=53 time=13.191 ms
ping_43 | 64 bytes from 216.58.195.238: seq=1 ttl=53 time=13.066 ms
ping_38 | 64 bytes from 216.58.195.238: seq=3 ttl=53 time=13.096 ms
ping_28 | 64 bytes from 216.58.195.238: seq=3 ttl=53 time=13.133 ms
softwareoverhead_ping_49 exited with code 0
ping_27 | PING 216.58.195.238 (216.58.195.238): 56 data bytes
softwareoverhead_ping_50 exited with code 0
ping_44 | 64 bytes from 216.58.195.238: seq=3 ttl=53 time=13.049 ms
ping_35 | 64 bytes from 216.58.195.238: seq=2 ttl=53 time=13.165 ms
ping_39 | 64 bytes from 216.58.195.238: seq=4 ttl=53 time=13.194 ms
ping_28 | 64 bytes from 216.58.195.238: seq=4 ttl=53 time=13.210 ms
ping_33 | PING 216.58.195.238 (216.58.195.238): 56 data bytes
ping_27 | 64 bytes from 216.58.195.238: seq=0 ttl=53 time=13.190 ms
ping_35 | 64 bytes from 216.58.195.238: seq=3 ttl=53 time=13.263 ms
ping_48 | 64 bytes from 216.58.195.238: seq=5 ttl=53 time=13.183 ms
ping_44 | 64 bytes from 216.58.195.238: seq=4 ttl=53 time=13.030 ms
ping_41 | 64 bytes from 216.58.195.238: seq=1 ttl=53 time=13.185 ms
ping_33 | 64 bytes from 216.58.195.238: seq=0 ttl=53 time=13.151 ms
ping_48 | 64 bytes from 216.58.195.238: seq=6 ttl=53 time=13.033 ms
softwareoverhead_ping_34 exited with code 0
ping_41 | 64 bytes from 216.58.195.238: seq=2 ttl=53 time=13.043 ms
ping_41 | 64 bytes from 216.58.195.238: seq=3 ttl=53 time=13.123 ms
ping_27 | 64 bytes from 216.58.195.238: seq=1 ttl=53 time=13.082 ms
ping_38 | 64 bytes from 216.58.195.238: seq=4 ttl=53 time=13.232 ms
ping_28 | 64 bytes from 216.58.195.238: seq=5 ttl=53 time=13.087 ms
ping_36 | PING 216.58.195.238 (216.58.195.238): 56 data bytes
ping_35 | 64 bytes from 216.58.195.238: seq=4 ttl=53 time=13.341 ms
ping_36 | 64 bytes from 216.58.195.238: seq=0 ttl=53 time=13.193 ms
ping_39 | 64 bytes from 216.58.195.238: seq=5 ttl=53 time=13.256 ms
ping_27 | 64 bytes from 216.58.195.238: seq=2 ttl=53 time=13.217 ms
ping_44 | 64 bytes from 216.58.195.238: seq=5 ttl=53 time=13.458 ms
ping_35 | 64 bytes from 216.58.195.238: seq=5 ttl=53 time=13.485 ms
ping_44 | 64 bytes from 216.58.195.238: seq=6 ttl=53 time=13.234 ms
ping_48 | 64 bytes from 216.58.195.238: seq=7 ttl=53 time=13.162 ms
ping_48 | 
ping_48 | --- 216.58.195.238 ping statistics ---
ping_48 | 8 packets transmitted, 8 packets received, 0% packet loss
ping_48 | round-trip min/avg/max = 13.033/13.163/13.219 ms
ping_43 | 64 bytes from 216.58.195.238: seq=2 ttl=53 time=13.188 ms
ping_41 | 64 bytes from 216.58.195.238: seq=4 ttl=53 time=13.042 ms
ping_33 | 64 bytes from 216.58.195.238: seq=1 ttl=53 time=13.134 ms
ping_35 | 64 bytes from 216.58.195.238: seq=6 ttl=53 time=15.532 ms
ping_27 | 64 bytes from 216.58.195.238: seq=3 ttl=53 time=13.068 ms
ping_38 | 64 bytes from 216.58.195.238: seq=5 ttl=53 time=13.061 ms
ping_33 | 64 bytes from 216.58.195.238: seq=2 ttl=53 time=13.265 ms
ping_39 | 64 bytes from 216.58.195.238: seq=6 ttl=53 time=13.142 ms
ping_32 | PING 216.58.195.238 (216.58.195.238): 56 data bytes
ping_43 | 64 bytes from 216.58.195.238: seq=3 ttl=53 time=13.485 ms
ping_41 | 64 bytes from 216.58.195.238: seq=5 ttl=53 time=13.083 ms
ping_32 | 64 bytes from 216.58.195.238: seq=0 ttl=53 time=13.179 ms
ping_38 | 64 bytes from 216.58.195.238: seq=6 ttl=53 time=13.012 ms
ping_47 | PING 216.58.195.238 (216.58.195.238): 56 data bytes
ping_47 | 64 bytes from 216.58.195.238: seq=0 ttl=53 time=13.147 ms
ping_33 | 64 bytes from 216.58.195.238: seq=3 ttl=53 time=13.647 ms
ping_33 | 64 bytes from 216.58.195.238: seq=4 ttl=53 time=13.091 ms
ping_40 | PING 216.58.195.238 (216.58.195.238): 56 data bytes
ping_39 | 64 bytes from 216.58.195.238: seq=7 ttl=53 time=13.520 ms
ping_39 | 
ping_39 | --- 216.58.195.238 ping statistics ---
ping_39 | 8 packets transmitted, 8 packets received, 0% packet loss
ping_39 | round-trip min/avg/max = 13.035/13.183/13.520 ms
ping_47 | 64 bytes from 216.58.195.238: seq=1 ttl=53 time=13.530 ms
ping_43 | 64 bytes from 216.58.195.238: seq=4 ttl=53 time=13.391 ms
ping_40 | 64 bytes from 216.58.195.238: seq=0 ttl=53 time=13.150 ms
ping_44 | 64 bytes from 216.58.195.238: seq=7 ttl=53 time=13.211 ms
ping_44 | 
ping_44 | --- 216.58.195.238 ping statistics ---
ping_44 | 8 packets transmitted, 8 packets received, 0% packet loss
ping_44 | round-trip min/avg/max = 13.006/13.173/13.458 ms
ping_35 | 64 bytes from 216.58.195.238: seq=7 ttl=53 time=13.024 ms
ping_35 | 
ping_35 | --- 216.58.195.238 ping statistics ---
ping_35 | 8 packets transmitted, 8 packets received, 0% packet loss
ping_35 | round-trip min/avg/max = 12.980/13.498/15.532 ms
ping_47 | 64 bytes from 216.58.195.238: seq=2 ttl=53 time=13.171 ms
ping_43 | 64 bytes from 216.58.195.238: seq=5 ttl=53 time=13.279 ms
softwareoverhead_ping_48 exited with code 0
softwareoverhead_ping_39 exited with code 0
ping_43 | 64 bytes from 216.58.195.238: seq=6 ttl=53 time=13.517 ms
softwareoverhead_ping_44 exited with code 0
softwareoverhead_ping_35 exited with code 0
ping_32 | 64 bytes from 216.58.195.238: seq=1 ttl=53 time=13.520 ms
ping_43 | 64 bytes from 216.58.195.238: seq=7 ttl=53 time=13.580 ms
ping_43 | 
ping_43 | --- 216.58.195.238 ping statistics ---
ping_43 | 8 packets transmitted, 8 packets received, 0% packet loss
ping_43 | round-trip min/avg/max = 13.066/13.324/13.580 ms
ping_28 | 64 bytes from 216.58.195.238: seq=6 ttl=53 time=13.188 ms
ping_36 | 64 bytes from 216.58.195.238: seq=1 ttl=53 time=13.206 ms
ping_47 | 64 bytes from 216.58.195.238: seq=3 ttl=53 time=13.196 ms
softwareoverhead_ping_43 exited with code 0
ping_38 | 64 bytes from 216.58.195.238: seq=7 ttl=53 time=13.193 ms
ping_38 | 
ping_38 | --- 216.58.195.238 ping statistics ---
ping_38 | 8 packets transmitted, 8 packets received, 0% packet loss
ping_38 | round-trip min/avg/max = 13.012/13.172/13.525 ms
ping_40 | 64 bytes from 216.58.195.238: seq=1 ttl=53 time=13.463 ms
ping_41 | 64 bytes from 216.58.195.238: seq=6 ttl=53 time=13.573 ms
ping_27 | 64 bytes from 216.58.195.238: seq=4 ttl=53 time=13.213 ms
ping_33 | 64 bytes from 216.58.195.238: seq=5 ttl=53 time=13.121 ms
ping_32 | 64 bytes from 216.58.195.238: seq=2 ttl=53 time=13.105 ms
softwareoverhead_ping_38 exited with code 0
ping_28 | 64 bytes from 216.58.195.238: seq=7 ttl=53 time=13.634 ms
ping_28 | 
ping_28 | --- 216.58.195.238 ping statistics ---
ping_28 | 8 packets transmitted, 8 packets received, 0% packet loss
ping_28 | round-trip min/avg/max = 13.087/13.521/15.643 ms
ping_36 | 64 bytes from 216.58.195.238: seq=2 ttl=53 time=13.122 ms
ping_47 | 64 bytes from 216.58.195.238: seq=4 ttl=53 time=13.090 ms
ping_40 | 64 bytes from 216.58.195.238: seq=2 ttl=53 time=13.054 ms
ping_41 | 64 bytes from 216.58.195.238: seq=7 ttl=53 time=13.139 ms
ping_41 | 
ping_41 | --- 216.58.195.238 ping statistics ---
ping_41 | 8 packets transmitted, 8 packets received, 0% packet loss
ping_41 | round-trip min/avg/max = 13.042/13.164/13.573 ms
ping_27 | 64 bytes from 216.58.195.238: seq=5 ttl=53 time=13.111 ms
softwareoverhead_ping_28 exited with code 0
ping_33 | 64 bytes from 216.58.195.238: seq=6 ttl=53 time=13.181 ms
ping_32 | 64 bytes from 216.58.195.238: seq=3 ttl=53 time=13.487 ms
softwareoverhead_ping_41 exited with code 0
ping_36 | 64 bytes from 216.58.195.238: seq=3 ttl=53 time=13.917 ms
ping_47 | 64 bytes from 216.58.195.238: seq=5 ttl=53 time=13.793 ms
ping_40 | 64 bytes from 216.58.195.238: seq=3 ttl=53 time=13.690 ms
ping_27 | 64 bytes from 216.58.195.238: seq=6 ttl=53 time=13.178 ms
ping_33 | 64 bytes from 216.58.195.238: seq=7 ttl=53 time=13.506 ms
ping_33 | 
ping_33 | --- 216.58.195.238 ping statistics ---
ping_33 | 8 packets transmitted, 8 packets received, 0% packet loss
ping_33 | round-trip min/avg/max = 13.091/13.262/13.647 ms
ping_32 | 64 bytes from 216.58.195.238: seq=4 ttl=53 time=13.222 ms
softwareoverhead_ping_33 exited with code 0
ping_36 | 64 bytes from 216.58.195.238: seq=4 ttl=53 time=13.299 ms
ping_47 | 64 bytes from 216.58.195.238: seq=6 ttl=53 time=13.661 ms
ping_40 | 64 bytes from 216.58.195.238: seq=4 ttl=53 time=13.262 ms
ping_27 | 64 bytes from 216.58.195.238: seq=7 ttl=53 time=13.374 ms
ping_27 | 
ping_27 | --- 216.58.195.238 ping statistics ---
ping_27 | 8 packets transmitted, 8 packets received, 0% packet loss
ping_27 | round-trip min/avg/max = 13.068/13.179/13.374 ms
ping_32 | 64 bytes from 216.58.195.238: seq=5 ttl=53 time=13.551 ms
softwareoverhead_ping_27 exited with code 0
ping_36 | 64 bytes from 216.58.195.238: seq=5 ttl=53 time=13.495 ms
ping_47 | 64 bytes from 216.58.195.238: seq=7 ttl=53 time=13.562 ms
ping_47 | 
ping_47 | --- 216.58.195.238 ping statistics ---
ping_47 | 8 packets transmitted, 8 packets received, 0% packet loss
ping_47 | round-trip min/avg/max = 13.090/13.393/13.793 ms
ping_40 | 64 bytes from 216.58.195.238: seq=5 ttl=53 time=13.222 ms
softwareoverhead_ping_47 exited with code 0
ping_32 | 64 bytes from 216.58.195.238: seq=6 ttl=53 time=13.485 ms
ping_36 | 64 bytes from 216.58.195.238: seq=6 ttl=53 time=13.501 ms
ping_40 | 64 bytes from 216.58.195.238: seq=6 ttl=53 time=13.304 ms
ping_32 | 64 bytes from 216.58.195.238: seq=7 ttl=53 time=13.807 ms
ping_32 | 
ping_32 | --- 216.58.195.238 ping statistics ---
ping_32 | 8 packets transmitted, 8 packets received, 0% packet loss
ping_32 | round-trip min/avg/max = 13.105/13.419/13.807 ms
softwareoverhead_ping_32 exited with code 0
ping_36 | 64 bytes from 216.58.195.238: seq=7 ttl=53 time=13.620 ms
ping_36 | 
ping_36 | --- 216.58.195.238 ping statistics ---
ping_36 | 8 packets transmitted, 8 packets received, 0% packet loss
ping_36 | round-trip min/avg/max = 13.122/13.419/13.917 ms
ping_40 | 64 bytes from 216.58.195.238: seq=7 ttl=53 time=13.489 ms
ping_40 | 
ping_40 | --- 216.58.195.238 ping statistics ---
ping_40 | 8 packets transmitted, 8 packets received, 0% packet loss
ping_40 | round-trip min/avg/max = 13.054/13.329/13.690 ms
softwareoverhead_ping_36 exited with code 0
softwareoverhead_ping_40 exited with code 0
