     1	.7 
     2	.4 
     3	.5 
     4	.3 
     5	.5 
     6	.6 
     7	.5 
     8	.5 
     9	.5 
    10	.5 
    11	.6 
    12	.4 
    13	.8 
    14	.8 
    15	.6 
    16	.8 
    17	.6 
    18	.8 
    19	.6 
    20	.8 
    21	.8 
    22	.6 
    23	.6 
    24	.6 
    25	.6 
    26	.8 
    27	.6 
    28	.6 
    29	.6 
    30	.8 
    31	.5 
    32	.5 
    33	.8 
    34	.8 
    35	.8 
    36	.5 
    37	.6 
    38	.8 
    39	.6 
    40	.5 
    41	.8 
