top - 18:24:11 up  1:10,  1 user,  load average: 0.22, 0.14, 0.11
Tasks: 291 total,   1 running, 224 sleeping,   0 stopped,   0 zombie
%Cpu(s):  0.8 us,  0.4 sy,  0.0 ni, 98.7 id,  0.0 wa,  0.0 hi,  0.0 si,  0.0 st
KiB Mem : 16278772 total, 13765792 free,  1303768 used,  1209212 buff/cache
KiB Swap: 16630780 total, 16630780 free,        0 used. 14574524 avail Mem 

  PID USER      PR  NI    VIRT    RES    SHR S  %CPU %MEM     TIME+ COMMAND
  938 root      20   0  699064  18528  13812 S   6.2  0.1   0:04.08 NetworkManager
 4728 kenenth   20   0   41908   3744   3148 R   6.2  0.0   0:00.02 top

top - 18:24:12 up  1:10,  1 user,  load average: 0.21, 0.14, 0.11
Tasks: 291 total,   1 running, 224 sleeping,   0 stopped,   0 zombie
%Cpu(s):  0.4 us,  0.2 sy,  0.0 ni, 99.4 id,  0.0 wa,  0.0 hi,  0.0 si,  0.0 st
KiB Mem : 16278772 total, 13765792 free,  1303768 used,  1209212 buff/cache
KiB Swap: 16630780 total, 16630780 free,        0 used. 14574524 avail Mem 

  PID USER      PR  NI    VIRT    RES    SHR S  %CPU %MEM     TIME+ COMMAND
 2425 kenenth   20   0 3573356 278180  95860 S   1.9  1.7   2:00.85 gnome-shell
 4728 kenenth   20   0   41908   3744   3148 R   1.9  0.0   0:00.04 top
 2219 root      20   0  522700 158000  69792 S   1.0  1.0   0:54.81 Xorg
 3320 root      20   0       0      0      0 I   1.0  0.0   0:00.03 kworker/7:1

top - 18:24:13 up  1:10,  1 user,  load average: 0.21, 0.14, 0.11
Tasks: 291 total,   1 running, 224 sleeping,   0 stopped,   0 zombie
%Cpu(s):  0.2 us,  0.2 sy,  0.0 ni, 99.5 id,  0.0 wa,  0.0 hi,  0.0 si,  0.0 st
KiB Mem : 16278772 total, 13765792 free,  1303768 used,  1209212 buff/cache
KiB Swap: 16630780 total, 16630780 free,        0 used. 14574524 avail Mem 

  PID USER      PR  NI    VIRT    RES    SHR S  %CPU %MEM     TIME+ COMMAND
 2219 root      20   0  522700 158000  69792 S   1.0  1.0   0:54.82 Xorg
 4728 kenenth   20   0   41908   3744   3148 R   1.0  0.0   0:00.05 top

top - 18:24:14 up  1:10,  1 user,  load average: 0.21, 0.14, 0.11
Tasks: 291 total,   1 running, 224 sleeping,   0 stopped,   0 zombie
%Cpu(s):  0.5 us,  0.2 sy,  0.0 ni, 99.3 id,  0.0 wa,  0.0 hi,  0.0 si,  0.0 st
KiB Mem : 16278772 total, 13765196 free,  1304352 used,  1209224 buff/cache
KiB Swap: 16630780 total, 16630780 free,        0 used. 14573940 avail Mem 

  PID USER      PR  NI    VIRT    RES    SHR S  %CPU %MEM     TIME+ COMMAND
 2425 kenenth   20   0 3573356 278180  95860 S   1.0  1.7   2:00.86 gnome-shell
 3692 kenenth   20   0  794860  37652  27916 S   1.0  0.2   0:03.47 gnome-terminal-
 4728 kenenth   20   0   41908   3744   3148 R   1.0  0.0   0:00.06 top

top - 18:24:15 up  1:10,  1 user,  load average: 0.21, 0.14, 0.11
Tasks: 291 total,   1 running, 224 sleeping,   0 stopped,   0 zombie
%Cpu(s):  0.1 us,  0.4 sy,  0.0 ni, 99.5 id,  0.0 wa,  0.0 hi,  0.0 si,  0.0 st
KiB Mem : 16278772 total, 13765196 free,  1304352 used,  1209224 buff/cache
KiB Swap: 16630780 total, 16630780 free,        0 used. 14573940 avail Mem 

  PID USER      PR  NI    VIRT    RES    SHR S  %CPU %MEM     TIME+ COMMAND
  949 avahi     20   0   47492   3964   3292 S   1.0  0.0   0:01.46 avahi-daemon
 1119 root      20   0 1404968  40156  24868 S   1.0  0.2   0:07.93 containerd
 2219 root      20   0  522700 158000  69792 S   1.0  1.0   0:54.83 Xorg
 2220 root     -51   0       0      0      0 S   1.0  0.0   0:06.03 irq/135-nvidia
 2425 kenenth   20   0 3573356 278180  95860 S   1.0  1.7   2:00.87 gnome-shell
 4677 kenenth   20   0 1060592  56328  32576 S   1.0  0.3   0:04.79 sublime_text
 4728 kenenth   20   0   41908   3744   3148 R   1.0  0.0   0:00.07 top

top - 18:24:16 up  1:10,  1 user,  load average: 0.21, 0.14, 0.11
Tasks: 291 total,   1 running, 224 sleeping,   0 stopped,   0 zombie
%Cpu(s):  0.0 us,  0.2 sy,  0.0 ni, 99.6 id,  0.1 wa,  0.0 hi,  0.0 si,  0.0 st
KiB Mem : 16278772 total, 13765196 free,  1304352 used,  1209224 buff/cache
KiB Swap: 16630780 total, 16630780 free,        0 used. 14573940 avail Mem 

  PID USER      PR  NI    VIRT    RES    SHR S  %CPU %MEM     TIME+ COMMAND
 4728 kenenth   20   0   41908   3744   3148 R   2.0  0.0   0:00.09 top
 1709 root      20   0 1754244  73132  38468 S   1.0  0.4   0:02.97 dockerd
 2219 root      20   0  522700 158000  69792 S   1.0  1.0   0:54.84 Xorg
 4677 kenenth   20   0 1060592  56328  32576 S   1.0  0.3   0:04.80 sublime_text

top - 18:24:17 up  1:10,  1 user,  load average: 0.19, 0.14, 0.11
Tasks: 291 total,   1 running, 224 sleeping,   0 stopped,   0 zombie
%Cpu(s):  0.2 us,  0.2 sy,  0.0 ni, 99.5 id,  0.0 wa,  0.0 hi,  0.0 si,  0.0 st
KiB Mem : 16278772 total, 13765172 free,  1304360 used,  1209240 buff/cache
KiB Swap: 16630780 total, 16630780 free,        0 used. 14573916 avail Mem 

  PID USER      PR  NI    VIRT    RES    SHR S  %CPU %MEM     TIME+ COMMAND
 2219 root      20   0  522700 158000  69792 S   1.0  1.0   0:54.85 Xorg
 2425 kenenth   20   0 3573356 278180  95860 S   1.0  1.7   2:00.88 gnome-shell
 4728 kenenth   20   0   41908   3744   3148 R   1.0  0.0   0:00.10 top

top - 18:24:18 up  1:10,  1 user,  load average: 0.19, 0.14, 0.11
Tasks: 291 total,   1 running, 224 sleeping,   0 stopped,   0 zombie
%Cpu(s):  0.2 us,  0.2 sy,  0.0 ni, 99.5 id,  0.0 wa,  0.0 hi,  0.0 si,  0.0 st
KiB Mem : 16278772 total, 13765172 free,  1304360 used,  1209240 buff/cache
KiB Swap: 16630780 total, 16630780 free,        0 used. 14573916 avail Mem 

  PID USER      PR  NI    VIRT    RES    SHR S  %CPU %MEM     TIME+ COMMAND
  949 avahi     20   0   47492   3964   3292 S   1.0  0.0   0:01.47 avahi-daemon
 2219 root      20   0  522700 158000  69792 S   1.0  1.0   0:54.86 Xorg
 4728 kenenth   20   0   41908   3744   3148 R   1.0  0.0   0:00.11 top

top - 18:24:19 up  1:10,  1 user,  load average: 0.19, 0.14, 0.11
Tasks: 291 total,   1 running, 224 sleeping,   0 stopped,   0 zombie
%Cpu(s):  0.2 us,  0.2 sy,  0.0 ni, 99.5 id,  0.0 wa,  0.0 hi,  0.0 si,  0.0 st
KiB Mem : 16278772 total, 13765172 free,  1304360 used,  1209240 buff/cache
KiB Swap: 16630780 total, 16630780 free,        0 used. 14573916 avail Mem 

  PID USER      PR  NI    VIRT    RES    SHR S  %CPU %MEM     TIME+ COMMAND
  993 root      20   0  269688   5820   5064 S   1.0  0.0   0:00.64 iio-sensor-prox
 1119 root      20   0 1404968  40156  24868 S   1.0  0.2   0:07.94 containerd
 2220 root     -51   0       0      0      0 S   1.0  0.0   0:06.04 irq/135-nvidia
 4728 kenenth   20   0   41908   3744   3148 R   1.0  0.0   0:00.12 top

top - 18:24:20 up  1:10,  1 user,  load average: 0.19, 0.14, 0.11
Tasks: 291 total,   1 running, 224 sleeping,   0 stopped,   0 zombie
%Cpu(s):  0.2 us,  0.2 sy,  0.0 ni, 99.5 id,  0.0 wa,  0.0 hi,  0.0 si,  0.0 st
KiB Mem : 16278772 total, 13765164 free,  1304368 used,  1209240 buff/cache
KiB Swap: 16630780 total, 16630780 free,        0 used. 14573908 avail Mem 

  PID USER      PR  NI    VIRT    RES    SHR S  %CPU %MEM     TIME+ COMMAND
 2219 root      20   0  522700 158000  69792 S   1.0  1.0   0:54.87 Xorg
 2425 kenenth   20   0 3573356 278180  95860 S   1.0  1.7   2:00.89 gnome-shell
 4728 kenenth   20   0   41908   3744   3148 R   1.0  0.0   0:00.13 top

top - 18:24:21 up  1:10,  1 user,  load average: 0.19, 0.14, 0.11
Tasks: 291 total,   1 running, 224 sleeping,   0 stopped,   0 zombie
%Cpu(s):  0.2 us,  0.1 sy,  0.0 ni, 99.6 id,  0.0 wa,  0.0 hi,  0.0 si,  0.0 st
KiB Mem : 16278772 total, 13765164 free,  1304368 used,  1209240 buff/cache
KiB Swap: 16630780 total, 16630780 free,        0 used. 14573908 avail Mem 

  PID USER      PR  NI    VIRT    RES    SHR S  %CPU %MEM     TIME+ COMMAND
 2425 kenenth   20   0 3573356 278180  95860 S   2.0  1.7   2:00.91 gnome-shell
 4728 kenenth   20   0   41908   3744   3148 R   2.0  0.0   0:00.15 top

top - 18:24:22 up  1:10,  1 user,  load average: 0.17, 0.13, 0.10
Tasks: 291 total,   1 running, 224 sleeping,   0 stopped,   0 zombie
%Cpu(s):  0.4 us,  0.1 sy,  0.0 ni, 99.4 id,  0.0 wa,  0.0 hi,  0.1 si,  0.0 st
KiB Mem : 16278772 total, 13765164 free,  1304368 used,  1209240 buff/cache
KiB Swap: 16630780 total, 16630780 free,        0 used. 14573908 avail Mem 

  PID USER      PR  NI    VIRT    RES    SHR S  %CPU %MEM     TIME+ COMMAND
 2219 root      20   0  522700 158000  69792 S   1.0  1.0   0:54.88 Xorg
 3692 kenenth   20   0  794860  37652  27916 S   1.0  0.2   0:03.48 gnome-terminal-
 4728 kenenth   20   0   41908   3744   3148 R   1.0  0.0   0:00.16 top

top - 18:24:23 up  1:10,  1 user,  load average: 0.17, 0.13, 0.10
Tasks: 291 total,   1 running, 224 sleeping,   0 stopped,   0 zombie
%Cpu(s):  0.1 us,  0.1 sy,  0.0 ni, 99.8 id,  0.0 wa,  0.0 hi,  0.0 si,  0.0 st
KiB Mem : 16278772 total, 13765140 free,  1304376 used,  1209256 buff/cache
KiB Swap: 16630780 total, 16630780 free,        0 used. 14573888 avail Mem 

  PID USER      PR  NI    VIRT    RES    SHR S  %CPU %MEM     TIME+ COMMAND
 4728 kenenth   20   0   41908   3744   3148 R   1.0  0.0   0:00.17 top

top - 18:24:24 up  1:10,  1 user,  load average: 0.17, 0.13, 0.10
Tasks: 291 total,   1 running, 224 sleeping,   0 stopped,   0 zombie
%Cpu(s):  0.1 us,  0.1 sy,  0.0 ni, 99.8 id,  0.0 wa,  0.0 hi,  0.0 si,  0.0 st
KiB Mem : 16278772 total, 13765140 free,  1304376 used,  1209256 buff/cache
KiB Swap: 16630780 total, 16630780 free,        0 used. 14573888 avail Mem 

  PID USER      PR  NI    VIRT    RES    SHR S  %CPU %MEM     TIME+ COMMAND
 4728 kenenth   20   0   41908   3744   3148 R   2.0  0.0   0:00.19 top
 1119 root      20   0 1404968  40156  24868 S   1.0  0.2   0:07.95 containerd

top - 18:24:25 up  1:10,  1 user,  load average: 0.17, 0.13, 0.10
Tasks: 291 total,   1 running, 224 sleeping,   0 stopped,   0 zombie
%Cpu(s):  0.0 us,  0.4 sy,  0.0 ni, 99.6 id,  0.0 wa,  0.0 hi,  0.0 si,  0.0 st
KiB Mem : 16278772 total, 13765140 free,  1304376 used,  1209256 buff/cache
KiB Swap: 16630780 total, 16630780 free,        0 used. 14573888 avail Mem 

  PID USER      PR  NI    VIRT    RES    SHR S  %CPU %MEM     TIME+ COMMAND
 2219 root      20   0  522700 158000  69792 S   1.0  1.0   0:54.89 Xorg
 4728 kenenth   20   0   41908   3744   3148 R   1.0  0.0   0:00.20 top

top - 18:24:26 up  1:10,  1 user,  load average: 0.17, 0.13, 0.10
Tasks: 291 total,   1 running, 224 sleeping,   0 stopped,   0 zombie
%Cpu(s):  0.1 us,  0.1 sy,  0.0 ni, 99.8 id,  0.0 wa,  0.0 hi,  0.0 si,  0.0 st
KiB Mem : 16278772 total, 13765124 free,  1304392 used,  1209256 buff/cache
KiB Swap: 16630780 total, 16630780 free,        0 used. 14573872 avail Mem 

  PID USER      PR  NI    VIRT    RES    SHR S  %CPU %MEM     TIME+ COMMAND
 4677 kenenth   20   0 1060592  56328  32576 S   1.0  0.3   0:04.81 sublime_text
 4728 kenenth   20   0   41908   3744   3148 R   1.0  0.0   0:00.21 top

top - 18:24:27 up  1:10,  1 user,  load average: 0.16, 0.13, 0.10
Tasks: 291 total,   1 running, 224 sleeping,   0 stopped,   0 zombie
%Cpu(s):  0.2 us,  0.1 sy,  0.0 ni, 99.6 id,  0.0 wa,  0.0 hi,  0.0 si,  0.0 st
KiB Mem : 16278772 total, 13765124 free,  1304392 used,  1209256 buff/cache
KiB Swap: 16630780 total, 16630780 free,        0 used. 14573872 avail Mem 

  PID USER      PR  NI    VIRT    RES    SHR S  %CPU %MEM     TIME+ COMMAND
 1119 root      20   0 1404968  40156  24868 S   1.0  0.2   0:07.96 containerd
 2219 root      20   0  522700 158000  69792 S   1.0  1.0   0:54.90 Xorg
 2220 root     -51   0       0      0      0 S   1.0  0.0   0:06.05 irq/135-nvidia
 4728 kenenth   20   0   41908   3744   3148 R   1.0  0.0   0:00.22 top

top - 18:24:28 up  1:10,  1 user,  load average: 0.16, 0.13, 0.10
Tasks: 291 total,   1 running, 224 sleeping,   0 stopped,   0 zombie
%Cpu(s):  0.0 us,  0.2 sy,  0.0 ni, 99.8 id,  0.0 wa,  0.0 hi,  0.0 si,  0.0 st
KiB Mem : 16278772 total, 13765124 free,  1304392 used,  1209256 buff/cache
KiB Swap: 16630780 total, 16630780 free,        0 used. 14573872 avail Mem 

  PID USER      PR  NI    VIRT    RES    SHR S  %CPU %MEM     TIME+ COMMAND
  963 root      20   0  110512   3452   3112 S   1.0  0.0   0:00.60 irqbalance
 4521 root      20   0       0      0      0 I   1.0  0.0   0:00.03 kworker/u16:1
 4728 kenenth   20   0   41908   3744   3148 R   1.0  0.0   0:00.23 top

top - 18:24:29 up  1:10,  1 user,  load average: 0.16, 0.13, 0.10
Tasks: 291 total,   1 running, 224 sleeping,   0 stopped,   0 zombie
%Cpu(s):  0.1 us,  0.2 sy,  0.0 ni, 99.6 id,  0.0 wa,  0.0 hi,  0.0 si,  0.0 st
KiB Mem : 16278772 total, 13765092 free,  1304416 used,  1209264 buff/cache
KiB Swap: 16630780 total, 16630780 free,        0 used. 14573840 avail Mem 

  PID USER      PR  NI    VIRT    RES    SHR S  %CPU %MEM     TIME+ COMMAND
 4728 kenenth   20   0   41908   3744   3148 R   2.0  0.0   0:00.25 top
 1119 root      20   0 1404968  40156  24868 S   1.0  0.2   0:07.97 containerd
 2219 root      20   0  522700 158000  69792 S   1.0  1.0   0:54.91 Xorg

top - 18:24:30 up  1:10,  1 user,  load average: 0.16, 0.13, 0.10
Tasks: 291 total,   1 running, 224 sleeping,   0 stopped,   0 zombie
%Cpu(s):  0.0 us,  0.2 sy,  0.0 ni, 99.8 id,  0.0 wa,  0.0 hi,  0.0 si,  0.0 st
KiB Mem : 16278772 total, 13765092 free,  1304416 used,  1209264 buff/cache
KiB Swap: 16630780 total, 16630780 free,        0 used. 14573840 avail Mem 

  PID USER      PR  NI    VIRT    RES    SHR S  %CPU %MEM     TIME+ COMMAND
 4728 kenenth   20   0   41908   3744   3148 R   1.0  0.0   0:00.26 top

top - 18:24:31 up  1:10,  1 user,  load average: 0.16, 0.13, 0.10
Tasks: 291 total,   1 running, 224 sleeping,   0 stopped,   0 zombie
%Cpu(s):  0.1 us,  0.0 sy,  0.0 ni, 99.8 id,  0.1 wa,  0.0 hi,  0.0 si,  0.0 st
KiB Mem : 16278772 total, 13765092 free,  1304416 used,  1209264 buff/cache
KiB Swap: 16630780 total, 16630780 free,        0 used. 14573840 avail Mem 

  PID USER      PR  NI    VIRT    RES    SHR S  %CPU %MEM     TIME+ COMMAND
 4728 kenenth   20   0   41908   3744   3148 R   2.0  0.0   0:00.28 top

top - 18:24:32 up  1:10,  1 user,  load average: 0.15, 0.13, 0.10
Tasks: 291 total,   1 running, 224 sleeping,   0 stopped,   0 zombie
%Cpu(s):  0.2 us,  0.1 sy,  0.0 ni, 99.6 id,  0.0 wa,  0.0 hi,  0.0 si,  0.0 st
KiB Mem : 16278772 total, 13765092 free,  1304400 used,  1209280 buff/cache
KiB Swap: 16630780 total, 16630780 free,        0 used. 14573852 avail Mem 

  PID USER      PR  NI    VIRT    RES    SHR S  %CPU %MEM     TIME+ COMMAND
 2219 root      20   0  522700 158000  69792 S   1.0  1.0   0:54.92 Xorg
 4728 kenenth   20   0   41908   3744   3148 R   1.0  0.0   0:00.29 top

top - 18:24:33 up  1:10,  1 user,  load average: 0.15, 0.13, 0.10
Tasks: 291 total,   1 running, 224 sleeping,   0 stopped,   0 zombie
%Cpu(s):  0.2 us,  0.1 sy,  0.0 ni, 99.6 id,  0.0 wa,  0.0 hi,  0.0 si,  0.0 st
KiB Mem : 16278772 total, 13765092 free,  1304400 used,  1209280 buff/cache
KiB Swap: 16630780 total, 16630780 free,        0 used. 14573852 avail Mem 

  PID USER      PR  NI    VIRT    RES    SHR S  %CPU %MEM     TIME+ COMMAND
 2219 root      20   0  522700 158000  69792 S   1.0  1.0   0:54.93 Xorg
 2425 kenenth   20   0 3573356 278180  95860 S   1.0  1.7   2:00.92 gnome-shell
 4728 kenenth   20   0   41908   3744   3148 R   1.0  0.0   0:00.30 top

top - 18:24:34 up  1:10,  1 user,  load average: 0.15, 0.13, 0.10
Tasks: 291 total,   1 running, 224 sleeping,   0 stopped,   0 zombie
%Cpu(s):  0.1 us,  0.2 sy,  0.0 ni, 99.6 id,  0.0 wa,  0.0 hi,  0.0 si,  0.0 st
KiB Mem : 16278772 total, 13765092 free,  1304400 used,  1209280 buff/cache
KiB Swap: 16630780 total, 16630780 free,        0 used. 14573852 avail Mem 

  PID USER      PR  NI    VIRT    RES    SHR S  %CPU %MEM     TIME+ COMMAND
 1002 root      20   0 1089020  28908  17944 S   2.0  0.2   0:01.34 snapd
 4677 kenenth   20   0 1060592  56328  32576 S   1.0  0.3   0:04.82 sublime_text
 4728 kenenth   20   0   41908   3744   3148 R   1.0  0.0   0:00.31 top

top - 18:24:35 up  1:10,  1 user,  load average: 0.15, 0.13, 0.10
Tasks: 291 total,   1 running, 224 sleeping,   0 stopped,   0 zombie
%Cpu(s):  0.1 us,  0.2 sy,  0.0 ni, 99.6 id,  0.0 wa,  0.0 hi,  0.0 si,  0.0 st
KiB Mem : 16278772 total, 13765060 free,  1304432 used,  1209280 buff/cache
KiB Swap: 16630780 total, 16630780 free,        0 used. 14573820 avail Mem 

  PID USER      PR  NI    VIRT    RES    SHR S  %CPU %MEM     TIME+ COMMAND
 4728 kenenth   20   0   41908   3744   3148 R   1.0  0.0   0:00.32 top

top - 18:24:36 up  1:10,  1 user,  load average: 0.15, 0.13, 0.10
Tasks: 291 total,   1 running, 224 sleeping,   0 stopped,   0 zombie
%Cpu(s):  0.0 us,  0.2 sy,  0.0 ni, 99.8 id,  0.0 wa,  0.0 hi,  0.0 si,  0.0 st
KiB Mem : 16278772 total, 13765060 free,  1304432 used,  1209280 buff/cache
KiB Swap: 16630780 total, 16630780 free,        0 used. 14573820 avail Mem 

  PID USER      PR  NI    VIRT    RES    SHR S  %CPU %MEM     TIME+ COMMAND
 4728 kenenth   20   0   41908   3744   3148 R   2.0  0.0   0:00.34 top
 1119 root      20   0 1404968  40156  24868 S   1.0  0.2   0:07.98 containerd
 2219 root      20   0  522700 158000  69792 S   1.0  1.0   0:54.94 Xorg

top - 18:24:37 up  1:10,  1 user,  load average: 0.13, 0.13, 0.10
Tasks: 291 total,   1 running, 224 sleeping,   0 stopped,   0 zombie
%Cpu(s):  0.2 us,  0.1 sy,  0.0 ni, 99.6 id,  0.0 wa,  0.0 hi,  0.0 si,  0.0 st
KiB Mem : 16278772 total, 13765060 free,  1304432 used,  1209280 buff/cache
KiB Swap: 16630780 total, 16630780 free,        0 used. 14573820 avail Mem 

  PID USER      PR  NI    VIRT    RES    SHR S  %CPU %MEM     TIME+ COMMAND
  938 root      20   0  699064  18528  13812 S   1.0  0.1   0:04.09 NetworkManager
  949 avahi     20   0   47492   3964   3292 S   1.0  0.0   0:01.48 avahi-daemon
 4728 kenenth   20   0   41908   3744   3148 R   1.0  0.0   0:00.35 top

top - 18:24:38 up  1:10,  1 user,  load average: 0.13, 0.13, 0.10
Tasks: 291 total,   1 running, 224 sleeping,   0 stopped,   0 zombie
%Cpu(s):  0.0 us,  0.4 sy,  0.0 ni, 99.6 id,  0.0 wa,  0.0 hi,  0.0 si,  0.0 st
KiB Mem : 16278772 total, 13765028 free,  1304448 used,  1209296 buff/cache
KiB Swap: 16630780 total, 16630780 free,        0 used. 14573788 avail Mem 

  PID USER      PR  NI    VIRT    RES    SHR S  %CPU %MEM     TIME+ COMMAND
 2219 root      20   0  522700 158000  69792 S   1.0  1.0   0:54.95 Xorg
 4728 kenenth   20   0   41908   3744   3148 R   1.0  0.0   0:00.36 top

top - 18:24:39 up  1:10,  1 user,  load average: 0.13, 0.13, 0.10
Tasks: 291 total,   1 running, 224 sleeping,   0 stopped,   0 zombie
%Cpu(s):  0.2 us,  0.1 sy,  0.0 ni, 99.6 id,  0.0 wa,  0.0 hi,  0.0 si,  0.0 st
KiB Mem : 16278772 total, 13765028 free,  1304448 used,  1209296 buff/cache
KiB Swap: 16630780 total, 16630780 free,        0 used. 14573788 avail Mem 

  PID USER      PR  NI    VIRT    RES    SHR S  %CPU %MEM     TIME+ COMMAND
 4728 kenenth   20   0   41908   3744   3148 R   2.0  0.0   0:00.38 top
 1119 root      20   0 1404968  40156  24868 S   1.0  0.2   0:07.99 containerd

top - 18:24:40 up  1:10,  1 user,  load average: 0.13, 0.13, 0.10
Tasks: 291 total,   1 running, 224 sleeping,   0 stopped,   0 zombie
%Cpu(s):  0.0 us,  0.2 sy,  0.0 ni, 99.8 id,  0.0 wa,  0.0 hi,  0.0 si,  0.0 st
KiB Mem : 16278772 total, 13765028 free,  1304448 used,  1209296 buff/cache
KiB Swap: 16630780 total, 16630780 free,        0 used. 14573788 avail Mem 

  PID USER      PR  NI    VIRT    RES    SHR S  %CPU %MEM     TIME+ COMMAND
    8 root      20   0       0      0      0 I   1.0  0.0   0:00.97 rcu_sched
 2219 root      20   0  522700 158000  69792 S   1.0  1.0   0:54.96 Xorg
 4728 kenenth   20   0   41908   3744   3148 R   1.0  0.0   0:00.39 top

top - 18:24:41 up  1:10,  1 user,  load average: 0.13, 0.13, 0.10
Tasks: 291 total,   1 running, 224 sleeping,   0 stopped,   0 zombie
%Cpu(s):  0.2 us,  0.2 sy,  0.0 ni, 99.5 id,  0.0 wa,  0.0 hi,  0.0 si,  0.0 st
KiB Mem : 16278772 total, 13765028 free,  1304448 used,  1209296 buff/cache
KiB Swap: 16630780 total, 16630780 free,        0 used. 14573792 avail Mem 

  PID USER      PR  NI    VIRT    RES    SHR S  %CPU %MEM     TIME+ COMMAND
 2219 root      20   0  522700 158000  69792 S   1.0  1.0   0:54.97 Xorg
 4728 kenenth   20   0   41908   3744   3148 R   1.0  0.0   0:00.40 top

top - 18:24:42 up  1:10,  1 user,  load average: 0.12, 0.12, 0.10
Tasks: 291 total,   1 running, 224 sleeping,   0 stopped,   0 zombie
%Cpu(s):  0.2 us,  0.2 sy,  0.0 ni, 99.5 id,  0.0 wa,  0.0 hi,  0.0 si,  0.0 st
KiB Mem : 16278772 total, 13765028 free,  1304448 used,  1209296 buff/cache
KiB Swap: 16630780 total, 16630780 free,        0 used. 14573792 avail Mem 

  PID USER      PR  NI    VIRT    RES    SHR S  %CPU %MEM     TIME+ COMMAND
 4677 kenenth   20   0 1060592  56328  32576 S   1.0  0.3   0:04.83 sublime_text
 4728 kenenth   20   0   41908   3744   3148 R   1.0  0.0   0:00.41 top

top - 18:24:43 up  1:10,  1 user,  load average: 0.12, 0.12, 0.10
Tasks: 291 total,   1 running, 224 sleeping,   0 stopped,   0 zombie
%Cpu(s):  0.1 us,  0.1 sy,  0.0 ni, 99.8 id,  0.0 wa,  0.0 hi,  0.0 si,  0.0 st
KiB Mem : 16278772 total, 13765028 free,  1304448 used,  1209296 buff/cache
KiB Swap: 16630780 total, 16630780 free,        0 used. 14573792 avail Mem 

  PID USER      PR  NI    VIRT    RES    SHR S  %CPU %MEM     TIME+ COMMAND
 2219 root      20   0  522700 158000  69792 S   1.0  1.0   0:54.98 Xorg
 4728 kenenth   20   0   41908   3744   3148 R   1.0  0.0   0:00.42 top

top - 18:24:44 up  1:10,  1 user,  load average: 0.12, 0.12, 0.10
Tasks: 291 total,   1 running, 224 sleeping,   0 stopped,   0 zombie
%Cpu(s):  0.0 us,  0.2 sy,  0.0 ni, 99.8 id,  0.0 wa,  0.0 hi,  0.0 si,  0.0 st
KiB Mem : 16278772 total, 13764996 free,  1304464 used,  1209312 buff/cache
KiB Swap: 16630780 total, 16630780 free,        0 used. 14573812 avail Mem 

  PID USER      PR  NI    VIRT    RES    SHR S  %CPU %MEM     TIME+ COMMAND
 4728 kenenth   20   0   41908   3744   3148 R   2.0  0.0   0:00.44 top

top - 18:24:45 up  1:10,  1 user,  load average: 0.12, 0.12, 0.10
Tasks: 291 total,   1 running, 224 sleeping,   0 stopped,   0 zombie
%Cpu(s):  0.1 us,  0.1 sy,  0.0 ni, 99.8 id,  0.0 wa,  0.0 hi,  0.0 si,  0.0 st
KiB Mem : 16278772 total, 13764996 free,  1304464 used,  1209312 buff/cache
KiB Swap: 16630780 total, 16630780 free,        0 used. 14573812 avail Mem 

  PID USER      PR  NI    VIRT    RES    SHR S  %CPU %MEM     TIME+ COMMAND
 1119 root      20   0 1404968  40156  24868 S   2.0  0.2   0:08.01 containerd
 2219 root      20   0  522700 158000  69792 S   1.0  1.0   0:54.99 Xorg
 4728 kenenth   20   0   41908   3744   3148 R   1.0  0.0   0:00.45 top

top - 18:24:46 up  1:10,  1 user,  load average: 0.12, 0.12, 0.10
Tasks: 291 total,   1 running, 224 sleeping,   0 stopped,   0 zombie
%Cpu(s):  0.1 us,  0.2 sy,  0.0 ni, 99.5 id,  0.1 wa,  0.0 hi,  0.0 si,  0.0 st
KiB Mem : 16278772 total, 13764996 free,  1304464 used,  1209312 buff/cache
KiB Swap: 16630780 total, 16630780 free,        0 used. 14573812 avail Mem 

  PID USER      PR  NI    VIRT    RES    SHR S  %CPU %MEM     TIME+ COMMAND
 4728 kenenth   20   0   41908   3744   3148 R   1.0  0.0   0:00.46 top

top - 18:24:47 up  1:10,  1 user,  load average: 0.11, 0.12, 0.10
Tasks: 291 total,   1 running, 224 sleeping,   0 stopped,   0 zombie
%Cpu(s):  0.1 us,  0.2 sy,  0.0 ni, 99.6 id,  0.0 wa,  0.0 hi,  0.0 si,  0.0 st
KiB Mem : 16278772 total, 13764996 free,  1304456 used,  1209320 buff/cache
KiB Swap: 16630780 total, 16630780 free,        0 used. 14573812 avail Mem 

  PID USER      PR  NI    VIRT    RES    SHR S  %CPU %MEM     TIME+ COMMAND
 4728 kenenth   20   0   41908   3744   3148 R   1.0  0.0   0:00.47 top

top - 18:24:48 up  1:10,  1 user,  load average: 0.11, 0.12, 0.10
Tasks: 291 total,   1 running, 224 sleeping,   0 stopped,   0 zombie
%Cpu(s):  0.1 us,  0.1 sy,  0.0 ni, 99.8 id,  0.0 wa,  0.0 hi,  0.0 si,  0.0 st
KiB Mem : 16278772 total, 13764996 free,  1304456 used,  1209320 buff/cache
KiB Swap: 16630780 total, 16630780 free,        0 used. 14573812 avail Mem 

  PID USER      PR  NI    VIRT    RES    SHR S  %CPU %MEM     TIME+ COMMAND
 2219 root      20   0  522700 158000  69792 S   1.0  1.0   0:55.00 Xorg
 4728 kenenth   20   0   41908   3744   3148 R   1.0  0.0   0:00.48 top

top - 18:24:49 up  1:10,  1 user,  load average: 0.11, 0.12, 0.10
Tasks: 291 total,   1 running, 224 sleeping,   0 stopped,   0 zombie
%Cpu(s):  0.1 us,  0.2 sy,  0.0 ni, 99.6 id,  0.0 wa,  0.0 hi,  0.0 si,  0.0 st
KiB Mem : 16278772 total, 13764996 free,  1304456 used,  1209320 buff/cache
KiB Swap: 16630780 total, 16630780 free,        0 used. 14573812 avail Mem 

  PID USER      PR  NI    VIRT    RES    SHR S  %CPU %MEM     TIME+ COMMAND
 4728 kenenth   20   0   41908   3744   3148 R   2.0  0.0   0:00.50 top
 4734 kenenth   20   0   16392   1184   1076 S   1.0  0.0   0:00.01 ping

top - 18:24:50 up  1:10,  1 user,  load average: 0.11, 0.12, 0.10
Tasks: 279 total,   1 running, 213 sleeping,   0 stopped,   0 zombie
%Cpu(s):  0.4 us,  0.1 sy,  0.0 ni, 99.5 id,  0.0 wa,  0.0 hi,  0.0 si,  0.0 st
KiB Mem : 16278772 total, 13765400 free,  1304048 used,  1209324 buff/cache
KiB Swap: 16630780 total, 16630780 free,        0 used. 14574228 avail Mem 

  PID USER      PR  NI    VIRT    RES    SHR S  %CPU %MEM     TIME+ COMMAND
 1709 root      20   0 1754244  73132  38468 S   1.0  0.4   0:02.98 dockerd
 2219 root      20   0  522700 158000  69792 S   1.0  1.0   0:55.01 Xorg
 2220 root     -51   0       0      0      0 S   1.0  0.0   0:06.06 irq/135-nvidia
 2425 kenenth   20   0 3573356 278180  95860 S   1.0  1.7   2:00.93 gnome-shell
 4677 kenenth   20   0 1060592  56328  32576 S   1.0  0.3   0:04.84 sublime_text
 4728 kenenth   20   0   41908   3744   3148 R   1.0  0.0   0:00.51 top

top - 18:24:51 up  1:10,  1 user,  load average: 0.11, 0.12, 0.10
Tasks: 279 total,   1 running, 213 sleeping,   0 stopped,   0 zombie
%Cpu(s):  0.1 us,  0.1 sy,  0.0 ni, 99.8 id,  0.0 wa,  0.0 hi,  0.0 si,  0.0 st
KiB Mem : 16278772 total, 13765400 free,  1304048 used,  1209324 buff/cache
KiB Swap: 16630780 total, 16630780 free,        0 used. 14574228 avail Mem 

  PID USER      PR  NI    VIRT    RES    SHR S  %CPU %MEM     TIME+ COMMAND
 4728 kenenth   20   0   41908   3744   3148 R   1.0  0.0   0:00.52 top
