     1	1366520 
     2	1366520 
     3	1366520 
     4	1927848 
     5	1927848 
     6	1927848 
     7	1610996 
     8	1610996 
     9	1610996 
    10	1425048 
    11	1425048 
    12	1425048 
    13	1958700 
    14	1958700 
    15	1958700 
    16	1709932 
    17	1709932 
    18	1709932 
    19	1522620 
    20	1522620 
    21	1522620 
    22	1461836 
    23	1461836 
    24	1461836 
    25	1461820 
    26	1461820 
    27	1461828 
    28	1461828 
    29	1461828 
    30	1461692 
    31	1461692 
    32	1461692 
    33	1455744 
    34	1455744 
    35	1455744 
    36	1455720 
    37	1455720 
    38	1455720 
    39	1455704 
    40	1455704 
    41	1455704 
    42	1449724 
    43	1449724 
    44	1449724 
    45	1449680 
    46	1449680 
    47	1449680 
    48	1449652 
    49	1449652 
    50	1449652 
    51	1449500 
    52	1449500 
    53	1449500 
    54	1453340 
    55	1453340 
    56	1453340 
    57	1430908 
    58	1430908 
    59	1430908 
    60	1423244 
    61	1423244 
    62	1423244 
    63	1412848 
    64	1412848 
    65	1412848 
    66	1405184 
    67	1405184 
    68	1405184 
