top - 21:40:28 up 56 min,  1 user,  load average: 0.01, 0.50, 1.27
Tasks: 375 total,   2 running, 313 sleeping,   0 stopped,   0 zombie
%Cpu(s):  3.7 us,  1.6 sy,  0.1 ni, 94.6 id,  0.1 wa,  0.0 hi,  0.0 si,  0.0 st
KiB Mem : 16278768 total, 12250188 free,  1377836 used,  2650744 buff/cache
KiB Swap: 16630780 total, 16630780 free,        0 used. 14450608 avail Mem 

  PID USER      PR  NI    VIRT    RES    SHR S  %CPU %MEM     TIME+ COMMAND
26005 kenenth   20   0   41908   3864   3204 R  17.6  0.0   0:00.03 top
  224 root      20   0       0      0      0 I   5.9  0.0   0:00.40 kworker/3:2
  703 systemd+  20   0   70748   5204   4648 S   5.9  0.0   0:01.79 systemd-re+

top - 21:40:29 up 56 min,  1 user,  load average: 0.01, 0.50, 1.27
Tasks: 375 total,   1 running, 314 sleeping,   0 stopped,   0 zombie
%Cpu(s):  0.4 us,  0.5 sy,  0.0 ni, 98.9 id,  0.0 wa,  0.0 hi,  0.2 si,  0.0 st
KiB Mem : 16278768 total, 12250188 free,  1377836 used,  2650744 buff/cache
KiB Swap: 16630780 total, 16630780 free,        0 used. 14450608 avail Mem 

  PID USER      PR  NI    VIRT    RES    SHR S  %CPU %MEM     TIME+ COMMAND
  703 systemd+  20   0   70748   5204   4648 S   2.9  0.0   0:01.82 systemd-re+
26005 kenenth   20   0   41908   3864   3204 R   2.9  0.0   0:00.06 top
   28 root      20   0       0      0      0 S   1.0  0.0   0:00.36 ksoftirqd/3
 1985 kenenth   20   0 3537580 241628  96100 S   1.0  1.5   1:51.74 gnome-shell

top - 21:40:30 up 56 min,  1 user,  load average: 0.01, 0.50, 1.27
Tasks: 375 total,   1 running, 314 sleeping,   0 stopped,   0 zombie
%Cpu(s):  0.5 us,  0.4 sy,  0.0 ni, 99.0 id,  0.0 wa,  0.0 hi,  0.1 si,  0.0 st
KiB Mem : 16278768 total, 12250188 free,  1377836 used,  2650744 buff/cache
KiB Swap: 16630780 total, 16630780 free,        0 used. 14450608 avail Mem 

  PID USER      PR  NI    VIRT    RES    SHR S  %CPU %MEM     TIME+ COMMAND
 1129 root      20   0 4971932  40584  25012 S   1.0  0.2   0:15.00 containerd
 1780 root      20   0  433932  94760  61668 S   1.0  0.6   0:48.83 Xorg
26005 kenenth   20   0   41908   3864   3204 R   1.0  0.0   0:00.07 top

top - 21:40:31 up 56 min,  1 user,  load average: 0.01, 0.49, 1.27
Tasks: 375 total,   1 running, 314 sleeping,   0 stopped,   0 zombie
%Cpu(s):  0.2 us,  0.4 sy,  0.0 ni, 99.4 id,  0.0 wa,  0.0 hi,  0.0 si,  0.0 st
KiB Mem : 16278768 total, 12248956 free,  1379008 used,  2650804 buff/cache
KiB Swap: 16630780 total, 16630780 free,        0 used. 14449412 avail Mem 

  PID USER      PR  NI    VIRT    RES    SHR S  %CPU %MEM     TIME+ COMMAND
 1985 kenenth   20   0 3537580 241628  96100 S   2.0  1.5   1:51.76 gnome-shell
26005 kenenth   20   0   41908   3864   3204 R   2.0  0.0   0:00.09 top
   28 root      20   0       0      0      0 S   1.0  0.0   0:00.37 ksoftirqd/3
 1781 root     -51   0       0      0      0 S   1.0  0.0   0:05.79 irq/135-nv+

top - 21:40:32 up 56 min,  1 user,  load average: 0.01, 0.49, 1.27
Tasks: 375 total,   1 running, 314 sleeping,   0 stopped,   0 zombie
%Cpu(s):  0.2 us,  0.2 sy,  0.0 ni, 99.4 id,  0.0 wa,  0.0 hi,  0.1 si,  0.0 st
KiB Mem : 16278768 total, 12248956 free,  1379008 used,  2650804 buff/cache
KiB Swap: 16630780 total, 16630780 free,        0 used. 14449412 avail Mem 

  PID USER      PR  NI    VIRT    RES    SHR S  %CPU %MEM     TIME+ COMMAND
 1780 root      20   0  433932  94760  61668 S   1.0  0.6   0:48.84 Xorg
26005 kenenth   20   0   41908   3864   3204 R   1.0  0.0   0:00.10 top

top - 21:40:33 up 57 min,  1 user,  load average: 0.01, 0.49, 1.27
Tasks: 375 total,   1 running, 314 sleeping,   0 stopped,   0 zombie
%Cpu(s):  0.0 us,  0.4 sy,  0.0 ni, 99.4 id,  0.0 wa,  0.0 hi,  0.2 si,  0.0 st
KiB Mem : 16278768 total, 12248956 free,  1379008 used,  2650804 buff/cache
KiB Swap: 16630780 total, 16630780 free,        0 used. 14449412 avail Mem 

  PID USER      PR  NI    VIRT    RES    SHR S  %CPU %MEM     TIME+ COMMAND
26005 kenenth   20   0   41908   3864   3204 R   2.0  0.0   0:00.12 top
  296 root      19  -1  170064  76944  75008 S   1.0  0.5   0:09.39 systemd-jo+
 1780 root      20   0  433932  94760  61668 S   1.0  0.6   0:48.85 Xorg
 1985 kenenth   20   0 3537580 241628  96100 S   1.0  1.5   1:51.77 gnome-shell

top - 21:40:34 up 57 min,  1 user,  load average: 0.01, 0.49, 1.27
Tasks: 375 total,   1 running, 314 sleeping,   0 stopped,   0 zombie
%Cpu(s):  0.2 us,  0.4 sy,  0.0 ni, 99.4 id,  0.0 wa,  0.0 hi,  0.0 si,  0.0 st
KiB Mem : 16278768 total, 12248956 free,  1378976 used,  2650836 buff/cache
KiB Swap: 16630780 total, 16630780 free,        0 used. 14449424 avail Mem 

  PID USER      PR  NI    VIRT    RES    SHR S  %CPU %MEM     TIME+ COMMAND
 1780 root      20   0  433932  94760  61668 S   1.0  0.6   0:48.86 Xorg
 1985 kenenth   20   0 3537580 241628  96100 S   1.0  1.5   1:51.78 gnome-shell
 2137 kenenth   20   0  661116  23020  17816 S   1.0  0.1   0:00.44 gsd-color
26005 kenenth   20   0   41908   3864   3204 R   1.0  0.0   0:00.13 top

top - 21:40:35 up 57 min,  1 user,  load average: 0.01, 0.48, 1.26
Tasks: 375 total,   1 running, 314 sleeping,   0 stopped,   0 zombie
%Cpu(s):  0.7 us,  0.6 sy,  0.0 ni, 98.7 id,  0.0 wa,  0.0 hi,  0.0 si,  0.0 st
KiB Mem : 16278768 total, 12248956 free,  1378976 used,  2650836 buff/cache
KiB Swap: 16630780 total, 16630780 free,        0 used. 14449424 avail Mem 

  PID USER      PR  NI    VIRT    RES    SHR S  %CPU %MEM     TIME+ COMMAND
 2332 root      20   0 6049484 102324  38500 S   3.9  0.6   0:41.06 dockerd
26005 kenenth   20   0   41908   3864   3204 R   2.9  0.0   0:00.16 top
 1781 root     -51   0       0      0      0 S   1.0  0.0   0:05.80 irq/135-nv+

top - 21:40:36 up 57 min,  1 user,  load average: 0.01, 0.48, 1.26
Tasks: 375 total,   1 running, 314 sleeping,   0 stopped,   0 zombie
%Cpu(s):  0.5 us,  0.2 sy,  0.0 ni, 99.3 id,  0.0 wa,  0.0 hi,  0.0 si,  0.0 st
KiB Mem : 16278768 total, 12248956 free,  1378976 used,  2650836 buff/cache
KiB Swap: 16630780 total, 16630780 free,        0 used. 14449424 avail Mem 

  PID USER      PR  NI    VIRT    RES    SHR S  %CPU %MEM     TIME+ COMMAND
26005 kenenth   20   0   41908   3864   3204 R   1.9  0.0   0:00.18 top
   22 root      20   0       0      0      0 S   1.0  0.0   0:00.27 ksoftirqd/2
 1780 root      20   0  433932  94760  61668 S   1.0  0.6   0:48.87 Xorg
 1985 kenenth   20   0 3537580 241628  96100 S   1.0  1.5   1:51.79 gnome-shell
27967 kenenth   20   0  794420  37656  28220 S   1.0  0.2   0:02.45 gnome-term+

top - 21:40:37 up 57 min,  1 user,  load average: 0.01, 0.48, 1.26
Tasks: 365 total,   1 running, 304 sleeping,   0 stopped,   0 zombie
%Cpu(s):  0.4 us,  0.4 sy,  0.0 ni, 99.1 id,  0.0 wa,  0.0 hi,  0.1 si,  0.0 st
KiB Mem : 16278768 total, 12251512 free,  1376412 used,  2650844 buff/cache
KiB Swap: 16630780 total, 16630780 free,        0 used. 14451984 avail Mem 

  PID USER      PR  NI    VIRT    RES    SHR S  %CPU %MEM     TIME+ COMMAND
   28 root      20   0       0      0      0 S   1.0  0.0   0:00.38 ksoftirqd/3
 1780 root      20   0  433932  94760  61668 S   1.0  0.6   0:48.88 Xorg
26005 kenenth   20   0   41908   3864   3204 R   1.0  0.0   0:00.19 top