ping_25 | round-trip min/avg/max = 79.612/79.877/80.088 ms
ping_17 | round-trip min/avg/max = 79.746/80.090/81.173 ms
ping_22 | round-trip min/avg/max = 79.671/80.640/86.820 ms
ping_16 | round-trip min/avg/max = 79.662/80.430/83.541 ms
ping_26 | round-trip min/avg/max = 79.662/81.063/84.454 ms
ping_18 | round-trip min/avg/max = 79.675/80.213/81.295 ms
ping_11 | round-trip min/avg/max = 79.722/79.948/80.739 ms
ping_2  | round-trip min/avg/max = 79.659/80.341/85.629 ms
ping_37 | round-trip min/avg/max = 79.714/79.979/80.868 ms
ping_20 | round-trip min/avg/max = 79.654/79.936/81.455 ms
ping_34 | round-trip min/avg/max = 79.688/79.920/80.232 ms
ping_1  | round-trip min/avg/max = 79.638/80.071/81.678 ms
ping_32 | round-trip min/avg/max = 79.622/79.857/80.211 ms
ping_23 | round-trip min/avg/max = 79.761/80.332/83.024 ms
ping_38 | round-trip min/avg/max = 79.742/79.887/80.202 ms
ping_39 | round-trip min/avg/max = 79.689/80.098/81.526 ms
ping_29 | round-trip min/avg/max = 79.651/79.985/80.407 ms
ping_19 | round-trip min/avg/max = 79.651/79.854/80.265 ms
ping_31 | round-trip min/avg/max = 79.691/80.173/81.355 ms
ping_3  | round-trip min/avg/max = 79.642/79.791/79.963 ms
ping_30 | round-trip min/avg/max = 79.728/79.894/80.159 ms
ping_40 | round-trip min/avg/max = 79.683/79.952/81.003 ms
ping_10 | round-trip min/avg/max = 79.771/81.678/95.835 ms
ping_21 | round-trip min/avg/max = 79.662/79.825/80.112 ms
ping_35 | round-trip min/avg/max = 79.755/80.049/81.778 ms
ping_27 | round-trip min/avg/max = 79.734/80.005/81.168 ms
ping_28 | round-trip min/avg/max = 79.773/80.034/81.038 ms
ping_9  | round-trip min/avg/max = 79.676/79.891/80.274 ms
ping_12 | round-trip min/avg/max = 79.679/79.913/80.438 ms
ping_4  | round-trip min/avg/max = 79.726/79.888/80.283 ms
ping_13 | round-trip min/avg/max = 79.693/80.682/85.669 ms
ping_24 | round-trip min/avg/max = 79.695/79.927/80.479 ms
ping_8  | round-trip min/avg/max = 79.700/79.978/80.613 ms
ping_7  | round-trip min/avg/max = 79.665/79.890/80.398 ms
ping_15 | round-trip min/avg/max = 79.674/80.074/82.719 ms
ping_14 | round-trip min/avg/max = 79.722/79.922/80.332 ms
ping_71 | round-trip min/avg/max = 79.688/80.021/80.609 ms
ping_74 | round-trip min/avg/max = 79.780/79.922/80.437 ms
ping_5  | round-trip min/avg/max = 79.687/80.225/82.022 ms
ping_6  | round-trip min/avg/max = 79.644/80.487/84.672 ms
ping_98 | round-trip min/avg/max = 79.718/80.185/82.796 ms
ping_85 | round-trip min/avg/max = 79.822/80.036/80.824 ms
ping_43 | round-trip min/avg/max = 79.679/80.281/82.385 ms
ping_33 | round-trip min/avg/max = 79.679/79.971/80.558 ms
ping_41 | round-trip min/avg/max = 79.746/80.164/81.867 ms
ping_36 | round-trip min/avg/max = 79.662/79.896/80.823 ms
ping_54 | round-trip min/avg/max = 79.792/80.198/81.909 ms
ping_84 | round-trip min/avg/max = 79.686/79.956/80.353 ms
ping_45 | round-trip min/avg/max = 79.714/79.953/80.453 ms
ping_63 | round-trip min/avg/max = 79.717/80.024/80.849 ms
ping_65 | round-trip min/avg/max = 79.769/80.125/81.499 ms
ping_59 | round-trip min/avg/max = 79.685/79.925/80.229 ms
ping_72 | round-trip min/avg/max = 79.642/80.013/80.229 ms
ping_100 | round-trip min/avg/max = 79.744/79.962/81.003 ms
ping_57 | round-trip min/avg/max = 79.690/79.954/80.861 ms
ping_47 | round-trip min/avg/max = 79.702/79.866/80.156 ms
ping_58 | round-trip min/avg/max = 79.727/79.988/80.194 ms
ping_69 | round-trip min/avg/max = 79.728/80.050/81.059 ms
ping_49 | round-trip min/avg/max = 79.729/80.035/81.321 ms
ping_52 | round-trip min/avg/max = 79.708/79.901/80.478 ms
ping_60 | round-trip min/avg/max = 79.697/80.097/81.254 ms
ping_53 | round-trip min/avg/max = 79.748/79.997/80.797 ms
ping_99 | round-trip min/avg/max = 79.719/79.945/80.270 ms
ping_67 | round-trip min/avg/max = 79.747/79.910/80.320 ms
ping_82 | round-trip min/avg/max = 79.766/80.088/81.266 ms
ping_51 | round-trip min/avg/max = 79.729/79.956/80.831 ms
ping_61 | round-trip min/avg/max = 79.741/79.964/80.421 ms
ping_68 | round-trip min/avg/max = 79.713/79.924/80.221 ms
ping_46 | round-trip min/avg/max = 79.703/79.894/80.296 ms
ping_79 | round-trip min/avg/max = 79.664/79.875/80.343 ms
ping_42 | round-trip min/avg/max = 79.690/79.904/80.141 ms
ping_81 | round-trip min/avg/max = 79.734/79.850/80.072 ms
ping_80 | round-trip min/avg/max = 79.711/79.976/80.484 ms
ping_91 | round-trip min/avg/max = 79.691/80.128/81.063 ms
ping_55 | round-trip min/avg/max = 79.744/80.327/81.611 ms
ping_86 | round-trip min/avg/max = 79.730/79.877/80.035 ms
ping_78 | round-trip min/avg/max = 79.696/79.899/80.298 ms
ping_93 | round-trip min/avg/max = 79.703/79.919/80.254 ms
ping_62 | round-trip min/avg/max = 79.684/79.946/80.411 ms
ping_73 | round-trip min/avg/max = 79.697/79.876/80.238 ms
ping_94 | round-trip min/avg/max = 79.725/80.123/81.254 ms
ping_88 | round-trip min/avg/max = 79.709/80.066/82.405 ms
ping_66 | round-trip min/avg/max = 79.696/79.967/80.305 ms
ping_87 | round-trip min/avg/max = 79.721/80.027/80.695 ms
ping_92 | round-trip min/avg/max = 79.684/80.333/82.566 ms
ping_77 | round-trip min/avg/max = 79.714/79.979/80.534 ms
ping_83 | round-trip min/avg/max = 79.671/80.036/81.070 ms
ping_50 | round-trip min/avg/max = 79.698/79.928/80.373 ms
ping_48 | round-trip min/avg/max = 79.758/80.085/81.615 ms
ping_56 | round-trip min/avg/max = 79.845/80.095/80.798 ms
ping_97 | round-trip min/avg/max = 79.745/80.206/83.308 ms
ping_96 | round-trip min/avg/max = 79.743/80.002/80.352 ms
ping_76 | round-trip min/avg/max = 79.732/80.110/82.265 ms
ping_89 | round-trip min/avg/max = 79.774/79.939/80.312 ms
ping_70 | round-trip min/avg/max = 79.726/80.123/81.428 ms
ping_64 | round-trip min/avg/max = 79.696/80.511/84.683 ms
ping_44 | round-trip min/avg/max = 79.714/80.068/81.156 ms
ping_95 | round-trip min/avg/max = 79.723/79.895/80.164 ms
ping_75 | round-trip min/avg/max = 79.757/80.370/82.410 ms
ping_90 | round-trip min/avg/max = 79.663/80.010/80.432 ms
