PING nyc.speedtest.sbcglobal.net (99.24.18.25) 56(84) bytes of data.
64 bytes from nyc.speedtest.sbcglobal.net (99.24.18.25): icmp_seq=1 ttl=51 time=80.0 ms
PING nyc.speedtest.sbcglobal.net (99.24.18.25) 56(84) bytes of data.
64 bytes from nyc.speedtest.sbcglobal.net (99.24.18.25): icmp_seq=1 ttl=51 time=80.1 ms
PING nyc.speedtest.sbcglobal.net (99.24.18.25) 56(84) bytes of data.
64 bytes from nyc.speedtest.sbcglobal.net (99.24.18.25): icmp_seq=1 ttl=51 time=80.0 ms
PING nyc.speedtest.sbcglobal.net (99.24.18.25) 56(84) bytes of data.
64 bytes from nyc.speedtest.sbcglobal.net (99.24.18.25): icmp_seq=1 ttl=51 time=79.7 ms
PING nyc.speedtest.sbcglobal.net (99.24.18.25) 56(84) bytes of data.
64 bytes from nyc.speedtest.sbcglobal.net (99.24.18.25): icmp_seq=1 ttl=51 time=79.9 ms
PING nyc.speedtest.sbcglobal.net (99.24.18.25) 56(84) bytes of data.
64 bytes from nyc.speedtest.sbcglobal.net (99.24.18.25): icmp_seq=1 ttl=51 time=79.9 ms
PING nyc.speedtest.sbcglobal.net (99.24.18.25) 56(84) bytes of data.
64 bytes from nyc.speedtest.sbcglobal.net (99.24.18.25): icmp_seq=1 ttl=51 time=79.6 ms
PING nyc.speedtest.sbcglobal.net (99.24.18.25) 56(84) bytes of data.
64 bytes from nyc.speedtest.sbcglobal.net (99.24.18.25): icmp_seq=1 ttl=51 time=79.7 ms
PING nyc.speedtest.sbcglobal.net (99.24.18.25) 56(84) bytes of data.
64 bytes from nyc.speedtest.sbcglobal.net (99.24.18.25): icmp_seq=1 ttl=51 time=79.6 ms
PING nyc.speedtest.sbcglobal.net (99.24.18.25) 56(84) bytes of data.
64 bytes from nyc.speedtest.sbcglobal.net (99.24.18.25): icmp_seq=1 ttl=51 time=79.6 ms
PING nyc.speedtest.sbcglobal.net (99.24.18.25) 56(84) bytes of data.
64 bytes from nyc.speedtest.sbcglobal.net (99.24.18.25): icmp_seq=1 ttl=51 time=79.6 ms
PING nyc.speedtest.sbcglobal.net (99.24.18.25) 56(84) bytes of data.
64 bytes from nyc.speedtest.sbcglobal.net (99.24.18.25): icmp_seq=1 ttl=51 time=79.6 ms
PING nyc.speedtest.sbcglobal.net (99.24.18.25) 56(84) bytes of data.
64 bytes from nyc.speedtest.sbcglobal.net (99.24.18.25): icmp_seq=1 ttl=51 time=79.6 ms
PING nyc.speedtest.sbcglobal.net (99.24.18.25) 56(84) bytes of data.
64 bytes from nyc.speedtest.sbcglobal.net (99.24.18.25): icmp_seq=1 ttl=51 time=79.5 ms
PING nyc.speedtest.sbcglobal.net (99.24.18.25) 56(84) bytes of data.
64 bytes from nyc.speedtest.sbcglobal.net (99.24.18.25): icmp_seq=1 ttl=51 time=79.6 ms
PING nyc.speedtest.sbcglobal.net (99.24.18.25) 56(84) bytes of data.
64 bytes from nyc.speedtest.sbcglobal.net (99.24.18.25): icmp_seq=1 ttl=51 time=79.5 ms
PING nyc.speedtest.sbcglobal.net (99.24.18.25) 56(84) bytes of data.
64 bytes from nyc.speedtest.sbcglobal.net (99.24.18.25): icmp_seq=1 ttl=51 time=79.5 ms
PING nyc.speedtest.sbcglobal.net (99.24.18.25) 56(84) bytes of data.
64 bytes from nyc.speedtest.sbcglobal.net (99.24.18.25): icmp_seq=1 ttl=51 time=79.5 ms
PING nyc.speedtest.sbcglobal.net (99.24.18.25) 56(84) bytes of data.
64 bytes from nyc.speedtest.sbcglobal.net (99.24.18.25): icmp_seq=1 ttl=51 time=79.5 ms
PING nyc.speedtest.sbcglobal.net (99.24.18.25) 56(84) bytes of data.
64 bytes from nyc.speedtest.sbcglobal.net (99.24.18.25): icmp_seq=1 ttl=51 time=79.6 ms
PING nyc.speedtest.sbcglobal.net (99.24.18.25) 56(84) bytes of data.
64 bytes from nyc.speedtest.sbcglobal.net (99.24.18.25): icmp_seq=1 ttl=51 time=79.5 ms
PING nyc.speedtest.sbcglobal.net (99.24.18.25) 56(84) bytes of data.
64 bytes from nyc.speedtest.sbcglobal.net (99.24.18.25): icmp_seq=1 ttl=51 time=79.6 ms
PING nyc.speedtest.sbcglobal.net (99.24.18.25) 56(84) bytes of data.
64 bytes from nyc.speedtest.sbcglobal.net (99.24.18.25): icmp_seq=1 ttl=51 time=79.6 ms
PING nyc.speedtest.sbcglobal.net (99.24.18.25) 56(84) bytes of data.
64 bytes from nyc.speedtest.sbcglobal.net (99.24.18.25): icmp_seq=1 ttl=51 time=79.6 ms
PING nyc.speedtest.sbcglobal.net (99.24.18.25) 56(84) bytes of data.
64 bytes from nyc.speedtest.sbcglobal.net (99.24.18.25): icmp_seq=1 ttl=51 time=79.6 ms
PING nyc.speedtest.sbcglobal.net (99.24.18.25) 56(84) bytes of data.
64 bytes from nyc.speedtest.sbcglobal.net (99.24.18.25): icmp_seq=1 ttl=51 time=79.5 ms
PING nyc.speedtest.sbcglobal.net (99.24.18.25) 56(84) bytes of data.
64 bytes from nyc.speedtest.sbcglobal.net (99.24.18.25): icmp_seq=1 ttl=51 time=79.6 ms
PING nyc.speedtest.sbcglobal.net (99.24.18.25) 56(84) bytes of data.
64 bytes from nyc.speedtest.sbcglobal.net (99.24.18.25): icmp_seq=1 ttl=51 time=79.6 ms
PING nyc.speedtest.sbcglobal.net (99.24.18.25) 56(84) bytes of data.
64 bytes from nyc.speedtest.sbcglobal.net (99.24.18.25): icmp_seq=1 ttl=51 time=79.5 ms
PING nyc.speedtest.sbcglobal.net (99.24.18.25) 56(84) bytes of data.
64 bytes from nyc.speedtest.sbcglobal.net (99.24.18.25): icmp_seq=1 ttl=51 time=79.6 ms
PING nyc.speedtest.sbcglobal.net (99.24.18.25) 56(84) bytes of data.
64 bytes from nyc.speedtest.sbcglobal.net (99.24.18.25): icmp_seq=1 ttl=51 time=79.6 ms
PING nyc.speedtest.sbcglobal.net (99.24.18.25) 56(84) bytes of data.
64 bytes from nyc.speedtest.sbcglobal.net (99.24.18.25): icmp_seq=1 ttl=51 time=79.6 ms
PING nyc.speedtest.sbcglobal.net (99.24.18.25) 56(84) bytes of data.
64 bytes from nyc.speedtest.sbcglobal.net (99.24.18.25): icmp_seq=1 ttl=51 time=79.6 ms
PING nyc.speedtest.sbcglobal.net (99.24.18.25) 56(84) bytes of data.
64 bytes from nyc.speedtest.sbcglobal.net (99.24.18.25): icmp_seq=1 ttl=51 time=79.6 ms
PING nyc.speedtest.sbcglobal.net (99.24.18.25) 56(84) bytes of data.
64 bytes from nyc.speedtest.sbcglobal.net (99.24.18.25): icmp_seq=1 ttl=51 time=79.5 ms
PING nyc.speedtest.sbcglobal.net (99.24.18.25) 56(84) bytes of data.
64 bytes from nyc.speedtest.sbcglobal.net (99.24.18.25): icmp_seq=1 ttl=51 time=79.5 ms
PING nyc.speedtest.sbcglobal.net (99.24.18.25) 56(84) bytes of data.
64 bytes from nyc.speedtest.sbcglobal.net (99.24.18.25): icmp_seq=1 ttl=51 time=79.6 ms
PING nyc.speedtest.sbcglobal.net (99.24.18.25) 56(84) bytes of data.
64 bytes from nyc.speedtest.sbcglobal.net (99.24.18.25): icmp_seq=1 ttl=51 time=79.6 ms
PING nyc.speedtest.sbcglobal.net (99.24.18.25) 56(84) bytes of data.
64 bytes from nyc.speedtest.sbcglobal.net (99.24.18.25): icmp_seq=1 ttl=51 time=79.5 ms
PING nyc.speedtest.sbcglobal.net (99.24.18.25) 56(84) bytes of data.
64 bytes from nyc.speedtest.sbcglobal.net (99.24.18.25): icmp_seq=1 ttl=51 time=79.6 ms
64 bytes from nyc.speedtest.sbcglobal.net (99.24.18.25): icmp_seq=2 ttl=51 time=80.3 ms
64 bytes from nyc.speedtest.sbcglobal.net (99.24.18.25): icmp_seq=2 ttl=51 time=79.9 ms
64 bytes from nyc.speedtest.sbcglobal.net (99.24.18.25): icmp_seq=2 ttl=51 time=80.0 ms
64 bytes from nyc.speedtest.sbcglobal.net (99.24.18.25): icmp_seq=2 ttl=51 time=79.9 ms
64 bytes from nyc.speedtest.sbcglobal.net (99.24.18.25): icmp_seq=2 ttl=51 time=79.9 ms
64 bytes from nyc.speedtest.sbcglobal.net (99.24.18.25): icmp_seq=2 ttl=51 time=80.3 ms
64 bytes from nyc.speedtest.sbcglobal.net (99.24.18.25): icmp_seq=2 ttl=51 time=79.7 ms
64 bytes from nyc.speedtest.sbcglobal.net (99.24.18.25): icmp_seq=2 ttl=51 time=79.8 ms
64 bytes from nyc.speedtest.sbcglobal.net (99.24.18.25): icmp_seq=2 ttl=51 time=79.8 ms
64 bytes from nyc.speedtest.sbcglobal.net (99.24.18.25): icmp_seq=2 ttl=51 time=79.6 ms
64 bytes from nyc.speedtest.sbcglobal.net (99.24.18.25): icmp_seq=2 ttl=51 time=79.7 ms
64 bytes from nyc.speedtest.sbcglobal.net (99.24.18.25): icmp_seq=2 ttl=51 time=79.6 ms
64 bytes from nyc.speedtest.sbcglobal.net (99.24.18.25): icmp_seq=2 ttl=51 time=79.7 ms
64 bytes from nyc.speedtest.sbcglobal.net (99.24.18.25): icmp_seq=2 ttl=51 time=79.7 ms
64 bytes from nyc.speedtest.sbcglobal.net (99.24.18.25): icmp_seq=2 ttl=51 time=79.6 ms
64 bytes from nyc.speedtest.sbcglobal.net (99.24.18.25): icmp_seq=2 ttl=51 time=79.7 ms
64 bytes from nyc.speedtest.sbcglobal.net (99.24.18.25): icmp_seq=2 ttl=51 time=79.6 ms
64 bytes from nyc.speedtest.sbcglobal.net (99.24.18.25): icmp_seq=2 ttl=51 time=79.7 ms
64 bytes from nyc.speedtest.sbcglobal.net (99.24.18.25): icmp_seq=2 ttl=51 time=79.7 ms
64 bytes from nyc.speedtest.sbcglobal.net (99.24.18.25): icmp_seq=2 ttl=51 time=79.6 ms
64 bytes from nyc.speedtest.sbcglobal.net (99.24.18.25): icmp_seq=2 ttl=51 time=79.6 ms
64 bytes from nyc.speedtest.sbcglobal.net (99.24.18.25): icmp_seq=2 ttl=51 time=79.6 ms
64 bytes from nyc.speedtest.sbcglobal.net (99.24.18.25): icmp_seq=2 ttl=51 time=79.6 ms
64 bytes from nyc.speedtest.sbcglobal.net (99.24.18.25): icmp_seq=2 ttl=51 time=79.7 ms
64 bytes from nyc.speedtest.sbcglobal.net (99.24.18.25): icmp_seq=2 ttl=51 time=79.7 ms
64 bytes from nyc.speedtest.sbcglobal.net (99.24.18.25): icmp_seq=2 ttl=51 time=79.7 ms
64 bytes from nyc.speedtest.sbcglobal.net (99.24.18.25): icmp_seq=2 ttl=51 time=79.7 ms
64 bytes from nyc.speedtest.sbcglobal.net (99.24.18.25): icmp_seq=2 ttl=51 time=79.8 ms
64 bytes from nyc.speedtest.sbcglobal.net (99.24.18.25): icmp_seq=2 ttl=51 time=79.6 ms
64 bytes from nyc.speedtest.sbcglobal.net (99.24.18.25): icmp_seq=2 ttl=51 time=79.7 ms
64 bytes from nyc.speedtest.sbcglobal.net (99.24.18.25): icmp_seq=2 ttl=51 time=79.6 ms
64 bytes from nyc.speedtest.sbcglobal.net (99.24.18.25): icmp_seq=2 ttl=51 time=79.9 ms
64 bytes from nyc.speedtest.sbcglobal.net (99.24.18.25): icmp_seq=2 ttl=51 time=79.8 ms
64 bytes from nyc.speedtest.sbcglobal.net (99.24.18.25): icmp_seq=2 ttl=51 time=79.7 ms
64 bytes from nyc.speedtest.sbcglobal.net (99.24.18.25): icmp_seq=2 ttl=51 time=79.7 ms
64 bytes from nyc.speedtest.sbcglobal.net (99.24.18.25): icmp_seq=2 ttl=51 time=79.8 ms
64 bytes from nyc.speedtest.sbcglobal.net (99.24.18.25): icmp_seq=2 ttl=51 time=79.7 ms
64 bytes from nyc.speedtest.sbcglobal.net (99.24.18.25): icmp_seq=2 ttl=51 time=79.7 ms
64 bytes from nyc.speedtest.sbcglobal.net (99.24.18.25): icmp_seq=2 ttl=51 time=79.6 ms
64 bytes from nyc.speedtest.sbcglobal.net (99.24.18.25): icmp_seq=2 ttl=51 time=79.6 ms
64 bytes from nyc.speedtest.sbcglobal.net (99.24.18.25): icmp_seq=3 ttl=51 time=81.1 ms
64 bytes from nyc.speedtest.sbcglobal.net (99.24.18.25): icmp_seq=3 ttl=51 time=81.1 ms
64 bytes from nyc.speedtest.sbcglobal.net (99.24.18.25): icmp_seq=3 ttl=51 time=81.1 ms
64 bytes from nyc.speedtest.sbcglobal.net (99.24.18.25): icmp_seq=3 ttl=51 time=81.1 ms
64 bytes from nyc.speedtest.sbcglobal.net (99.24.18.25): icmp_seq=3 ttl=51 time=81.0 ms
64 bytes from nyc.speedtest.sbcglobal.net (99.24.18.25): icmp_seq=3 ttl=51 time=81.2 ms
64 bytes from nyc.speedtest.sbcglobal.net (99.24.18.25): icmp_seq=3 ttl=51 time=79.6 ms
64 bytes from nyc.speedtest.sbcglobal.net (99.24.18.25): icmp_seq=3 ttl=51 time=79.7 ms
64 bytes from nyc.speedtest.sbcglobal.net (99.24.18.25): icmp_seq=3 ttl=51 time=79.7 ms
64 bytes from nyc.speedtest.sbcglobal.net (99.24.18.25): icmp_seq=3 ttl=51 time=80.0 ms
64 bytes from nyc.speedtest.sbcglobal.net (99.24.18.25): icmp_seq=3 ttl=51 time=80.0 ms
64 bytes from nyc.speedtest.sbcglobal.net (99.24.18.25): icmp_seq=3 ttl=51 time=80.0 ms
64 bytes from nyc.speedtest.sbcglobal.net (99.24.18.25): icmp_seq=3 ttl=51 time=80.1 ms
64 bytes from nyc.speedtest.sbcglobal.net (99.24.18.25): icmp_seq=3 ttl=51 time=79.9 ms
64 bytes from nyc.speedtest.sbcglobal.net (99.24.18.25): icmp_seq=3 ttl=51 time=79.6 ms
64 bytes from nyc.speedtest.sbcglobal.net (99.24.18.25): icmp_seq=3 ttl=51 time=79.7 ms
64 bytes from nyc.speedtest.sbcglobal.net (99.24.18.25): icmp_seq=3 ttl=51 time=79.7 ms
64 bytes from nyc.speedtest.sbcglobal.net (99.24.18.25): icmp_seq=3 ttl=51 time=79.8 ms
64 bytes from nyc.speedtest.sbcglobal.net (99.24.18.25): icmp_seq=3 ttl=51 time=79.7 ms
64 bytes from nyc.speedtest.sbcglobal.net (99.24.18.25): icmp_seq=3 ttl=51 time=79.8 ms
64 bytes from nyc.speedtest.sbcglobal.net (99.24.18.25): icmp_seq=3 ttl=51 time=79.7 ms
64 bytes from nyc.speedtest.sbcglobal.net (99.24.18.25): icmp_seq=3 ttl=51 time=79.8 ms
64 bytes from nyc.speedtest.sbcglobal.net (99.24.18.25): icmp_seq=3 ttl=51 time=79.7 ms
64 bytes from nyc.speedtest.sbcglobal.net (99.24.18.25): icmp_seq=3 ttl=51 time=79.7 ms
64 bytes from nyc.speedtest.sbcglobal.net (99.24.18.25): icmp_seq=3 ttl=51 time=79.6 ms
64 bytes from nyc.speedtest.sbcglobal.net (99.24.18.25): icmp_seq=3 ttl=51 time=79.8 ms
64 bytes from nyc.speedtest.sbcglobal.net (99.24.18.25): icmp_seq=3 ttl=51 time=79.8 ms
64 bytes from nyc.speedtest.sbcglobal.net (99.24.18.25): icmp_seq=3 ttl=51 time=79.9 ms
64 bytes from nyc.speedtest.sbcglobal.net (99.24.18.25): icmp_seq=3 ttl=51 time=79.9 ms
64 bytes from nyc.speedtest.sbcglobal.net (99.24.18.25): icmp_seq=3 ttl=51 time=79.7 ms
64 bytes from nyc.speedtest.sbcglobal.net (99.24.18.25): icmp_seq=3 ttl=51 time=79.6 ms
64 bytes from nyc.speedtest.sbcglobal.net (99.24.18.25): icmp_seq=3 ttl=51 time=79.7 ms
64 bytes from nyc.speedtest.sbcglobal.net (99.24.18.25): icmp_seq=3 ttl=51 time=79.7 ms
64 bytes from nyc.speedtest.sbcglobal.net (99.24.18.25): icmp_seq=3 ttl=51 time=79.7 ms
64 bytes from nyc.speedtest.sbcglobal.net (99.24.18.25): icmp_seq=3 ttl=51 time=80.0 ms
64 bytes from nyc.speedtest.sbcglobal.net (99.24.18.25): icmp_seq=3 ttl=51 time=80.0 ms
64 bytes from nyc.speedtest.sbcglobal.net (99.24.18.25): icmp_seq=3 ttl=51 time=80.0 ms
64 bytes from nyc.speedtest.sbcglobal.net (99.24.18.25): icmp_seq=3 ttl=51 time=79.9 ms
64 bytes from nyc.speedtest.sbcglobal.net (99.24.18.25): icmp_seq=3 ttl=51 time=79.9 ms
64 bytes from nyc.speedtest.sbcglobal.net (99.24.18.25): icmp_seq=3 ttl=51 time=79.9 ms
64 bytes from nyc.speedtest.sbcglobal.net (99.24.18.25): icmp_seq=4 ttl=51 time=80.0 ms
64 bytes from nyc.speedtest.sbcglobal.net (99.24.18.25): icmp_seq=4 ttl=51 time=80.1 ms
64 bytes from nyc.speedtest.sbcglobal.net (99.24.18.25): icmp_seq=4 ttl=51 time=80.1 ms
64 bytes from nyc.speedtest.sbcglobal.net (99.24.18.25): icmp_seq=4 ttl=51 time=80.1 ms
64 bytes from nyc.speedtest.sbcglobal.net (99.24.18.25): icmp_seq=4 ttl=51 time=80.1 ms
64 bytes from nyc.speedtest.sbcglobal.net (99.24.18.25): icmp_seq=4 ttl=51 time=79.9 ms
64 bytes from nyc.speedtest.sbcglobal.net (99.24.18.25): icmp_seq=4 ttl=51 time=79.7 ms
64 bytes from nyc.speedtest.sbcglobal.net (99.24.18.25): icmp_seq=4 ttl=51 time=80.0 ms
64 bytes from nyc.speedtest.sbcglobal.net (99.24.18.25): icmp_seq=4 ttl=51 time=79.9 ms
64 bytes from nyc.speedtest.sbcglobal.net (99.24.18.25): icmp_seq=4 ttl=51 time=79.7 ms
64 bytes from nyc.speedtest.sbcglobal.net (99.24.18.25): icmp_seq=4 ttl=51 time=79.8 ms
64 bytes from nyc.speedtest.sbcglobal.net (99.24.18.25): icmp_seq=4 ttl=51 time=79.8 ms
64 bytes from nyc.speedtest.sbcglobal.net (99.24.18.25): icmp_seq=4 ttl=51 time=79.9 ms
64 bytes from nyc.speedtest.sbcglobal.net (99.24.18.25): icmp_seq=4 ttl=51 time=79.7 ms
64 bytes from nyc.speedtest.sbcglobal.net (99.24.18.25): icmp_seq=4 ttl=51 time=79.9 ms
64 bytes from nyc.speedtest.sbcglobal.net (99.24.18.25): icmp_seq=4 ttl=51 time=80.0 ms
64 bytes from nyc.speedtest.sbcglobal.net (99.24.18.25): icmp_seq=4 ttl=51 time=80.0 ms
64 bytes from nyc.speedtest.sbcglobal.net (99.24.18.25): icmp_seq=4 ttl=51 time=80.0 ms
64 bytes from nyc.speedtest.sbcglobal.net (99.24.18.25): icmp_seq=4 ttl=51 time=80.0 ms
64 bytes from nyc.speedtest.sbcglobal.net (99.24.18.25): icmp_seq=4 ttl=51 time=80.0 ms
64 bytes from nyc.speedtest.sbcglobal.net (99.24.18.25): icmp_seq=4 ttl=51 time=80.1 ms
64 bytes from nyc.speedtest.sbcglobal.net (99.24.18.25): icmp_seq=4 ttl=51 time=80.1 ms
64 bytes from nyc.speedtest.sbcglobal.net (99.24.18.25): icmp_seq=4 ttl=51 time=80.2 ms
64 bytes from nyc.speedtest.sbcglobal.net (99.24.18.25): icmp_seq=4 ttl=51 time=80.1 ms
64 bytes from nyc.speedtest.sbcglobal.net (99.24.18.25): icmp_seq=4 ttl=51 time=80.2 ms
64 bytes from nyc.speedtest.sbcglobal.net (99.24.18.25): icmp_seq=4 ttl=51 time=80.2 ms
64 bytes from nyc.speedtest.sbcglobal.net (99.24.18.25): icmp_seq=4 ttl=51 time=80.2 ms
64 bytes from nyc.speedtest.sbcglobal.net (99.24.18.25): icmp_seq=4 ttl=51 time=79.8 ms
64 bytes from nyc.speedtest.sbcglobal.net (99.24.18.25): icmp_seq=4 ttl=51 time=80.3 ms
64 bytes from nyc.speedtest.sbcglobal.net (99.24.18.25): icmp_seq=4 ttl=51 time=80.3 ms
64 bytes from nyc.speedtest.sbcglobal.net (99.24.18.25): icmp_seq=4 ttl=51 time=79.9 ms
64 bytes from nyc.speedtest.sbcglobal.net (99.24.18.25): icmp_seq=4 ttl=51 time=79.9 ms
64 bytes from nyc.speedtest.sbcglobal.net (99.24.18.25): icmp_seq=4 ttl=51 time=79.9 ms
64 bytes from nyc.speedtest.sbcglobal.net (99.24.18.25): icmp_seq=4 ttl=51 time=79.9 ms
64 bytes from nyc.speedtest.sbcglobal.net (99.24.18.25): icmp_seq=4 ttl=51 time=80.0 ms
64 bytes from nyc.speedtest.sbcglobal.net (99.24.18.25): icmp_seq=4 ttl=51 time=80.0 ms
64 bytes from nyc.speedtest.sbcglobal.net (99.24.18.25): icmp_seq=4 ttl=51 time=79.9 ms
64 bytes from nyc.speedtest.sbcglobal.net (99.24.18.25): icmp_seq=4 ttl=51 time=79.8 ms
64 bytes from nyc.speedtest.sbcglobal.net (99.24.18.25): icmp_seq=4 ttl=51 time=79.9 ms
64 bytes from nyc.speedtest.sbcglobal.net (99.24.18.25): icmp_seq=4 ttl=51 time=79.8 ms
64 bytes from nyc.speedtest.sbcglobal.net (99.24.18.25): icmp_seq=5 ttl=51 time=80.2 ms
64 bytes from nyc.speedtest.sbcglobal.net (99.24.18.25): icmp_seq=5 ttl=51 time=80.2 ms
64 bytes from nyc.speedtest.sbcglobal.net (99.24.18.25): icmp_seq=5 ttl=51 time=80.2 ms
64 bytes from nyc.speedtest.sbcglobal.net (99.24.18.25): icmp_seq=5 ttl=51 time=80.0 ms
64 bytes from nyc.speedtest.sbcglobal.net (99.24.18.25): icmp_seq=5 ttl=51 time=80.3 ms
64 bytes from nyc.speedtest.sbcglobal.net (99.24.18.25): icmp_seq=5 ttl=51 time=80.3 ms
64 bytes from nyc.speedtest.sbcglobal.net (99.24.18.25): icmp_seq=5 ttl=51 time=79.9 ms
64 bytes from nyc.speedtest.sbcglobal.net (99.24.18.25): icmp_seq=5 ttl=51 time=80.0 ms
64 bytes from nyc.speedtest.sbcglobal.net (99.24.18.25): icmp_seq=5 ttl=51 time=80.0 ms
64 bytes from nyc.speedtest.sbcglobal.net (99.24.18.25): icmp_seq=5 ttl=51 time=80.0 ms
64 bytes from nyc.speedtest.sbcglobal.net (99.24.18.25): icmp_seq=5 ttl=51 time=79.9 ms
64 bytes from nyc.speedtest.sbcglobal.net (99.24.18.25): icmp_seq=5 ttl=51 time=80.0 ms
64 bytes from nyc.speedtest.sbcglobal.net (99.24.18.25): icmp_seq=5 ttl=51 time=79.9 ms
64 bytes from nyc.speedtest.sbcglobal.net (99.24.18.25): icmp_seq=5 ttl=51 time=79.8 ms
64 bytes from nyc.speedtest.sbcglobal.net (99.24.18.25): icmp_seq=5 ttl=51 time=79.9 ms
64 bytes from nyc.speedtest.sbcglobal.net (99.24.18.25): icmp_seq=5 ttl=51 time=80.0 ms
64 bytes from nyc.speedtest.sbcglobal.net (99.24.18.25): icmp_seq=5 ttl=51 time=79.9 ms
64 bytes from nyc.speedtest.sbcglobal.net (99.24.18.25): icmp_seq=5 ttl=51 time=80.0 ms
64 bytes from nyc.speedtest.sbcglobal.net (99.24.18.25): icmp_seq=5 ttl=51 time=80.1 ms
64 bytes from nyc.speedtest.sbcglobal.net (99.24.18.25): icmp_seq=5 ttl=51 time=80.1 ms
64 bytes from nyc.speedtest.sbcglobal.net (99.24.18.25): icmp_seq=5 ttl=51 time=80.1 ms
64 bytes from nyc.speedtest.sbcglobal.net (99.24.18.25): icmp_seq=5 ttl=51 time=80.2 ms
64 bytes from nyc.speedtest.sbcglobal.net (99.24.18.25): icmp_seq=5 ttl=51 time=80.2 ms
64 bytes from nyc.speedtest.sbcglobal.net (99.24.18.25): icmp_seq=5 ttl=51 time=80.2 ms
64 bytes from nyc.speedtest.sbcglobal.net (99.24.18.25): icmp_seq=5 ttl=51 time=80.2 ms
64 bytes from nyc.speedtest.sbcglobal.net (99.24.18.25): icmp_seq=5 ttl=51 time=80.2 ms
64 bytes from nyc.speedtest.sbcglobal.net (99.24.18.25): icmp_seq=5 ttl=51 time=80.1 ms
64 bytes from nyc.speedtest.sbcglobal.net (99.24.18.25): icmp_seq=5 ttl=51 time=80.1 ms
64 bytes from nyc.speedtest.sbcglobal.net (99.24.18.25): icmp_seq=5 ttl=51 time=79.9 ms
64 bytes from nyc.speedtest.sbcglobal.net (99.24.18.25): icmp_seq=5 ttl=51 time=80.1 ms
64 bytes from nyc.speedtest.sbcglobal.net (99.24.18.25): icmp_seq=5 ttl=51 time=79.9 ms
64 bytes from nyc.speedtest.sbcglobal.net (99.24.18.25): icmp_seq=5 ttl=51 time=79.9 ms
64 bytes from nyc.speedtest.sbcglobal.net (99.24.18.25): icmp_seq=5 ttl=51 time=79.9 ms
64 bytes from nyc.speedtest.sbcglobal.net (99.24.18.25): icmp_seq=5 ttl=51 time=80.0 ms
64 bytes from nyc.speedtest.sbcglobal.net (99.24.18.25): icmp_seq=5 ttl=51 time=80.0 ms
64 bytes from nyc.speedtest.sbcglobal.net (99.24.18.25): icmp_seq=5 ttl=51 time=79.9 ms
64 bytes from nyc.speedtest.sbcglobal.net (99.24.18.25): icmp_seq=5 ttl=51 time=79.8 ms
64 bytes from nyc.speedtest.sbcglobal.net (99.24.18.25): icmp_seq=5 ttl=51 time=80.0 ms
64 bytes from nyc.speedtest.sbcglobal.net (99.24.18.25): icmp_seq=5 ttl=51 time=79.9 ms
64 bytes from nyc.speedtest.sbcglobal.net (99.24.18.25): icmp_seq=5 ttl=51 time=79.8 ms
64 bytes from nyc.speedtest.sbcglobal.net (99.24.18.25): icmp_seq=6 ttl=51 time=80.1 ms
64 bytes from nyc.speedtest.sbcglobal.net (99.24.18.25): icmp_seq=6 ttl=51 time=80.2 ms
64 bytes from nyc.speedtest.sbcglobal.net (99.24.18.25): icmp_seq=6 ttl=51 time=80.2 ms
64 bytes from nyc.speedtest.sbcglobal.net (99.24.18.25): icmp_seq=6 ttl=51 time=80.2 ms
64 bytes from nyc.speedtest.sbcglobal.net (99.24.18.25): icmp_seq=6 ttl=51 time=80.3 ms
64 bytes from nyc.speedtest.sbcglobal.net (99.24.18.25): icmp_seq=6 ttl=51 time=80.0 ms
64 bytes from nyc.speedtest.sbcglobal.net (99.24.18.25): icmp_seq=6 ttl=51 time=80.0 ms
64 bytes from nyc.speedtest.sbcglobal.net (99.24.18.25): icmp_seq=6 ttl=51 time=80.0 ms
64 bytes from nyc.speedtest.sbcglobal.net (99.24.18.25): icmp_seq=6 ttl=51 time=80.0 ms
64 bytes from nyc.speedtest.sbcglobal.net (99.24.18.25): icmp_seq=6 ttl=51 time=80.0 ms
64 bytes from nyc.speedtest.sbcglobal.net (99.24.18.25): icmp_seq=6 ttl=51 time=79.9 ms
64 bytes from nyc.speedtest.sbcglobal.net (99.24.18.25): icmp_seq=6 ttl=51 time=79.8 ms
64 bytes from nyc.speedtest.sbcglobal.net (99.24.18.25): icmp_seq=6 ttl=51 time=79.8 ms
64 bytes from nyc.speedtest.sbcglobal.net (99.24.18.25): icmp_seq=6 ttl=51 time=79.9 ms
64 bytes from nyc.speedtest.sbcglobal.net (99.24.18.25): icmp_seq=6 ttl=51 time=79.9 ms
64 bytes from nyc.speedtest.sbcglobal.net (99.24.18.25): icmp_seq=6 ttl=51 time=80.1 ms
64 bytes from nyc.speedtest.sbcglobal.net (99.24.18.25): icmp_seq=6 ttl=51 time=80.2 ms
64 bytes from nyc.speedtest.sbcglobal.net (99.24.18.25): icmp_seq=6 ttl=51 time=80.1 ms
64 bytes from nyc.speedtest.sbcglobal.net (99.24.18.25): icmp_seq=6 ttl=51 time=80.2 ms
64 bytes from nyc.speedtest.sbcglobal.net (99.24.18.25): icmp_seq=6 ttl=51 time=80.2 ms
64 bytes from nyc.speedtest.sbcglobal.net (99.24.18.25): icmp_seq=6 ttl=51 time=80.4 ms
64 bytes from nyc.speedtest.sbcglobal.net (99.24.18.25): icmp_seq=6 ttl=51 time=80.3 ms
64 bytes from nyc.speedtest.sbcglobal.net (99.24.18.25): icmp_seq=6 ttl=51 time=80.3 ms
64 bytes from nyc.speedtest.sbcglobal.net (99.24.18.25): icmp_seq=6 ttl=51 time=80.4 ms
64 bytes from nyc.speedtest.sbcglobal.net (99.24.18.25): icmp_seq=6 ttl=51 time=80.4 ms
64 bytes from nyc.speedtest.sbcglobal.net (99.24.18.25): icmp_seq=6 ttl=51 time=80.4 ms
64 bytes from nyc.speedtest.sbcglobal.net (99.24.18.25): icmp_seq=6 ttl=51 time=80.4 ms
64 bytes from nyc.speedtest.sbcglobal.net (99.24.18.25): icmp_seq=6 ttl=51 time=80.4 ms
64 bytes from nyc.speedtest.sbcglobal.net (99.24.18.25): icmp_seq=6 ttl=51 time=80.4 ms
64 bytes from nyc.speedtest.sbcglobal.net (99.24.18.25): icmp_seq=6 ttl=51 time=80.1 ms
64 bytes from nyc.speedtest.sbcglobal.net (99.24.18.25): icmp_seq=6 ttl=51 time=79.9 ms
64 bytes from nyc.speedtest.sbcglobal.net (99.24.18.25): icmp_seq=6 ttl=51 time=79.6 ms
64 bytes from nyc.speedtest.sbcglobal.net (99.24.18.25): icmp_seq=6 ttl=51 time=79.7 ms
64 bytes from nyc.speedtest.sbcglobal.net (99.24.18.25): icmp_seq=6 ttl=51 time=79.7 ms
64 bytes from nyc.speedtest.sbcglobal.net (99.24.18.25): icmp_seq=6 ttl=51 time=79.7 ms
64 bytes from nyc.speedtest.sbcglobal.net (99.24.18.25): icmp_seq=6 ttl=51 time=79.7 ms
64 bytes from nyc.speedtest.sbcglobal.net (99.24.18.25): icmp_seq=6 ttl=51 time=79.8 ms
64 bytes from nyc.speedtest.sbcglobal.net (99.24.18.25): icmp_seq=6 ttl=51 time=79.9 ms
64 bytes from nyc.speedtest.sbcglobal.net (99.24.18.25): icmp_seq=6 ttl=51 time=79.8 ms
64 bytes from nyc.speedtest.sbcglobal.net (99.24.18.25): icmp_seq=6 ttl=51 time=79.9 ms
64 bytes from nyc.speedtest.sbcglobal.net (99.24.18.25): icmp_seq=7 ttl=51 time=80.1 ms
64 bytes from nyc.speedtest.sbcglobal.net (99.24.18.25): icmp_seq=7 ttl=51 time=80.1 ms
64 bytes from nyc.speedtest.sbcglobal.net (99.24.18.25): icmp_seq=7 ttl=51 time=80.1 ms
64 bytes from nyc.speedtest.sbcglobal.net (99.24.18.25): icmp_seq=7 ttl=51 time=80.1 ms
64 bytes from nyc.speedtest.sbcglobal.net (99.24.18.25): icmp_seq=7 ttl=51 time=79.9 ms
64 bytes from nyc.speedtest.sbcglobal.net (99.24.18.25): icmp_seq=7 ttl=51 time=80.1 ms
64 bytes from nyc.speedtest.sbcglobal.net (99.24.18.25): icmp_seq=7 ttl=51 time=79.9 ms
64 bytes from nyc.speedtest.sbcglobal.net (99.24.18.25): icmp_seq=7 ttl=51 time=79.8 ms
64 bytes from nyc.speedtest.sbcglobal.net (99.24.18.25): icmp_seq=7 ttl=51 time=79.9 ms
64 bytes from nyc.speedtest.sbcglobal.net (99.24.18.25): icmp_seq=7 ttl=51 time=79.9 ms
64 bytes from nyc.speedtest.sbcglobal.net (99.24.18.25): icmp_seq=7 ttl=51 time=79.8 ms
64 bytes from nyc.speedtest.sbcglobal.net (99.24.18.25): icmp_seq=7 ttl=51 time=79.8 ms
64 bytes from nyc.speedtest.sbcglobal.net (99.24.18.25): icmp_seq=7 ttl=51 time=79.8 ms
64 bytes from nyc.speedtest.sbcglobal.net (99.24.18.25): icmp_seq=7 ttl=51 time=79.7 ms
64 bytes from nyc.speedtest.sbcglobal.net (99.24.18.25): icmp_seq=7 ttl=51 time=79.8 ms
64 bytes from nyc.speedtest.sbcglobal.net (99.24.18.25): icmp_seq=7 ttl=51 time=80.0 ms
64 bytes from nyc.speedtest.sbcglobal.net (99.24.18.25): icmp_seq=7 ttl=51 time=80.1 ms
64 bytes from nyc.speedtest.sbcglobal.net (99.24.18.25): icmp_seq=7 ttl=51 time=80.0 ms
64 bytes from nyc.speedtest.sbcglobal.net (99.24.18.25): icmp_seq=7 ttl=51 time=80.1 ms
64 bytes from nyc.speedtest.sbcglobal.net (99.24.18.25): icmp_seq=7 ttl=51 time=80.2 ms
64 bytes from nyc.speedtest.sbcglobal.net (99.24.18.25): icmp_seq=7 ttl=51 time=80.2 ms
64 bytes from nyc.speedtest.sbcglobal.net (99.24.18.25): icmp_seq=7 ttl=51 time=80.3 ms
64 bytes from nyc.speedtest.sbcglobal.net (99.24.18.25): icmp_seq=7 ttl=51 time=80.2 ms
64 bytes from nyc.speedtest.sbcglobal.net (99.24.18.25): icmp_seq=7 ttl=51 time=80.3 ms
64 bytes from nyc.speedtest.sbcglobal.net (99.24.18.25): icmp_seq=7 ttl=51 time=80.3 ms
64 bytes from nyc.speedtest.sbcglobal.net (99.24.18.25): icmp_seq=7 ttl=51 time=80.3 ms
64 bytes from nyc.speedtest.sbcglobal.net (99.24.18.25): icmp_seq=7 ttl=51 time=80.3 ms
64 bytes from nyc.speedtest.sbcglobal.net (99.24.18.25): icmp_seq=7 ttl=51 time=80.3 ms
64 bytes from nyc.speedtest.sbcglobal.net (99.24.18.25): icmp_seq=7 ttl=51 time=80.1 ms
64 bytes from nyc.speedtest.sbcglobal.net (99.24.18.25): icmp_seq=7 ttl=51 time=80.4 ms
64 bytes from nyc.speedtest.sbcglobal.net (99.24.18.25): icmp_seq=7 ttl=51 time=79.8 ms
64 bytes from nyc.speedtest.sbcglobal.net (99.24.18.25): icmp_seq=7 ttl=51 time=79.9 ms
64 bytes from nyc.speedtest.sbcglobal.net (99.24.18.25): icmp_seq=7 ttl=51 time=79.8 ms
64 bytes from nyc.speedtest.sbcglobal.net (99.24.18.25): icmp_seq=7 ttl=51 time=80.0 ms
64 bytes from nyc.speedtest.sbcglobal.net (99.24.18.25): icmp_seq=7 ttl=51 time=80.0 ms
64 bytes from nyc.speedtest.sbcglobal.net (99.24.18.25): icmp_seq=7 ttl=51 time=80.0 ms
64 bytes from nyc.speedtest.sbcglobal.net (99.24.18.25): icmp_seq=7 ttl=51 time=80.0 ms
64 bytes from nyc.speedtest.sbcglobal.net (99.24.18.25): icmp_seq=7 ttl=51 time=80.1 ms
64 bytes from nyc.speedtest.sbcglobal.net (99.24.18.25): icmp_seq=7 ttl=51 time=79.8 ms
64 bytes from nyc.speedtest.sbcglobal.net (99.24.18.25): icmp_seq=7 ttl=51 time=79.8 ms
64 bytes from nyc.speedtest.sbcglobal.net (99.24.18.25): icmp_seq=8 ttl=51 time=79.8 ms
64 bytes from nyc.speedtest.sbcglobal.net (99.24.18.25): icmp_seq=8 ttl=51 time=79.8 ms
64 bytes from nyc.speedtest.sbcglobal.net (99.24.18.25): icmp_seq=8 ttl=51 time=79.8 ms
64 bytes from nyc.speedtest.sbcglobal.net (99.24.18.25): icmp_seq=8 ttl=51 time=79.9 ms
64 bytes from nyc.speedtest.sbcglobal.net (99.24.18.25): icmp_seq=8 ttl=51 time=79.7 ms
64 bytes from nyc.speedtest.sbcglobal.net (99.24.18.25): icmp_seq=8 ttl=51 time=79.9 ms
64 bytes from nyc.speedtest.sbcglobal.net (99.24.18.25): icmp_seq=8 ttl=51 time=79.8 ms
64 bytes from nyc.speedtest.sbcglobal.net (99.24.18.25): icmp_seq=8 ttl=51 time=79.8 ms
64 bytes from nyc.speedtest.sbcglobal.net (99.24.18.25): icmp_seq=8 ttl=51 time=79.8 ms
64 bytes from nyc.speedtest.sbcglobal.net (99.24.18.25): icmp_seq=8 ttl=51 time=79.8 ms
64 bytes from nyc.speedtest.sbcglobal.net (99.24.18.25): icmp_seq=8 ttl=51 time=79.8 ms
64 bytes from nyc.speedtest.sbcglobal.net (99.24.18.25): icmp_seq=8 ttl=51 time=79.7 ms
64 bytes from nyc.speedtest.sbcglobal.net (99.24.18.25): icmp_seq=8 ttl=51 time=79.8 ms
64 bytes from nyc.speedtest.sbcglobal.net (99.24.18.25): icmp_seq=8 ttl=51 time=79.8 ms
64 bytes from nyc.speedtest.sbcglobal.net (99.24.18.25): icmp_seq=8 ttl=51 time=79.8 ms
64 bytes from nyc.speedtest.sbcglobal.net (99.24.18.25): icmp_seq=8 ttl=51 time=79.9 ms
64 bytes from nyc.speedtest.sbcglobal.net (99.24.18.25): icmp_seq=8 ttl=51 time=80.0 ms
64 bytes from nyc.speedtest.sbcglobal.net (99.24.18.25): icmp_seq=8 ttl=51 time=80.0 ms
64 bytes from nyc.speedtest.sbcglobal.net (99.24.18.25): icmp_seq=8 ttl=51 time=79.9 ms
64 bytes from nyc.speedtest.sbcglobal.net (99.24.18.25): icmp_seq=8 ttl=51 time=80.0 ms
64 bytes from nyc.speedtest.sbcglobal.net (99.24.18.25): icmp_seq=8 ttl=51 time=80.1 ms
64 bytes from nyc.speedtest.sbcglobal.net (99.24.18.25): icmp_seq=8 ttl=51 time=80.1 ms
64 bytes from nyc.speedtest.sbcglobal.net (99.24.18.25): icmp_seq=8 ttl=51 time=80.1 ms
64 bytes from nyc.speedtest.sbcglobal.net (99.24.18.25): icmp_seq=8 ttl=51 time=80.1 ms
64 bytes from nyc.speedtest.sbcglobal.net (99.24.18.25): icmp_seq=8 ttl=51 time=80.1 ms
64 bytes from nyc.speedtest.sbcglobal.net (99.24.18.25): icmp_seq=8 ttl=51 time=80.1 ms
64 bytes from nyc.speedtest.sbcglobal.net (99.24.18.25): icmp_seq=8 ttl=51 time=80.1 ms
64 bytes from nyc.speedtest.sbcglobal.net (99.24.18.25): icmp_seq=8 ttl=51 time=80.1 ms
64 bytes from nyc.speedtest.sbcglobal.net (99.24.18.25): icmp_seq=8 ttl=51 time=79.8 ms
64 bytes from nyc.speedtest.sbcglobal.net (99.24.18.25): icmp_seq=8 ttl=51 time=80.1 ms
64 bytes from nyc.speedtest.sbcglobal.net (99.24.18.25): icmp_seq=8 ttl=51 time=80.2 ms
64 bytes from nyc.speedtest.sbcglobal.net (99.24.18.25): icmp_seq=8 ttl=51 time=80.0 ms
64 bytes from nyc.speedtest.sbcglobal.net (99.24.18.25): icmp_seq=8 ttl=51 time=80.0 ms
64 bytes from nyc.speedtest.sbcglobal.net (99.24.18.25): icmp_seq=8 ttl=51 time=80.0 ms
64 bytes from nyc.speedtest.sbcglobal.net (99.24.18.25): icmp_seq=8 ttl=51 time=80.0 ms
64 bytes from nyc.speedtest.sbcglobal.net (99.24.18.25): icmp_seq=8 ttl=51 time=80.0 ms
64 bytes from nyc.speedtest.sbcglobal.net (99.24.18.25): icmp_seq=8 ttl=51 time=80.0 ms
64 bytes from nyc.speedtest.sbcglobal.net (99.24.18.25): icmp_seq=8 ttl=51 time=80.1 ms
64 bytes from nyc.speedtest.sbcglobal.net (99.24.18.25): icmp_seq=8 ttl=51 time=79.9 ms
64 bytes from nyc.speedtest.sbcglobal.net (99.24.18.25): icmp_seq=8 ttl=51 time=80.0 ms
64 bytes from nyc.speedtest.sbcglobal.net (99.24.18.25): icmp_seq=9 ttl=51 time=80.0 ms
64 bytes from nyc.speedtest.sbcglobal.net (99.24.18.25): icmp_seq=9 ttl=51 time=79.7 ms
64 bytes from nyc.speedtest.sbcglobal.net (99.24.18.25): icmp_seq=9 ttl=51 time=79.6 ms
64 bytes from nyc.speedtest.sbcglobal.net (99.24.18.25): icmp_seq=9 ttl=51 time=79.7 ms
64 bytes from nyc.speedtest.sbcglobal.net (99.24.18.25): icmp_seq=9 ttl=51 time=79.7 ms
64 bytes from nyc.speedtest.sbcglobal.net (99.24.18.25): icmp_seq=9 ttl=51 time=79.7 ms
64 bytes from nyc.speedtest.sbcglobal.net (99.24.18.25): icmp_seq=9 ttl=51 time=79.7 ms
64 bytes from nyc.speedtest.sbcglobal.net (99.24.18.25): icmp_seq=9 ttl=51 time=80.0 ms
64 bytes from nyc.speedtest.sbcglobal.net (99.24.18.25): icmp_seq=9 ttl=51 time=80.0 ms
64 bytes from nyc.speedtest.sbcglobal.net (99.24.18.25): icmp_seq=9 ttl=51 time=80.1 ms
64 bytes from nyc.speedtest.sbcglobal.net (99.24.18.25): icmp_seq=9 ttl=51 time=80.1 ms
64 bytes from nyc.speedtest.sbcglobal.net (99.24.18.25): icmp_seq=9 ttl=51 time=80.1 ms
64 bytes from nyc.speedtest.sbcglobal.net (99.24.18.25): icmp_seq=9 ttl=51 time=80.2 ms
64 bytes from nyc.speedtest.sbcglobal.net (99.24.18.25): icmp_seq=9 ttl=51 time=80.2 ms
64 bytes from nyc.speedtest.sbcglobal.net (99.24.18.25): icmp_seq=9 ttl=51 time=79.9 ms
64 bytes from nyc.speedtest.sbcglobal.net (99.24.18.25): icmp_seq=9 ttl=51 time=79.9 ms
64 bytes from nyc.speedtest.sbcglobal.net (99.24.18.25): icmp_seq=9 ttl=51 time=79.9 ms
64 bytes from nyc.speedtest.sbcglobal.net (99.24.18.25): icmp_seq=9 ttl=51 time=80.1 ms
64 bytes from nyc.speedtest.sbcglobal.net (99.24.18.25): icmp_seq=9 ttl=51 time=80.0 ms
64 bytes from nyc.speedtest.sbcglobal.net (99.24.18.25): icmp_seq=9 ttl=51 time=80.1 ms
64 bytes from nyc.speedtest.sbcglobal.net (99.24.18.25): icmp_seq=9 ttl=51 time=80.2 ms
64 bytes from nyc.speedtest.sbcglobal.net (99.24.18.25): icmp_seq=9 ttl=51 time=80.2 ms
64 bytes from nyc.speedtest.sbcglobal.net (99.24.18.25): icmp_seq=9 ttl=51 time=80.2 ms
64 bytes from nyc.speedtest.sbcglobal.net (99.24.18.25): icmp_seq=9 ttl=51 time=80.2 ms
64 bytes from nyc.speedtest.sbcglobal.net (99.24.18.25): icmp_seq=9 ttl=51 time=80.2 ms
64 bytes from nyc.speedtest.sbcglobal.net (99.24.18.25): icmp_seq=9 ttl=51 time=80.3 ms
64 bytes from nyc.speedtest.sbcglobal.net (99.24.18.25): icmp_seq=9 ttl=51 time=80.3 ms
64 bytes from nyc.speedtest.sbcglobal.net (99.24.18.25): icmp_seq=9 ttl=51 time=80.3 ms
64 bytes from nyc.speedtest.sbcglobal.net (99.24.18.25): icmp_seq=9 ttl=51 time=80.2 ms
64 bytes from nyc.speedtest.sbcglobal.net (99.24.18.25): icmp_seq=9 ttl=51 time=80.2 ms
64 bytes from nyc.speedtest.sbcglobal.net (99.24.18.25): icmp_seq=9 ttl=51 time=79.8 ms
64 bytes from nyc.speedtest.sbcglobal.net (99.24.18.25): icmp_seq=9 ttl=51 time=79.8 ms
64 bytes from nyc.speedtest.sbcglobal.net (99.24.18.25): icmp_seq=9 ttl=51 time=79.7 ms
64 bytes from nyc.speedtest.sbcglobal.net (99.24.18.25): icmp_seq=9 ttl=51 time=79.8 ms
64 bytes from nyc.speedtest.sbcglobal.net (99.24.18.25): icmp_seq=9 ttl=51 time=79.9 ms
64 bytes from nyc.speedtest.sbcglobal.net (99.24.18.25): icmp_seq=9 ttl=51 time=79.9 ms
64 bytes from nyc.speedtest.sbcglobal.net (99.24.18.25): icmp_seq=9 ttl=51 time=80.0 ms
64 bytes from nyc.speedtest.sbcglobal.net (99.24.18.25): icmp_seq=9 ttl=51 time=80.0 ms
64 bytes from nyc.speedtest.sbcglobal.net (99.24.18.25): icmp_seq=9 ttl=51 time=80.0 ms
64 bytes from nyc.speedtest.sbcglobal.net (99.24.18.25): icmp_seq=9 ttl=51 time=79.7 ms
64 bytes from nyc.speedtest.sbcglobal.net (99.24.18.25): icmp_seq=10 ttl=51 time=80.1 ms
64 bytes from nyc.speedtest.sbcglobal.net (99.24.18.25): icmp_seq=10 ttl=51 time=80.0 ms
64 bytes from nyc.speedtest.sbcglobal.net (99.24.18.25): icmp_seq=10 ttl=51 time=80.1 ms
64 bytes from nyc.speedtest.sbcglobal.net (99.24.18.25): icmp_seq=10 ttl=51 time=80.1 ms
64 bytes from nyc.speedtest.sbcglobal.net (99.24.18.25): icmp_seq=10 ttl=51 time=80.1 ms
64 bytes from nyc.speedtest.sbcglobal.net (99.24.18.25): icmp_seq=10 ttl=51 time=80.1 ms
64 bytes from nyc.speedtest.sbcglobal.net (99.24.18.25): icmp_seq=10 ttl=51 time=80.1 ms
64 bytes from nyc.speedtest.sbcglobal.net (99.24.18.25): icmp_seq=10 ttl=51 time=80.2 ms
64 bytes from nyc.speedtest.sbcglobal.net (99.24.18.25): icmp_seq=10 ttl=51 time=80.0 ms
64 bytes from nyc.speedtest.sbcglobal.net (99.24.18.25): icmp_seq=10 ttl=51 time=79.7 ms
64 bytes from nyc.speedtest.sbcglobal.net (99.24.18.25): icmp_seq=10 ttl=51 time=79.7 ms
64 bytes from nyc.speedtest.sbcglobal.net (99.24.18.25): icmp_seq=10 ttl=51 time=79.7 ms
64 bytes from nyc.speedtest.sbcglobal.net (99.24.18.25): icmp_seq=10 ttl=51 time=79.7 ms
64 bytes from nyc.speedtest.sbcglobal.net (99.24.18.25): icmp_seq=10 ttl=51 time=79.7 ms
64 bytes from nyc.speedtest.sbcglobal.net (99.24.18.25): icmp_seq=10 ttl=51 time=79.7 ms
64 bytes from nyc.speedtest.sbcglobal.net (99.24.18.25): icmp_seq=10 ttl=51 time=80.0 ms
64 bytes from nyc.speedtest.sbcglobal.net (99.24.18.25): icmp_seq=10 ttl=51 time=80.0 ms
64 bytes from nyc.speedtest.sbcglobal.net (99.24.18.25): icmp_seq=10 ttl=51 time=80.0 ms
64 bytes from nyc.speedtest.sbcglobal.net (99.24.18.25): icmp_seq=10 ttl=51 time=80.1 ms
64 bytes from nyc.speedtest.sbcglobal.net (99.24.18.25): icmp_seq=10 ttl=51 time=80.1 ms
64 bytes from nyc.speedtest.sbcglobal.net (99.24.18.25): icmp_seq=10 ttl=51 time=80.1 ms
64 bytes from nyc.speedtest.sbcglobal.net (99.24.18.25): icmp_seq=10 ttl=51 time=80.1 ms
64 bytes from nyc.speedtest.sbcglobal.net (99.24.18.25): icmp_seq=10 ttl=51 time=80.2 ms
64 bytes from nyc.speedtest.sbcglobal.net (99.24.18.25): icmp_seq=10 ttl=51 time=80.1 ms
64 bytes from nyc.speedtest.sbcglobal.net (99.24.18.25): icmp_seq=10 ttl=51 time=80.2 ms
64 bytes from nyc.speedtest.sbcglobal.net (99.24.18.25): icmp_seq=10 ttl=51 time=80.2 ms
64 bytes from nyc.speedtest.sbcglobal.net (99.24.18.25): icmp_seq=10 ttl=51 time=80.3 ms
64 bytes from nyc.speedtest.sbcglobal.net (99.24.18.25): icmp_seq=10 ttl=51 time=80.3 ms
64 bytes from nyc.speedtest.sbcglobal.net (99.24.18.25): icmp_seq=10 ttl=51 time=80.3 ms
64 bytes from nyc.speedtest.sbcglobal.net (99.24.18.25): icmp_seq=10 ttl=51 time=80.3 ms
64 bytes from nyc.speedtest.sbcglobal.net (99.24.18.25): icmp_seq=10 ttl=51 time=79.9 ms
64 bytes from nyc.speedtest.sbcglobal.net (99.24.18.25): icmp_seq=10 ttl=51 time=79.9 ms
64 bytes from nyc.speedtest.sbcglobal.net (99.24.18.25): icmp_seq=10 ttl=51 time=79.9 ms
64 bytes from nyc.speedtest.sbcglobal.net (99.24.18.25): icmp_seq=10 ttl=51 time=79.9 ms
64 bytes from nyc.speedtest.sbcglobal.net (99.24.18.25): icmp_seq=10 ttl=51 time=79.9 ms
64 bytes from nyc.speedtest.sbcglobal.net (99.24.18.25): icmp_seq=10 ttl=51 time=79.9 ms
64 bytes from nyc.speedtest.sbcglobal.net (99.24.18.25): icmp_seq=10 ttl=51 time=80.0 ms
64 bytes from nyc.speedtest.sbcglobal.net (99.24.18.25): icmp_seq=10 ttl=51 time=79.8 ms
64 bytes from nyc.speedtest.sbcglobal.net (99.24.18.25): icmp_seq=10 ttl=51 time=80.0 ms
64 bytes from nyc.speedtest.sbcglobal.net (99.24.18.25): icmp_seq=10 ttl=51 time=79.7 ms
64 bytes from nyc.speedtest.sbcglobal.net (99.24.18.25): icmp_seq=11 ttl=51 time=80.3 ms
64 bytes from nyc.speedtest.sbcglobal.net (99.24.18.25): icmp_seq=11 ttl=51 time=80.4 ms
64 bytes from nyc.speedtest.sbcglobal.net (99.24.18.25): icmp_seq=11 ttl=51 time=80.4 ms
64 bytes from nyc.speedtest.sbcglobal.net (99.24.18.25): icmp_seq=11 ttl=51 time=80.4 ms
64 bytes from nyc.speedtest.sbcglobal.net (99.24.18.25): icmp_seq=11 ttl=51 time=80.4 ms
64 bytes from nyc.speedtest.sbcglobal.net (99.24.18.25): icmp_seq=11 ttl=51 time=80.2 ms
64 bytes from nyc.speedtest.sbcglobal.net (99.24.18.25): icmp_seq=11 ttl=51 time=80.4 ms
64 bytes from nyc.speedtest.sbcglobal.net (99.24.18.25): icmp_seq=11 ttl=51 time=79.9 ms
64 bytes from nyc.speedtest.sbcglobal.net (99.24.18.25): icmp_seq=11 ttl=51 time=79.9 ms
64 bytes from nyc.speedtest.sbcglobal.net (99.24.18.25): icmp_seq=11 ttl=51 time=80.0 ms
64 bytes from nyc.speedtest.sbcglobal.net (99.24.18.25): icmp_seq=11 ttl=51 time=80.1 ms
64 bytes from nyc.speedtest.sbcglobal.net (99.24.18.25): icmp_seq=11 ttl=51 time=79.9 ms
64 bytes from nyc.speedtest.sbcglobal.net (99.24.18.25): icmp_seq=11 ttl=51 time=79.8 ms
64 bytes from nyc.speedtest.sbcglobal.net (99.24.18.25): icmp_seq=11 ttl=51 time=79.9 ms
64 bytes from nyc.speedtest.sbcglobal.net (99.24.18.25): icmp_seq=11 ttl=51 time=79.9 ms
64 bytes from nyc.speedtest.sbcglobal.net (99.24.18.25): icmp_seq=11 ttl=51 time=80.0 ms
64 bytes from nyc.speedtest.sbcglobal.net (99.24.18.25): icmp_seq=11 ttl=51 time=80.0 ms
64 bytes from nyc.speedtest.sbcglobal.net (99.24.18.25): icmp_seq=11 ttl=51 time=80.1 ms
64 bytes from nyc.speedtest.sbcglobal.net (99.24.18.25): icmp_seq=11 ttl=51 time=79.9 ms
64 bytes from nyc.speedtest.sbcglobal.net (99.24.18.25): icmp_seq=11 ttl=51 time=79.7 ms
64 bytes from nyc.speedtest.sbcglobal.net (99.24.18.25): icmp_seq=11 ttl=51 time=79.7 ms
64 bytes from nyc.speedtest.sbcglobal.net (99.24.18.25): icmp_seq=11 ttl=51 time=79.7 ms
64 bytes from nyc.speedtest.sbcglobal.net (99.24.18.25): icmp_seq=11 ttl=51 time=79.8 ms
64 bytes from nyc.speedtest.sbcglobal.net (99.24.18.25): icmp_seq=11 ttl=51 time=79.8 ms
64 bytes from nyc.speedtest.sbcglobal.net (99.24.18.25): icmp_seq=11 ttl=51 time=79.8 ms
64 bytes from nyc.speedtest.sbcglobal.net (99.24.18.25): icmp_seq=11 ttl=51 time=79.8 ms
64 bytes from nyc.speedtest.sbcglobal.net (99.24.18.25): icmp_seq=11 ttl=51 time=79.8 ms
64 bytes from nyc.speedtest.sbcglobal.net (99.24.18.25): icmp_seq=11 ttl=51 time=79.8 ms
64 bytes from nyc.speedtest.sbcglobal.net (99.24.18.25): icmp_seq=11 ttl=51 time=79.8 ms
64 bytes from nyc.speedtest.sbcglobal.net (99.24.18.25): icmp_seq=11 ttl=51 time=79.8 ms
64 bytes from nyc.speedtest.sbcglobal.net (99.24.18.25): icmp_seq=11 ttl=51 time=79.7 ms
64 bytes from nyc.speedtest.sbcglobal.net (99.24.18.25): icmp_seq=11 ttl=51 time=80.0 ms
64 bytes from nyc.speedtest.sbcglobal.net (99.24.18.25): icmp_seq=11 ttl=51 time=80.1 ms
64 bytes from nyc.speedtest.sbcglobal.net (99.24.18.25): icmp_seq=11 ttl=51 time=80.0 ms
64 bytes from nyc.speedtest.sbcglobal.net (99.24.18.25): icmp_seq=11 ttl=51 time=80.1 ms
64 bytes from nyc.speedtest.sbcglobal.net (99.24.18.25): icmp_seq=11 ttl=51 time=80.1 ms
64 bytes from nyc.speedtest.sbcglobal.net (99.24.18.25): icmp_seq=11 ttl=51 time=80.1 ms
64 bytes from nyc.speedtest.sbcglobal.net (99.24.18.25): icmp_seq=11 ttl=51 time=80.1 ms
64 bytes from nyc.speedtest.sbcglobal.net (99.24.18.25): icmp_seq=11 ttl=51 time=79.9 ms
64 bytes from nyc.speedtest.sbcglobal.net (99.24.18.25): icmp_seq=11 ttl=51 time=80.1 ms
64 bytes from nyc.speedtest.sbcglobal.net (99.24.18.25): icmp_seq=12 ttl=51 time=80.2 ms
64 bytes from nyc.speedtest.sbcglobal.net (99.24.18.25): icmp_seq=12 ttl=51 time=80.2 ms
64 bytes from nyc.speedtest.sbcglobal.net (99.24.18.25): icmp_seq=12 ttl=51 time=80.2 ms
64 bytes from nyc.speedtest.sbcglobal.net (99.24.18.25): icmp_seq=12 ttl=51 time=80.3 ms
64 bytes from nyc.speedtest.sbcglobal.net (99.24.18.25): icmp_seq=12 ttl=51 time=80.3 ms
64 bytes from nyc.speedtest.sbcglobal.net (99.24.18.25): icmp_seq=12 ttl=51 time=80.3 ms
64 bytes from nyc.speedtest.sbcglobal.net (99.24.18.25): icmp_seq=12 ttl=51 time=80.3 ms
64 bytes from nyc.speedtest.sbcglobal.net (99.24.18.25): icmp_seq=12 ttl=51 time=80.1 ms
64 bytes from nyc.speedtest.sbcglobal.net (99.24.18.25): icmp_seq=12 ttl=51 time=80.3 ms
64 bytes from nyc.speedtest.sbcglobal.net (99.24.18.25): icmp_seq=12 ttl=51 time=79.7 ms
64 bytes from nyc.speedtest.sbcglobal.net (99.24.18.25): icmp_seq=12 ttl=51 time=79.7 ms
64 bytes from nyc.speedtest.sbcglobal.net (99.24.18.25): icmp_seq=12 ttl=51 time=79.7 ms
64 bytes from nyc.speedtest.sbcglobal.net (99.24.18.25): icmp_seq=12 ttl=51 time=79.8 ms
64 bytes from nyc.speedtest.sbcglobal.net (99.24.18.25): icmp_seq=12 ttl=51 time=79.8 ms
64 bytes from nyc.speedtest.sbcglobal.net (99.24.18.25): icmp_seq=12 ttl=51 time=79.8 ms
64 bytes from nyc.speedtest.sbcglobal.net (99.24.18.25): icmp_seq=12 ttl=51 time=79.8 ms
64 bytes from nyc.speedtest.sbcglobal.net (99.24.18.25): icmp_seq=12 ttl=51 time=79.8 ms
64 bytes from nyc.speedtest.sbcglobal.net (99.24.18.25): icmp_seq=12 ttl=51 time=79.9 ms
64 bytes from nyc.speedtest.sbcglobal.net (99.24.18.25): icmp_seq=12 ttl=51 time=79.6 ms
64 bytes from nyc.speedtest.sbcglobal.net (99.24.18.25): icmp_seq=12 ttl=51 time=79.8 ms
64 bytes from nyc.speedtest.sbcglobal.net (99.24.18.25): icmp_seq=12 ttl=51 time=79.9 ms
64 bytes from nyc.speedtest.sbcglobal.net (99.24.18.25): icmp_seq=12 ttl=51 time=79.6 ms
64 bytes from nyc.speedtest.sbcglobal.net (99.24.18.25): icmp_seq=12 ttl=51 time=79.6 ms
64 bytes from nyc.speedtest.sbcglobal.net (99.24.18.25): icmp_seq=12 ttl=51 time=79.7 ms
64 bytes from nyc.speedtest.sbcglobal.net (99.24.18.25): icmp_seq=12 ttl=51 time=79.8 ms
64 bytes from nyc.speedtest.sbcglobal.net (99.24.18.25): icmp_seq=12 ttl=51 time=79.8 ms
64 bytes from nyc.speedtest.sbcglobal.net (99.24.18.25): icmp_seq=12 ttl=51 time=79.8 ms
64 bytes from nyc.speedtest.sbcglobal.net (99.24.18.25): icmp_seq=12 ttl=51 time=79.9 ms
64 bytes from nyc.speedtest.sbcglobal.net (99.24.18.25): icmp_seq=12 ttl=51 time=79.9 ms
64 bytes from nyc.speedtest.sbcglobal.net (99.24.18.25): icmp_seq=12 ttl=51 time=79.9 ms
64 bytes from nyc.speedtest.sbcglobal.net (99.24.18.25): icmp_seq=12 ttl=51 time=80.0 ms
64 bytes from nyc.speedtest.sbcglobal.net (99.24.18.25): icmp_seq=12 ttl=51 time=80.0 ms
64 bytes from nyc.speedtest.sbcglobal.net (99.24.18.25): icmp_seq=12 ttl=51 time=80.0 ms
64 bytes from nyc.speedtest.sbcglobal.net (99.24.18.25): icmp_seq=12 ttl=51 time=79.7 ms
64 bytes from nyc.speedtest.sbcglobal.net (99.24.18.25): icmp_seq=12 ttl=51 time=79.8 ms
64 bytes from nyc.speedtest.sbcglobal.net (99.24.18.25): icmp_seq=12 ttl=51 time=79.8 ms
64 bytes from nyc.speedtest.sbcglobal.net (99.24.18.25): icmp_seq=12 ttl=51 time=79.6 ms
64 bytes from nyc.speedtest.sbcglobal.net (99.24.18.25): icmp_seq=12 ttl=51 time=79.7 ms
64 bytes from nyc.speedtest.sbcglobal.net (99.24.18.25): icmp_seq=12 ttl=51 time=79.7 ms
64 bytes from nyc.speedtest.sbcglobal.net (99.24.18.25): icmp_seq=12 ttl=51 time=79.9 ms
64 bytes from nyc.speedtest.sbcglobal.net (99.24.18.25): icmp_seq=13 ttl=51 time=80.3 ms
64 bytes from nyc.speedtest.sbcglobal.net (99.24.18.25): icmp_seq=13 ttl=51 time=80.4 ms
64 bytes from nyc.speedtest.sbcglobal.net (99.24.18.25): icmp_seq=13 ttl=51 time=80.4 ms
64 bytes from nyc.speedtest.sbcglobal.net (99.24.18.25): icmp_seq=13 ttl=51 time=80.4 ms
64 bytes from nyc.speedtest.sbcglobal.net (99.24.18.25): icmp_seq=13 ttl=51 time=80.5 ms
64 bytes from nyc.speedtest.sbcglobal.net (99.24.18.25): icmp_seq=13 ttl=51 time=80.5 ms
64 bytes from nyc.speedtest.sbcglobal.net (99.24.18.25): icmp_seq=13 ttl=51 time=80.5 ms
64 bytes from nyc.speedtest.sbcglobal.net (99.24.18.25): icmp_seq=13 ttl=51 time=80.6 ms
64 bytes from nyc.speedtest.sbcglobal.net (99.24.18.25): icmp_seq=13 ttl=51 time=80.2 ms
64 bytes from nyc.speedtest.sbcglobal.net (99.24.18.25): icmp_seq=13 ttl=51 time=79.7 ms
64 bytes from nyc.speedtest.sbcglobal.net (99.24.18.25): icmp_seq=13 ttl=51 time=79.8 ms
64 bytes from nyc.speedtest.sbcglobal.net (99.24.18.25): icmp_seq=13 ttl=51 time=79.7 ms
64 bytes from nyc.speedtest.sbcglobal.net (99.24.18.25): icmp_seq=13 ttl=51 time=79.8 ms
64 bytes from nyc.speedtest.sbcglobal.net (99.24.18.25): icmp_seq=13 ttl=51 time=79.8 ms
64 bytes from nyc.speedtest.sbcglobal.net (99.24.18.25): icmp_seq=13 ttl=51 time=79.9 ms
64 bytes from nyc.speedtest.sbcglobal.net (99.24.18.25): icmp_seq=13 ttl=51 time=79.9 ms
64 bytes from nyc.speedtest.sbcglobal.net (99.24.18.25): icmp_seq=13 ttl=51 time=79.9 ms
64 bytes from nyc.speedtest.sbcglobal.net (99.24.18.25): icmp_seq=13 ttl=51 time=80.0 ms
64 bytes from nyc.speedtest.sbcglobal.net (99.24.18.25): icmp_seq=13 ttl=51 time=80.0 ms
64 bytes from nyc.speedtest.sbcglobal.net (99.24.18.25): icmp_seq=13 ttl=51 time=80.0 ms
64 bytes from nyc.speedtest.sbcglobal.net (99.24.18.25): icmp_seq=13 ttl=51 time=80.1 ms
64 bytes from nyc.speedtest.sbcglobal.net (99.24.18.25): icmp_seq=13 ttl=51 time=80.1 ms
64 bytes from nyc.speedtest.sbcglobal.net (99.24.18.25): icmp_seq=13 ttl=51 time=80.1 ms
64 bytes from nyc.speedtest.sbcglobal.net (99.24.18.25): icmp_seq=13 ttl=51 time=79.7 ms
64 bytes from nyc.speedtest.sbcglobal.net (99.24.18.25): icmp_seq=13 ttl=51 time=79.8 ms
64 bytes from nyc.speedtest.sbcglobal.net (99.24.18.25): icmp_seq=13 ttl=51 time=79.7 ms
64 bytes from nyc.speedtest.sbcglobal.net (99.24.18.25): icmp_seq=13 ttl=51 time=79.7 ms
64 bytes from nyc.speedtest.sbcglobal.net (99.24.18.25): icmp_seq=13 ttl=51 time=79.8 ms
64 bytes from nyc.speedtest.sbcglobal.net (99.24.18.25): icmp_seq=13 ttl=51 time=79.8 ms
64 bytes from nyc.speedtest.sbcglobal.net (99.24.18.25): icmp_seq=13 ttl=51 time=79.8 ms
64 bytes from nyc.speedtest.sbcglobal.net (99.24.18.25): icmp_seq=13 ttl=51 time=79.9 ms
64 bytes from nyc.speedtest.sbcglobal.net (99.24.18.25): icmp_seq=13 ttl=51 time=79.8 ms
64 bytes from nyc.speedtest.sbcglobal.net (99.24.18.25): icmp_seq=13 ttl=51 time=79.9 ms
64 bytes from nyc.speedtest.sbcglobal.net (99.24.18.25): icmp_seq=13 ttl=51 time=79.6 ms
64 bytes from nyc.speedtest.sbcglobal.net (99.24.18.25): icmp_seq=13 ttl=51 time=79.8 ms
64 bytes from nyc.speedtest.sbcglobal.net (99.24.18.25): icmp_seq=13 ttl=51 time=79.7 ms
64 bytes from nyc.speedtest.sbcglobal.net (99.24.18.25): icmp_seq=13 ttl=51 time=79.7 ms
64 bytes from nyc.speedtest.sbcglobal.net (99.24.18.25): icmp_seq=13 ttl=51 time=79.7 ms
64 bytes from nyc.speedtest.sbcglobal.net (99.24.18.25): icmp_seq=13 ttl=51 time=79.6 ms
64 bytes from nyc.speedtest.sbcglobal.net (99.24.18.25): icmp_seq=13 ttl=51 time=79.7 ms
64 bytes from nyc.speedtest.sbcglobal.net (99.24.18.25): icmp_seq=14 ttl=51 time=80.3 ms
64 bytes from nyc.speedtest.sbcglobal.net (99.24.18.25): icmp_seq=14 ttl=51 time=80.3 ms
64 bytes from nyc.speedtest.sbcglobal.net (99.24.18.25): icmp_seq=14 ttl=51 time=80.3 ms
64 bytes from nyc.speedtest.sbcglobal.net (99.24.18.25): icmp_seq=14 ttl=51 time=80.3 ms
64 bytes from nyc.speedtest.sbcglobal.net (99.24.18.25): icmp_seq=14 ttl=51 time=80.4 ms
64 bytes from nyc.speedtest.sbcglobal.net (99.24.18.25): icmp_seq=14 ttl=51 time=80.5 ms
64 bytes from nyc.speedtest.sbcglobal.net (99.24.18.25): icmp_seq=14 ttl=51 time=80.5 ms
64 bytes from nyc.speedtest.sbcglobal.net (99.24.18.25): icmp_seq=14 ttl=51 time=80.4 ms
64 bytes from nyc.speedtest.sbcglobal.net (99.24.18.25): icmp_seq=14 ttl=51 time=80.4 ms
64 bytes from nyc.speedtest.sbcglobal.net (99.24.18.25): icmp_seq=14 ttl=51 time=80.3 ms
64 bytes from nyc.speedtest.sbcglobal.net (99.24.18.25): icmp_seq=14 ttl=51 time=80.3 ms
64 bytes from nyc.speedtest.sbcglobal.net (99.24.18.25): icmp_seq=14 ttl=51 time=79.6 ms
64 bytes from nyc.speedtest.sbcglobal.net (99.24.18.25): icmp_seq=14 ttl=51 time=79.7 ms
64 bytes from nyc.speedtest.sbcglobal.net (99.24.18.25): icmp_seq=14 ttl=51 time=79.7 ms
64 bytes from nyc.speedtest.sbcglobal.net (99.24.18.25): icmp_seq=14 ttl=51 time=79.8 ms
64 bytes from nyc.speedtest.sbcglobal.net (99.24.18.25): icmp_seq=14 ttl=51 time=79.7 ms
64 bytes from nyc.speedtest.sbcglobal.net (99.24.18.25): icmp_seq=14 ttl=51 time=79.8 ms
64 bytes from nyc.speedtest.sbcglobal.net (99.24.18.25): icmp_seq=14 ttl=51 time=79.9 ms
64 bytes from nyc.speedtest.sbcglobal.net (99.24.18.25): icmp_seq=14 ttl=51 time=79.9 ms
64 bytes from nyc.speedtest.sbcglobal.net (99.24.18.25): icmp_seq=14 ttl=51 time=79.9 ms
64 bytes from nyc.speedtest.sbcglobal.net (99.24.18.25): icmp_seq=14 ttl=51 time=79.9 ms
64 bytes from nyc.speedtest.sbcglobal.net (99.24.18.25): icmp_seq=14 ttl=51 time=79.9 ms
64 bytes from nyc.speedtest.sbcglobal.net (99.24.18.25): icmp_seq=14 ttl=51 time=80.1 ms
64 bytes from nyc.speedtest.sbcglobal.net (99.24.18.25): icmp_seq=14 ttl=51 time=80.0 ms
64 bytes from nyc.speedtest.sbcglobal.net (99.24.18.25): icmp_seq=14 ttl=51 time=80.0 ms
64 bytes from nyc.speedtest.sbcglobal.net (99.24.18.25): icmp_seq=14 ttl=51 time=80.0 ms
64 bytes from nyc.speedtest.sbcglobal.net (99.24.18.25): icmp_seq=14 ttl=51 time=79.7 ms
64 bytes from nyc.speedtest.sbcglobal.net (99.24.18.25): icmp_seq=14 ttl=51 time=79.7 ms
64 bytes from nyc.speedtest.sbcglobal.net (99.24.18.25): icmp_seq=14 ttl=51 time=79.9 ms
64 bytes from nyc.speedtest.sbcglobal.net (99.24.18.25): icmp_seq=14 ttl=51 time=80.0 ms
64 bytes from nyc.speedtest.sbcglobal.net (99.24.18.25): icmp_seq=14 ttl=51 time=80.0 ms
64 bytes from nyc.speedtest.sbcglobal.net (99.24.18.25): icmp_seq=14 ttl=51 time=79.9 ms
64 bytes from nyc.speedtest.sbcglobal.net (99.24.18.25): icmp_seq=14 ttl=51 time=79.8 ms
64 bytes from nyc.speedtest.sbcglobal.net (99.24.18.25): icmp_seq=14 ttl=51 time=80.0 ms
64 bytes from nyc.speedtest.sbcglobal.net (99.24.18.25): icmp_seq=14 ttl=51 time=79.9 ms
64 bytes from nyc.speedtest.sbcglobal.net (99.24.18.25): icmp_seq=14 ttl=51 time=79.9 ms
64 bytes from nyc.speedtest.sbcglobal.net (99.24.18.25): icmp_seq=14 ttl=51 time=79.7 ms
64 bytes from nyc.speedtest.sbcglobal.net (99.24.18.25): icmp_seq=14 ttl=51 time=79.7 ms
64 bytes from nyc.speedtest.sbcglobal.net (99.24.18.25): icmp_seq=14 ttl=51 time=79.7 ms
64 bytes from nyc.speedtest.sbcglobal.net (99.24.18.25): icmp_seq=14 ttl=51 time=79.7 ms
64 bytes from nyc.speedtest.sbcglobal.net (99.24.18.25): icmp_seq=15 ttl=51 time=79.9 ms
64 bytes from nyc.speedtest.sbcglobal.net (99.24.18.25): icmp_seq=15 ttl=51 time=80.0 ms
64 bytes from nyc.speedtest.sbcglobal.net (99.24.18.25): icmp_seq=15 ttl=51 time=80.0 ms
64 bytes from nyc.speedtest.sbcglobal.net (99.24.18.25): icmp_seq=15 ttl=51 time=80.0 ms
64 bytes from nyc.speedtest.sbcglobal.net (99.24.18.25): icmp_seq=15 ttl=51 time=80.1 ms
64 bytes from nyc.speedtest.sbcglobal.net (99.24.18.25): icmp_seq=15 ttl=51 time=80.1 ms
64 bytes from nyc.speedtest.sbcglobal.net (99.24.18.25): icmp_seq=15 ttl=51 time=80.1 ms
64 bytes from nyc.speedtest.sbcglobal.net (99.24.18.25): icmp_seq=15 ttl=51 time=80.1 ms
64 bytes from nyc.speedtest.sbcglobal.net (99.24.18.25): icmp_seq=15 ttl=51 time=80.2 ms
64 bytes from nyc.speedtest.sbcglobal.net (99.24.18.25): icmp_seq=15 ttl=51 time=80.3 ms
64 bytes from nyc.speedtest.sbcglobal.net (99.24.18.25): icmp_seq=15 ttl=51 time=80.2 ms
64 bytes from nyc.speedtest.sbcglobal.net (99.24.18.25): icmp_seq=15 ttl=51 time=80.3 ms
64 bytes from nyc.speedtest.sbcglobal.net (99.24.18.25): icmp_seq=15 ttl=51 time=79.8 ms
64 bytes from nyc.speedtest.sbcglobal.net (99.24.18.25): icmp_seq=15 ttl=51 time=80.4 ms
64 bytes from nyc.speedtest.sbcglobal.net (99.24.18.25): icmp_seq=15 ttl=51 time=80.4 ms
64 bytes from nyc.speedtest.sbcglobal.net (99.24.18.25): icmp_seq=15 ttl=51 time=80.4 ms
64 bytes from nyc.speedtest.sbcglobal.net (99.24.18.25): icmp_seq=15 ttl=51 time=80.4 ms
64 bytes from nyc.speedtest.sbcglobal.net (99.24.18.25): icmp_seq=15 ttl=51 time=80.4 ms
64 bytes from nyc.speedtest.sbcglobal.net (99.24.18.25): icmp_seq=15 ttl=51 time=80.4 ms
64 bytes from nyc.speedtest.sbcglobal.net (99.24.18.25): icmp_seq=15 ttl=51 time=80.5 ms
64 bytes from nyc.speedtest.sbcglobal.net (99.24.18.25): icmp_seq=15 ttl=51 time=79.7 ms
64 bytes from nyc.speedtest.sbcglobal.net (99.24.18.25): icmp_seq=15 ttl=51 time=79.7 ms
64 bytes from nyc.speedtest.sbcglobal.net (99.24.18.25): icmp_seq=15 ttl=51 time=79.7 ms
64 bytes from nyc.speedtest.sbcglobal.net (99.24.18.25): icmp_seq=15 ttl=51 time=79.8 ms
64 bytes from nyc.speedtest.sbcglobal.net (99.24.18.25): icmp_seq=15 ttl=51 time=79.7 ms
64 bytes from nyc.speedtest.sbcglobal.net (99.24.18.25): icmp_seq=15 ttl=51 time=79.8 ms
64 bytes from nyc.speedtest.sbcglobal.net (99.24.18.25): icmp_seq=15 ttl=51 time=79.9 ms
64 bytes from nyc.speedtest.sbcglobal.net (99.24.18.25): icmp_seq=15 ttl=51 time=79.9 ms
64 bytes from nyc.speedtest.sbcglobal.net (99.24.18.25): icmp_seq=15 ttl=51 time=79.9 ms
64 bytes from nyc.speedtest.sbcglobal.net (99.24.18.25): icmp_seq=15 ttl=51 time=79.9 ms
64 bytes from nyc.speedtest.sbcglobal.net (99.24.18.25): icmp_seq=15 ttl=51 time=79.9 ms
64 bytes from nyc.speedtest.sbcglobal.net (99.24.18.25): icmp_seq=15 ttl=51 time=79.6 ms
64 bytes from nyc.speedtest.sbcglobal.net (99.24.18.25): icmp_seq=15 ttl=51 time=80.0 ms
64 bytes from nyc.speedtest.sbcglobal.net (99.24.18.25): icmp_seq=15 ttl=51 time=79.7 ms
64 bytes from nyc.speedtest.sbcglobal.net (99.24.18.25): icmp_seq=15 ttl=51 time=80.0 ms
64 bytes from nyc.speedtest.sbcglobal.net (99.24.18.25): icmp_seq=15 ttl=51 time=80.1 ms
64 bytes from nyc.speedtest.sbcglobal.net (99.24.18.25): icmp_seq=15 ttl=51 time=80.1 ms
64 bytes from nyc.speedtest.sbcglobal.net (99.24.18.25): icmp_seq=15 ttl=51 time=80.1 ms
64 bytes from nyc.speedtest.sbcglobal.net (99.24.18.25): icmp_seq=15 ttl=51 time=79.9 ms
64 bytes from nyc.speedtest.sbcglobal.net (99.24.18.25): icmp_seq=15 ttl=51 time=80.1 ms
64 bytes from nyc.speedtest.sbcglobal.net (99.24.18.25): icmp_seq=16 ttl=51 time=80.2 ms
64 bytes from nyc.speedtest.sbcglobal.net (99.24.18.25): icmp_seq=16 ttl=51 time=80.2 ms
64 bytes from nyc.speedtest.sbcglobal.net (99.24.18.25): icmp_seq=16 ttl=51 time=80.2 ms
64 bytes from nyc.speedtest.sbcglobal.net (99.24.18.25): icmp_seq=16 ttl=51 time=80.3 ms
64 bytes from nyc.speedtest.sbcglobal.net (99.24.18.25): icmp_seq=16 ttl=51 time=80.3 ms
64 bytes from nyc.speedtest.sbcglobal.net (99.24.18.25): icmp_seq=16 ttl=51 time=80.4 ms
64 bytes from nyc.speedtest.sbcglobal.net (99.24.18.25): icmp_seq=16 ttl=51 time=80.3 ms
64 bytes from nyc.speedtest.sbcglobal.net (99.24.18.25): icmp_seq=16 ttl=51 time=80.4 ms
64 bytes from nyc.speedtest.sbcglobal.net (99.24.18.25): icmp_seq=16 ttl=51 time=80.4 ms
64 bytes from nyc.speedtest.sbcglobal.net (99.24.18.25): icmp_seq=16 ttl=51 time=80.4 ms
64 bytes from nyc.speedtest.sbcglobal.net (99.24.18.25): icmp_seq=16 ttl=51 time=80.5 ms
64 bytes from nyc.speedtest.sbcglobal.net (99.24.18.25): icmp_seq=16 ttl=51 time=80.4 ms
64 bytes from nyc.speedtest.sbcglobal.net (99.24.18.25): icmp_seq=16 ttl=51 time=80.5 ms
64 bytes from nyc.speedtest.sbcglobal.net (99.24.18.25): icmp_seq=16 ttl=51 time=80.5 ms
64 bytes from nyc.speedtest.sbcglobal.net (99.24.18.25): icmp_seq=16 ttl=51 time=80.6 ms
64 bytes from nyc.speedtest.sbcglobal.net (99.24.18.25): icmp_seq=16 ttl=51 time=80.6 ms
64 bytes from nyc.speedtest.sbcglobal.net (99.24.18.25): icmp_seq=16 ttl=51 time=80.6 ms
64 bytes from nyc.speedtest.sbcglobal.net (99.24.18.25): icmp_seq=16 ttl=51 time=80.6 ms
64 bytes from nyc.speedtest.sbcglobal.net (99.24.18.25): icmp_seq=16 ttl=51 time=80.7 ms
64 bytes from nyc.speedtest.sbcglobal.net (99.24.18.25): icmp_seq=16 ttl=51 time=80.1 ms
64 bytes from nyc.speedtest.sbcglobal.net (99.24.18.25): icmp_seq=16 ttl=51 time=79.7 ms
64 bytes from nyc.speedtest.sbcglobal.net (99.24.18.25): icmp_seq=16 ttl=51 time=79.8 ms
64 bytes from nyc.speedtest.sbcglobal.net (99.24.18.25): icmp_seq=16 ttl=51 time=79.8 ms
64 bytes from nyc.speedtest.sbcglobal.net (99.24.18.25): icmp_seq=16 ttl=51 time=79.8 ms
64 bytes from nyc.speedtest.sbcglobal.net (99.24.18.25): icmp_seq=16 ttl=51 time=79.8 ms
64 bytes from nyc.speedtest.sbcglobal.net (99.24.18.25): icmp_seq=16 ttl=51 time=79.9 ms
64 bytes from nyc.speedtest.sbcglobal.net (99.24.18.25): icmp_seq=16 ttl=51 time=79.9 ms
64 bytes from nyc.speedtest.sbcglobal.net (99.24.18.25): icmp_seq=16 ttl=51 time=79.9 ms
64 bytes from nyc.speedtest.sbcglobal.net (99.24.18.25): icmp_seq=16 ttl=51 time=79.9 ms
64 bytes from nyc.speedtest.sbcglobal.net (99.24.18.25): icmp_seq=16 ttl=51 time=80.0 ms
64 bytes from nyc.speedtest.sbcglobal.net (99.24.18.25): icmp_seq=16 ttl=51 time=79.9 ms
64 bytes from nyc.speedtest.sbcglobal.net (99.24.18.25): icmp_seq=16 ttl=51 time=80.0 ms
64 bytes from nyc.speedtest.sbcglobal.net (99.24.18.25): icmp_seq=16 ttl=51 time=79.7 ms
64 bytes from nyc.speedtest.sbcglobal.net (99.24.18.25): icmp_seq=16 ttl=51 time=79.8 ms
64 bytes from nyc.speedtest.sbcglobal.net (99.24.18.25): icmp_seq=16 ttl=51 time=79.9 ms
64 bytes from nyc.speedtest.sbcglobal.net (99.24.18.25): icmp_seq=16 ttl=51 time=80.0 ms
64 bytes from nyc.speedtest.sbcglobal.net (99.24.18.25): icmp_seq=16 ttl=51 time=79.9 ms
64 bytes from nyc.speedtest.sbcglobal.net (99.24.18.25): icmp_seq=16 ttl=51 time=79.9 ms
64 bytes from nyc.speedtest.sbcglobal.net (99.24.18.25): icmp_seq=16 ttl=51 time=79.8 ms
64 bytes from nyc.speedtest.sbcglobal.net (99.24.18.25): icmp_seq=16 ttl=51 time=79.9 ms
64 bytes from nyc.speedtest.sbcglobal.net (99.24.18.25): icmp_seq=17 ttl=51 time=80.0 ms
64 bytes from nyc.speedtest.sbcglobal.net (99.24.18.25): icmp_seq=17 ttl=51 time=80.1 ms
64 bytes from nyc.speedtest.sbcglobal.net (99.24.18.25): icmp_seq=17 ttl=51 time=80.1 ms
64 bytes from nyc.speedtest.sbcglobal.net (99.24.18.25): icmp_seq=17 ttl=51 time=80.1 ms
64 bytes from nyc.speedtest.sbcglobal.net (99.24.18.25): icmp_seq=17 ttl=51 time=80.2 ms
64 bytes from nyc.speedtest.sbcglobal.net (99.24.18.25): icmp_seq=17 ttl=51 time=80.2 ms
64 bytes from nyc.speedtest.sbcglobal.net (99.24.18.25): icmp_seq=17 ttl=51 time=80.3 ms
64 bytes from nyc.speedtest.sbcglobal.net (99.24.18.25): icmp_seq=17 ttl=51 time=80.3 ms
64 bytes from nyc.speedtest.sbcglobal.net (99.24.18.25): icmp_seq=17 ttl=51 time=80.2 ms
64 bytes from nyc.speedtest.sbcglobal.net (99.24.18.25): icmp_seq=17 ttl=51 time=80.3 ms
64 bytes from nyc.speedtest.sbcglobal.net (99.24.18.25): icmp_seq=17 ttl=51 time=80.3 ms
64 bytes from nyc.speedtest.sbcglobal.net (99.24.18.25): icmp_seq=17 ttl=51 time=80.3 ms
64 bytes from nyc.speedtest.sbcglobal.net (99.24.18.25): icmp_seq=17 ttl=51 time=79.9 ms
64 bytes from nyc.speedtest.sbcglobal.net (99.24.18.25): icmp_seq=17 ttl=51 time=80.4 ms
64 bytes from nyc.speedtest.sbcglobal.net (99.24.18.25): icmp_seq=17 ttl=51 time=80.4 ms
64 bytes from nyc.speedtest.sbcglobal.net (99.24.18.25): icmp_seq=17 ttl=51 time=80.5 ms
64 bytes from nyc.speedtest.sbcglobal.net (99.24.18.25): icmp_seq=17 ttl=51 time=80.5 ms
64 bytes from nyc.speedtest.sbcglobal.net (99.24.18.25): icmp_seq=17 ttl=51 time=80.6 ms
64 bytes from nyc.speedtest.sbcglobal.net (99.24.18.25): icmp_seq=17 ttl=51 time=80.6 ms
64 bytes from nyc.speedtest.sbcglobal.net (99.24.18.25): icmp_seq=17 ttl=51 time=80.6 ms
64 bytes from nyc.speedtest.sbcglobal.net (99.24.18.25): icmp_seq=17 ttl=51 time=80.6 ms
64 bytes from nyc.speedtest.sbcglobal.net (99.24.18.25): icmp_seq=17 ttl=51 time=80.6 ms
64 bytes from nyc.speedtest.sbcglobal.net (99.24.18.25): icmp_seq=17 ttl=51 time=80.6 ms
64 bytes from nyc.speedtest.sbcglobal.net (99.24.18.25): icmp_seq=17 ttl=51 time=80.7 ms
64 bytes from nyc.speedtest.sbcglobal.net (99.24.18.25): icmp_seq=17 ttl=51 time=80.7 ms
64 bytes from nyc.speedtest.sbcglobal.net (99.24.18.25): icmp_seq=17 ttl=51 time=80.7 ms
64 bytes from nyc.speedtest.sbcglobal.net (99.24.18.25): icmp_seq=17 ttl=51 time=80.1 ms
64 bytes from nyc.speedtest.sbcglobal.net (99.24.18.25): icmp_seq=17 ttl=51 time=80.2 ms
64 bytes from nyc.speedtest.sbcglobal.net (99.24.18.25): icmp_seq=17 ttl=51 time=80.2 ms
64 bytes from nyc.speedtest.sbcglobal.net (99.24.18.25): icmp_seq=17 ttl=51 time=80.2 ms
64 bytes from nyc.speedtest.sbcglobal.net (99.24.18.25): icmp_seq=17 ttl=51 time=79.7 ms
64 bytes from nyc.speedtest.sbcglobal.net (99.24.18.25): icmp_seq=17 ttl=51 time=79.7 ms
64 bytes from nyc.speedtest.sbcglobal.net (99.24.18.25): icmp_seq=17 ttl=51 time=79.9 ms
64 bytes from nyc.speedtest.sbcglobal.net (99.24.18.25): icmp_seq=17 ttl=51 time=80.0 ms
64 bytes from nyc.speedtest.sbcglobal.net (99.24.18.25): icmp_seq=17 ttl=51 time=79.7 ms
64 bytes from nyc.speedtest.sbcglobal.net (99.24.18.25): icmp_seq=17 ttl=51 time=79.7 ms
64 bytes from nyc.speedtest.sbcglobal.net (99.24.18.25): icmp_seq=17 ttl=51 time=79.7 ms
64 bytes from nyc.speedtest.sbcglobal.net (99.24.18.25): icmp_seq=17 ttl=51 time=79.6 ms
64 bytes from nyc.speedtest.sbcglobal.net (99.24.18.25): icmp_seq=17 ttl=51 time=79.9 ms
64 bytes from nyc.speedtest.sbcglobal.net (99.24.18.25): icmp_seq=17 ttl=51 time=79.8 ms
64 bytes from nyc.speedtest.sbcglobal.net (99.24.18.25): icmp_seq=18 ttl=51 time=80.3 ms
64 bytes from nyc.speedtest.sbcglobal.net (99.24.18.25): icmp_seq=18 ttl=51 time=80.3 ms
64 bytes from nyc.speedtest.sbcglobal.net (99.24.18.25): icmp_seq=18 ttl=51 time=80.4 ms
64 bytes from nyc.speedtest.sbcglobal.net (99.24.18.25): icmp_seq=18 ttl=51 time=80.5 ms
64 bytes from nyc.speedtest.sbcglobal.net (99.24.18.25): icmp_seq=18 ttl=51 time=80.4 ms
64 bytes from nyc.speedtest.sbcglobal.net (99.24.18.25): icmp_seq=18 ttl=51 time=80.5 ms
64 bytes from nyc.speedtest.sbcglobal.net (99.24.18.25): icmp_seq=18 ttl=51 time=80.5 ms
64 bytes from nyc.speedtest.sbcglobal.net (99.24.18.25): icmp_seq=18 ttl=51 time=80.5 ms
64 bytes from nyc.speedtest.sbcglobal.net (99.24.18.25): icmp_seq=18 ttl=51 time=80.5 ms
64 bytes from nyc.speedtest.sbcglobal.net (99.24.18.25): icmp_seq=18 ttl=51 time=80.6 ms
64 bytes from nyc.speedtest.sbcglobal.net (99.24.18.25): icmp_seq=18 ttl=51 time=80.7 ms
64 bytes from nyc.speedtest.sbcglobal.net (99.24.18.25): icmp_seq=18 ttl=51 time=80.6 ms
64 bytes from nyc.speedtest.sbcglobal.net (99.24.18.25): icmp_seq=18 ttl=51 time=80.7 ms
64 bytes from nyc.speedtest.sbcglobal.net (99.24.18.25): icmp_seq=18 ttl=51 time=80.7 ms
64 bytes from nyc.speedtest.sbcglobal.net (99.24.18.25): icmp_seq=18 ttl=51 time=80.7 ms
64 bytes from nyc.speedtest.sbcglobal.net (99.24.18.25): icmp_seq=18 ttl=51 time=80.8 ms
64 bytes from nyc.speedtest.sbcglobal.net (99.24.18.25): icmp_seq=18 ttl=51 time=80.9 ms
64 bytes from nyc.speedtest.sbcglobal.net (99.24.18.25): icmp_seq=18 ttl=51 time=80.8 ms
64 bytes from nyc.speedtest.sbcglobal.net (99.24.18.25): icmp_seq=18 ttl=51 time=80.9 ms
64 bytes from nyc.speedtest.sbcglobal.net (99.24.18.25): icmp_seq=18 ttl=51 time=80.9 ms
64 bytes from nyc.speedtest.sbcglobal.net (99.24.18.25): icmp_seq=18 ttl=51 time=80.9 ms
64 bytes from nyc.speedtest.sbcglobal.net (99.24.18.25): icmp_seq=18 ttl=51 time=80.9 ms
64 bytes from nyc.speedtest.sbcglobal.net (99.24.18.25): icmp_seq=18 ttl=51 time=81.0 ms
64 bytes from nyc.speedtest.sbcglobal.net (99.24.18.25): icmp_seq=18 ttl=51 time=81.0 ms
64 bytes from nyc.speedtest.sbcglobal.net (99.24.18.25): icmp_seq=18 ttl=51 time=81.0 ms
64 bytes from nyc.speedtest.sbcglobal.net (99.24.18.25): icmp_seq=18 ttl=51 time=80.1 ms
64 bytes from nyc.speedtest.sbcglobal.net (99.24.18.25): icmp_seq=18 ttl=51 time=81.0 ms
64 bytes from nyc.speedtest.sbcglobal.net (99.24.18.25): icmp_seq=18 ttl=51 time=81.0 ms
64 bytes from nyc.speedtest.sbcglobal.net (99.24.18.25): icmp_seq=18 ttl=51 time=81.0 ms
64 bytes from nyc.speedtest.sbcglobal.net (99.24.18.25): icmp_seq=18 ttl=51 time=81.0 ms
64 bytes from nyc.speedtest.sbcglobal.net (99.24.18.25): icmp_seq=18 ttl=51 time=79.7 ms
64 bytes from nyc.speedtest.sbcglobal.net (99.24.18.25): icmp_seq=18 ttl=51 time=79.7 ms
64 bytes from nyc.speedtest.sbcglobal.net (99.24.18.25): icmp_seq=18 ttl=51 time=79.8 ms
64 bytes from nyc.speedtest.sbcglobal.net (99.24.18.25): icmp_seq=18 ttl=51 time=79.8 ms
64 bytes from nyc.speedtest.sbcglobal.net (99.24.18.25): icmp_seq=18 ttl=51 time=80.2 ms
64 bytes from nyc.speedtest.sbcglobal.net (99.24.18.25): icmp_seq=18 ttl=51 time=80.2 ms
64 bytes from nyc.speedtest.sbcglobal.net (99.24.18.25): icmp_seq=18 ttl=51 time=80.3 ms
64 bytes from nyc.speedtest.sbcglobal.net (99.24.18.25): icmp_seq=18 ttl=51 time=80.2 ms
64 bytes from nyc.speedtest.sbcglobal.net (99.24.18.25): icmp_seq=18 ttl=51 time=80.2 ms
64 bytes from nyc.speedtest.sbcglobal.net (99.24.18.25): icmp_seq=18 ttl=51 time=80.0 ms
64 bytes from nyc.speedtest.sbcglobal.net (99.24.18.25): icmp_seq=19 ttl=51 time=80.2 ms
64 bytes from nyc.speedtest.sbcglobal.net (99.24.18.25): icmp_seq=19 ttl=51 time=80.3 ms
64 bytes from nyc.speedtest.sbcglobal.net (99.24.18.25): icmp_seq=19 ttl=51 time=80.2 ms
64 bytes from nyc.speedtest.sbcglobal.net (99.24.18.25): icmp_seq=19 ttl=51 time=80.3 ms
64 bytes from nyc.speedtest.sbcglobal.net (99.24.18.25): icmp_seq=19 ttl=51 time=80.3 ms
64 bytes from nyc.speedtest.sbcglobal.net (99.24.18.25): icmp_seq=19 ttl=51 time=80.4 ms
64 bytes from nyc.speedtest.sbcglobal.net (99.24.18.25): icmp_seq=19 ttl=51 time=80.4 ms
64 bytes from nyc.speedtest.sbcglobal.net (99.24.18.25): icmp_seq=19 ttl=51 time=80.4 ms
64 bytes from nyc.speedtest.sbcglobal.net (99.24.18.25): icmp_seq=19 ttl=51 time=80.4 ms
64 bytes from nyc.speedtest.sbcglobal.net (99.24.18.25): icmp_seq=19 ttl=51 time=80.5 ms
64 bytes from nyc.speedtest.sbcglobal.net (99.24.18.25): icmp_seq=19 ttl=51 time=80.5 ms
64 bytes from nyc.speedtest.sbcglobal.net (99.24.18.25): icmp_seq=19 ttl=51 time=80.6 ms
64 bytes from nyc.speedtest.sbcglobal.net (99.24.18.25): icmp_seq=19 ttl=51 time=80.6 ms
64 bytes from nyc.speedtest.sbcglobal.net (99.24.18.25): icmp_seq=19 ttl=51 time=80.6 ms
64 bytes from nyc.speedtest.sbcglobal.net (99.24.18.25): icmp_seq=19 ttl=51 time=80.6 ms
64 bytes from nyc.speedtest.sbcglobal.net (99.24.18.25): icmp_seq=19 ttl=51 time=80.7 ms
64 bytes from nyc.speedtest.sbcglobal.net (99.24.18.25): icmp_seq=19 ttl=51 time=80.7 ms
64 bytes from nyc.speedtest.sbcglobal.net (99.24.18.25): icmp_seq=19 ttl=51 time=80.8 ms
64 bytes from nyc.speedtest.sbcglobal.net (99.24.18.25): icmp_seq=19 ttl=51 time=80.8 ms
64 bytes from nyc.speedtest.sbcglobal.net (99.24.18.25): icmp_seq=19 ttl=51 time=80.9 ms
64 bytes from nyc.speedtest.sbcglobal.net (99.24.18.25): icmp_seq=19 ttl=51 time=80.9 ms
64 bytes from nyc.speedtest.sbcglobal.net (99.24.18.25): icmp_seq=19 ttl=51 time=80.9 ms
64 bytes from nyc.speedtest.sbcglobal.net (99.24.18.25): icmp_seq=19 ttl=51 time=81.0 ms
64 bytes from nyc.speedtest.sbcglobal.net (99.24.18.25): icmp_seq=19 ttl=51 time=81.0 ms
64 bytes from nyc.speedtest.sbcglobal.net (99.24.18.25): icmp_seq=19 ttl=51 time=81.0 ms
64 bytes from nyc.speedtest.sbcglobal.net (99.24.18.25): icmp_seq=19 ttl=51 time=80.0 ms
64 bytes from nyc.speedtest.sbcglobal.net (99.24.18.25): icmp_seq=19 ttl=51 time=81.1 ms
64 bytes from nyc.speedtest.sbcglobal.net (99.24.18.25): icmp_seq=19 ttl=51 time=81.1 ms
64 bytes from nyc.speedtest.sbcglobal.net (99.24.18.25): icmp_seq=19 ttl=51 time=81.1 ms
64 bytes from nyc.speedtest.sbcglobal.net (99.24.18.25): icmp_seq=19 ttl=51 time=81.1 ms
64 bytes from nyc.speedtest.sbcglobal.net (99.24.18.25): icmp_seq=19 ttl=51 time=80.1 ms
64 bytes from nyc.speedtest.sbcglobal.net (99.24.18.25): icmp_seq=19 ttl=51 time=80.2 ms
64 bytes from nyc.speedtest.sbcglobal.net (99.24.18.25): icmp_seq=19 ttl=51 time=80.1 ms
64 bytes from nyc.speedtest.sbcglobal.net (99.24.18.25): icmp_seq=19 ttl=51 time=80.0 ms
64 bytes from nyc.speedtest.sbcglobal.net (99.24.18.25): icmp_seq=19 ttl=51 time=80.0 ms
64 bytes from nyc.speedtest.sbcglobal.net (99.24.18.25): icmp_seq=19 ttl=51 time=80.0 ms
64 bytes from nyc.speedtest.sbcglobal.net (99.24.18.25): icmp_seq=19 ttl=51 time=80.1 ms
64 bytes from nyc.speedtest.sbcglobal.net (99.24.18.25): icmp_seq=19 ttl=51 time=80.1 ms
64 bytes from nyc.speedtest.sbcglobal.net (99.24.18.25): icmp_seq=19 ttl=51 time=80.1 ms
64 bytes from nyc.speedtest.sbcglobal.net (99.24.18.25): icmp_seq=19 ttl=51 time=79.9 ms
64 bytes from nyc.speedtest.sbcglobal.net (99.24.18.25): icmp_seq=20 ttl=51 time=80.4 ms
64 bytes from nyc.speedtest.sbcglobal.net (99.24.18.25): icmp_seq=20 ttl=51 time=80.5 ms
64 bytes from nyc.speedtest.sbcglobal.net (99.24.18.25): icmp_seq=20 ttl=51 time=80.4 ms
64 bytes from nyc.speedtest.sbcglobal.net (99.24.18.25): icmp_seq=20 ttl=51 time=80.5 ms
64 bytes from nyc.speedtest.sbcglobal.net (99.24.18.25): icmp_seq=20 ttl=51 time=80.6 ms
64 bytes from nyc.speedtest.sbcglobal.net (99.24.18.25): icmp_seq=20 ttl=51 time=80.7 ms
64 bytes from nyc.speedtest.sbcglobal.net (99.24.18.25): icmp_seq=20 ttl=51 time=80.6 ms
64 bytes from nyc.speedtest.sbcglobal.net (99.24.18.25): icmp_seq=20 ttl=51 time=80.6 ms
64 bytes from nyc.speedtest.sbcglobal.net (99.24.18.25): icmp_seq=20 ttl=51 time=80.7 ms
64 bytes from nyc.speedtest.sbcglobal.net (99.24.18.25): icmp_seq=20 ttl=51 time=80.7 ms
64 bytes from nyc.speedtest.sbcglobal.net (99.24.18.25): icmp_seq=20 ttl=51 time=80.8 ms
64 bytes from nyc.speedtest.sbcglobal.net (99.24.18.25): icmp_seq=20 ttl=51 time=80.8 ms
64 bytes from nyc.speedtest.sbcglobal.net (99.24.18.25): icmp_seq=20 ttl=51 time=80.9 ms
64 bytes from nyc.speedtest.sbcglobal.net (99.24.18.25): icmp_seq=20 ttl=51 time=80.9 ms
64 bytes from nyc.speedtest.sbcglobal.net (99.24.18.25): icmp_seq=20 ttl=51 time=80.9 ms
64 bytes from nyc.speedtest.sbcglobal.net (99.24.18.25): icmp_seq=20 ttl=51 time=80.9 ms
64 bytes from nyc.speedtest.sbcglobal.net (99.24.18.25): icmp_seq=20 ttl=51 time=81.0 ms
64 bytes from nyc.speedtest.sbcglobal.net (99.24.18.25): icmp_seq=20 ttl=51 time=81.1 ms
64 bytes from nyc.speedtest.sbcglobal.net (99.24.18.25): icmp_seq=20 ttl=51 time=81.1 ms
64 bytes from nyc.speedtest.sbcglobal.net (99.24.18.25): icmp_seq=20 ttl=51 time=81.1 ms
64 bytes from nyc.speedtest.sbcglobal.net (99.24.18.25): icmp_seq=20 ttl=51 time=81.1 ms
64 bytes from nyc.speedtest.sbcglobal.net (99.24.18.25): icmp_seq=20 ttl=51 time=81.1 ms
64 bytes from nyc.speedtest.sbcglobal.net (99.24.18.25): icmp_seq=20 ttl=51 time=81.1 ms
64 bytes from nyc.speedtest.sbcglobal.net (99.24.18.25): icmp_seq=20 ttl=51 time=81.2 ms
64 bytes from nyc.speedtest.sbcglobal.net (99.24.18.25): icmp_seq=20 ttl=51 time=81.1 ms
64 bytes from nyc.speedtest.sbcglobal.net (99.24.18.25): icmp_seq=20 ttl=51 time=81.2 ms
64 bytes from nyc.speedtest.sbcglobal.net (99.24.18.25): icmp_seq=20 ttl=51 time=81.2 ms
64 bytes from nyc.speedtest.sbcglobal.net (99.24.18.25): icmp_seq=20 ttl=51 time=81.2 ms
64 bytes from nyc.speedtest.sbcglobal.net (99.24.18.25): icmp_seq=20 ttl=51 time=81.2 ms
64 bytes from nyc.speedtest.sbcglobal.net (99.24.18.25): icmp_seq=20 ttl=51 time=80.3 ms
64 bytes from nyc.speedtest.sbcglobal.net (99.24.18.25): icmp_seq=20 ttl=51 time=79.8 ms
64 bytes from nyc.speedtest.sbcglobal.net (99.24.18.25): icmp_seq=20 ttl=51 time=79.8 ms
64 bytes from nyc.speedtest.sbcglobal.net (99.24.18.25): icmp_seq=20 ttl=51 time=79.9 ms
64 bytes from nyc.speedtest.sbcglobal.net (99.24.18.25): icmp_seq=20 ttl=51 time=79.7 ms
64 bytes from nyc.speedtest.sbcglobal.net (99.24.18.25): icmp_seq=20 ttl=51 time=79.9 ms
64 bytes from nyc.speedtest.sbcglobal.net (99.24.18.25): icmp_seq=20 ttl=51 time=79.7 ms
64 bytes from nyc.speedtest.sbcglobal.net (99.24.18.25): icmp_seq=20 ttl=51 time=79.6 ms
64 bytes from nyc.speedtest.sbcglobal.net (99.24.18.25): icmp_seq=20 ttl=51 time=79.6 ms
64 bytes from nyc.speedtest.sbcglobal.net (99.24.18.25): icmp_seq=20 ttl=51 time=79.7 ms
64 bytes from nyc.speedtest.sbcglobal.net (99.24.18.25): icmp_seq=20 ttl=51 time=79.6 ms
64 bytes from nyc.speedtest.sbcglobal.net (99.24.18.25): icmp_seq=21 ttl=51 time=80.3 ms
64 bytes from nyc.speedtest.sbcglobal.net (99.24.18.25): icmp_seq=21 ttl=51 time=80.3 ms
64 bytes from nyc.speedtest.sbcglobal.net (99.24.18.25): icmp_seq=21 ttl=51 time=80.3 ms
64 bytes from nyc.speedtest.sbcglobal.net (99.24.18.25): icmp_seq=21 ttl=51 time=80.4 ms
64 bytes from nyc.speedtest.sbcglobal.net (99.24.18.25): icmp_seq=21 ttl=51 time=80.4 ms
64 bytes from nyc.speedtest.sbcglobal.net (99.24.18.25): icmp_seq=21 ttl=51 time=80.4 ms
64 bytes from nyc.speedtest.sbcglobal.net (99.24.18.25): icmp_seq=21 ttl=51 time=80.5 ms
64 bytes from nyc.speedtest.sbcglobal.net (99.24.18.25): icmp_seq=21 ttl=51 time=80.5 ms
64 bytes from nyc.speedtest.sbcglobal.net (99.24.18.25): icmp_seq=21 ttl=51 time=80.6 ms
64 bytes from nyc.speedtest.sbcglobal.net (99.24.18.25): icmp_seq=21 ttl=51 time=80.5 ms
64 bytes from nyc.speedtest.sbcglobal.net (99.24.18.25): icmp_seq=21 ttl=51 time=80.6 ms
64 bytes from nyc.speedtest.sbcglobal.net (99.24.18.25): icmp_seq=21 ttl=51 time=80.6 ms
64 bytes from nyc.speedtest.sbcglobal.net (99.24.18.25): icmp_seq=21 ttl=51 time=80.7 ms
64 bytes from nyc.speedtest.sbcglobal.net (99.24.18.25): icmp_seq=21 ttl=51 time=80.7 ms
64 bytes from nyc.speedtest.sbcglobal.net (99.24.18.25): icmp_seq=21 ttl=51 time=80.7 ms
64 bytes from nyc.speedtest.sbcglobal.net (99.24.18.25): icmp_seq=21 ttl=51 time=80.8 ms
64 bytes from nyc.speedtest.sbcglobal.net (99.24.18.25): icmp_seq=21 ttl=51 time=80.8 ms
64 bytes from nyc.speedtest.sbcglobal.net (99.24.18.25): icmp_seq=21 ttl=51 time=80.9 ms
64 bytes from nyc.speedtest.sbcglobal.net (99.24.18.25): icmp_seq=21 ttl=51 time=80.9 ms
64 bytes from nyc.speedtest.sbcglobal.net (99.24.18.25): icmp_seq=21 ttl=51 time=80.9 ms
64 bytes from nyc.speedtest.sbcglobal.net (99.24.18.25): icmp_seq=21 ttl=51 time=80.9 ms
64 bytes from nyc.speedtest.sbcglobal.net (99.24.18.25): icmp_seq=21 ttl=51 time=80.1 ms
64 bytes from nyc.speedtest.sbcglobal.net (99.24.18.25): icmp_seq=21 ttl=51 time=80.9 ms
64 bytes from nyc.speedtest.sbcglobal.net (99.24.18.25): icmp_seq=21 ttl=51 time=81.0 ms
64 bytes from nyc.speedtest.sbcglobal.net (99.24.18.25): icmp_seq=21 ttl=51 time=81.1 ms
64 bytes from nyc.speedtest.sbcglobal.net (99.24.18.25): icmp_seq=21 ttl=51 time=81.1 ms
64 bytes from nyc.speedtest.sbcglobal.net (99.24.18.25): icmp_seq=21 ttl=51 time=81.2 ms
64 bytes from nyc.speedtest.sbcglobal.net (99.24.18.25): icmp_seq=21 ttl=51 time=81.2 ms
64 bytes from nyc.speedtest.sbcglobal.net (99.24.18.25): icmp_seq=21 ttl=51 time=81.2 ms
64 bytes from nyc.speedtest.sbcglobal.net (99.24.18.25): icmp_seq=21 ttl=51 time=81.2 ms
64 bytes from nyc.speedtest.sbcglobal.net (99.24.18.25): icmp_seq=21 ttl=51 time=80.3 ms
64 bytes from nyc.speedtest.sbcglobal.net (99.24.18.25): icmp_seq=21 ttl=51 time=79.8 ms
64 bytes from nyc.speedtest.sbcglobal.net (99.24.18.25): icmp_seq=21 ttl=51 time=79.8 ms
64 bytes from nyc.speedtest.sbcglobal.net (99.24.18.25): icmp_seq=21 ttl=51 time=79.8 ms
64 bytes from nyc.speedtest.sbcglobal.net (99.24.18.25): icmp_seq=21 ttl=51 time=79.7 ms
64 bytes from nyc.speedtest.sbcglobal.net (99.24.18.25): icmp_seq=21 ttl=51 time=79.8 ms
64 bytes from nyc.speedtest.sbcglobal.net (99.24.18.25): icmp_seq=21 ttl=51 time=79.9 ms
64 bytes from nyc.speedtest.sbcglobal.net (99.24.18.25): icmp_seq=21 ttl=51 time=79.9 ms
64 bytes from nyc.speedtest.sbcglobal.net (99.24.18.25): icmp_seq=21 ttl=51 time=79.8 ms
64 bytes from nyc.speedtest.sbcglobal.net (99.24.18.25): icmp_seq=21 ttl=51 time=79.9 ms
64 bytes from nyc.speedtest.sbcglobal.net (99.24.18.25): icmp_seq=22 ttl=51 time=80.3 ms
64 bytes from nyc.speedtest.sbcglobal.net (99.24.18.25): icmp_seq=22 ttl=51 time=80.3 ms
64 bytes from nyc.speedtest.sbcglobal.net (99.24.18.25): icmp_seq=22 ttl=51 time=80.3 ms
64 bytes from nyc.speedtest.sbcglobal.net (99.24.18.25): icmp_seq=22 ttl=51 time=80.3 ms
64 bytes from nyc.speedtest.sbcglobal.net (99.24.18.25): icmp_seq=22 ttl=51 time=79.8 ms
64 bytes from nyc.speedtest.sbcglobal.net (99.24.18.25): icmp_seq=22 ttl=51 time=80.4 ms
64 bytes from nyc.speedtest.sbcglobal.net (99.24.18.25): icmp_seq=22 ttl=51 time=79.7 ms
64 bytes from nyc.speedtest.sbcglobal.net (99.24.18.25): icmp_seq=22 ttl=51 time=80.5 ms
64 bytes from nyc.speedtest.sbcglobal.net (99.24.18.25): icmp_seq=22 ttl=51 time=80.5 ms
64 bytes from nyc.speedtest.sbcglobal.net (99.24.18.25): icmp_seq=22 ttl=51 time=80.5 ms
64 bytes from nyc.speedtest.sbcglobal.net (99.24.18.25): icmp_seq=22 ttl=51 time=80.5 ms
64 bytes from nyc.speedtest.sbcglobal.net (99.24.18.25): icmp_seq=22 ttl=51 time=80.6 ms
64 bytes from nyc.speedtest.sbcglobal.net (99.24.18.25): icmp_seq=22 ttl=51 time=80.6 ms
64 bytes from nyc.speedtest.sbcglobal.net (99.24.18.25): icmp_seq=22 ttl=51 time=80.6 ms
64 bytes from nyc.speedtest.sbcglobal.net (99.24.18.25): icmp_seq=22 ttl=51 time=79.7 ms
64 bytes from nyc.speedtest.sbcglobal.net (99.24.18.25): icmp_seq=22 ttl=51 time=79.7 ms
64 bytes from nyc.speedtest.sbcglobal.net (99.24.18.25): icmp_seq=22 ttl=51 time=80.7 ms
64 bytes from nyc.speedtest.sbcglobal.net (99.24.18.25): icmp_seq=22 ttl=51 time=79.7 ms
64 bytes from nyc.speedtest.sbcglobal.net (99.24.18.25): icmp_seq=22 ttl=51 time=79.7 ms
64 bytes from nyc.speedtest.sbcglobal.net (99.24.18.25): icmp_seq=22 ttl=51 time=80.7 ms
64 bytes from nyc.speedtest.sbcglobal.net (99.24.18.25): icmp_seq=22 ttl=51 time=79.8 ms
64 bytes from nyc.speedtest.sbcglobal.net (99.24.18.25): icmp_seq=22 ttl=51 time=79.6 ms
64 bytes from nyc.speedtest.sbcglobal.net (99.24.18.25): icmp_seq=22 ttl=51 time=80.7 ms
64 bytes from nyc.speedtest.sbcglobal.net (99.24.18.25): icmp_seq=22 ttl=51 time=80.7 ms
64 bytes from nyc.speedtest.sbcglobal.net (99.24.18.25): icmp_seq=22 ttl=51 time=80.8 ms
64 bytes from nyc.speedtest.sbcglobal.net (99.24.18.25): icmp_seq=22 ttl=51 time=80.8 ms
64 bytes from nyc.speedtest.sbcglobal.net (99.24.18.25): icmp_seq=22 ttl=51 time=80.8 ms
64 bytes from nyc.speedtest.sbcglobal.net (99.24.18.25): icmp_seq=22 ttl=51 time=80.8 ms
64 bytes from nyc.speedtest.sbcglobal.net (99.24.18.25): icmp_seq=22 ttl=51 time=80.8 ms
64 bytes from nyc.speedtest.sbcglobal.net (99.24.18.25): icmp_seq=22 ttl=51 time=80.8 ms
64 bytes from nyc.speedtest.sbcglobal.net (99.24.18.25): icmp_seq=22 ttl=51 time=80.9 ms
64 bytes from nyc.speedtest.sbcglobal.net (99.24.18.25): icmp_seq=22 ttl=51 time=80.9 ms
64 bytes from nyc.speedtest.sbcglobal.net (99.24.18.25): icmp_seq=22 ttl=51 time=80.1 ms
64 bytes from nyc.speedtest.sbcglobal.net (99.24.18.25): icmp_seq=22 ttl=51 time=80.9 ms
64 bytes from nyc.speedtest.sbcglobal.net (99.24.18.25): icmp_seq=22 ttl=51 time=81.0 ms
64 bytes from nyc.speedtest.sbcglobal.net (99.24.18.25): icmp_seq=22 ttl=51 time=80.9 ms
64 bytes from nyc.speedtest.sbcglobal.net (99.24.18.25): icmp_seq=22 ttl=51 time=81.0 ms
64 bytes from nyc.speedtest.sbcglobal.net (99.24.18.25): icmp_seq=22 ttl=51 time=81.1 ms
64 bytes from nyc.speedtest.sbcglobal.net (99.24.18.25): icmp_seq=22 ttl=51 time=80.1 ms
64 bytes from nyc.speedtest.sbcglobal.net (99.24.18.25): icmp_seq=22 ttl=51 time=80.1 ms
64 bytes from nyc.speedtest.sbcglobal.net (99.24.18.25): icmp_seq=23 ttl=51 time=81.1 ms
64 bytes from nyc.speedtest.sbcglobal.net (99.24.18.25): icmp_seq=23 ttl=51 time=81.1 ms
64 bytes from nyc.speedtest.sbcglobal.net (99.24.18.25): icmp_seq=23 ttl=51 time=81.1 ms
64 bytes from nyc.speedtest.sbcglobal.net (99.24.18.25): icmp_seq=23 ttl=51 time=81.2 ms
64 bytes from nyc.speedtest.sbcglobal.net (99.24.18.25): icmp_seq=23 ttl=51 time=81.2 ms
64 bytes from nyc.speedtest.sbcglobal.net (99.24.18.25): icmp_seq=23 ttl=51 time=81.2 ms
64 bytes from nyc.speedtest.sbcglobal.net (99.24.18.25): icmp_seq=23 ttl=51 time=81.3 ms
64 bytes from nyc.speedtest.sbcglobal.net (99.24.18.25): icmp_seq=23 ttl=51 time=81.3 ms
64 bytes from nyc.speedtest.sbcglobal.net (99.24.18.25): icmp_seq=23 ttl=51 time=81.3 ms
64 bytes from nyc.speedtest.sbcglobal.net (99.24.18.25): icmp_seq=23 ttl=51 time=81.4 ms
64 bytes from nyc.speedtest.sbcglobal.net (99.24.18.25): icmp_seq=23 ttl=51 time=81.4 ms
64 bytes from nyc.speedtest.sbcglobal.net (99.24.18.25): icmp_seq=23 ttl=51 time=81.4 ms
64 bytes from nyc.speedtest.sbcglobal.net (99.24.18.25): icmp_seq=23 ttl=51 time=81.5 ms
64 bytes from nyc.speedtest.sbcglobal.net (99.24.18.25): icmp_seq=23 ttl=51 time=80.9 ms
64 bytes from nyc.speedtest.sbcglobal.net (99.24.18.25): icmp_seq=23 ttl=51 time=81.5 ms
64 bytes from nyc.speedtest.sbcglobal.net (99.24.18.25): icmp_seq=23 ttl=51 time=81.6 ms
64 bytes from nyc.speedtest.sbcglobal.net (99.24.18.25): icmp_seq=23 ttl=51 time=81.6 ms
64 bytes from nyc.speedtest.sbcglobal.net (99.24.18.25): icmp_seq=23 ttl=51 time=81.6 ms
64 bytes from nyc.speedtest.sbcglobal.net (99.24.18.25): icmp_seq=23 ttl=51 time=81.7 ms
64 bytes from nyc.speedtest.sbcglobal.net (99.24.18.25): icmp_seq=23 ttl=51 time=81.7 ms
64 bytes from nyc.speedtest.sbcglobal.net (99.24.18.25): icmp_seq=23 ttl=51 time=81.8 ms
64 bytes from nyc.speedtest.sbcglobal.net (99.24.18.25): icmp_seq=23 ttl=51 time=81.8 ms
64 bytes from nyc.speedtest.sbcglobal.net (99.24.18.25): icmp_seq=23 ttl=51 time=81.8 ms
64 bytes from nyc.speedtest.sbcglobal.net (99.24.18.25): icmp_seq=23 ttl=51 time=81.9 ms
64 bytes from nyc.speedtest.sbcglobal.net (99.24.18.25): icmp_seq=23 ttl=51 time=81.8 ms
64 bytes from nyc.speedtest.sbcglobal.net (99.24.18.25): icmp_seq=23 ttl=51 time=81.9 ms
64 bytes from nyc.speedtest.sbcglobal.net (99.24.18.25): icmp_seq=23 ttl=51 time=82.0 ms
64 bytes from nyc.speedtest.sbcglobal.net (99.24.18.25): icmp_seq=23 ttl=51 time=82.0 ms
64 bytes from nyc.speedtest.sbcglobal.net (99.24.18.25): icmp_seq=23 ttl=51 time=82.0 ms
64 bytes from nyc.speedtest.sbcglobal.net (99.24.18.25): icmp_seq=23 ttl=51 time=81.4 ms
64 bytes from nyc.speedtest.sbcglobal.net (99.24.18.25): icmp_seq=23 ttl=51 time=81.4 ms
64 bytes from nyc.speedtest.sbcglobal.net (99.24.18.25): icmp_seq=23 ttl=51 time=81.8 ms
64 bytes from nyc.speedtest.sbcglobal.net (99.24.18.25): icmp_seq=23 ttl=51 time=81.9 ms
64 bytes from nyc.speedtest.sbcglobal.net (99.24.18.25): icmp_seq=23 ttl=51 time=81.8 ms
64 bytes from nyc.speedtest.sbcglobal.net (99.24.18.25): icmp_seq=23 ttl=51 time=82.3 ms
64 bytes from nyc.speedtest.sbcglobal.net (99.24.18.25): icmp_seq=23 ttl=51 time=82.4 ms
64 bytes from nyc.speedtest.sbcglobal.net (99.24.18.25): icmp_seq=23 ttl=51 time=82.1 ms
64 bytes from nyc.speedtest.sbcglobal.net (99.24.18.25): icmp_seq=23 ttl=51 time=82.2 ms
64 bytes from nyc.speedtest.sbcglobal.net (99.24.18.25): icmp_seq=23 ttl=51 time=82.2 ms
64 bytes from nyc.speedtest.sbcglobal.net (99.24.18.25): icmp_seq=23 ttl=51 time=82.2 ms
64 bytes from nyc.speedtest.sbcglobal.net (99.24.18.25): icmp_seq=24 ttl=51 time=81.0 ms
64 bytes from nyc.speedtest.sbcglobal.net (99.24.18.25): icmp_seq=24 ttl=51 time=81.1 ms
64 bytes from nyc.speedtest.sbcglobal.net (99.24.18.25): icmp_seq=24 ttl=51 time=81.1 ms
64 bytes from nyc.speedtest.sbcglobal.net (99.24.18.25): icmp_seq=24 ttl=51 time=81.2 ms
64 bytes from nyc.speedtest.sbcglobal.net (99.24.18.25): icmp_seq=24 ttl=51 time=81.2 ms
64 bytes from nyc.speedtest.sbcglobal.net (99.24.18.25): icmp_seq=24 ttl=51 time=81.3 ms
64 bytes from nyc.speedtest.sbcglobal.net (99.24.18.25): icmp_seq=24 ttl=51 time=81.3 ms
64 bytes from nyc.speedtest.sbcglobal.net (99.24.18.25): icmp_seq=24 ttl=51 time=81.3 ms
64 bytes from nyc.speedtest.sbcglobal.net (99.24.18.25): icmp_seq=24 ttl=51 time=81.3 ms
64 bytes from nyc.speedtest.sbcglobal.net (99.24.18.25): icmp_seq=24 ttl=51 time=81.2 ms
64 bytes from nyc.speedtest.sbcglobal.net (99.24.18.25): icmp_seq=24 ttl=51 time=81.3 ms
64 bytes from nyc.speedtest.sbcglobal.net (99.24.18.25): icmp_seq=24 ttl=51 time=81.4 ms
64 bytes from nyc.speedtest.sbcglobal.net (99.24.18.25): icmp_seq=24 ttl=51 time=81.5 ms
64 bytes from nyc.speedtest.sbcglobal.net (99.24.18.25): icmp_seq=24 ttl=51 time=81.5 ms
64 bytes from nyc.speedtest.sbcglobal.net (99.24.18.25): icmp_seq=24 ttl=51 time=81.5 ms
64 bytes from nyc.speedtest.sbcglobal.net (99.24.18.25): icmp_seq=24 ttl=51 time=81.5 ms
64 bytes from nyc.speedtest.sbcglobal.net (99.24.18.25): icmp_seq=24 ttl=51 time=81.6 ms
64 bytes from nyc.speedtest.sbcglobal.net (99.24.18.25): icmp_seq=24 ttl=51 time=81.5 ms
64 bytes from nyc.speedtest.sbcglobal.net (99.24.18.25): icmp_seq=24 ttl=51 time=81.6 ms
64 bytes from nyc.speedtest.sbcglobal.net (99.24.18.25): icmp_seq=24 ttl=51 time=81.7 ms
64 bytes from nyc.speedtest.sbcglobal.net (99.24.18.25): icmp_seq=24 ttl=51 time=81.7 ms
64 bytes from nyc.speedtest.sbcglobal.net (99.24.18.25): icmp_seq=24 ttl=51 time=81.7 ms
64 bytes from nyc.speedtest.sbcglobal.net (99.24.18.25): icmp_seq=24 ttl=51 time=81.7 ms
64 bytes from nyc.speedtest.sbcglobal.net (99.24.18.25): icmp_seq=24 ttl=51 time=80.9 ms
64 bytes from nyc.speedtest.sbcglobal.net (99.24.18.25): icmp_seq=24 ttl=51 time=81.8 ms
64 bytes from nyc.speedtest.sbcglobal.net (99.24.18.25): icmp_seq=24 ttl=51 time=81.8 ms
64 bytes from nyc.speedtest.sbcglobal.net (99.24.18.25): icmp_seq=24 ttl=51 time=81.9 ms
64 bytes from nyc.speedtest.sbcglobal.net (99.24.18.25): icmp_seq=24 ttl=51 time=81.8 ms
64 bytes from nyc.speedtest.sbcglobal.net (99.24.18.25): icmp_seq=24 ttl=51 time=81.9 ms
64 bytes from nyc.speedtest.sbcglobal.net (99.24.18.25): icmp_seq=24 ttl=51 time=81.1 ms
64 bytes from nyc.speedtest.sbcglobal.net (99.24.18.25): icmp_seq=24 ttl=51 time=81.1 ms
64 bytes from nyc.speedtest.sbcglobal.net (99.24.18.25): icmp_seq=24 ttl=51 time=81.1 ms
64 bytes from nyc.speedtest.sbcglobal.net (99.24.18.25): icmp_seq=24 ttl=51 time=81.3 ms
64 bytes from nyc.speedtest.sbcglobal.net (99.24.18.25): icmp_seq=24 ttl=51 time=81.4 ms
64 bytes from nyc.speedtest.sbcglobal.net (99.24.18.25): icmp_seq=24 ttl=51 time=82.5 ms
64 bytes from nyc.speedtest.sbcglobal.net (99.24.18.25): icmp_seq=24 ttl=51 time=82.6 ms
64 bytes from nyc.speedtest.sbcglobal.net (99.24.18.25): icmp_seq=24 ttl=51 time=82.5 ms
64 bytes from nyc.speedtest.sbcglobal.net (99.24.18.25): icmp_seq=24 ttl=51 time=82.6 ms
64 bytes from nyc.speedtest.sbcglobal.net (99.24.18.25): icmp_seq=24 ttl=51 time=82.6 ms
64 bytes from nyc.speedtest.sbcglobal.net (99.24.18.25): icmp_seq=24 ttl=51 time=82.4 ms
64 bytes from nyc.speedtest.sbcglobal.net (99.24.18.25): icmp_seq=25 ttl=51 time=80.2 ms

--- nyc.speedtest.sbcglobal.net ping statistics ---
25 packets transmitted, 25 received, 0% packet loss, time 24031ms
rtt min/avg/max/mdev = 79.532/80.036/81.898/0.495 ms
64 bytes from nyc.speedtest.sbcglobal.net (99.24.18.25): icmp_seq=25 ttl=51 time=80.3 ms
64 bytes from nyc.speedtest.sbcglobal.net (99.24.18.25): icmp_seq=25 ttl=51 time=80.3 ms


--- nyc.speedtest.sbcglobal.net ping statistics ---
25 packets transmitted, 25 received, 0% packet loss, time 24033ms
rtt min/avg/max/mdev = 79.659/80.312/81.537/0.605 ms
--- nyc.speedtest.sbcglobal.net ping statistics ---
25 packets transmitted, 25 received, 0% packet loss, time 24033ms
rtt min/avg/max/mdev = 79.625/80.323/81.411/0.497 ms
64 bytes from nyc.speedtest.sbcglobal.net (99.24.18.25): icmp_seq=25 ttl=51 time=80.4 ms
64 bytes from nyc.speedtest.sbcglobal.net (99.24.18.25): icmp_seq=25 ttl=51 time=80.5 ms


--- nyc.speedtest.sbcglobal.net ping statistics ---
25 packets transmitted, 25 received, 0% packet loss, time 24034ms
rtt min/avg/max/mdev = 79.612/80.371/81.764/0.642 ms
--- nyc.speedtest.sbcglobal.net ping statistics ---
25 packets transmitted, 25 received, 0% packet loss, time 24033ms
rtt min/avg/max/mdev = 79.584/80.363/81.883/0.664 ms
64 bytes from nyc.speedtest.sbcglobal.net (99.24.18.25): icmp_seq=25 ttl=51 time=80.5 ms
64 bytes from nyc.speedtest.sbcglobal.net (99.24.18.25): icmp_seq=25 ttl=51 time=80.5 ms


--- nyc.speedtest.sbcglobal.net ping statistics ---
25 packets transmitted, 25 received, 0% packet loss, time 24033ms
rtt min/avg/max/mdev = 79.575/80.241/82.005/0.568 ms
--- nyc.speedtest.sbcglobal.net ping statistics ---
25 packets transmitted, 25 received, 0% packet loss, time 24031ms
rtt min/avg/max/mdev = 79.660/80.307/81.336/0.504 ms
64 bytes from nyc.speedtest.sbcglobal.net (99.24.18.25): icmp_seq=25 ttl=51 time=80.8 ms

--- nyc.speedtest.sbcglobal.net ping statistics ---
25 packets transmitted, 25 received, 0% packet loss, time 24033ms
rtt min/avg/max/mdev = 79.588/80.378/81.358/0.544 ms
64 bytes from nyc.speedtest.sbcglobal.net (99.24.18.25): icmp_seq=25 ttl=51 time=80.9 ms

--- nyc.speedtest.sbcglobal.net ping statistics ---
25 packets transmitted, 25 received, 0% packet loss, time 24032ms
rtt min/avg/max/mdev = 79.590/80.324/81.904/0.668 ms
64 bytes from nyc.speedtest.sbcglobal.net (99.24.18.25): icmp_seq=25 ttl=51 time=81.1 ms
64 bytes from nyc.speedtest.sbcglobal.net (99.24.18.25): icmp_seq=25 ttl=51 time=80.9 ms


--- nyc.speedtest.sbcglobal.net ping statistics ---
25 packets transmitted, 25 received, 0% packet loss, time 24033ms
rtt min/avg/max/mdev = 79.619/80.337/81.580/0.566 ms
--- nyc.speedtest.sbcglobal.net ping statistics ---
25 packets transmitted, 25 received, 0% packet loss, time 24038ms
rtt min/avg/max/mdev = 79.659/80.462/81.610/0.485 ms
64 bytes from nyc.speedtest.sbcglobal.net (99.24.18.25): icmp_seq=25 ttl=51 time=81.2 ms
64 bytes from nyc.speedtest.sbcglobal.net (99.24.18.25): icmp_seq=25 ttl=51 time=81.3 ms


--- nyc.speedtest.sbcglobal.net ping statistics ---
25 packets transmitted, 25 received, 0% packet loss, time 24034ms
rtt min/avg/max/mdev = 79.661/80.276/81.844/0.674 ms
--- nyc.speedtest.sbcglobal.net ping statistics ---
25 packets transmitted, 25 received, 0% packet loss, time 24031ms
rtt min/avg/max/mdev = 79.592/80.432/81.949/0.708 ms
64 bytes from nyc.speedtest.sbcglobal.net (99.24.18.25): icmp_seq=25 ttl=51 time=81.3 ms

--- nyc.speedtest.sbcglobal.net ping statistics ---
25 packets transmitted, 25 received, 0% packet loss, time 24035ms
rtt min/avg/max/mdev = 79.662/80.185/81.582/0.539 ms
64 bytes from nyc.speedtest.sbcglobal.net (99.24.18.25): icmp_seq=25 ttl=51 time=80.7 ms

--- nyc.speedtest.sbcglobal.net ping statistics ---
25 packets transmitted, 25 received, 0% packet loss, time 24037ms
rtt min/avg/max/mdev = 79.749/80.513/81.857/0.574 ms
64 bytes from nyc.speedtest.sbcglobal.net (99.24.18.25): icmp_seq=25 ttl=51 time=81.6 ms

64 bytes from nyc.speedtest.sbcglobal.net (99.24.18.25): icmp_seq=25 ttl=51 time=81.5 ms
64 bytes from nyc.speedtest.sbcglobal.net (99.24.18.25): icmp_seq=25 ttl=51 time=81.0 ms


--- nyc.speedtest.sbcglobal.net ping statistics ---
25 packets transmitted, 25 received, 0% packet loss, time 24031ms
rtt min/avg/max/mdev = 79.625/80.340/81.787/0.606 ms
--- nyc.speedtest.sbcglobal.net ping statistics ---
25 packets transmitted, 25 received, 0% packet loss, time 24031ms
rtt min/avg/max/mdev = 79.668/80.313/81.730/0.533 ms
--- nyc.speedtest.sbcglobal.net ping statistics ---
25 packets transmitted, 25 received, 0% packet loss, time 24032ms
rtt min/avg/max/mdev = 79.680/80.456/82.029/0.648 ms
64 bytes from nyc.speedtest.sbcglobal.net (99.24.18.25): icmp_seq=25 ttl=51 time=81.4 ms
64 bytes from nyc.speedtest.sbcglobal.net (99.24.18.25): icmp_seq=25 ttl=51 time=81.4 ms


--- nyc.speedtest.sbcglobal.net ping statistics ---
25 packets transmitted, 25 received, 0% packet loss, time 24032ms
rtt min/avg/max/mdev = 79.625/80.124/81.491/0.541 ms
--- nyc.speedtest.sbcglobal.net ping statistics ---
25 packets transmitted, 25 received, 0% packet loss, time 24038ms
rtt min/avg/max/mdev = 79.724/80.460/81.715/0.550 ms
64 bytes from nyc.speedtest.sbcglobal.net (99.24.18.25): icmp_seq=25 ttl=51 time=81.5 ms

--- nyc.speedtest.sbcglobal.net ping statistics ---
25 packets transmitted, 25 received, 0% packet loss, time 24038ms
rtt min/avg/max/mdev = 79.924/80.619/81.689/0.640 ms
64 bytes from nyc.speedtest.sbcglobal.net (99.24.18.25): icmp_seq=25 ttl=51 time=80.6 ms

--- nyc.speedtest.sbcglobal.net ping statistics ---
25 packets transmitted, 25 received, 0% packet loss, time 24032ms
rtt min/avg/max/mdev = 79.647/80.304/81.906/0.657 ms
64 bytes from nyc.speedtest.sbcglobal.net (99.24.18.25): icmp_seq=25 ttl=51 time=81.0 ms

--- nyc.speedtest.sbcglobal.net ping statistics ---
25 packets transmitted, 25 received, 0% packet loss, time 24032ms
rtt min/avg/max/mdev = 79.635/80.364/81.545/0.575 ms
64 bytes from nyc.speedtest.sbcglobal.net (99.24.18.25): icmp_seq=25 ttl=51 time=81.5 ms
64 bytes from nyc.speedtest.sbcglobal.net (99.24.18.25): icmp_seq=25 ttl=51 time=80.7 ms
64 bytes from nyc.speedtest.sbcglobal.net (99.24.18.25): icmp_seq=25 ttl=51 time=80.1 ms



64 bytes from nyc.speedtest.sbcglobal.net (99.24.18.25): icmp_seq=25 ttl=51 time=80.6 ms
64 bytes from nyc.speedtest.sbcglobal.net (99.24.18.25): icmp_seq=25 ttl=51 time=80.4 ms

--- nyc.speedtest.sbcglobal.net ping statistics ---
25 packets transmitted, 25 received, 0% packet loss, time 24032ms
rtt min/avg/max/mdev = 79.673/80.300/81.462/0.684 ms
--- nyc.speedtest.sbcglobal.net ping statistics ---
25 packets transmitted, 25 received, 0% packet loss, time 24037ms
rtt min/avg/max/mdev = 79.767/80.414/81.264/0.429 ms
--- nyc.speedtest.sbcglobal.net ping statistics ---
25 packets transmitted, 25 received, 0% packet loss, time 24033ms
rtt min/avg/max/mdev = 79.587/80.410/81.883/0.722 ms

--- nyc.speedtest.sbcglobal.net ping statistics ---
25 packets transmitted, 25 received, 0% packet loss, time 24035ms
rtt min/avg/max/mdev = 79.691/80.261/81.865/0.635 ms
--- nyc.speedtest.sbcglobal.net ping statistics ---
25 packets transmitted, 25 received, 0% packet loss, time 24035ms
rtt min/avg/max/mdev = 79.613/80.054/81.894/0.560 ms
64 bytes from nyc.speedtest.sbcglobal.net (99.24.18.25): icmp_seq=25 ttl=51 time=81.6 ms

64 bytes from nyc.speedtest.sbcglobal.net (99.24.18.25): icmp_seq=25 ttl=51 time=80.4 ms
--- nyc.speedtest.sbcglobal.net ping statistics ---
25 packets transmitted, 25 received, 0% packet loss, time 24037ms
rtt min/avg/max/mdev = 79.784/80.581/82.003/0.634 ms

--- nyc.speedtest.sbcglobal.net ping statistics ---
25 packets transmitted, 25 received, 0% packet loss, time 24033ms
rtt min/avg/max/mdev = 79.669/80.090/81.923/0.620 ms
64 bytes from nyc.speedtest.sbcglobal.net (99.24.18.25): icmp_seq=25 ttl=51 time=81.4 ms

--- nyc.speedtest.sbcglobal.net ping statistics ---
25 packets transmitted, 25 received, 0% packet loss, time 24033ms
rtt min/avg/max/mdev = 79.586/80.197/81.847/0.600 ms
64 bytes from nyc.speedtest.sbcglobal.net (99.24.18.25): icmp_seq=25 ttl=51 time=81.3 ms

--- nyc.speedtest.sbcglobal.net ping statistics ---
25 packets transmitted, 25 received, 0% packet loss, time 24030ms
rtt min/avg/max/mdev = 79.513/80.245/81.700/0.606 ms
64 bytes from nyc.speedtest.sbcglobal.net (99.24.18.25): icmp_seq=25 ttl=51 time=81.2 ms

--- nyc.speedtest.sbcglobal.net ping statistics ---
25 packets transmitted, 25 received, 0% packet loss, time 24031ms
rtt min/avg/max/mdev = 79.602/80.361/81.452/0.572 ms
64 bytes from nyc.speedtest.sbcglobal.net (99.24.18.25): icmp_seq=25 ttl=51 time=81.6 ms

--- nyc.speedtest.sbcglobal.net ping statistics ---
25 packets transmitted, 25 received, 0% packet loss, time 24032ms
rtt min/avg/max/mdev = 79.626/80.314/81.686/0.585 ms
64 bytes from nyc.speedtest.sbcglobal.net (99.24.18.25): icmp_seq=25 ttl=51 time=79.7 ms

64 bytes from nyc.speedtest.sbcglobal.net (99.24.18.25): icmp_seq=25 ttl=51 time=79.7 ms

64 bytes from nyc.speedtest.sbcglobal.net (99.24.18.25): icmp_seq=25 ttl=51 time=79.7 ms
--- nyc.speedtest.sbcglobal.net ping statistics ---
25 packets transmitted, 25 received, 0% packet loss, time 24036ms
rtt min/avg/max/mdev = 79.545/80.182/82.648/0.759 ms

--- nyc.speedtest.sbcglobal.net ping statistics ---
25 packets transmitted, 25 received, 0% packet loss, time 24038ms
rtt min/avg/max/mdev = 79.616/80.116/82.547/0.718 ms
64 bytes from nyc.speedtest.sbcglobal.net (99.24.18.25): icmp_seq=25 ttl=51 time=79.7 ms

64 bytes from nyc.speedtest.sbcglobal.net (99.24.18.25): icmp_seq=25 ttl=51 time=79.7 ms
64 bytes from nyc.speedtest.sbcglobal.net (99.24.18.25): icmp_seq=25 ttl=51 time=79.7 ms
--- nyc.speedtest.sbcglobal.net ping statistics ---
25 packets transmitted, 25 received, 0% packet loss, time 24035ms
rtt min/avg/max/mdev = 79.626/80.138/82.601/0.720 ms


--- nyc.speedtest.sbcglobal.net ping statistics ---
25 packets transmitted, 25 received, 0% packet loss, time 24034ms
rtt min/avg/max/mdev = 79.601/80.065/82.417/0.765 ms
--- nyc.speedtest.sbcglobal.net ping statistics ---
25 packets transmitted, 25 received, 0% packet loss, time 24035ms
rtt min/avg/max/mdev = 79.536/80.103/82.567/0.739 ms
--- nyc.speedtest.sbcglobal.net ping statistics ---
25 packets transmitted, 25 received, 0% packet loss, time 24034ms
rtt min/avg/max/mdev = 79.612/80.086/82.687/0.743 ms
