Attaching to softwareoverhead_ping_7, softwareoverhead_ping_17, softwareoverhead_ping_13, softwareoverhead_ping_10, softwareoverhead_ping_12, softwareoverhead_ping_4, softwareoverhead_ping_6, softwareoverhead_ping_2, softwareoverhead_ping_19, softwareoverhead_ping_8, softwareoverhead_ping_1, softwareoverhead_ping_11, softwareoverhead_ping_15, softwareoverhead_ping_5, softwareoverhead_ping_14, softwareoverhead_ping_9, softwareoverhead_ping_20, softwareoverhead_ping_16, softwareoverhead_ping_3, softwareoverhead_ping_18, softwareoverhead_ping_33, softwareoverhead_ping_29, softwareoverhead_ping_27, softwareoverhead_ping_24, softwareoverhead_ping_40, softwareoverhead_ping_22, softwareoverhead_ping_21, softwareoverhead_ping_32, softwareoverhead_ping_37, softwareoverhead_ping_28, softwareoverhead_ping_30, softwareoverhead_ping_35, softwareoverhead_ping_38, softwareoverhead_ping_34, softwareoverhead_ping_36, softwareoverhead_ping_31, softwareoverhead_ping_39, softwareoverhead_ping_25, softwareoverhead_ping_23, softwareoverhead_ping_26
ping_7  | PING speedtest.xsmedia.com (199.66.198.2): 56 data bytes
ping_7  | 64 bytes from 199.66.198.2: seq=0 ttl=55 time=21.405 ms
ping_7  | 64 bytes from 199.66.198.2: seq=1 ttl=55 time=21.824 ms
ping_7  | 64 bytes from 199.66.198.2: seq=2 ttl=55 time=21.696 ms
ping_7  | 64 bytes from 199.66.198.2: seq=3 ttl=55 time=21.856 ms
ping_7  | 64 bytes from 199.66.198.2: seq=4 ttl=55 time=21.745 ms
ping_7  | 64 bytes from 199.66.198.2: seq=5 ttl=55 time=21.948 ms
ping_7  | 64 bytes from 199.66.198.2: seq=6 ttl=55 time=21.963 ms
ping_7  | 64 bytes from 199.66.198.2: seq=7 ttl=55 time=21.482 ms
ping_13 | PING speedtest.xsmedia.com (199.66.198.2): 56 data bytes
ping_7  | 64 bytes from 199.66.198.2: seq=8 ttl=55 time=21.878 ms
ping_17 | PING speedtest.xsmedia.com (199.66.198.2): 56 data bytes
ping_7  | 64 bytes from 199.66.198.2: seq=9 ttl=55 time=21.499 ms
ping_17 | 64 bytes from 199.66.198.2: seq=0 ttl=55 time=21.451 ms
ping_7  | 64 bytes from 199.66.198.2: seq=10 ttl=55 time=21.532 ms
ping_17 | 64 bytes from 199.66.198.2: seq=1 ttl=55 time=21.731 ms
ping_12 | PING speedtest.xsmedia.com (199.66.198.2): 56 data bytes
ping_13 | 64 bytes from 199.66.198.2: seq=0 ttl=55 time=21.557 ms
ping_10 | PING speedtest.xsmedia.com (199.66.198.2): 56 data bytes
ping_7  | 64 bytes from 199.66.198.2: seq=11 ttl=55 time=21.770 ms
ping_10 | 64 bytes from 199.66.198.2: seq=0 ttl=55 time=21.413 ms
ping_10 | 64 bytes from 199.66.198.2: seq=1 ttl=55 time=21.652 ms
ping_10 | 64 bytes from 199.66.198.2: seq=2 ttl=55 time=21.685 ms
ping_4  | PING speedtest.xsmedia.com (199.66.198.2): 56 data bytes
ping_17 | 64 bytes from 199.66.198.2: seq=2 ttl=55 time=21.723 ms
ping_10 | 64 bytes from 199.66.198.2: seq=3 ttl=55 time=21.847 ms
ping_4  | 64 bytes from 199.66.198.2: seq=0 ttl=55 time=21.409 ms
ping_7  | 64 bytes from 199.66.198.2: seq=12 ttl=55 time=21.642 ms
ping_2  | PING speedtest.xsmedia.com (199.66.198.2): 56 data bytes
ping_6  | PING speedtest.xsmedia.com (199.66.198.2): 56 data bytes
ping_6  | 64 bytes from 199.66.198.2: seq=0 ttl=55 time=21.356 ms
ping_13 | 64 bytes from 199.66.198.2: seq=1 ttl=55 time=21.566 ms
ping_12 | 64 bytes from 199.66.198.2: seq=0 ttl=55 time=21.443 ms
ping_17 | 64 bytes from 199.66.198.2: seq=3 ttl=55 time=24.638 ms
ping_13 | 64 bytes from 199.66.198.2: seq=2 ttl=55 time=21.676 ms
ping_7  | 64 bytes from 199.66.198.2: seq=13 ttl=55 time=21.541 ms
ping_4  | 64 bytes from 199.66.198.2: seq=1 ttl=55 time=21.724 ms
ping_12 | 64 bytes from 199.66.198.2: seq=1 ttl=55 time=21.888 ms
ping_10 | 64 bytes from 199.66.198.2: seq=4 ttl=55 time=21.949 ms
ping_17 | 64 bytes from 199.66.198.2: seq=4 ttl=55 time=21.617 ms
ping_7  | 64 bytes from 199.66.198.2: seq=14 ttl=55 time=21.443 ms
ping_4  | 64 bytes from 199.66.198.2: seq=2 ttl=55 time=21.477 ms
ping_2  | 64 bytes from 199.66.198.2: seq=0 ttl=55 time=21.494 ms
ping_10 | 64 bytes from 199.66.198.2: seq=5 ttl=55 time=21.886 ms
ping_19 | PING speedtest.xsmedia.com (199.66.198.2): 56 data bytes
ping_4  | 64 bytes from 199.66.198.2: seq=3 ttl=55 time=21.568 ms
ping_8  | PING speedtest.xsmedia.com (199.66.198.2): 56 data bytes
ping_13 | 64 bytes from 199.66.198.2: seq=3 ttl=55 time=21.615 ms
ping_17 | 64 bytes from 199.66.198.2: seq=5 ttl=55 time=21.678 ms
ping_7  | 64 bytes from 199.66.198.2: seq=15 ttl=55 time=21.385 ms
ping_12 | 64 bytes from 199.66.198.2: seq=2 ttl=55 time=21.660 ms
ping_10 | 64 bytes from 199.66.198.2: seq=6 ttl=55 time=21.909 ms
ping_6  | 64 bytes from 199.66.198.2: seq=1 ttl=55 time=21.814 ms
ping_17 | 64 bytes from 199.66.198.2: seq=6 ttl=55 time=21.656 ms
ping_19 | 64 bytes from 199.66.198.2: seq=0 ttl=55 time=21.650 ms
ping_4  | 64 bytes from 199.66.198.2: seq=4 ttl=55 time=21.375 ms
ping_12 | 64 bytes from 199.66.198.2: seq=3 ttl=55 time=21.981 ms
ping_17 | 64 bytes from 199.66.198.2: seq=7 ttl=55 time=21.630 ms
ping_2  | 64 bytes from 199.66.198.2: seq=1 ttl=55 time=21.759 ms
ping_8  | 64 bytes from 199.66.198.2: seq=0 ttl=55 time=21.417 ms
ping_12 | 64 bytes from 199.66.198.2: seq=4 ttl=55 time=21.828 ms
ping_17 | 64 bytes from 199.66.198.2: seq=8 ttl=55 time=21.921 ms
ping_17 | 64 bytes from 199.66.198.2: seq=9 ttl=55 time=21.957 ms
ping_6  | 64 bytes from 199.66.198.2: seq=2 ttl=55 time=21.929 ms
ping_4  | 64 bytes from 199.66.198.2: seq=5 ttl=55 time=21.914 ms
ping_17 | 64 bytes from 199.66.198.2: seq=10 ttl=55 time=21.886 ms
ping_10 | 64 bytes from 199.66.198.2: seq=7 ttl=55 time=31.152 ms
ping_4  | 64 bytes from 199.66.198.2: seq=6 ttl=55 time=21.584 ms
ping_17 | 64 bytes from 199.66.198.2: seq=11 ttl=55 time=22.610 ms
ping_10 | 64 bytes from 199.66.198.2: seq=8 ttl=55 time=21.853 ms
ping_19 | 64 bytes from 199.66.198.2: seq=1 ttl=55 time=21.788 ms
ping_7  | 64 bytes from 199.66.198.2: seq=16 ttl=55 time=21.878 ms
ping_2  | 64 bytes from 199.66.198.2: seq=2 ttl=55 time=21.690 ms
ping_13 | 64 bytes from 199.66.198.2: seq=4 ttl=55 time=21.921 ms
ping_4  | 64 bytes from 199.66.198.2: seq=7 ttl=55 time=22.396 ms
ping_1  | PING speedtest.xsmedia.com (199.66.198.2): 56 data bytes
ping_10 | 64 bytes from 199.66.198.2: seq=9 ttl=55 time=22.076 ms
ping_7  | 64 bytes from 199.66.198.2: seq=17 ttl=55 time=21.752 ms
ping_19 | 64 bytes from 199.66.198.2: seq=2 ttl=55 time=21.944 ms
ping_6  | 64 bytes from 199.66.198.2: seq=3 ttl=55 time=21.984 ms
ping_17 | 64 bytes from 199.66.198.2: seq=12 ttl=55 time=21.464 ms
ping_12 | 64 bytes from 199.66.198.2: seq=5 ttl=55 time=21.685 ms
ping_2  | 64 bytes from 199.66.198.2: seq=3 ttl=55 time=21.503 ms
ping_13 | 64 bytes from 199.66.198.2: seq=5 ttl=55 time=21.514 ms
ping_4  | 64 bytes from 199.66.198.2: seq=8 ttl=55 time=21.893 ms
ping_6  | 64 bytes from 199.66.198.2: seq=4 ttl=55 time=21.622 ms
ping_12 | 64 bytes from 199.66.198.2: seq=6 ttl=55 time=22.011 ms
ping_2  | 64 bytes from 199.66.198.2: seq=4 ttl=55 time=21.359 ms
ping_19 | 64 bytes from 199.66.198.2: seq=3 ttl=55 time=21.695 ms
ping_10 | 64 bytes from 199.66.198.2: seq=10 ttl=55 time=21.473 ms
ping_1  | 64 bytes from 199.66.198.2: seq=0 ttl=55 time=21.414 ms
ping_12 | 64 bytes from 199.66.198.2: seq=7 ttl=55 time=21.694 ms
ping_13 | 64 bytes from 199.66.198.2: seq=6 ttl=55 time=21.751 ms
ping_8  | 64 bytes from 199.66.198.2: seq=1 ttl=55 time=21.964 ms
ping_4  | 64 bytes from 199.66.198.2: seq=9 ttl=55 time=21.781 ms
ping_1  | 64 bytes from 199.66.198.2: seq=1 ttl=55 time=21.593 ms
ping_2  | 64 bytes from 199.66.198.2: seq=5 ttl=55 time=21.761 ms
ping_7  | 64 bytes from 199.66.198.2: seq=18 ttl=55 time=21.676 ms
ping_17 | 64 bytes from 199.66.198.2: seq=13 ttl=55 time=22.600 ms
ping_6  | 64 bytes from 199.66.198.2: seq=5 ttl=55 time=21.609 ms
ping_10 | 64 bytes from 199.66.198.2: seq=11 ttl=55 time=21.509 ms
ping_4  | 64 bytes from 199.66.198.2: seq=10 ttl=55 time=21.421 ms
ping_13 | 64 bytes from 199.66.198.2: seq=7 ttl=55 time=21.949 ms
ping_19 | 64 bytes from 199.66.198.2: seq=4 ttl=55 time=21.612 ms
ping_13 | 64 bytes from 199.66.198.2: seq=8 ttl=55 time=21.882 ms
ping_15 | PING speedtest.xsmedia.com (199.66.198.2): 56 data bytes
ping_17 | 64 bytes from 199.66.198.2: seq=14 ttl=55 time=21.991 ms
ping_12 | 64 bytes from 199.66.198.2: seq=8 ttl=55 time=21.947 ms
ping_4  | 64 bytes from 199.66.198.2: seq=11 ttl=55 time=21.447 ms
ping_5  | PING speedtest.xsmedia.com (199.66.198.2): 56 data bytes
ping_19 | 64 bytes from 199.66.198.2: seq=5 ttl=55 time=21.616 ms
ping_8  | 64 bytes from 199.66.198.2: seq=2 ttl=55 time=21.666 ms
ping_10 | 64 bytes from 199.66.198.2: seq=12 ttl=55 time=22.913 ms
ping_13 | 64 bytes from 199.66.198.2: seq=9 ttl=55 time=21.676 ms
ping_1  | 64 bytes from 199.66.198.2: seq=2 ttl=55 time=21.815 ms
ping_19 | 64 bytes from 199.66.198.2: seq=6 ttl=55 time=21.386 ms
ping_6  | 64 bytes from 199.66.198.2: seq=6 ttl=55 time=21.725 ms
ping_15 | 64 bytes from 199.66.198.2: seq=0 ttl=55 time=21.512 ms
ping_17 | 64 bytes from 199.66.198.2: seq=15 ttl=55 time=21.900 ms
ping_8  | 64 bytes from 199.66.198.2: seq=3 ttl=55 time=21.794 ms
ping_5  | 64 bytes from 199.66.198.2: seq=0 ttl=55 time=21.434 ms
ping_5  | 64 bytes from 199.66.198.2: seq=1 ttl=55 time=21.841 ms
ping_13 | 64 bytes from 199.66.198.2: seq=10 ttl=55 time=21.682 ms
ping_6  | 64 bytes from 199.66.198.2: seq=7 ttl=55 time=21.586 ms
ping_12 | 64 bytes from 199.66.198.2: seq=9 ttl=55 time=21.636 ms
ping_19 | 64 bytes from 199.66.198.2: seq=7 ttl=55 time=21.615 ms
ping_2  | 64 bytes from 199.66.198.2: seq=6 ttl=55 time=21.866 ms
ping_10 | 64 bytes from 199.66.198.2: seq=13 ttl=55 time=21.600 ms
ping_15 | 64 bytes from 199.66.198.2: seq=1 ttl=55 time=21.709 ms
ping_12 | 64 bytes from 199.66.198.2: seq=10 ttl=55 time=21.507 ms
ping_5  | 64 bytes from 199.66.198.2: seq=2 ttl=55 time=21.723 ms
ping_13 | 64 bytes from 199.66.198.2: seq=11 ttl=55 time=21.426 ms
ping_11 | PING speedtest.xsmedia.com (199.66.198.2): 56 data bytes
ping_7  | 64 bytes from 199.66.198.2: seq=19 ttl=55 time=21.751 ms
ping_4  | 64 bytes from 199.66.198.2: seq=12 ttl=55 time=21.753 ms
ping_8  | 64 bytes from 199.66.198.2: seq=4 ttl=55 time=21.457 ms
ping_15 | 64 bytes from 199.66.198.2: seq=2 ttl=55 time=21.893 ms
ping_12 | 64 bytes from 199.66.198.2: seq=11 ttl=55 time=21.491 ms
ping_7  | 64 bytes from 199.66.198.2: seq=20 ttl=55 time=21.622 ms
ping_1  | 64 bytes from 199.66.198.2: seq=3 ttl=55 time=21.634 ms
ping_11 | 64 bytes from 199.66.198.2: seq=0 ttl=55 time=21.612 ms
ping_8  | 64 bytes from 199.66.198.2: seq=5 ttl=55 time=29.626 ms
ping_6  | 64 bytes from 199.66.198.2: seq=8 ttl=55 time=21.968 ms
ping_14 | PING speedtest.xsmedia.com (199.66.198.2): 56 data bytes
ping_9  | PING speedtest.xsmedia.com (199.66.198.2): 56 data bytes
ping_7  | 64 bytes from 199.66.198.2: seq=21 ttl=55 time=21.563 ms
ping_12 | 64 bytes from 199.66.198.2: seq=12 ttl=55 time=21.590 ms
ping_1  | 64 bytes from 199.66.198.2: seq=4 ttl=55 time=21.570 ms
ping_13 | 64 bytes from 199.66.198.2: seq=12 ttl=55 time=22.398 ms
ping_5  | 64 bytes from 199.66.198.2: seq=3 ttl=55 time=21.885 ms
ping_17 | 64 bytes from 199.66.198.2: seq=16 ttl=55 time=21.497 ms
ping_9  | 64 bytes from 199.66.198.2: seq=0 ttl=55 time=21.344 ms
ping_2  | 64 bytes from 199.66.198.2: seq=7 ttl=55 time=21.866 ms
ping_12 | 64 bytes from 199.66.198.2: seq=13 ttl=55 time=22.746 ms
ping_10 | 64 bytes from 199.66.198.2: seq=14 ttl=55 time=22.068 ms
ping_15 | 64 bytes from 199.66.198.2: seq=3 ttl=55 time=21.607 ms
ping_6  | 64 bytes from 199.66.198.2: seq=9 ttl=55 time=22.781 ms
ping_19 | 64 bytes from 199.66.198.2: seq=8 ttl=55 time=21.679 ms
ping_11 | 64 bytes from 199.66.198.2: seq=1 ttl=55 time=21.648 ms
ping_6  | 64 bytes from 199.66.198.2: seq=10 ttl=55 time=21.497 ms
ping_7  | 64 bytes from 199.66.198.2: seq=22 ttl=55 time=21.597 ms
ping_1  | 64 bytes from 199.66.198.2: seq=5 ttl=55 time=21.813 ms
ping_4  | 64 bytes from 199.66.198.2: seq=13 ttl=55 time=21.466 ms
ping_9  | 64 bytes from 199.66.198.2: seq=1 ttl=55 time=21.896 ms
ping_5  | 64 bytes from 199.66.198.2: seq=4 ttl=55 time=21.759 ms
ping_19 | 64 bytes from 199.66.198.2: seq=9 ttl=55 time=21.402 ms
ping_20 | PING speedtest.xsmedia.com (199.66.198.2): 56 data bytes
ping_1  | 64 bytes from 199.66.198.2: seq=6 ttl=55 time=21.593 ms
ping_14 | 64 bytes from 199.66.198.2: seq=0 ttl=55 time=21.448 ms
ping_4  | 64 bytes from 199.66.198.2: seq=14 ttl=55 time=21.390 ms
ping_7  | 64 bytes from 199.66.198.2: seq=23 ttl=55 time=21.866 ms
ping_17 | 64 bytes from 199.66.198.2: seq=17 ttl=55 time=21.396 ms
ping_13 | 64 bytes from 199.66.198.2: seq=13 ttl=55 time=21.777 ms
ping_12 | 64 bytes from 199.66.198.2: seq=14 ttl=55 time=21.898 ms
ping_8  | 64 bytes from 199.66.198.2: seq=6 ttl=55 time=21.984 ms
ping_20 | 64 bytes from 199.66.198.2: seq=0 ttl=55 time=21.389 ms
ping_16 | PING speedtest.xsmedia.com (199.66.198.2): 56 data bytes
ping_9  | 64 bytes from 199.66.198.2: seq=2 ttl=55 time=21.651 ms
ping_17 | 64 bytes from 199.66.198.2: seq=18 ttl=55 time=21.404 ms
ping_13 | 64 bytes from 199.66.198.2: seq=14 ttl=55 time=21.699 ms
ping_1  | 64 bytes from 199.66.198.2: seq=7 ttl=55 time=21.696 ms
ping_12 | 64 bytes from 199.66.198.2: seq=15 ttl=55 time=21.506 ms
ping_4  | 64 bytes from 199.66.198.2: seq=15 ttl=55 time=21.522 ms
ping_5  | 64 bytes from 199.66.198.2: seq=5 ttl=55 time=21.785 ms
ping_19 | 64 bytes from 199.66.198.2: seq=10 ttl=55 time=21.594 ms
ping_13 | 64 bytes from 199.66.198.2: seq=15 ttl=55 time=21.920 ms
ping_8  | 64 bytes from 199.66.198.2: seq=7 ttl=55 time=22.168 ms
ping_12 | 64 bytes from 199.66.198.2: seq=16 ttl=55 time=21.462 ms
ping_7  | 64 bytes from 199.66.198.2: seq=24 ttl=55 time=21.412 ms
ping_7  | 
ping_7  | --- speedtest.xsmedia.com ping statistics ---
ping_7  | 25 packets transmitted, 25 packets received, 0% packet loss
ping_7  | round-trip min/avg/max = 21.385/21.669/21.963 ms
ping_17 | 64 bytes from 199.66.198.2: seq=19 ttl=55 time=22.019 ms
ping_14 | 64 bytes from 199.66.198.2: seq=1 ttl=55 time=21.556 ms
ping_9  | 64 bytes from 199.66.198.2: seq=3 ttl=55 time=21.758 ms
ping_10 | 64 bytes from 199.66.198.2: seq=15 ttl=55 time=22.030 ms
ping_5  | 64 bytes from 199.66.198.2: seq=6 ttl=55 time=21.496 ms
ping_1  | 64 bytes from 199.66.198.2: seq=8 ttl=55 time=21.543 ms
ping_2  | 64 bytes from 199.66.198.2: seq=8 ttl=55 time=21.729 ms
ping_6  | 64 bytes from 199.66.198.2: seq=11 ttl=55 time=21.443 ms
ping_16 | 64 bytes from 199.66.198.2: seq=0 ttl=55 time=21.398 ms
ping_8  | 64 bytes from 199.66.198.2: seq=8 ttl=55 time=21.485 ms
ping_13 | 64 bytes from 199.66.198.2: seq=16 ttl=55 time=21.920 ms
ping_2  | 64 bytes from 199.66.198.2: seq=9 ttl=55 time=21.479 ms
ping_6  | 64 bytes from 199.66.198.2: seq=12 ttl=55 time=21.771 ms
ping_8  | 64 bytes from 199.66.198.2: seq=9 ttl=55 time=21.440 ms
ping_5  | 64 bytes from 199.66.198.2: seq=7 ttl=55 time=21.478 ms
ping_10 | 64 bytes from 199.66.198.2: seq=16 ttl=55 time=21.966 ms
ping_2  | 64 bytes from 199.66.198.2: seq=10 ttl=55 time=23.697 ms
ping_13 | 64 bytes from 199.66.198.2: seq=17 ttl=55 time=23.811 ms
ping_4  | 64 bytes from 199.66.198.2: seq=16 ttl=55 time=21.590 ms
ping_20 | 64 bytes from 199.66.198.2: seq=1 ttl=55 time=21.768 ms
ping_8  | 64 bytes from 199.66.198.2: seq=10 ttl=55 time=21.409 ms
ping_6  | 64 bytes from 199.66.198.2: seq=13 ttl=55 time=22.013 ms
ping_5  | 64 bytes from 199.66.198.2: seq=8 ttl=55 time=21.945 ms
ping_4  | 64 bytes from 199.66.198.2: seq=17 ttl=55 time=21.552 ms
ping_20 | 64 bytes from 199.66.198.2: seq=2 ttl=55 time=22.072 ms
ping_1  | 64 bytes from 199.66.198.2: seq=9 ttl=55 time=21.387 ms
ping_8  | 64 bytes from 199.66.198.2: seq=11 ttl=55 time=21.497 ms
ping_15 | 64 bytes from 199.66.198.2: seq=4 ttl=55 time=21.896 ms
ping_13 | 64 bytes from 199.66.198.2: seq=18 ttl=55 time=23.182 ms
ping_14 | 64 bytes from 199.66.198.2: seq=2 ttl=55 time=21.375 ms
ping_12 | 64 bytes from 199.66.198.2: seq=17 ttl=55 time=21.999 ms
ping_9  | 64 bytes from 199.66.198.2: seq=4 ttl=55 time=21.686 ms
ping_8  | 64 bytes from 199.66.198.2: seq=12 ttl=55 time=21.649 ms
ping_17 | 64 bytes from 199.66.198.2: seq=20 ttl=55 time=21.663 ms
ping_4  | 64 bytes from 199.66.198.2: seq=18 ttl=55 time=21.714 ms
ping_20 | 64 bytes from 199.66.198.2: seq=3 ttl=55 time=21.382 ms
ping_19 | 64 bytes from 199.66.198.2: seq=11 ttl=55 time=21.484 ms
ping_12 | 64 bytes from 199.66.198.2: seq=18 ttl=55 time=21.942 ms
ping_15 | 64 bytes from 199.66.198.2: seq=5 ttl=55 time=21.612 ms
ping_17 | 64 bytes from 199.66.198.2: seq=21 ttl=55 time=21.996 ms
ping_1  | 64 bytes from 199.66.198.2: seq=10 ttl=55 time=21.444 ms
ping_11 | 64 bytes from 199.66.198.2: seq=2 ttl=55 time=21.805 ms
ping_15 | 64 bytes from 199.66.198.2: seq=6 ttl=55 time=21.619 ms
ping_14 | 64 bytes from 199.66.198.2: seq=3 ttl=55 time=21.392 ms
ping_8  | 64 bytes from 199.66.198.2: seq=13 ttl=55 time=21.616 ms
ping_2  | 64 bytes from 199.66.198.2: seq=11 ttl=55 time=21.399 ms
ping_3  | PING speedtest.xsmedia.com (199.66.198.2): 56 data bytes
ping_19 | 64 bytes from 199.66.198.2: seq=12 ttl=55 time=21.893 ms
ping_16 | 64 bytes from 199.66.198.2: seq=1 ttl=55 time=22.007 ms
ping_17 | 64 bytes from 199.66.198.2: seq=22 ttl=55 time=21.797 ms
ping_6  | 64 bytes from 199.66.198.2: seq=14 ttl=55 time=21.832 ms
ping_12 | 64 bytes from 199.66.198.2: seq=19 ttl=55 time=21.610 ms
softwareoverhead_ping_7 exited with code 0
ping_16 | 64 bytes from 199.66.198.2: seq=2 ttl=55 time=21.477 ms
ping_16 | 64 bytes from 199.66.198.2: seq=3 ttl=55 time=21.819 ms
ping_14 | 64 bytes from 199.66.198.2: seq=4 ttl=55 time=22.112 ms
ping_13 | 64 bytes from 199.66.198.2: seq=19 ttl=55 time=21.910 ms
ping_5  | 64 bytes from 199.66.198.2: seq=9 ttl=55 time=21.497 ms
ping_18 | PING speedtest.xsmedia.com (199.66.198.2): 56 data bytes
ping_3  | 64 bytes from 199.66.198.2: seq=0 ttl=55 time=21.461 ms
ping_20 | 64 bytes from 199.66.198.2: seq=4 ttl=55 time=22.989 ms
ping_4  | 64 bytes from 199.66.198.2: seq=19 ttl=55 time=21.949 ms
ping_12 | 64 bytes from 199.66.198.2: seq=20 ttl=55 time=21.837 ms
ping_2  | 64 bytes from 199.66.198.2: seq=12 ttl=55 time=22.252 ms
ping_5  | 64 bytes from 199.66.198.2: seq=10 ttl=55 time=21.401 ms
ping_10 | 64 bytes from 199.66.198.2: seq=17 ttl=55 time=21.623 ms
ping_15 | 64 bytes from 199.66.198.2: seq=7 ttl=55 time=21.409 ms
ping_4  | 64 bytes from 199.66.198.2: seq=20 ttl=55 time=21.720 ms
ping_6  | 64 bytes from 199.66.198.2: seq=15 ttl=55 time=21.925 ms
ping_3  | 64 bytes from 199.66.198.2: seq=1 ttl=55 time=21.677 ms
ping_16 | 64 bytes from 199.66.198.2: seq=4 ttl=55 time=22.520 ms
ping_33 | PING speedtest.xsmedia.com (199.66.198.2): 56 data bytes
ping_10 | 64 bytes from 199.66.198.2: seq=18 ttl=55 time=22.103 ms
ping_12 | 64 bytes from 199.66.198.2: seq=21 ttl=55 time=21.792 ms
ping_17 | 64 bytes from 199.66.198.2: seq=23 ttl=55 time=21.882 ms
ping_1  | 64 bytes from 199.66.198.2: seq=11 ttl=55 time=21.432 ms
ping_18 | 64 bytes from 199.66.198.2: seq=0 ttl=55 time=21.650 ms
ping_14 | 64 bytes from 199.66.198.2: seq=5 ttl=55 time=21.475 ms
ping_10 | 64 bytes from 199.66.198.2: seq=19 ttl=55 time=21.728 ms
ping_11 | 64 bytes from 199.66.198.2: seq=3 ttl=55 time=21.403 ms
ping_19 | 64 bytes from 199.66.198.2: seq=13 ttl=55 time=21.639 ms
ping_8  | 64 bytes from 199.66.198.2: seq=14 ttl=55 time=22.021 ms
ping_6  | 64 bytes from 199.66.198.2: seq=16 ttl=55 time=21.914 ms
ping_3  | 64 bytes from 199.66.198.2: seq=2 ttl=55 time=21.715 ms
ping_2  | 64 bytes from 199.66.198.2: seq=13 ttl=55 time=21.963 ms
ping_16 | 64 bytes from 199.66.198.2: seq=5 ttl=55 time=21.591 ms
ping_4  | 64 bytes from 199.66.198.2: seq=21 ttl=55 time=21.853 ms
ping_18 | 64 bytes from 199.66.198.2: seq=1 ttl=55 time=25.452 ms
ping_17 | 64 bytes from 199.66.198.2: seq=24 ttl=55 time=21.686 ms
ping_17 | 
ping_17 | --- speedtest.xsmedia.com ping statistics ---
ping_17 | 25 packets transmitted, 25 packets received, 0% packet loss
ping_17 | round-trip min/avg/max = 21.396/21.911/24.638 ms
ping_8  | 64 bytes from 199.66.198.2: seq=15 ttl=55 time=21.796 ms
ping_9  | 64 bytes from 199.66.198.2: seq=5 ttl=55 time=21.456 ms
ping_4  | 64 bytes from 199.66.198.2: seq=22 ttl=55 time=21.482 ms
ping_33 | 64 bytes from 199.66.198.2: seq=0 ttl=55 time=21.523 ms
ping_20 | 64 bytes from 199.66.198.2: seq=5 ttl=55 time=22.044 ms
ping_12 | 64 bytes from 199.66.198.2: seq=22 ttl=55 time=21.834 ms
ping_3  | 64 bytes from 199.66.198.2: seq=3 ttl=55 time=21.506 ms
ping_5  | 64 bytes from 199.66.198.2: seq=11 ttl=55 time=21.693 ms
ping_13 | 64 bytes from 199.66.198.2: seq=20 ttl=55 time=21.451 ms
ping_6  | 64 bytes from 199.66.198.2: seq=17 ttl=55 time=21.816 ms
ping_15 | 64 bytes from 199.66.198.2: seq=8 ttl=55 time=22.173 ms
ping_16 | 64 bytes from 199.66.198.2: seq=6 ttl=55 time=21.983 ms
ping_10 | 64 bytes from 199.66.198.2: seq=20 ttl=55 time=21.777 ms
ping_27 | PING speedtest.xsmedia.com (199.66.198.2): 56 data bytes
ping_9  | 64 bytes from 199.66.198.2: seq=6 ttl=55 time=24.406 ms
ping_18 | 64 bytes from 199.66.198.2: seq=2 ttl=55 time=25.196 ms
ping_1  | 64 bytes from 199.66.198.2: seq=12 ttl=55 time=37.120 ms
ping_11 | 64 bytes from 199.66.198.2: seq=4 ttl=55 time=21.683 ms
ping_16 | 64 bytes from 199.66.198.2: seq=7 ttl=55 time=21.598 ms
ping_10 | 64 bytes from 199.66.198.2: seq=21 ttl=55 time=21.941 ms
ping_8  | 64 bytes from 199.66.198.2: seq=16 ttl=55 time=21.948 ms
ping_6  | 64 bytes from 199.66.198.2: seq=18 ttl=55 time=21.948 ms
ping_5  | 64 bytes from 199.66.198.2: seq=12 ttl=55 time=21.815 ms
ping_15 | 64 bytes from 199.66.198.2: seq=9 ttl=55 time=21.545 ms
ping_9  | 64 bytes from 199.66.198.2: seq=7 ttl=55 time=21.450 ms
ping_29 | PING speedtest.xsmedia.com (199.66.198.2): 56 data bytes
ping_6  | 64 bytes from 199.66.198.2: seq=19 ttl=55 time=21.742 ms
ping_14 | 64 bytes from 199.66.198.2: seq=6 ttl=55 time=21.867 ms
ping_13 | 64 bytes from 199.66.198.2: seq=21 ttl=55 time=21.923 ms
ping_20 | 64 bytes from 199.66.198.2: seq=6 ttl=55 time=21.775 ms
ping_29 | 64 bytes from 199.66.198.2: seq=0 ttl=55 time=21.451 ms
ping_33 | 64 bytes from 199.66.198.2: seq=1 ttl=55 time=21.812 ms
ping_12 | 64 bytes from 199.66.198.2: seq=23 ttl=55 time=21.918 ms
ping_10 | 64 bytes from 199.66.198.2: seq=22 ttl=55 time=21.520 ms
ping_18 | 64 bytes from 199.66.198.2: seq=3 ttl=55 time=21.647 ms
ping_19 | 64 bytes from 199.66.198.2: seq=14 ttl=55 time=21.588 ms
ping_16 | 64 bytes from 199.66.198.2: seq=8 ttl=55 time=21.898 ms
ping_12 | 64 bytes from 199.66.198.2: seq=24 ttl=55 time=21.556 ms
ping_12 | 
ping_12 | --- speedtest.xsmedia.com ping statistics ---
ping_12 | 25 packets transmitted, 25 packets received, 0% packet loss
ping_12 | round-trip min/avg/max = 21.443/21.778/22.746 ms
ping_11 | 64 bytes from 199.66.198.2: seq=5 ttl=55 time=21.869 ms
ping_5  | 64 bytes from 199.66.198.2: seq=13 ttl=55 time=21.805 ms
ping_13 | 64 bytes from 199.66.198.2: seq=22 ttl=55 time=21.628 ms
ping_3  | 64 bytes from 199.66.198.2: seq=4 ttl=55 time=21.541 ms
ping_8  | 64 bytes from 199.66.198.2: seq=17 ttl=55 time=22.049 ms
ping_1  | 64 bytes from 199.66.198.2: seq=13 ttl=55 time=21.419 ms
ping_2  | 64 bytes from 199.66.198.2: seq=14 ttl=55 time=21.903 ms
ping_4  | 64 bytes from 199.66.198.2: seq=23 ttl=55 time=21.447 ms
ping_9  | 64 bytes from 199.66.198.2: seq=8 ttl=55 time=21.696 ms
ping_14 | 64 bytes from 199.66.198.2: seq=7 ttl=55 time=23.161 ms
ping_5  | 64 bytes from 199.66.198.2: seq=14 ttl=55 time=21.638 ms
ping_13 | 64 bytes from 199.66.198.2: seq=23 ttl=55 time=24.981 ms
ping_29 | 64 bytes from 199.66.198.2: seq=1 ttl=55 time=21.603 ms
ping_8  | 64 bytes from 199.66.198.2: seq=18 ttl=55 time=22.073 ms
ping_27 | 64 bytes from 199.66.198.2: seq=0 ttl=55 time=21.677 ms
ping_33 | 64 bytes from 199.66.198.2: seq=2 ttl=55 time=21.836 ms
ping_15 | 64 bytes from 199.66.198.2: seq=10 ttl=55 time=21.390 ms
ping_20 | 64 bytes from 199.66.198.2: seq=7 ttl=55 time=21.625 ms
ping_9  | 64 bytes from 199.66.198.2: seq=9 ttl=55 time=21.926 ms
ping_19 | 64 bytes from 199.66.198.2: seq=15 ttl=55 time=21.566 ms
ping_13 | 64 bytes from 199.66.198.2: seq=24 ttl=55 time=21.669 ms
ping_13 | 
ping_13 | --- speedtest.xsmedia.com ping statistics ---
ping_13 | 25 packets transmitted, 25 packets received, 0% packet loss
ping_13 | round-trip min/avg/max = 21.426/22.019/24.981 ms
ping_11 | 64 bytes from 199.66.198.2: seq=6 ttl=55 time=21.557 ms
ping_29 | 64 bytes from 199.66.198.2: seq=2 ttl=55 time=21.636 ms
ping_40 | PING speedtest.xsmedia.com (199.66.198.2): 56 data bytes
ping_4  | 64 bytes from 199.66.198.2: seq=24 ttl=55 time=21.536 ms
ping_4  | 
ping_4  | --- speedtest.xsmedia.com ping statistics ---
ping_4  | 25 packets transmitted, 25 packets received, 0% packet loss
ping_4  | round-trip min/avg/max = 21.375/21.638/22.396 ms
ping_11 | 64 bytes from 199.66.198.2: seq=7 ttl=55 time=21.928 ms
ping_19 | 64 bytes from 199.66.198.2: seq=16 ttl=55 time=21.700 ms
softwareoverhead_ping_12 exited with code 0
ping_16 | 64 bytes from 199.66.198.2: seq=9 ttl=55 time=21.593 ms
ping_14 | 64 bytes from 199.66.198.2: seq=8 ttl=55 time=21.682 ms
ping_18 | 64 bytes from 199.66.198.2: seq=4 ttl=55 time=21.844 ms
ping_33 | 64 bytes from 199.66.198.2: seq=3 ttl=55 time=21.900 ms
ping_6  | 64 bytes from 199.66.198.2: seq=20 ttl=55 time=21.876 ms
ping_3  | 64 bytes from 199.66.198.2: seq=5 ttl=55 time=21.945 ms
ping_1  | 64 bytes from 199.66.198.2: seq=14 ttl=55 time=21.998 ms
ping_2  | 64 bytes from 199.66.198.2: seq=15 ttl=55 time=21.533 ms
ping_10 | 64 bytes from 199.66.198.2: seq=23 ttl=55 time=21.956 ms
ping_14 | 64 bytes from 199.66.198.2: seq=9 ttl=55 time=30.056 ms
ping_8  | 64 bytes from 199.66.198.2: seq=19 ttl=55 time=22.164 ms
ping_19 | 64 bytes from 199.66.198.2: seq=17 ttl=55 time=21.754 ms
ping_27 | 64 bytes from 199.66.198.2: seq=1 ttl=55 time=21.932 ms
ping_5  | 64 bytes from 199.66.198.2: seq=15 ttl=55 time=21.655 ms
ping_18 | 64 bytes from 199.66.198.2: seq=5 ttl=55 time=21.870 ms
ping_15 | 64 bytes from 199.66.198.2: seq=11 ttl=55 time=23.694 ms
ping_6  | 64 bytes from 199.66.198.2: seq=21 ttl=55 time=21.412 ms
ping_14 | 64 bytes from 199.66.198.2: seq=10 ttl=55 time=21.707 ms
ping_1  | 64 bytes from 199.66.198.2: seq=15 ttl=55 time=21.806 ms
ping_40 | 64 bytes from 199.66.198.2: seq=0 ttl=55 time=21.941 ms
ping_20 | 64 bytes from 199.66.198.2: seq=8 ttl=55 time=21.508 ms
ping_3  | 64 bytes from 199.66.198.2: seq=6 ttl=55 time=21.941 ms
ping_9  | 64 bytes from 199.66.198.2: seq=10 ttl=55 time=22.015 ms
ping_14 | 64 bytes from 199.66.198.2: seq=11 ttl=55 time=21.921 ms
ping_15 | 64 bytes from 199.66.198.2: seq=12 ttl=55 time=21.452 ms
ping_5  | 64 bytes from 199.66.198.2: seq=16 ttl=55 time=21.693 ms
ping_5  | 64 bytes from 199.66.198.2: seq=17 ttl=55 time=21.621 ms
ping_1  | 64 bytes from 199.66.198.2: seq=16 ttl=55 time=21.979 ms
ping_27 | 64 bytes from 199.66.198.2: seq=2 ttl=55 time=21.671 ms
ping_6  | 64 bytes from 199.66.198.2: seq=22 ttl=55 time=21.658 ms
ping_18 | 64 bytes from 199.66.198.2: seq=6 ttl=55 time=22.007 ms
ping_16 | 64 bytes from 199.66.198.2: seq=10 ttl=55 time=21.717 ms
ping_11 | 64 bytes from 199.66.198.2: seq=8 ttl=55 time=21.473 ms
ping_33 | 64 bytes from 199.66.198.2: seq=4 ttl=55 time=21.893 ms
ping_29 | 64 bytes from 199.66.198.2: seq=3 ttl=55 time=21.699 ms
ping_8  | 64 bytes from 199.66.198.2: seq=20 ttl=55 time=21.443 ms
ping_20 | 64 bytes from 199.66.198.2: seq=9 ttl=55 time=21.951 ms
ping_5  | 64 bytes from 199.66.198.2: seq=18 ttl=55 time=21.502 ms
ping_14 | 64 bytes from 199.66.198.2: seq=12 ttl=55 time=21.621 ms
ping_1  | 64 bytes from 199.66.198.2: seq=17 ttl=55 time=21.853 ms
ping_15 | 64 bytes from 199.66.198.2: seq=13 ttl=55 time=21.869 ms
ping_33 | 64 bytes from 199.66.198.2: seq=5 ttl=55 time=21.996 ms
ping_9  | 64 bytes from 199.66.198.2: seq=11 ttl=55 time=21.405 ms
ping_40 | 64 bytes from 199.66.198.2: seq=1 ttl=55 time=21.761 ms
ping_16 | 64 bytes from 199.66.198.2: seq=11 ttl=55 time=21.529 ms
softwareoverhead_ping_17 exited with code 0
ping_20 | 64 bytes from 199.66.198.2: seq=10 ttl=55 time=21.753 ms
ping_5  | 64 bytes from 199.66.198.2: seq=19 ttl=55 time=21.615 ms
ping_19 | 64 bytes from 199.66.198.2: seq=18 ttl=55 time=21.421 ms
ping_11 | 64 bytes from 199.66.198.2: seq=9 ttl=55 time=21.439 ms
ping_6  | 64 bytes from 199.66.198.2: seq=23 ttl=55 time=21.540 ms
ping_10 | 64 bytes from 199.66.198.2: seq=24 ttl=55 time=21.441 ms
ping_10 | 
ping_10 | --- speedtest.xsmedia.com ping statistics ---
ping_10 | 25 packets transmitted, 25 packets received, 0% packet loss
ping_10 | round-trip min/avg/max = 21.413/22.202/31.152 ms
ping_8  | 64 bytes from 199.66.198.2: seq=21 ttl=55 time=21.883 ms
ping_20 | 64 bytes from 199.66.198.2: seq=11 ttl=55 time=21.833 ms
ping_29 | 64 bytes from 199.66.198.2: seq=4 ttl=55 time=21.623 ms
ping_15 | 64 bytes from 199.66.198.2: seq=14 ttl=55 time=21.593 ms
ping_5  | 64 bytes from 199.66.198.2: seq=20 ttl=55 time=21.730 ms
ping_1  | 64 bytes from 199.66.198.2: seq=18 ttl=55 time=21.607 ms
ping_40 | 64 bytes from 199.66.198.2: seq=2 ttl=55 time=21.794 ms
ping_2  | 64 bytes from 199.66.198.2: seq=16 ttl=55 time=25.638 ms
ping_33 | 64 bytes from 199.66.198.2: seq=6 ttl=55 time=21.955 ms
ping_24 | PING speedtest.xsmedia.com (199.66.198.2): 56 data bytes
ping_18 | 64 bytes from 199.66.198.2: seq=7 ttl=55 time=21.865 ms
ping_27 | 64 bytes from 199.66.198.2: seq=3 ttl=55 time=21.911 ms
ping_24 | 64 bytes from 199.66.198.2: seq=0 ttl=55 time=21.551 ms
ping_8  | 64 bytes from 199.66.198.2: seq=22 ttl=55 time=29.210 ms
ping_11 | 64 bytes from 199.66.198.2: seq=10 ttl=55 time=21.604 ms
ping_22 | PING speedtest.xsmedia.com (199.66.198.2): 56 data bytes
ping_19 | 64 bytes from 199.66.198.2: seq=19 ttl=55 time=21.526 ms
ping_16 | 64 bytes from 199.66.198.2: seq=12 ttl=55 time=21.580 ms
softwareoverhead_ping_13 exited with code 0
ping_29 | 64 bytes from 199.66.198.2: seq=5 ttl=55 time=21.831 ms
ping_2  | 64 bytes from 199.66.198.2: seq=17 ttl=55 time=22.170 ms
ping_2  | 64 bytes from 199.66.198.2: seq=18 ttl=55 time=21.802 ms
ping_33 | 64 bytes from 199.66.198.2: seq=7 ttl=55 time=21.920 ms
ping_24 | 64 bytes from 199.66.198.2: seq=1 ttl=55 time=35.276 ms
ping_14 | 64 bytes from 199.66.198.2: seq=13 ttl=55 time=21.407 ms
ping_18 | 64 bytes from 199.66.198.2: seq=8 ttl=55 time=21.883 ms
ping_3  | 64 bytes from 199.66.198.2: seq=7 ttl=55 time=21.846 ms
ping_40 | 64 bytes from 199.66.198.2: seq=3 ttl=55 time=21.499 ms
ping_9  | 64 bytes from 199.66.198.2: seq=12 ttl=55 time=21.388 ms
ping_11 | 64 bytes from 199.66.198.2: seq=11 ttl=55 time=21.616 ms
ping_29 | 64 bytes from 199.66.198.2: seq=6 ttl=55 time=21.468 ms
softwareoverhead_ping_10 exited with code 0
ping_15 | 64 bytes from 199.66.198.2: seq=15 ttl=55 time=21.672 ms
ping_19 | 64 bytes from 199.66.198.2: seq=20 ttl=55 time=21.407 ms
ping_27 | 64 bytes from 199.66.198.2: seq=4 ttl=55 time=21.948 ms
ping_21 | PING speedtest.xsmedia.com (199.66.198.2): 56 data bytes
ping_33 | 64 bytes from 199.66.198.2: seq=8 ttl=55 time=22.051 ms
ping_24 | 64 bytes from 199.66.198.2: seq=2 ttl=55 time=21.412 ms
ping_9  | 64 bytes from 199.66.198.2: seq=13 ttl=55 time=21.959 ms
ping_2  | 64 bytes from 199.66.198.2: seq=19 ttl=55 time=21.445 ms
ping_1  | 64 bytes from 199.66.198.2: seq=19 ttl=55 time=21.920 ms
ping_40 | 64 bytes from 199.66.198.2: seq=4 ttl=55 time=21.882 ms
ping_15 | 64 bytes from 199.66.198.2: seq=16 ttl=55 time=21.717 ms
ping_14 | 64 bytes from 199.66.198.2: seq=14 ttl=55 time=21.370 ms
ping_3  | 64 bytes from 199.66.198.2: seq=8 ttl=55 time=21.485 ms
ping_24 | 64 bytes from 199.66.198.2: seq=3 ttl=55 time=21.978 ms
ping_21 | 64 bytes from 199.66.198.2: seq=0 ttl=55 time=21.426 ms
ping_20 | 64 bytes from 199.66.198.2: seq=12 ttl=55 time=21.784 ms
ping_11 | 64 bytes from 199.66.198.2: seq=12 ttl=55 time=22.028 ms
ping_9  | 64 bytes from 199.66.198.2: seq=14 ttl=55 time=21.923 ms
ping_14 | 64 bytes from 199.66.198.2: seq=15 ttl=55 time=21.628 ms
ping_33 | 64 bytes from 199.66.198.2: seq=9 ttl=55 time=21.940 ms
ping_27 | 64 bytes from 199.66.198.2: seq=5 ttl=55 time=21.973 ms
ping_3  | 64 bytes from 199.66.198.2: seq=9 ttl=55 time=26.150 ms
ping_20 | 64 bytes from 199.66.198.2: seq=13 ttl=55 time=21.816 ms
ping_22 | 64 bytes from 199.66.198.2: seq=0 ttl=55 time=21.607 ms
ping_21 | 64 bytes from 199.66.198.2: seq=1 ttl=55 time=21.623 ms
ping_15 | 64 bytes from 199.66.198.2: seq=17 ttl=55 time=21.608 ms
ping_33 | 64 bytes from 199.66.198.2: seq=10 ttl=55 time=21.437 ms
ping_24 | 64 bytes from 199.66.198.2: seq=4 ttl=55 time=21.624 ms
ping_2  | 64 bytes from 199.66.198.2: seq=20 ttl=55 time=21.480 ms
softwareoverhead_ping_4 exited with code 0
ping_18 | 64 bytes from 199.66.198.2: seq=9 ttl=55 time=21.761 ms
ping_2  | 64 bytes from 199.66.198.2: seq=21 ttl=55 time=21.494 ms
ping_11 | 64 bytes from 199.66.198.2: seq=13 ttl=55 time=21.782 ms
ping_20 | 64 bytes from 199.66.198.2: seq=14 ttl=55 time=21.920 ms
ping_16 | 64 bytes from 199.66.198.2: seq=13 ttl=55 time=22.065 ms
ping_15 | 64 bytes from 199.66.198.2: seq=18 ttl=55 time=21.684 ms
ping_21 | 64 bytes from 199.66.198.2: seq=2 ttl=55 time=21.829 ms
ping_20 | 64 bytes from 199.66.198.2: seq=15 ttl=55 time=21.416 ms
ping_22 | 64 bytes from 199.66.198.2: seq=1 ttl=55 time=21.421 ms
ping_2  | 64 bytes from 199.66.198.2: seq=22 ttl=55 time=21.653 ms
ping_16 | 64 bytes from 199.66.198.2: seq=14 ttl=55 time=21.441 ms
ping_24 | 64 bytes from 199.66.198.2: seq=5 ttl=55 time=21.654 ms
ping_14 | 64 bytes from 199.66.198.2: seq=16 ttl=55 time=21.586 ms
ping_40 | 64 bytes from 199.66.198.2: seq=5 ttl=55 time=21.585 ms
ping_11 | 64 bytes from 199.66.198.2: seq=14 ttl=55 time=21.567 ms
ping_18 | 64 bytes from 199.66.198.2: seq=10 ttl=55 time=21.757 ms
ping_16 | 64 bytes from 199.66.198.2: seq=15 ttl=55 time=21.951 ms
ping_20 | 64 bytes from 199.66.198.2: seq=16 ttl=55 time=21.862 ms
ping_3  | 64 bytes from 199.66.198.2: seq=10 ttl=55 time=21.871 ms
ping_14 | 64 bytes from 199.66.198.2: seq=17 ttl=55 time=21.568 ms
ping_27 | 64 bytes from 199.66.198.2: seq=6 ttl=55 time=21.926 ms
ping_21 | 64 bytes from 199.66.198.2: seq=3 ttl=55 time=21.843 ms
ping_33 | 64 bytes from 199.66.198.2: seq=11 ttl=55 time=22.081 ms
ping_1  | 64 bytes from 199.66.198.2: seq=20 ttl=55 time=21.436 ms
ping_32 | PING speedtest.xsmedia.com (199.66.198.2): 56 data bytes
ping_15 | 64 bytes from 199.66.198.2: seq=19 ttl=55 time=21.452 ms
ping_29 | 64 bytes from 199.66.198.2: seq=7 ttl=55 time=21.584 ms
ping_24 | 64 bytes from 199.66.198.2: seq=6 ttl=55 time=21.812 ms
ping_11 | 64 bytes from 199.66.198.2: seq=15 ttl=55 time=21.564 ms
ping_1  | 64 bytes from 199.66.198.2: seq=21 ttl=55 time=21.436 ms
ping_18 | 64 bytes from 199.66.198.2: seq=11 ttl=55 time=21.820 ms
ping_9  | 64 bytes from 199.66.198.2: seq=15 ttl=55 time=21.345 ms
ping_16 | 64 bytes from 199.66.198.2: seq=16 ttl=55 time=21.942 ms
ping_22 | 64 bytes from 199.66.198.2: seq=2 ttl=55 time=21.984 ms
ping_24 | 64 bytes from 199.66.198.2: seq=7 ttl=55 time=21.562 ms
ping_3  | 64 bytes from 199.66.198.2: seq=11 ttl=55 time=21.965 ms
ping_14 | 64 bytes from 199.66.198.2: seq=18 ttl=55 time=21.492 ms
ping_21 | 64 bytes from 199.66.198.2: seq=4 ttl=55 time=21.532 ms
ping_40 | 64 bytes from 199.66.198.2: seq=6 ttl=55 time=21.631 ms
ping_32 | 64 bytes from 199.66.198.2: seq=0 ttl=55 time=21.770 ms
ping_33 | 64 bytes from 199.66.198.2: seq=12 ttl=55 time=23.480 ms
ping_24 | 64 bytes from 199.66.198.2: seq=8 ttl=55 time=21.662 ms
ping_27 | 64 bytes from 199.66.198.2: seq=7 ttl=55 time=21.959 ms
ping_2  | 64 bytes from 199.66.198.2: seq=23 ttl=55 time=21.422 ms
ping_40 | 64 bytes from 199.66.198.2: seq=7 ttl=55 time=21.431 ms
ping_9  | 64 bytes from 199.66.198.2: seq=16 ttl=55 time=21.354 ms
ping_11 | 64 bytes from 199.66.198.2: seq=16 ttl=55 time=21.954 ms
ping_32 | 64 bytes from 199.66.198.2: seq=1 ttl=55 time=21.466 ms
ping_29 | 64 bytes from 199.66.198.2: seq=8 ttl=55 time=21.861 ms
ping_20 | 64 bytes from 199.66.198.2: seq=17 ttl=55 time=21.419 ms
ping_37 | PING speedtest.xsmedia.com (199.66.198.2): 56 data bytes
ping_11 | 64 bytes from 199.66.198.2: seq=17 ttl=55 time=21.731 ms
ping_28 | PING speedtest.xsmedia.com (199.66.198.2): 56 data bytes
ping_16 | 64 bytes from 199.66.198.2: seq=17 ttl=55 time=21.632 ms
ping_18 | 64 bytes from 199.66.198.2: seq=12 ttl=55 time=21.393 ms
ping_27 | 64 bytes from 199.66.198.2: seq=8 ttl=55 time=22.019 ms
ping_21 | 64 bytes from 199.66.198.2: seq=5 ttl=55 time=21.891 ms
ping_24 | 64 bytes from 199.66.198.2: seq=9 ttl=55 time=21.438 ms
ping_32 | 64 bytes from 199.66.198.2: seq=2 ttl=55 time=22.026 ms
ping_1  | 64 bytes from 199.66.198.2: seq=22 ttl=55 time=21.450 ms
ping_37 | 64 bytes from 199.66.198.2: seq=0 ttl=55 time=21.541 ms
ping_22 | 64 bytes from 199.66.198.2: seq=3 ttl=55 time=21.934 ms
ping_15 | 64 bytes from 199.66.198.2: seq=20 ttl=55 time=22.074 ms
ping_30 | PING speedtest.xsmedia.com (199.66.198.2): 56 data bytes
ping_40 | 64 bytes from 199.66.198.2: seq=8 ttl=55 time=24.152 ms
ping_28 | 64 bytes from 199.66.198.2: seq=0 ttl=55 time=21.481 ms
ping_9  | 64 bytes from 199.66.198.2: seq=17 ttl=55 time=21.588 ms
ping_29 | 64 bytes from 199.66.198.2: seq=9 ttl=55 time=21.318 ms
ping_27 | 64 bytes from 199.66.198.2: seq=9 ttl=55 time=21.413 ms
ping_3  | 64 bytes from 199.66.198.2: seq=12 ttl=55 time=21.443 ms
ping_18 | 64 bytes from 199.66.198.2: seq=13 ttl=55 time=21.673 ms
ping_32 | 64 bytes from 199.66.198.2: seq=3 ttl=55 time=21.668 ms
ping_21 | 64 bytes from 199.66.198.2: seq=6 ttl=55 time=21.629 ms
ping_11 | 64 bytes from 199.66.198.2: seq=18 ttl=55 time=21.550 ms
ping_15 | 64 bytes from 199.66.198.2: seq=21 ttl=55 time=21.506 ms
ping_20 | 64 bytes from 199.66.198.2: seq=18 ttl=55 time=21.497 ms
ping_9  | 64 bytes from 199.66.198.2: seq=18 ttl=55 time=21.539 ms
ping_24 | 64 bytes from 199.66.198.2: seq=10 ttl=55 time=21.462 ms
ping_14 | 64 bytes from 199.66.198.2: seq=19 ttl=55 time=21.574 ms
ping_21 | 64 bytes from 199.66.198.2: seq=7 ttl=55 time=21.603 ms
ping_28 | 64 bytes from 199.66.198.2: seq=1 ttl=55 time=21.822 ms
ping_28 | 64 bytes from 199.66.198.2: seq=2 ttl=55 time=21.870 ms
ping_37 | 64 bytes from 199.66.198.2: seq=1 ttl=55 time=21.646 ms
ping_24 | 64 bytes from 199.66.198.2: seq=11 ttl=55 time=21.379 ms
ping_18 | 64 bytes from 199.66.198.2: seq=14 ttl=55 time=21.669 ms
ping_29 | 64 bytes from 199.66.198.2: seq=10 ttl=55 time=21.687 ms
ping_22 | 64 bytes from 199.66.198.2: seq=4 ttl=55 time=21.613 ms
ping_35 | PING speedtest.xsmedia.com (199.66.198.2): 56 data bytes
ping_11 | 64 bytes from 199.66.198.2: seq=19 ttl=55 time=21.553 ms
ping_32 | 64 bytes from 199.66.198.2: seq=4 ttl=55 time=21.498 ms
ping_14 | 64 bytes from 199.66.198.2: seq=20 ttl=55 time=23.674 ms
ping_30 | 64 bytes from 199.66.198.2: seq=0 ttl=55 time=21.755 ms
ping_21 | 64 bytes from 199.66.198.2: seq=8 ttl=55 time=21.591 ms
ping_9  | 64 bytes from 199.66.198.2: seq=19 ttl=55 time=21.664 ms
ping_37 | 64 bytes from 199.66.198.2: seq=2 ttl=55 time=21.624 ms
ping_28 | 64 bytes from 199.66.198.2: seq=3 ttl=55 time=21.585 ms
ping_37 | 64 bytes from 199.66.198.2: seq=3 ttl=55 time=21.886 ms
ping_38 | PING speedtest.xsmedia.com (199.66.198.2): 56 data bytes
ping_18 | 64 bytes from 199.66.198.2: seq=15 ttl=55 time=21.530 ms
ping_32 | 64 bytes from 199.66.198.2: seq=5 ttl=55 time=22.065 ms
ping_28 | 64 bytes from 199.66.198.2: seq=4 ttl=55 time=21.929 ms
ping_22 | 64 bytes from 199.66.198.2: seq=5 ttl=55 time=21.689 ms
ping_35 | 64 bytes from 199.66.198.2: seq=0 ttl=55 time=21.987 ms
ping_27 | 64 bytes from 199.66.198.2: seq=10 ttl=55 time=21.855 ms
ping_11 | 64 bytes from 199.66.198.2: seq=20 ttl=55 time=21.404 ms
ping_37 | 64 bytes from 199.66.198.2: seq=4 ttl=55 time=21.751 ms
ping_29 | 64 bytes from 199.66.198.2: seq=11 ttl=55 time=21.564 ms
ping_34 | PING speedtest.xsmedia.com (199.66.198.2): 56 data bytes
ping_32 | 64 bytes from 199.66.198.2: seq=6 ttl=55 time=21.842 ms
ping_27 | 64 bytes from 199.66.198.2: seq=11 ttl=55 time=21.620 ms
ping_30 | 64 bytes from 199.66.198.2: seq=1 ttl=55 time=21.620 ms
ping_3  | 64 bytes from 199.66.198.2: seq=13 ttl=55 time=21.454 ms
ping_22 | 64 bytes from 199.66.198.2: seq=6 ttl=55 time=21.938 ms
ping_37 | 64 bytes from 199.66.198.2: seq=5 ttl=55 time=21.641 ms
ping_36 | PING speedtest.xsmedia.com (199.66.198.2): 56 data bytes
ping_35 | 64 bytes from 199.66.198.2: seq=1 ttl=55 time=21.586 ms
ping_32 | 64 bytes from 199.66.198.2: seq=7 ttl=55 time=21.660 ms
ping_28 | 64 bytes from 199.66.198.2: seq=5 ttl=55 time=22.005 ms
ping_38 | 64 bytes from 199.66.198.2: seq=0 ttl=55 time=21.553 ms
ping_29 | 64 bytes from 199.66.198.2: seq=12 ttl=55 time=21.472 ms
ping_11 | 64 bytes from 199.66.198.2: seq=21 ttl=55 time=21.480 ms
ping_35 | 64 bytes from 199.66.198.2: seq=2 ttl=55 time=21.603 ms
ping_21 | 64 bytes from 199.66.198.2: seq=9 ttl=55 time=21.616 ms
ping_30 | 64 bytes from 199.66.198.2: seq=2 ttl=55 time=21.599 ms
ping_34 | 64 bytes from 199.66.198.2: seq=0 ttl=55 time=21.834 ms
ping_28 | 64 bytes from 199.66.198.2: seq=6 ttl=55 time=21.612 ms
ping_38 | 64 bytes from 199.66.198.2: seq=1 ttl=55 time=21.473 ms
ping_38 | 64 bytes from 199.66.198.2: seq=2 ttl=55 time=21.960 ms
ping_35 | 64 bytes from 199.66.198.2: seq=3 ttl=55 time=21.782 ms
ping_22 | 64 bytes from 199.66.198.2: seq=7 ttl=55 time=21.669 ms
ping_11 | 64 bytes from 199.66.198.2: seq=22 ttl=55 time=21.480 ms
ping_36 | 64 bytes from 199.66.198.2: seq=0 ttl=55 time=21.553 ms
ping_31 | PING speedtest.xsmedia.com (199.66.198.2): 56 data bytes
ping_32 | 64 bytes from 199.66.198.2: seq=8 ttl=55 time=21.621 ms
ping_34 | 64 bytes from 199.66.198.2: seq=1 ttl=55 time=22.393 ms
ping_38 | 64 bytes from 199.66.198.2: seq=3 ttl=55 time=21.723 ms
ping_3  | 64 bytes from 199.66.198.2: seq=14 ttl=55 time=21.486 ms
ping_37 | 64 bytes from 199.66.198.2: seq=6 ttl=55 time=21.603 ms
ping_22 | 64 bytes from 199.66.198.2: seq=8 ttl=55 time=21.496 ms
ping_28 | 64 bytes from 199.66.198.2: seq=7 ttl=55 time=21.852 ms
ping_34 | 64 bytes from 199.66.198.2: seq=2 ttl=55 time=21.945 ms
ping_30 | 64 bytes from 199.66.198.2: seq=3 ttl=55 time=21.601 ms
ping_22 | 64 bytes from 199.66.198.2: seq=9 ttl=55 time=21.564 ms
ping_36 | 64 bytes from 199.66.198.2: seq=1 ttl=55 time=21.987 ms
ping_32 | 64 bytes from 199.66.198.2: seq=9 ttl=55 time=21.467 ms
ping_35 | 64 bytes from 199.66.198.2: seq=4 ttl=55 time=22.513 ms
ping_34 | 64 bytes from 199.66.198.2: seq=3 ttl=55 time=21.485 ms
ping_30 | 64 bytes from 199.66.198.2: seq=4 ttl=55 time=21.885 ms
ping_37 | 64 bytes from 199.66.198.2: seq=7 ttl=55 time=21.422 ms
ping_31 | 64 bytes from 199.66.198.2: seq=0 ttl=55 time=21.635 ms
ping_35 | 64 bytes from 199.66.198.2: seq=5 ttl=55 time=22.043 ms
ping_34 | 64 bytes from 199.66.198.2: seq=4 ttl=55 time=21.520 ms
ping_30 | 64 bytes from 199.66.198.2: seq=5 ttl=55 time=21.373 ms
ping_37 | 64 bytes from 199.66.198.2: seq=8 ttl=55 time=21.510 ms
ping_22 | 64 bytes from 199.66.198.2: seq=10 ttl=55 time=21.513 ms
ping_28 | 64 bytes from 199.66.198.2: seq=8 ttl=55 time=21.643 ms
ping_3  | 64 bytes from 199.66.198.2: seq=15 ttl=55 time=21.828 ms
ping_36 | 64 bytes from 199.66.198.2: seq=2 ttl=55 time=21.513 ms
ping_34 | 64 bytes from 199.66.198.2: seq=5 ttl=55 time=21.424 ms
ping_38 | 64 bytes from 199.66.198.2: seq=4 ttl=55 time=21.795 ms
ping_31 | 64 bytes from 199.66.198.2: seq=1 ttl=55 time=29.833 ms
ping_30 | 64 bytes from 199.66.198.2: seq=6 ttl=55 time=21.869 ms
ping_37 | 64 bytes from 199.66.198.2: seq=9 ttl=55 time=21.454 ms
ping_3  | 64 bytes from 199.66.198.2: seq=16 ttl=55 time=21.433 ms
ping_39 | PING speedtest.xsmedia.com (199.66.198.2): 56 data bytes
ping_23 | PING speedtest.xsmedia.com (199.66.198.2): 56 data bytes
ping_30 | 64 bytes from 199.66.198.2: seq=7 ttl=55 time=21.997 ms
ping_38 | 64 bytes from 199.66.198.2: seq=5 ttl=55 time=21.387 ms
ping_25 | PING speedtest.xsmedia.com (199.66.198.2): 56 data bytes
ping_35 | 64 bytes from 199.66.198.2: seq=6 ttl=55 time=21.936 ms
ping_26 | PING speedtest.xsmedia.com (199.66.198.2): 56 data bytes
ping_39 | 64 bytes from 199.66.198.2: seq=0 ttl=55 time=21.808 ms
ping_23 | 64 bytes from 199.66.198.2: seq=0 ttl=55 time=21.397 ms
ping_36 | 64 bytes from 199.66.198.2: seq=3 ttl=55 time=21.675 ms
ping_30 | 64 bytes from 199.66.198.2: seq=8 ttl=55 time=21.515 ms
ping_38 | 64 bytes from 199.66.198.2: seq=6 ttl=55 time=21.679 ms
ping_36 | 64 bytes from 199.66.198.2: seq=4 ttl=55 time=21.376 ms
ping_31 | 64 bytes from 199.66.198.2: seq=2 ttl=55 time=21.807 ms
ping_36 | 64 bytes from 199.66.198.2: seq=5 ttl=55 time=21.533 ms
ping_39 | 64 bytes from 199.66.198.2: seq=1 ttl=55 time=21.613 ms
ping_25 | 64 bytes from 199.66.198.2: seq=0 ttl=55 time=21.414 ms
ping_33 | 64 bytes from 199.66.198.2: seq=13 ttl=55 time=21.482 ms
ping_26 | 64 bytes from 199.66.198.2: seq=0 ttl=55 time=21.406 ms
ping_39 | 64 bytes from 199.66.198.2: seq=2 ttl=55 time=21.539 ms
ping_23 | 64 bytes from 199.66.198.2: seq=1 ttl=55 time=21.585 ms
ping_25 | 64 bytes from 199.66.198.2: seq=1 ttl=55 time=21.464 ms
ping_35 | 64 bytes from 199.66.198.2: seq=7 ttl=55 time=21.985 ms
ping_25 | 64 bytes from 199.66.198.2: seq=2 ttl=55 time=21.441 ms
ping_39 | 64 bytes from 199.66.198.2: seq=3 ttl=55 time=22.979 ms
ping_31 | 64 bytes from 199.66.198.2: seq=3 ttl=55 time=21.664 ms
ping_31 | 64 bytes from 199.66.198.2: seq=4 ttl=55 time=21.831 ms
ping_8  | 64 bytes from 199.66.198.2: seq=23 ttl=55 time=21.484 ms
ping_27 | 64 bytes from 199.66.198.2: seq=12 ttl=55 time=21.915 ms
ping_6  | 64 bytes from 199.66.198.2: seq=24 ttl=55 time=22.033 ms
ping_6  | 
ping_6  | --- speedtest.xsmedia.com ping statistics ---
ping_6  | 25 packets transmitted, 25 packets received, 0% packet loss
ping_6  | round-trip min/avg/max = 21.356/21.791/22.781 ms
ping_28 | 64 bytes from 199.66.198.2: seq=9 ttl=55 time=21.498 ms
ping_21 | 64 bytes from 199.66.198.2: seq=10 ttl=55 time=21.522 ms
ping_32 | 64 bytes from 199.66.198.2: seq=10 ttl=55 time=21.689 ms
ping_34 | 64 bytes from 199.66.198.2: seq=6 ttl=55 time=21.447 ms
softwareoverhead_ping_6 exited with code 0
ping_5  | 64 bytes from 199.66.198.2: seq=21 ttl=55 time=21.431 ms
ping_22 | 64 bytes from 199.66.198.2: seq=11 ttl=55 time=23.861 ms
ping_19 | 64 bytes from 199.66.198.2: seq=21 ttl=55 time=21.868 ms
ping_15 | 64 bytes from 199.66.198.2: seq=22 ttl=55 time=21.638 ms
ping_1  | 64 bytes from 199.66.198.2: seq=23 ttl=55 time=21.874 ms
ping_24 | 64 bytes from 199.66.198.2: seq=12 ttl=55 time=21.883 ms
ping_37 | 64 bytes from 199.66.198.2: seq=10 ttl=55 time=21.600 ms
ping_25 | 64 bytes from 199.66.198.2: seq=3 ttl=55 time=21.896 ms
ping_11 | 64 bytes from 199.66.198.2: seq=23 ttl=55 time=21.907 ms
ping_3  | 64 bytes from 199.66.198.2: seq=17 ttl=55 time=22.028 ms
ping_2  | 64 bytes from 199.66.198.2: seq=24 ttl=55 time=21.684 ms
ping_2  | 
ping_2  | --- speedtest.xsmedia.com ping statistics ---
ping_2  | 25 packets transmitted, 25 packets received, 0% packet loss
ping_2  | round-trip min/avg/max = 21.359/21.921/25.638 ms
ping_9  | 64 bytes from 199.66.198.2: seq=20 ttl=55 time=21.582 ms
ping_31 | 64 bytes from 199.66.198.2: seq=5 ttl=55 time=21.874 ms
ping_35 | 64 bytes from 199.66.198.2: seq=8 ttl=55 time=21.921 ms
ping_30 | 64 bytes from 199.66.198.2: seq=9 ttl=55 time=21.735 ms
ping_29 | 64 bytes from 199.66.198.2: seq=13 ttl=55 time=21.662 ms
ping_39 | 64 bytes from 199.66.198.2: seq=4 ttl=55 time=21.648 ms
ping_40 | 64 bytes from 199.66.198.2: seq=9 ttl=55 time=21.506 ms
ping_14 | 64 bytes from 199.66.198.2: seq=21 ttl=55 time=21.467 ms
ping_23 | 64 bytes from 199.66.198.2: seq=2 ttl=55 time=21.552 ms
ping_38 | 64 bytes from 199.66.198.2: seq=7 ttl=55 time=21.716 ms
ping_36 | 64 bytes from 199.66.198.2: seq=6 ttl=55 time=21.774 ms
ping_16 | 64 bytes from 199.66.198.2: seq=18 ttl=55 time=21.633 ms
ping_18 | 64 bytes from 199.66.198.2: seq=16 ttl=55 time=21.507 ms
ping_20 | 64 bytes from 199.66.198.2: seq=19 ttl=55 time=21.895 ms
ping_26 | 64 bytes from 199.66.198.2: seq=1 ttl=55 time=21.728 ms
ping_33 | 64 bytes from 199.66.198.2: seq=14 ttl=55 time=21.560 ms
softwareoverhead_ping_2 exited with code 0
ping_8  | 64 bytes from 199.66.198.2: seq=24 ttl=55 time=21.513 ms
ping_8  | 
ping_8  | --- speedtest.xsmedia.com ping statistics ---
ping_8  | 25 packets transmitted, 25 packets received, 0% packet loss
ping_8  | round-trip min/avg/max = 21.409/22.350/29.626 ms
ping_27 | 64 bytes from 199.66.198.2: seq=13 ttl=55 time=21.622 ms
ping_28 | 64 bytes from 199.66.198.2: seq=10 ttl=55 time=21.610 ms
ping_21 | 64 bytes from 199.66.198.2: seq=11 ttl=55 time=21.484 ms
ping_32 | 64 bytes from 199.66.198.2: seq=11 ttl=55 time=21.629 ms
ping_34 | 64 bytes from 199.66.198.2: seq=7 ttl=55 time=21.497 ms
softwareoverhead_ping_8 exited with code 0
ping_5  | 64 bytes from 199.66.198.2: seq=22 ttl=55 time=21.682 ms
ping_22 | 64 bytes from 199.66.198.2: seq=12 ttl=55 time=22.967 ms
ping_19 | 64 bytes from 199.66.198.2: seq=22 ttl=55 time=24.456 ms
ping_15 | 64 bytes from 199.66.198.2: seq=23 ttl=55 time=21.823 ms
ping_1  | 64 bytes from 199.66.198.2: seq=24 ttl=55 time=21.922 ms
ping_1  | 
ping_1  | --- speedtest.xsmedia.com ping statistics ---
ping_1  | 25 packets transmitted, 25 packets received, 0% packet loss
ping_1  | round-trip min/avg/max = 21.387/22.270/37.120 ms
ping_24 | 64 bytes from 199.66.198.2: seq=13 ttl=55 time=21.486 ms
ping_37 | 64 bytes from 199.66.198.2: seq=11 ttl=55 time=21.908 ms
ping_25 | 64 bytes from 199.66.198.2: seq=4 ttl=55 time=21.787 ms
ping_11 | 64 bytes from 199.66.198.2: seq=24 ttl=55 time=21.943 ms
ping_11 | 
ping_11 | --- speedtest.xsmedia.com ping statistics ---
ping_11 | 25 packets transmitted, 25 packets received, 0% packet loss
ping_11 | round-trip min/avg/max = 21.403/21.663/22.028 ms
ping_3  | 64 bytes from 199.66.198.2: seq=18 ttl=55 time=21.628 ms
ping_9  | 64 bytes from 199.66.198.2: seq=21 ttl=55 time=21.628 ms
ping_31 | 64 bytes from 199.66.198.2: seq=6 ttl=55 time=21.672 ms
ping_35 | 64 bytes from 199.66.198.2: seq=9 ttl=55 time=21.518 ms
ping_30 | 64 bytes from 199.66.198.2: seq=10 ttl=55 time=21.438 ms
ping_29 | 64 bytes from 199.66.198.2: seq=14 ttl=55 time=21.541 ms
ping_39 | 64 bytes from 199.66.198.2: seq=5 ttl=55 time=21.455 ms
ping_40 | 64 bytes from 199.66.198.2: seq=10 ttl=55 time=22.345 ms
ping_14 | 64 bytes from 199.66.198.2: seq=22 ttl=55 time=22.318 ms
ping_23 | 64 bytes from 199.66.198.2: seq=3 ttl=55 time=21.416 ms
ping_36 | 64 bytes from 199.66.198.2: seq=7 ttl=55 time=21.492 ms
ping_38 | 64 bytes from 199.66.198.2: seq=8 ttl=55 time=22.032 ms
ping_20 | 64 bytes from 199.66.198.2: seq=20 ttl=55 time=21.680 ms
ping_16 | 64 bytes from 199.66.198.2: seq=19 ttl=55 time=25.309 ms
ping_18 | 64 bytes from 199.66.198.2: seq=17 ttl=55 time=24.380 ms
ping_26 | 64 bytes from 199.66.198.2: seq=2 ttl=55 time=21.600 ms
ping_33 | 64 bytes from 199.66.198.2: seq=15 ttl=55 time=21.913 ms
softwareoverhead_ping_1 exited with code 0
ping_27 | 64 bytes from 199.66.198.2: seq=14 ttl=55 time=21.470 ms
softwareoverhead_ping_11 exited with code 0
ping_28 | 64 bytes from 199.66.198.2: seq=11 ttl=55 time=21.699 ms
ping_21 | 64 bytes from 199.66.198.2: seq=12 ttl=55 time=21.592 ms
ping_32 | 64 bytes from 199.66.198.2: seq=12 ttl=55 time=21.898 ms
ping_34 | 64 bytes from 199.66.198.2: seq=8 ttl=55 time=21.949 ms
ping_5  | 64 bytes from 199.66.198.2: seq=23 ttl=55 time=21.655 ms
ping_22 | 64 bytes from 199.66.198.2: seq=13 ttl=55 time=25.633 ms
ping_19 | 64 bytes from 199.66.198.2: seq=23 ttl=55 time=25.592 ms
ping_15 | 64 bytes from 199.66.198.2: seq=24 ttl=55 time=21.540 ms
ping_15 | 
ping_15 | --- speedtest.xsmedia.com ping statistics ---
ping_15 | 25 packets transmitted, 25 packets received, 0% packet loss
ping_15 | round-trip min/avg/max = 21.390/21.747/23.694 ms
ping_24 | 64 bytes from 199.66.198.2: seq=14 ttl=55 time=21.461 ms
ping_37 | 64 bytes from 199.66.198.2: seq=12 ttl=55 time=21.956 ms
ping_25 | 64 bytes from 199.66.198.2: seq=5 ttl=55 time=21.846 ms
ping_3  | 64 bytes from 199.66.198.2: seq=19 ttl=55 time=21.410 ms
ping_9  | 64 bytes from 199.66.198.2: seq=22 ttl=55 time=21.522 ms
ping_31 | 64 bytes from 199.66.198.2: seq=7 ttl=55 time=21.477 ms
ping_35 | 64 bytes from 199.66.198.2: seq=10 ttl=55 time=21.607 ms
ping_30 | 64 bytes from 199.66.198.2: seq=11 ttl=55 time=21.632 ms
ping_29 | 64 bytes from 199.66.198.2: seq=15 ttl=55 time=21.491 ms
ping_39 | 64 bytes from 199.66.198.2: seq=6 ttl=55 time=21.844 ms
ping_14 | 64 bytes from 199.66.198.2: seq=23 ttl=55 time=21.401 ms
ping_40 | 64 bytes from 199.66.198.2: seq=11 ttl=55 time=21.647 ms
ping_23 | 64 bytes from 199.66.198.2: seq=4 ttl=55 time=21.675 ms
ping_36 | 64 bytes from 199.66.198.2: seq=8 ttl=55 time=21.526 ms
ping_38 | 64 bytes from 199.66.198.2: seq=9 ttl=55 time=21.494 ms
ping_16 | 64 bytes from 199.66.198.2: seq=20 ttl=55 time=21.477 ms
ping_18 | 64 bytes from 199.66.198.2: seq=18 ttl=55 time=21.449 ms
ping_20 | 64 bytes from 199.66.198.2: seq=21 ttl=55 time=21.437 ms
ping_26 | 64 bytes from 199.66.198.2: seq=3 ttl=55 time=21.489 ms
ping_33 | 64 bytes from 199.66.198.2: seq=16 ttl=55 time=21.530 ms
softwareoverhead_ping_15 exited with code 0
ping_27 | 64 bytes from 199.66.198.2: seq=15 ttl=55 time=21.635 ms
ping_28 | 64 bytes from 199.66.198.2: seq=12 ttl=55 time=22.108 ms
ping_21 | 64 bytes from 199.66.198.2: seq=13 ttl=55 time=21.701 ms
ping_32 | 64 bytes from 199.66.198.2: seq=13 ttl=55 time=21.614 ms
ping_34 | 64 bytes from 199.66.198.2: seq=9 ttl=55 time=21.584 ms
ping_5  | 64 bytes from 199.66.198.2: seq=24 ttl=55 time=23.390 ms
ping_5  | 
ping_5  | --- speedtest.xsmedia.com ping statistics ---
ping_5  | 25 packets transmitted, 25 packets received, 0% packet loss
ping_5  | round-trip min/avg/max = 21.401/21.726/23.390 ms
ping_22 | 64 bytes from 199.66.198.2: seq=14 ttl=55 time=25.975 ms
ping_19 | 64 bytes from 199.66.198.2: seq=24 ttl=55 time=25.540 ms
ping_19 | 
ping_19 | --- speedtest.xsmedia.com ping statistics ---
ping_19 | 25 packets transmitted, 25 packets received, 0% packet loss
ping_19 | round-trip min/avg/max = 21.386/22.056/25.592 ms
ping_24 | 64 bytes from 199.66.198.2: seq=15 ttl=55 time=21.527 ms
ping_37 | 64 bytes from 199.66.198.2: seq=13 ttl=55 time=21.416 ms
ping_25 | 64 bytes from 199.66.198.2: seq=6 ttl=55 time=21.443 ms
ping_3  | 64 bytes from 199.66.198.2: seq=20 ttl=55 time=21.619 ms
ping_9  | 64 bytes from 199.66.198.2: seq=23 ttl=55 time=21.661 ms
ping_31 | 64 bytes from 199.66.198.2: seq=8 ttl=55 time=21.572 ms
ping_35 | 64 bytes from 199.66.198.2: seq=11 ttl=55 time=21.631 ms
ping_30 | 64 bytes from 199.66.198.2: seq=12 ttl=55 time=21.815 ms
ping_29 | 64 bytes from 199.66.198.2: seq=16 ttl=55 time=21.748 ms
ping_39 | 64 bytes from 199.66.198.2: seq=7 ttl=55 time=21.695 ms
ping_40 | 64 bytes from 199.66.198.2: seq=12 ttl=55 time=21.643 ms
ping_14 | 64 bytes from 199.66.198.2: seq=24 ttl=55 time=21.656 ms
ping_14 | 
ping_14 | --- speedtest.xsmedia.com ping statistics ---
ping_14 | 25 packets transmitted, 25 packets received, 0% packet loss
ping_14 | round-trip min/avg/max = 21.370/22.100/30.056 ms
ping_23 | 64 bytes from 199.66.198.2: seq=5 ttl=55 time=21.631 ms
ping_36 | 64 bytes from 199.66.198.2: seq=9 ttl=55 time=21.847 ms
ping_38 | 64 bytes from 199.66.198.2: seq=10 ttl=55 time=21.610 ms
ping_16 | 64 bytes from 199.66.198.2: seq=21 ttl=55 time=21.535 ms
ping_18 | 64 bytes from 199.66.198.2: seq=19 ttl=55 time=21.470 ms
ping_20 | 64 bytes from 199.66.198.2: seq=22 ttl=55 time=21.567 ms
ping_26 | 64 bytes from 199.66.198.2: seq=4 ttl=55 time=21.400 ms
softwareoverhead_ping_5 exited with code 0
ping_33 | 64 bytes from 199.66.198.2: seq=17 ttl=55 time=21.516 ms
softwareoverhead_ping_19 exited with code 0
ping_27 | 64 bytes from 199.66.198.2: seq=16 ttl=55 time=21.543 ms
softwareoverhead_ping_14 exited with code 0
ping_28 | 64 bytes from 199.66.198.2: seq=13 ttl=55 time=22.551 ms
ping_21 | 64 bytes from 199.66.198.2: seq=14 ttl=55 time=22.956 ms
ping_32 | 64 bytes from 199.66.198.2: seq=14 ttl=55 time=21.920 ms
ping_34 | 64 bytes from 199.66.198.2: seq=10 ttl=55 time=22.011 ms
ping_22 | 64 bytes from 199.66.198.2: seq=15 ttl=55 time=23.543 ms
ping_24 | 64 bytes from 199.66.198.2: seq=16 ttl=55 time=22.006 ms
ping_37 | 64 bytes from 199.66.198.2: seq=14 ttl=55 time=21.935 ms
ping_25 | 64 bytes from 199.66.198.2: seq=7 ttl=55 time=21.964 ms
ping_3  | 64 bytes from 199.66.198.2: seq=21 ttl=55 time=21.910 ms
ping_9  | 64 bytes from 199.66.198.2: seq=24 ttl=55 time=21.907 ms
ping_9  | 
ping_9  | --- speedtest.xsmedia.com ping statistics ---
ping_9  | 25 packets transmitted, 25 packets received, 0% packet loss
ping_9  | round-trip min/avg/max = 21.344/21.749/24.406 ms
ping_31 | 64 bytes from 199.66.198.2: seq=9 ttl=55 time=21.816 ms
ping_35 | 64 bytes from 199.66.198.2: seq=12 ttl=55 time=21.930 ms
ping_30 | 64 bytes from 199.66.198.2: seq=13 ttl=55 time=21.797 ms
ping_29 | 64 bytes from 199.66.198.2: seq=17 ttl=55 time=21.905 ms
ping_39 | 64 bytes from 199.66.198.2: seq=8 ttl=55 time=21.636 ms
ping_40 | 64 bytes from 199.66.198.2: seq=13 ttl=55 time=21.469 ms
ping_23 | 64 bytes from 199.66.198.2: seq=6 ttl=55 time=21.687 ms
ping_36 | 64 bytes from 199.66.198.2: seq=10 ttl=55 time=21.571 ms
ping_38 | 64 bytes from 199.66.198.2: seq=11 ttl=55 time=21.559 ms
ping_16 | 64 bytes from 199.66.198.2: seq=22 ttl=55 time=21.924 ms
ping_18 | 64 bytes from 199.66.198.2: seq=20 ttl=55 time=21.583 ms
ping_20 | 64 bytes from 199.66.198.2: seq=23 ttl=55 time=21.961 ms
ping_26 | 64 bytes from 199.66.198.2: seq=5 ttl=55 time=21.649 ms
ping_33 | 64 bytes from 199.66.198.2: seq=18 ttl=55 time=21.498 ms
softwareoverhead_ping_9 exited with code 0
ping_27 | 64 bytes from 199.66.198.2: seq=17 ttl=55 time=21.648 ms
ping_28 | 64 bytes from 199.66.198.2: seq=14 ttl=55 time=21.828 ms
ping_21 | 64 bytes from 199.66.198.2: seq=15 ttl=55 time=21.600 ms
ping_32 | 64 bytes from 199.66.198.2: seq=15 ttl=55 time=21.572 ms
ping_34 | 64 bytes from 199.66.198.2: seq=11 ttl=55 time=21.993 ms
ping_22 | 64 bytes from 199.66.198.2: seq=16 ttl=55 time=25.996 ms
ping_24 | 64 bytes from 199.66.198.2: seq=17 ttl=55 time=21.974 ms
ping_37 | 64 bytes from 199.66.198.2: seq=15 ttl=55 time=21.712 ms
ping_25 | 64 bytes from 199.66.198.2: seq=8 ttl=55 time=21.545 ms
ping_3  | 64 bytes from 199.66.198.2: seq=22 ttl=55 time=22.066 ms
ping_31 | 64 bytes from 199.66.198.2: seq=10 ttl=55 time=21.886 ms
ping_35 | 64 bytes from 199.66.198.2: seq=13 ttl=55 time=21.962 ms
ping_30 | 64 bytes from 199.66.198.2: seq=14 ttl=55 time=21.906 ms
ping_29 | 64 bytes from 199.66.198.2: seq=18 ttl=55 time=21.669 ms
ping_39 | 64 bytes from 199.66.198.2: seq=9 ttl=55 time=21.716 ms
ping_40 | 64 bytes from 199.66.198.2: seq=14 ttl=55 time=21.578 ms
ping_23 | 64 bytes from 199.66.198.2: seq=7 ttl=55 time=21.920 ms
ping_36 | 64 bytes from 199.66.198.2: seq=11 ttl=55 time=22.023 ms
ping_38 | 64 bytes from 199.66.198.2: seq=12 ttl=55 time=21.873 ms
ping_16 | 64 bytes from 199.66.198.2: seq=23 ttl=55 time=21.686 ms
ping_18 | 64 bytes from 199.66.198.2: seq=21 ttl=55 time=21.642 ms
ping_20 | 64 bytes from 199.66.198.2: seq=24 ttl=55 time=21.883 ms
ping_20 | 
ping_20 | --- speedtest.xsmedia.com ping statistics ---
ping_20 | 25 packets transmitted, 25 packets received, 0% packet loss
ping_20 | round-trip min/avg/max = 21.382/21.769/22.989 ms
ping_26 | 64 bytes from 199.66.198.2: seq=6 ttl=55 time=21.478 ms
ping_33 | 64 bytes from 199.66.198.2: seq=19 ttl=55 time=21.453 ms
ping_27 | 64 bytes from 199.66.198.2: seq=18 ttl=55 time=21.468 ms
softwareoverhead_ping_20 exited with code 0
ping_28 | 64 bytes from 199.66.198.2: seq=15 ttl=55 time=21.541 ms
ping_21 | 64 bytes from 199.66.198.2: seq=16 ttl=55 time=21.560 ms
ping_32 | 64 bytes from 199.66.198.2: seq=16 ttl=55 time=22.006 ms
ping_34 | 64 bytes from 199.66.198.2: seq=12 ttl=55 time=21.929 ms
ping_22 | 64 bytes from 199.66.198.2: seq=17 ttl=55 time=21.948 ms
ping_24 | 64 bytes from 199.66.198.2: seq=18 ttl=55 time=22.162 ms
ping_37 | 64 bytes from 199.66.198.2: seq=16 ttl=55 time=22.208 ms
ping_25 | 64 bytes from 199.66.198.2: seq=9 ttl=55 time=21.949 ms
ping_3  | 64 bytes from 199.66.198.2: seq=23 ttl=55 time=21.849 ms
ping_31 | 64 bytes from 199.66.198.2: seq=11 ttl=55 time=21.834 ms
ping_35 | 64 bytes from 199.66.198.2: seq=14 ttl=55 time=21.531 ms
ping_30 | 64 bytes from 199.66.198.2: seq=15 ttl=55 time=22.032 ms
ping_29 | 64 bytes from 199.66.198.2: seq=19 ttl=55 time=21.996 ms
ping_39 | 64 bytes from 199.66.198.2: seq=10 ttl=55 time=21.955 ms
ping_40 | 64 bytes from 199.66.198.2: seq=15 ttl=55 time=22.013 ms
ping_23 | 64 bytes from 199.66.198.2: seq=8 ttl=55 time=21.936 ms
ping_36 | 64 bytes from 199.66.198.2: seq=12 ttl=55 time=21.946 ms
ping_38 | 64 bytes from 199.66.198.2: seq=13 ttl=55 time=21.864 ms
ping_16 | 64 bytes from 199.66.198.2: seq=24 ttl=55 time=21.985 ms
ping_16 | 
ping_16 | --- speedtest.xsmedia.com ping statistics ---
ping_16 | 25 packets transmitted, 25 packets received, 0% packet loss
ping_16 | round-trip min/avg/max = 21.398/21.891/25.309 ms
ping_18 | 64 bytes from 199.66.198.2: seq=22 ttl=55 time=21.582 ms
ping_26 | 64 bytes from 199.66.198.2: seq=7 ttl=55 time=21.544 ms
ping_33 | 64 bytes from 199.66.198.2: seq=20 ttl=55 time=21.861 ms
ping_27 | 64 bytes from 199.66.198.2: seq=19 ttl=55 time=21.521 ms
softwareoverhead_ping_16 exited with code 0
ping_28 | 64 bytes from 199.66.198.2: seq=16 ttl=55 time=21.926 ms
ping_21 | 64 bytes from 199.66.198.2: seq=17 ttl=55 time=21.641 ms
ping_32 | 64 bytes from 199.66.198.2: seq=17 ttl=55 time=21.619 ms
ping_34 | 64 bytes from 199.66.198.2: seq=13 ttl=55 time=22.048 ms
ping_22 | 64 bytes from 199.66.198.2: seq=18 ttl=55 time=26.226 ms
ping_24 | 64 bytes from 199.66.198.2: seq=19 ttl=55 time=25.482 ms
ping_37 | 64 bytes from 199.66.198.2: seq=17 ttl=55 time=21.953 ms
ping_25 | 64 bytes from 199.66.198.2: seq=10 ttl=55 time=21.923 ms
ping_3  | 64 bytes from 199.66.198.2: seq=24 ttl=55 time=21.553 ms
ping_3  | 
ping_3  | --- speedtest.xsmedia.com ping statistics ---
ping_3  | 25 packets transmitted, 25 packets received, 0% packet loss
ping_3  | round-trip min/avg/max = 21.410/21.872/26.150 ms
ping_31 | 64 bytes from 199.66.198.2: seq=12 ttl=55 time=21.856 ms
ping_35 | 64 bytes from 199.66.198.2: seq=15 ttl=55 time=21.901 ms
ping_30 | 64 bytes from 199.66.198.2: seq=16 ttl=55 time=21.585 ms
ping_29 | 64 bytes from 199.66.198.2: seq=20 ttl=55 time=21.424 ms
ping_39 | 64 bytes from 199.66.198.2: seq=11 ttl=55 time=21.472 ms
ping_40 | 64 bytes from 199.66.198.2: seq=16 ttl=55 time=21.398 ms
ping_23 | 64 bytes from 199.66.198.2: seq=9 ttl=55 time=21.793 ms
ping_36 | 64 bytes from 199.66.198.2: seq=13 ttl=55 time=21.832 ms
ping_38 | 64 bytes from 199.66.198.2: seq=14 ttl=55 time=21.443 ms
ping_18 | 64 bytes from 199.66.198.2: seq=23 ttl=55 time=21.743 ms
ping_26 | 64 bytes from 199.66.198.2: seq=8 ttl=55 time=21.484 ms
ping_33 | 64 bytes from 199.66.198.2: seq=21 ttl=55 time=21.446 ms
softwareoverhead_ping_3 exited with code 0
ping_27 | 64 bytes from 199.66.198.2: seq=20 ttl=55 time=21.734 ms
ping_28 | 64 bytes from 199.66.198.2: seq=17 ttl=55 time=22.095 ms
ping_21 | 64 bytes from 199.66.198.2: seq=18 ttl=55 time=21.477 ms
ping_32 | 64 bytes from 199.66.198.2: seq=18 ttl=55 time=21.511 ms
ping_34 | 64 bytes from 199.66.198.2: seq=14 ttl=55 time=21.457 ms
ping_22 | 64 bytes from 199.66.198.2: seq=19 ttl=55 time=21.626 ms
ping_24 | 64 bytes from 199.66.198.2: seq=20 ttl=55 time=22.103 ms
ping_37 | 64 bytes from 199.66.198.2: seq=18 ttl=55 time=22.022 ms
ping_25 | 64 bytes from 199.66.198.2: seq=11 ttl=55 time=21.795 ms
ping_31 | 64 bytes from 199.66.198.2: seq=13 ttl=55 time=21.547 ms
ping_35 | 64 bytes from 199.66.198.2: seq=16 ttl=55 time=21.667 ms
ping_30 | 64 bytes from 199.66.198.2: seq=17 ttl=55 time=21.591 ms
ping_29 | 64 bytes from 199.66.198.2: seq=21 ttl=55 time=21.659 ms
ping_39 | 64 bytes from 199.66.198.2: seq=12 ttl=55 time=21.798 ms
ping_40 | 64 bytes from 199.66.198.2: seq=17 ttl=55 time=21.853 ms
ping_23 | 64 bytes from 199.66.198.2: seq=10 ttl=55 time=21.498 ms
ping_36 | 64 bytes from 199.66.198.2: seq=14 ttl=55 time=21.489 ms
ping_38 | 64 bytes from 199.66.198.2: seq=15 ttl=55 time=21.468 ms
ping_18 | 64 bytes from 199.66.198.2: seq=24 ttl=55 time=21.620 ms
ping_18 | 
ping_18 | --- speedtest.xsmedia.com ping statistics ---
ping_18 | 25 packets transmitted, 25 packets received, 0% packet loss
ping_18 | round-trip min/avg/max = 21.393/22.079/25.452 ms
ping_26 | 64 bytes from 199.66.198.2: seq=9 ttl=55 time=21.448 ms
ping_33 | 64 bytes from 199.66.198.2: seq=22 ttl=55 time=21.413 ms
ping_27 | 64 bytes from 199.66.198.2: seq=21 ttl=55 time=21.477 ms
softwareoverhead_ping_18 exited with code 0
ping_28 | 64 bytes from 199.66.198.2: seq=18 ttl=55 time=21.810 ms
ping_21 | 64 bytes from 199.66.198.2: seq=19 ttl=55 time=21.565 ms
ping_32 | 64 bytes from 199.66.198.2: seq=19 ttl=55 time=21.890 ms
ping_34 | 64 bytes from 199.66.198.2: seq=15 ttl=55 time=21.824 ms
ping_22 | 64 bytes from 199.66.198.2: seq=20 ttl=55 time=21.894 ms
ping_24 | 64 bytes from 199.66.198.2: seq=21 ttl=55 time=22.119 ms
ping_37 | 64 bytes from 199.66.198.2: seq=19 ttl=55 time=21.859 ms
ping_25 | 64 bytes from 199.66.198.2: seq=12 ttl=55 time=21.865 ms
ping_31 | 64 bytes from 199.66.198.2: seq=14 ttl=55 time=21.668 ms
ping_35 | 64 bytes from 199.66.198.2: seq=17 ttl=55 time=21.552 ms
ping_30 | 64 bytes from 199.66.198.2: seq=18 ttl=55 time=21.937 ms
ping_29 | 64 bytes from 199.66.198.2: seq=22 ttl=55 time=21.917 ms
ping_39 | 64 bytes from 199.66.198.2: seq=13 ttl=55 time=21.641 ms
ping_40 | 64 bytes from 199.66.198.2: seq=18 ttl=55 time=22.033 ms
ping_23 | 64 bytes from 199.66.198.2: seq=11 ttl=55 time=21.928 ms
ping_36 | 64 bytes from 199.66.198.2: seq=15 ttl=55 time=21.990 ms
ping_38 | 64 bytes from 199.66.198.2: seq=16 ttl=55 time=21.773 ms
ping_26 | 64 bytes from 199.66.198.2: seq=10 ttl=55 time=21.645 ms
ping_33 | 64 bytes from 199.66.198.2: seq=23 ttl=55 time=21.500 ms
ping_27 | 64 bytes from 199.66.198.2: seq=22 ttl=55 time=22.181 ms
ping_28 | 64 bytes from 199.66.198.2: seq=19 ttl=55 time=22.201 ms
ping_21 | 64 bytes from 199.66.198.2: seq=20 ttl=55 time=21.628 ms
ping_32 | 64 bytes from 199.66.198.2: seq=20 ttl=55 time=22.065 ms
ping_34 | 64 bytes from 199.66.198.2: seq=16 ttl=55 time=21.976 ms
ping_22 | 64 bytes from 199.66.198.2: seq=21 ttl=55 time=25.049 ms
ping_24 | 64 bytes from 199.66.198.2: seq=22 ttl=55 time=21.872 ms
ping_37 | 64 bytes from 199.66.198.2: seq=20 ttl=55 time=21.995 ms
ping_25 | 64 bytes from 199.66.198.2: seq=13 ttl=55 time=21.973 ms
ping_31 | 64 bytes from 199.66.198.2: seq=15 ttl=55 time=21.647 ms
ping_35 | 64 bytes from 199.66.198.2: seq=18 ttl=55 time=21.557 ms
ping_30 | 64 bytes from 199.66.198.2: seq=19 ttl=55 time=21.541 ms
ping_29 | 64 bytes from 199.66.198.2: seq=23 ttl=55 time=21.482 ms
ping_39 | 64 bytes from 199.66.198.2: seq=14 ttl=55 time=21.451 ms
ping_40 | 64 bytes from 199.66.198.2: seq=19 ttl=55 time=21.766 ms
ping_23 | 64 bytes from 199.66.198.2: seq=12 ttl=55 time=21.802 ms
ping_36 | 64 bytes from 199.66.198.2: seq=16 ttl=55 time=21.928 ms
ping_38 | 64 bytes from 199.66.198.2: seq=17 ttl=55 time=21.777 ms
ping_26 | 64 bytes from 199.66.198.2: seq=11 ttl=55 time=22.049 ms
ping_33 | 64 bytes from 199.66.198.2: seq=24 ttl=55 time=22.071 ms
ping_33 | 
ping_33 | --- speedtest.xsmedia.com ping statistics ---
ping_33 | 25 packets transmitted, 25 packets received, 0% packet loss
ping_33 | round-trip min/avg/max = 21.413/21.802/23.480 ms
ping_27 | 64 bytes from 199.66.198.2: seq=23 ttl=55 time=21.773 ms
ping_28 | 64 bytes from 199.66.198.2: seq=20 ttl=55 time=21.775 ms
ping_21 | 64 bytes from 199.66.198.2: seq=21 ttl=55 time=22.873 ms
softwareoverhead_ping_33 exited with code 0
ping_32 | 64 bytes from 199.66.198.2: seq=21 ttl=55 time=21.558 ms
ping_34 | 64 bytes from 199.66.198.2: seq=17 ttl=55 time=21.562 ms
ping_22 | 64 bytes from 199.66.198.2: seq=22 ttl=55 time=21.940 ms
ping_24 | 64 bytes from 199.66.198.2: seq=23 ttl=55 time=22.314 ms
ping_37 | 64 bytes from 199.66.198.2: seq=21 ttl=55 time=22.138 ms
ping_25 | 64 bytes from 199.66.198.2: seq=14 ttl=55 time=22.009 ms
ping_31 | 64 bytes from 199.66.198.2: seq=16 ttl=55 time=21.937 ms
ping_35 | 64 bytes from 199.66.198.2: seq=19 ttl=55 time=21.958 ms
ping_30 | 64 bytes from 199.66.198.2: seq=20 ttl=55 time=21.583 ms
ping_29 | 64 bytes from 199.66.198.2: seq=24 ttl=55 time=21.561 ms
ping_29 | 
ping_29 | --- speedtest.xsmedia.com ping statistics ---
ping_29 | 25 packets transmitted, 25 packets received, 0% packet loss
ping_29 | round-trip min/avg/max = 21.318/21.634/21.996 ms
ping_39 | 64 bytes from 199.66.198.2: seq=15 ttl=55 time=21.629 ms
ping_40 | 64 bytes from 199.66.198.2: seq=20 ttl=55 time=21.878 ms
ping_23 | 64 bytes from 199.66.198.2: seq=13 ttl=55 time=21.499 ms
ping_36 | 64 bytes from 199.66.198.2: seq=17 ttl=55 time=21.371 ms
ping_38 | 64 bytes from 199.66.198.2: seq=18 ttl=55 time=21.430 ms
ping_26 | 64 bytes from 199.66.198.2: seq=12 ttl=55 time=21.696 ms
softwareoverhead_ping_29 exited with code 0
ping_27 | 64 bytes from 199.66.198.2: seq=24 ttl=55 time=21.557 ms
ping_27 | 
ping_27 | --- speedtest.xsmedia.com ping statistics ---
ping_27 | 25 packets transmitted, 25 packets received, 0% packet loss
ping_27 | round-trip min/avg/max = 21.413/21.737/22.181 ms
ping_28 | 64 bytes from 199.66.198.2: seq=21 ttl=55 time=21.861 ms
ping_21 | 64 bytes from 199.66.198.2: seq=22 ttl=55 time=21.663 ms
ping_32 | 64 bytes from 199.66.198.2: seq=22 ttl=55 time=21.624 ms
ping_34 | 64 bytes from 199.66.198.2: seq=18 ttl=55 time=21.622 ms
ping_22 | 64 bytes from 199.66.198.2: seq=23 ttl=55 time=21.571 ms
softwareoverhead_ping_27 exited with code 0
ping_24 | 64 bytes from 199.66.198.2: seq=24 ttl=55 time=21.821 ms
ping_24 | 
ping_24 | --- speedtest.xsmedia.com ping statistics ---
ping_24 | 25 packets transmitted, 25 packets received, 0% packet loss
ping_24 | round-trip min/avg/max = 21.379/22.440/35.276 ms
ping_37 | 64 bytes from 199.66.198.2: seq=22 ttl=55 time=21.937 ms
ping_25 | 64 bytes from 199.66.198.2: seq=15 ttl=55 time=21.919 ms
ping_31 | 64 bytes from 199.66.198.2: seq=17 ttl=55 time=21.453 ms
ping_35 | 64 bytes from 199.66.198.2: seq=20 ttl=55 time=21.393 ms
ping_30 | 64 bytes from 199.66.198.2: seq=21 ttl=55 time=21.414 ms
ping_39 | 64 bytes from 199.66.198.2: seq=16 ttl=55 time=21.468 ms
ping_40 | 64 bytes from 199.66.198.2: seq=21 ttl=55 time=21.455 ms
ping_23 | 64 bytes from 199.66.198.2: seq=14 ttl=55 time=21.586 ms
ping_36 | 64 bytes from 199.66.198.2: seq=18 ttl=55 time=21.553 ms
ping_38 | 64 bytes from 199.66.198.2: seq=19 ttl=55 time=21.595 ms
ping_26 | 64 bytes from 199.66.198.2: seq=13 ttl=55 time=21.474 ms
softwareoverhead_ping_24 exited with code 0
ping_28 | 64 bytes from 199.66.198.2: seq=22 ttl=55 time=22.007 ms
ping_21 | 64 bytes from 199.66.198.2: seq=23 ttl=55 time=21.912 ms
ping_32 | 64 bytes from 199.66.198.2: seq=23 ttl=55 time=22.068 ms
ping_34 | 64 bytes from 199.66.198.2: seq=19 ttl=55 time=22.170 ms
ping_22 | 64 bytes from 199.66.198.2: seq=24 ttl=55 time=25.268 ms
ping_22 | 
ping_22 | --- speedtest.xsmedia.com ping statistics ---
ping_22 | 25 packets transmitted, 25 packets received, 0% packet loss
ping_22 | round-trip min/avg/max = 21.421/22.877/26.226 ms
ping_37 | 64 bytes from 199.66.198.2: seq=23 ttl=55 time=21.474 ms
ping_25 | 64 bytes from 199.66.198.2: seq=16 ttl=55 time=21.447 ms
ping_31 | 64 bytes from 199.66.198.2: seq=18 ttl=55 time=21.543 ms
ping_35 | 64 bytes from 199.66.198.2: seq=21 ttl=55 time=21.811 ms
ping_30 | 64 bytes from 199.66.198.2: seq=22 ttl=55 time=21.681 ms
ping_39 | 64 bytes from 199.66.198.2: seq=17 ttl=55 time=21.575 ms
ping_40 | 64 bytes from 199.66.198.2: seq=22 ttl=55 time=21.913 ms
ping_23 | 64 bytes from 199.66.198.2: seq=15 ttl=55 time=21.457 ms
ping_36 | 64 bytes from 199.66.198.2: seq=19 ttl=55 time=21.636 ms
ping_38 | 64 bytes from 199.66.198.2: seq=20 ttl=55 time=21.627 ms
ping_26 | 64 bytes from 199.66.198.2: seq=14 ttl=55 time=21.599 ms
softwareoverhead_ping_22 exited with code 0
ping_28 | 64 bytes from 199.66.198.2: seq=23 ttl=55 time=22.203 ms
ping_21 | 64 bytes from 199.66.198.2: seq=24 ttl=55 time=21.871 ms
ping_21 | 
ping_21 | --- speedtest.xsmedia.com ping statistics ---
ping_21 | 25 packets transmitted, 25 packets received, 0% packet loss
ping_21 | round-trip min/avg/max = 21.426/21.745/22.956 ms
ping_32 | 64 bytes from 199.66.198.2: seq=24 ttl=55 time=21.653 ms
ping_32 | 
ping_32 | --- speedtest.xsmedia.com ping statistics ---
ping_32 | 25 packets transmitted, 25 packets received, 0% packet loss
ping_32 | round-trip min/avg/max = 21.466/21.735/22.068 ms
ping_34 | 64 bytes from 199.66.198.2: seq=20 ttl=55 time=21.415 ms
ping_37 | 64 bytes from 199.66.198.2: seq=24 ttl=55 time=21.569 ms
ping_37 | 
ping_37 | --- speedtest.xsmedia.com ping statistics ---
ping_37 | 25 packets transmitted, 25 packets received, 0% packet loss
ping_37 | round-trip min/avg/max = 21.416/21.750/22.208 ms
ping_25 | 64 bytes from 199.66.198.2: seq=17 ttl=55 time=21.551 ms
ping_31 | 64 bytes from 199.66.198.2: seq=19 ttl=55 time=21.536 ms
ping_35 | 64 bytes from 199.66.198.2: seq=22 ttl=55 time=21.438 ms
ping_30 | 64 bytes from 199.66.198.2: seq=23 ttl=55 time=21.592 ms
ping_39 | 64 bytes from 199.66.198.2: seq=18 ttl=55 time=21.534 ms
ping_40 | 64 bytes from 199.66.198.2: seq=23 ttl=55 time=21.491 ms
softwareoverhead_ping_21 exited with code 0
ping_23 | 64 bytes from 199.66.198.2: seq=16 ttl=55 time=21.870 ms
ping_36 | 64 bytes from 199.66.198.2: seq=20 ttl=55 time=21.510 ms
ping_38 | 64 bytes from 199.66.198.2: seq=21 ttl=55 time=21.366 ms
softwareoverhead_ping_32 exited with code 0
ping_26 | 64 bytes from 199.66.198.2: seq=15 ttl=55 time=21.609 ms
softwareoverhead_ping_37 exited with code 0
ping_28 | 64 bytes from 199.66.198.2: seq=24 ttl=55 time=21.605 ms
ping_28 | 
ping_28 | --- speedtest.xsmedia.com ping statistics ---
ping_28 | 25 packets transmitted, 25 packets received, 0% packet loss
ping_28 | round-trip min/avg/max = 21.481/21.844/22.551 ms
ping_34 | 64 bytes from 199.66.198.2: seq=21 ttl=55 time=21.430 ms
ping_25 | 64 bytes from 199.66.198.2: seq=18 ttl=55 time=21.498 ms
softwareoverhead_ping_28 exited with code 0
ping_31 | 64 bytes from 199.66.198.2: seq=20 ttl=55 time=21.579 ms
ping_35 | 64 bytes from 199.66.198.2: seq=23 ttl=55 time=21.713 ms
ping_30 | 64 bytes from 199.66.198.2: seq=24 ttl=55 time=22.240 ms
ping_30 | 
ping_30 | --- speedtest.xsmedia.com ping statistics ---
ping_30 | 25 packets transmitted, 25 packets received, 0% packet loss
ping_30 | round-trip min/avg/max = 21.373/21.709/22.240 ms
ping_39 | 64 bytes from 199.66.198.2: seq=19 ttl=55 time=21.699 ms
ping_40 | 64 bytes from 199.66.198.2: seq=24 ttl=55 time=21.948 ms
ping_40 | 
ping_40 | --- speedtest.xsmedia.com ping statistics ---
ping_40 | 25 packets transmitted, 25 packets received, 0% packet loss
ping_40 | round-trip min/avg/max = 21.398/21.824/24.152 ms
ping_23 | 64 bytes from 199.66.198.2: seq=17 ttl=55 time=21.431 ms
ping_36 | 64 bytes from 199.66.198.2: seq=21 ttl=55 time=21.418 ms
ping_38 | 64 bytes from 199.66.198.2: seq=22 ttl=55 time=21.444 ms
ping_26 | 64 bytes from 199.66.198.2: seq=16 ttl=55 time=21.993 ms
softwareoverhead_ping_30 exited with code 0
softwareoverhead_ping_40 exited with code 0
ping_34 | 64 bytes from 199.66.198.2: seq=22 ttl=55 time=21.590 ms
ping_25 | 64 bytes from 199.66.198.2: seq=19 ttl=55 time=21.888 ms
ping_31 | 64 bytes from 199.66.198.2: seq=21 ttl=55 time=21.942 ms
ping_35 | 64 bytes from 199.66.198.2: seq=24 ttl=55 time=22.079 ms
ping_35 | 
ping_35 | --- speedtest.xsmedia.com ping statistics ---
ping_35 | 25 packets transmitted, 25 packets received, 0% packet loss
ping_35 | round-trip min/avg/max = 21.393/21.784/22.513 ms
ping_39 | 64 bytes from 199.66.198.2: seq=20 ttl=55 time=22.000 ms
ping_23 | 64 bytes from 199.66.198.2: seq=18 ttl=55 time=21.439 ms
ping_36 | 64 bytes from 199.66.198.2: seq=22 ttl=55 time=21.467 ms
ping_38 | 64 bytes from 199.66.198.2: seq=23 ttl=55 time=21.378 ms
ping_26 | 64 bytes from 199.66.198.2: seq=17 ttl=55 time=21.658 ms
softwareoverhead_ping_35 exited with code 0
ping_34 | 64 bytes from 199.66.198.2: seq=23 ttl=55 time=21.877 ms
ping_25 | 64 bytes from 199.66.198.2: seq=20 ttl=55 time=22.058 ms
ping_31 | 64 bytes from 199.66.198.2: seq=22 ttl=55 time=22.238 ms
ping_39 | 64 bytes from 199.66.198.2: seq=21 ttl=55 time=22.085 ms
ping_23 | 64 bytes from 199.66.198.2: seq=19 ttl=55 time=22.198 ms
ping_36 | 64 bytes from 199.66.198.2: seq=23 ttl=55 time=21.952 ms
ping_38 | 64 bytes from 199.66.198.2: seq=24 ttl=55 time=21.659 ms
ping_38 | 
ping_38 | --- speedtest.xsmedia.com ping statistics ---
ping_38 | 25 packets transmitted, 25 packets received, 0% packet loss
ping_38 | round-trip min/avg/max = 21.366/21.627/22.032 ms
ping_26 | 64 bytes from 199.66.198.2: seq=18 ttl=55 time=21.617 ms
softwareoverhead_ping_38 exited with code 0
ping_34 | 64 bytes from 199.66.198.2: seq=24 ttl=55 time=22.382 ms
ping_34 | 
ping_34 | --- speedtest.xsmedia.com ping statistics ---
ping_34 | 25 packets transmitted, 25 packets received, 0% packet loss
ping_34 | round-trip min/avg/max = 21.415/21.774/22.393 ms
ping_25 | 64 bytes from 199.66.198.2: seq=21 ttl=55 time=21.595 ms
ping_31 | 64 bytes from 199.66.198.2: seq=23 ttl=55 time=21.659 ms
ping_39 | 64 bytes from 199.66.198.2: seq=22 ttl=55 time=22.875 ms
softwareoverhead_ping_34 exited with code 0
ping_23 | 64 bytes from 199.66.198.2: seq=20 ttl=55 time=21.734 ms
ping_36 | 64 bytes from 199.66.198.2: seq=24 ttl=55 time=21.818 ms
ping_36 | 
ping_36 | --- speedtest.xsmedia.com ping statistics ---
ping_36 | 25 packets transmitted, 25 packets received, 0% packet loss
ping_36 | round-trip min/avg/max = 21.371/21.671/22.023 ms
ping_26 | 64 bytes from 199.66.198.2: seq=19 ttl=55 time=21.632 ms
softwareoverhead_ping_36 exited with code 0
ping_25 | 64 bytes from 199.66.198.2: seq=22 ttl=55 time=21.890 ms
ping_31 | 64 bytes from 199.66.198.2: seq=24 ttl=55 time=21.956 ms
ping_31 | 
ping_31 | --- speedtest.xsmedia.com ping statistics ---
ping_31 | 25 packets transmitted, 25 packets received, 0% packet loss
ping_31 | round-trip min/avg/max = 21.453/22.058/29.833 ms
ping_39 | 64 bytes from 199.66.198.2: seq=23 ttl=55 time=22.003 ms
ping_23 | 64 bytes from 199.66.198.2: seq=21 ttl=55 time=21.472 ms
ping_26 | 64 bytes from 199.66.198.2: seq=20 ttl=55 time=21.515 ms
softwareoverhead_ping_31 exited with code 0
ping_25 | 64 bytes from 199.66.198.2: seq=23 ttl=55 time=22.042 ms
ping_39 | 64 bytes from 199.66.198.2: seq=24 ttl=55 time=21.832 ms
ping_39 | 
ping_39 | --- speedtest.xsmedia.com ping statistics ---
ping_39 | 25 packets transmitted, 25 packets received, 0% packet loss
ping_39 | round-trip min/avg/max = 21.451/21.798/22.979 ms
ping_23 | 64 bytes from 199.66.198.2: seq=22 ttl=55 time=21.410 ms
ping_26 | 64 bytes from 199.66.198.2: seq=21 ttl=55 time=21.828 ms
softwareoverhead_ping_39 exited with code 0
ping_25 | 64 bytes from 199.66.198.2: seq=24 ttl=55 time=21.948 ms
ping_25 | 
ping_25 | --- speedtest.xsmedia.com ping statistics ---
ping_25 | 25 packets transmitted, 25 packets received, 0% packet loss
ping_25 | round-trip min/avg/max = 21.414/21.766/22.058 ms
ping_23 | 64 bytes from 199.66.198.2: seq=23 ttl=55 time=21.868 ms
ping_26 | 64 bytes from 199.66.198.2: seq=22 ttl=55 time=21.601 ms
softwareoverhead_ping_25 exited with code 0
ping_23 | 64 bytes from 199.66.198.2: seq=24 ttl=55 time=21.978 ms
ping_23 | 
ping_23 | --- speedtest.xsmedia.com ping statistics ---
ping_23 | 25 packets transmitted, 25 packets received, 0% packet loss
ping_23 | round-trip min/avg/max = 21.397/21.670/22.198 ms
ping_26 | 64 bytes from 199.66.198.2: seq=23 ttl=55 time=21.532 ms
softwareoverhead_ping_23 exited with code 0
ping_26 | 64 bytes from 199.66.198.2: seq=24 ttl=55 time=22.033 ms
ping_26 | 
ping_26 | --- speedtest.xsmedia.com ping statistics ---
ping_26 | 25 packets transmitted, 25 packets received, 0% packet loss
ping_26 | round-trip min/avg/max = 21.400/21.628/22.049 ms
softwareoverhead_ping_26 exited with code 0
