ping_15 | 10 packets transmitted, 10 packets received, 0% packet loss
ping_11 | 10 packets transmitted, 10 packets received, 0% packet loss
ping_39 | 10 packets transmitted, 10 packets received, 0% packet loss
ping_28 | 10 packets transmitted, 10 packets received, 0% packet loss
ping_27 | 10 packets transmitted, 6 packets received, 40% packet loss
ping_6  | 10 packets transmitted, 6 packets received, 40% packet loss
ping_22 | 10 packets transmitted, 9 packets received, 10% packet loss
ping_32 | 10 packets transmitted, 10 packets received, 0% packet loss
ping_10 | 10 packets transmitted, 2 packets received, 80% packet loss
ping_30 | 10 packets transmitted, 1 packets received, 90% packet loss
ping_1  | 10 packets transmitted, 10 packets received, 0% packet loss
ping_23 | 10 packets transmitted, 5 packets received, 50% packet loss
ping_35 | 10 packets transmitted, 10 packets received, 0% packet loss
ping_21 | 10 packets transmitted, 10 packets received, 0% packet loss
ping_36 | 10 packets transmitted, 10 packets received, 0% packet loss
ping_7  | 10 packets transmitted, 10 packets received, 0% packet loss
ping_12 | 10 packets transmitted, 9 packets received, 10% packet loss
ping_29 | 10 packets transmitted, 4 packets received, 60% packet loss
ping_18 | 10 packets transmitted, 2 packets received, 80% packet loss
ping_19 | 10 packets transmitted, 10 packets received, 0% packet loss
ping_20 | 10 packets transmitted, 10 packets received, 0% packet loss
ping_25 | 10 packets transmitted, 9 packets received, 10% packet loss
ping_2  | 10 packets transmitted, 7 packets received, 30% packet loss
ping_33 | 10 packets transmitted, 8 packets received, 20% packet loss
ping_34 | 10 packets transmitted, 4 packets received, 60% packet loss
ping_17 | 10 packets transmitted, 10 packets received, 0% packet loss
ping_40 | 10 packets transmitted, 10 packets received, 0% packet loss
ping_5  | 10 packets transmitted, 7 packets received, 30% packet loss
ping_8  | 10 packets transmitted, 5 packets received, 50% packet loss
ping_9  | 10 packets transmitted, 5 packets received, 50% packet loss
ping_24 | 10 packets transmitted, 5 packets received, 50% packet loss
ping_26 | 10 packets transmitted, 10 packets received, 0% packet loss
ping_14 | 10 packets transmitted, 8 packets received, 20% packet loss
ping_16 | 10 packets transmitted, 9 packets received, 10% packet loss
ping_4  | 10 packets transmitted, 10 packets received, 0% packet loss
ping_13 | 10 packets transmitted, 10 packets received, 0% packet loss
ping_3  | 10 packets transmitted, 10 packets received, 0% packet loss
ping_37 | 10 packets transmitted, 10 packets received, 0% packet loss
ping_31 | 10 packets transmitted, 9 packets received, 10% packet loss
ping_38 | 10 packets transmitted, 8 packets received, 20% packet loss
ping_54 | 10 packets transmitted, 10 packets received, 0% packet loss
ping_66 | 10 packets transmitted, 9 packets received, 10% packet loss
ping_82 | 10 packets transmitted, 10 packets received, 0% packet loss
ping_76 | 10 packets transmitted, 10 packets received, 0% packet loss
ping_57 | 10 packets transmitted, 10 packets received, 0% packet loss
ping_60 | 10 packets transmitted, 10 packets received, 0% packet loss
ping_46 | 10 packets transmitted, 4 packets received, 60% packet loss
ping_44 | 10 packets transmitted, 10 packets received, 0% packet loss
ping_99 | 10 packets transmitted, 7 packets received, 30% packet loss
ping_98 | 10 packets transmitted, 9 packets received, 10% packet loss
ping_67 | 10 packets transmitted, 10 packets received, 0% packet loss
ping_88 | 10 packets transmitted, 9 packets received, 10% packet loss
ping_58 | 10 packets transmitted, 4 packets received, 60% packet loss
ping_69 | 10 packets transmitted, 1 packets received, 90% packet loss
ping_86 | 10 packets transmitted, 10 packets received, 0% packet loss
ping_91 | 10 packets transmitted, 10 packets received, 0% packet loss
ping_81 | 10 packets transmitted, 10 packets received, 0% packet loss
ping_56 | 10 packets transmitted, 10 packets received, 0% packet loss
ping_93 | 10 packets transmitted, 6 packets received, 40% packet loss
ping_89 | 10 packets transmitted, 1 packets received, 90% packet loss
ping_50 | 10 packets transmitted, 10 packets received, 0% packet loss
ping_70 | 10 packets transmitted, 8 packets received, 20% packet loss
ping_95 | 10 packets transmitted, 8 packets received, 20% packet loss
ping_97 | 10 packets transmitted, 6 packets received, 40% packet loss
ping_87 | 10 packets transmitted, 8 packets received, 20% packet loss
ping_100 | 10 packets transmitted, 10 packets received, 0% packet loss
ping_83 | 10 packets transmitted, 1 packets received, 90% packet loss
ping_77 | 10 packets transmitted, 5 packets received, 50% packet loss
ping_55 | 10 packets transmitted, 9 packets received, 10% packet loss
ping_64 | 10 packets transmitted, 10 packets received, 0% packet loss
ping_85 | 10 packets transmitted, 10 packets received, 0% packet loss
ping_49 | 10 packets transmitted, 7 packets received, 30% packet loss
ping_78 | 10 packets transmitted, 8 packets received, 20% packet loss
ping_90 | 10 packets transmitted, 9 packets received, 10% packet loss
ping_47 | 10 packets transmitted, 10 packets received, 0% packet loss
ping_80 | 10 packets transmitted, 10 packets received, 0% packet loss
ping_71 | 10 packets transmitted, 10 packets received, 0% packet loss
ping_74 | 10 packets transmitted, 2 packets received, 80% packet loss
ping_53 | 10 packets transmitted, 10 packets received, 0% packet loss
ping_84 | 10 packets transmitted, 0 packets received, 100% packet loss
ping_73 | 10 packets transmitted, 10 packets received, 0% packet loss
ping_63 | 10 packets transmitted, 5 packets received, 50% packet loss
ping_45 | 10 packets transmitted, 10 packets received, 0% packet loss
ping_96 | 10 packets transmitted, 1 packets received, 90% packet loss
ping_59 | 10 packets transmitted, 8 packets received, 20% packet loss
ping_79 | 10 packets transmitted, 10 packets received, 0% packet loss
ping_52 | 10 packets transmitted, 10 packets received, 0% packet loss
ping_65 | 10 packets transmitted, 0 packets received, 100% packet loss
ping_94 | 10 packets transmitted, 9 packets received, 10% packet loss
ping_72 | 10 packets transmitted, 10 packets received, 0% packet loss
ping_41 | 10 packets transmitted, 10 packets received, 0% packet loss
ping_42 | 10 packets transmitted, 7 packets received, 30% packet loss
ping_51 | 10 packets transmitted, 0 packets received, 100% packet loss
ping_43 | 10 packets transmitted, 7 packets received, 30% packet loss
ping_92 | 10 packets transmitted, 6 packets received, 40% packet loss
ping_48 | 10 packets transmitted, 5 packets received, 50% packet loss
ping_62 | 10 packets transmitted, 6 packets received, 40% packet loss
ping_61 | 10 packets transmitted, 1 packets received, 90% packet loss
ping_68 | 10 packets transmitted, 0 packets received, 100% packet loss
ping_75 | 10 packets transmitted, 1 packets received, 90% packet loss
