ping_15 | round-trip min/avg/max = 119.227/119.493/119.851 ms
ping_28 | round-trip min/avg/max = 119.200/119.500/119.970 ms
ping_26 | round-trip min/avg/max = 119.163/119.478/119.752 ms
ping_16 | round-trip min/avg/max = 119.180/119.569/120.260 ms
ping_14 | round-trip min/avg/max = 119.171/119.823/123.026 ms
ping_21 | round-trip min/avg/max = 119.167/119.369/119.842 ms
ping_1  | round-trip min/avg/max = 119.216/119.400/119.642 ms
ping_25 | round-trip min/avg/max = 119.170/119.499/120.438 ms
ping_29 | round-trip min/avg/max = 119.145/119.378/120.150 ms
ping_12 | round-trip min/avg/max = 119.234/119.696/121.316 ms
ping_40 | round-trip min/avg/max = 119.237/119.475/119.775 ms
ping_4  | round-trip min/avg/max = 119.116/119.389/119.730 ms
ping_8  | round-trip min/avg/max = 119.192/119.448/119.668 ms
ping_2  | round-trip min/avg/max = 119.141/119.262/119.404 ms
ping_33 | round-trip min/avg/max = 119.189/119.386/119.562 ms
ping_37 | round-trip min/avg/max = 119.223/119.416/119.661 ms
ping_9  | round-trip min/avg/max = 119.158/119.382/119.614 ms
ping_34 | round-trip min/avg/max = 119.116/119.396/119.786 ms
ping_18 | round-trip min/avg/max = 119.206/119.734/122.958 ms
ping_3  | round-trip min/avg/max = 119.274/119.396/119.660 ms
ping_19 | round-trip min/avg/max = 119.192/119.375/119.699 ms
ping_20 | round-trip min/avg/max = 119.235/119.363/119.784 ms
ping_5  | round-trip min/avg/max = 119.077/119.255/119.497 ms
ping_22 | round-trip min/avg/max = 119.086/119.296/119.583 ms
ping_38 | round-trip min/avg/max = 119.202/119.437/120.189 ms
ping_11 | round-trip min/avg/max = 119.126/119.328/119.778 ms
ping_23 | round-trip min/avg/max = 119.176/119.504/119.797 ms
ping_36 | round-trip min/avg/max = 119.138/119.343/119.806 ms
ping_7  | round-trip min/avg/max = 119.226/119.384/119.652 ms
ping_27 | round-trip min/avg/max = 119.162/119.373/119.782 ms
ping_17 | round-trip min/avg/max = 119.220/119.405/119.715 ms
ping_13 | round-trip min/avg/max = 119.110/119.341/119.830 ms
ping_10 | round-trip min/avg/max = 119.231/119.526/120.487 ms
ping_31 | round-trip min/avg/max = 119.249/119.461/120.199 ms
ping_6  | round-trip min/avg/max = 119.206/119.262/119.339 ms
ping_30 | round-trip min/avg/max = 119.210/119.657/121.989 ms
ping_32 | round-trip min/avg/max = 119.122/119.320/119.810 ms
ping_94 | round-trip min/avg/max = 119.202/119.688/122.729 ms
ping_35 | round-trip min/avg/max = 119.195/119.327/119.670 ms
ping_39 | round-trip min/avg/max = 119.144/119.382/120.048 ms
ping_24 | round-trip min/avg/max = 119.123/120.598/127.272 ms
ping_42 | round-trip min/avg/max = 119.145/119.434/119.795 ms
ping_43 | round-trip min/avg/max = 119.204/120.147/126.741 ms
ping_45 | round-trip min/avg/max = 119.206/119.360/119.553 ms
ping_89 | round-trip min/avg/max = 119.163/119.374/119.681 ms
ping_79 | round-trip min/avg/max = 119.097/120.107/125.862 ms
ping_58 | round-trip min/avg/max = 119.217/119.434/119.833 ms
ping_60 | round-trip min/avg/max = 119.161/119.300/119.482 ms
ping_61 | round-trip min/avg/max = 119.252/119.391/119.732 ms
ping_72 | round-trip min/avg/max = 119.202/119.449/119.714 ms
ping_96 | round-trip min/avg/max = 119.142/119.301/119.586 ms
ping_62 | round-trip min/avg/max = 119.180/119.321/119.667 ms
ping_81 | round-trip min/avg/max = 119.237/119.338/119.467 ms
ping_100 | round-trip min/avg/max = 119.227/119.512/120.107 ms
ping_95 | round-trip min/avg/max = 119.103/119.411/120.183 ms
ping_52 | round-trip min/avg/max = 119.192/119.670/122.693 ms
ping_64 | round-trip min/avg/max = 119.186/119.462/120.661 ms
ping_50 | round-trip min/avg/max = 119.172/119.300/119.499 ms
ping_59 | round-trip min/avg/max = 119.123/119.534/121.638 ms
ping_99 | round-trip min/avg/max = 119.239/119.362/119.655 ms
ping_87 | round-trip min/avg/max = 119.158/119.386/119.705 ms
ping_77 | round-trip min/avg/max = 119.123/119.838/122.768 ms
ping_98 | round-trip min/avg/max = 119.226/119.702/122.061 ms
ping_93 | round-trip min/avg/max = 119.119/119.393/119.895 ms
ping_91 | round-trip min/avg/max = 119.155/119.354/119.615 ms
ping_66 | round-trip min/avg/max = 119.269/119.399/119.543 ms
ping_54 | round-trip min/avg/max = 119.205/119.555/120.490 ms
ping_51 | round-trip min/avg/max = 119.105/119.286/119.619 ms
ping_69 | round-trip min/avg/max = 119.141/119.326/119.501 ms
ping_85 | round-trip min/avg/max = 119.135/119.403/120.382 ms
ping_46 | round-trip min/avg/max = 119.175/119.475/119.860 ms
ping_88 | round-trip min/avg/max = 119.084/120.489/131.334 ms
ping_90 | round-trip min/avg/max = 119.140/119.492/120.834 ms
ping_78 | round-trip min/avg/max = 119.191/119.359/119.624 ms
ping_48 | round-trip min/avg/max = 119.201/119.430/119.805 ms
ping_68 | round-trip min/avg/max = 119.196/119.293/119.425 ms
ping_86 | round-trip min/avg/max = 119.120/119.322/119.745 ms
ping_47 | round-trip min/avg/max = 119.144/119.364/119.907 ms
ping_74 | round-trip min/avg/max = 119.262/119.454/119.853 ms
ping_76 | round-trip min/avg/max = 119.207/119.288/119.689 ms
ping_70 | round-trip min/avg/max = 119.133/119.367/119.759 ms
ping_97 | round-trip min/avg/max = 119.111/119.322/119.519 ms
ping_82 | round-trip min/avg/max = 119.154/119.307/119.420 ms
ping_80 | round-trip min/avg/max = 119.223/119.356/119.642 ms
ping_65 | round-trip min/avg/max = 119.164/119.242/119.359 ms
ping_53 | round-trip min/avg/max = 119.113/119.357/119.591 ms
ping_63 | round-trip min/avg/max = 119.127/119.342/119.512 ms
ping_73 | round-trip min/avg/max = 119.084/119.396/119.737 ms
ping_84 | round-trip min/avg/max = 119.116/119.356/119.851 ms
ping_41 | round-trip min/avg/max = 119.141/119.363/119.584 ms
ping_92 | round-trip min/avg/max = 119.138/119.414/119.823 ms
ping_44 | round-trip min/avg/max = 119.184/119.394/119.839 ms
ping_71 | round-trip min/avg/max = 119.213/119.504/119.790 ms
ping_67 | round-trip min/avg/max = 119.119/119.400/119.788 ms
ping_55 | round-trip min/avg/max = 119.164/119.450/119.804 ms
ping_56 | round-trip min/avg/max = 119.132/119.548/119.935 ms
ping_49 | round-trip min/avg/max = 119.277/119.418/119.805 ms
ping_75 | round-trip min/avg/max = 119.126/119.386/119.765 ms
ping_83 | round-trip min/avg/max = 119.195/119.576/119.997 ms
ping_57 | round-trip min/avg/max = 119.151/119.509/119.748 ms
