     1	 95.9 
     2	 97.2 
     3	 79.5 
     4	 96.7 
     5	 41.9 
     6	 83.9 
     7	 91.6 
     8	 92.2 
     9	 96.2 
    10	 96.2 
    11	 99.4 
    12	 99.1 
    13	 99.5 
    14	 99.3 
    15	 99.5 
    16	 99.1 
    17	 99.3 
    18	 99.8 
    19	 99.6 
    20	 99.4 
    21	 99.6 
    22	 99.5 
    23	 99.5 
    24	 99.4 
    25	 99.4 
    26	 99.5 
    27	 99.3 
    28	 99.4 
    29	 99.5 
    30	 99.5 
    31	 99.5 
    32	 99.8 
    33	 99.4 
    34	 98.3 
    35	 97.8 
    36	 99.3 
    37	 99.4 
    38	 99.5 
    39	 99.4 
    40	 99.4 
    41	 99.3 
    42	 99.5 
    43	 99.1 
    44	 99.5 
    45	 99.4 
    46	 99.5 
    47	 99.6 
    48	 99.3 
    49	 99.4 
    50	 99.1 
    51	 99.4 
    52	 99.4 
    53	 99.5 
    54	 99.6 
    55	 99.4 
    56	 99.5 
    57	 99.9 
    58	 99.6 
    59	 99.4 
    60	 99.6 
    61	 99.6 
    62	 99.5 
    63	 99.4 
    64	 99.4 
    65	 99.4 
    66	 99.6 
    67	 99.4 
    68	 99.8 
    69	 99.4 
    70	 99.5 
    71	 99.4 
    72	 99.4 
    73	 99.4 
    74	 99.5 
    75	 99.3 
    76	 99.6 
    77	 99.6 
    78	 99.1 
    79	 99.1 
    80	 99.3 
    81	 99.6 
    82	 99.4 
    83	 99.4 
    84	 99.5 
    85	 99.1 
    86	 99.4 
    87	 99.5 
    88	 99.5 
    89	 99.6 
    90	 99.6 
    91	 99.4 
    92	 99.5 
    93	 99.5 
    94	 99.3 
    95	 99.5 
    96	 99.5 
    97	 99.5 
    98	 99.8 
    99	 99.1 
   100	 99.8 
   101	 98.9 
   102	 92.5 
   103	 96.4 
   104	 86.4 
   105	 84.6 
