     1	289 
     2	289 
     3	289 
     4	288 
     5	288 
     6	288 
     7	288 
     8	288 
     9	288 
    10	288 
    11	288 
    12	288 
    13	288 
    14	291 
    15	291 
    16	291 
    17	291 
    18	291 
    19	291 
    20	291 
    21	291 
    22	291 
    23	291 
    24	291 
    25	291 
    26	291 
    27	291 
    28	291 
    29	291 
    30	291 
    31	291 
    32	291 
    33	291 
    34	291 
    35	291 
    36	291 
    37	291 
    38	291 
    39	291 
    40	291 
    41	291 
    42	291 
    43	291 
    44	291 
    45	291 
    46	291 
    47	291 
    48	291 
    49	291 
    50	291 
    51	291 
    52	291 
    53	291 
    54	291 
    55	291 
    56	291 
    57	291 
    58	291 
    59	291 
    60	291 
    61	291 
    62	291 
    63	291 
    64	291 
    65	291 
    66	291 
    67	291 
    68	291 
    69	291 
    70	291 
    71	291 
    72	291 
    73	291 
    74	291 
    75	291 
    76	291 
    77	291 
    78	291 
    79	290 
    80	290 
    81	290 
    82	290 
    83	290 
    84	290 
    85	290 
    86	290 
    87	290 
    88	290 
    89	290 
    90	290 
    91	290 
    92	290 
    93	290 
    94	290 
    95	290 
    96	290 
    97	290 
    98	290 
