PING 128.223.32.36 (128.223.32.36) 56(84) bytes of data.
64 bytes from 128.223.32.36: icmp_seq=1 ttl=63 time=0.293 ms
PING 128.223.32.36 (128.223.32.36) 56(84) bytes of data.
64 bytes from 128.223.32.36: icmp_seq=1 ttl=63 time=0.336 ms
PING 128.223.32.36 (128.223.32.36) 56(84) bytes of data.
64 bytes from 128.223.32.36: icmp_seq=1 ttl=63 time=0.284 ms
PING 128.223.32.36 (128.223.32.36) 56(84) bytes of data.
64 bytes from 128.223.32.36: icmp_seq=1 ttl=63 time=0.393 ms
PING 128.223.32.36 (128.223.32.36) 56(84) bytes of data.
64 bytes from 128.223.32.36: icmp_seq=1 ttl=63 time=0.336 ms
64 bytes from 128.223.32.36: icmp_seq=2 ttl=63 time=0.696 ms
PING 128.223.32.36 (128.223.32.36) 56(84) bytes of data.
64 bytes from 128.223.32.36: icmp_seq=2 ttl=63 time=0.646 ms
PING 128.223.32.36 (128.223.32.36) 56(84) bytes of data.
64 bytes from 128.223.32.36: icmp_seq=2 ttl=63 time=0.665 ms
PING 128.223.32.36 (128.223.32.36) 56(84) bytes of data.
64 bytes from 128.223.32.36: icmp_seq=2 ttl=63 time=0.669 ms
PING 128.223.32.36 (128.223.32.36) 56(84) bytes of data.
64 bytes from 128.223.32.36: icmp_seq=2 ttl=63 time=0.527 ms
64 bytes from 128.223.32.36: icmp_seq=3 ttl=63 time=0.780 ms
64 bytes from 128.223.32.36: icmp_seq=3 ttl=63 time=0.795 ms
PING 128.223.32.36 (128.223.32.36) 56(84) bytes of data.
64 bytes from 128.223.32.36: icmp_seq=3 ttl=63 time=0.805 ms
PING 128.223.32.36 (128.223.32.36) 56(84) bytes of data.
64 bytes from 128.223.32.36: icmp_seq=3 ttl=63 time=0.683 ms
PING 128.223.32.36 (128.223.32.36) 56(84) bytes of data.
64 bytes from 128.223.32.36: icmp_seq=3 ttl=63 time=0.769 ms
64 bytes from 128.223.32.36: icmp_seq=4 ttl=63 time=0.483 ms
64 bytes from 128.223.32.36: icmp_seq=4 ttl=63 time=0.341 ms
64 bytes from 128.223.32.36: icmp_seq=4 ttl=63 time=0.508 ms
64 bytes from 128.223.32.36: icmp_seq=4 ttl=63 time=0.564 ms
64 bytes from 128.223.32.36: icmp_seq=4 ttl=63 time=0.541 ms
64 bytes from 128.223.32.36: icmp_seq=5 ttl=63 time=0.557 ms
64 bytes from 128.223.32.36: icmp_seq=5 ttl=63 time=0.583 ms
64 bytes from 128.223.32.36: icmp_seq=5 ttl=63 time=0.575 ms
64 bytes from 128.223.32.36: icmp_seq=5 ttl=63 time=0.602 ms
64 bytes from 128.223.32.36: icmp_seq=5 ttl=63 time=0.523 ms
64 bytes from 128.223.32.36: icmp_seq=6 ttl=63 time=0.621 ms
64 bytes from 128.223.32.36: icmp_seq=6 ttl=63 time=0.651 ms
64 bytes from 128.223.32.36: icmp_seq=6 ttl=63 time=0.568 ms
64 bytes from 128.223.32.36: icmp_seq=6 ttl=63 time=0.633 ms
PING 128.223.32.36 (128.223.32.36) 56(84) bytes of data.
64 bytes from 128.223.32.36: icmp_seq=6 ttl=63 time=0.735 ms
64 bytes from 128.223.32.36: icmp_seq=7 ttl=63 time=0.677 ms
64 bytes from 128.223.32.36: icmp_seq=7 ttl=63 time=0.725 ms
64 bytes from 128.223.32.36: icmp_seq=7 ttl=63 time=0.606 ms
64 bytes from 128.223.32.36: icmp_seq=7 ttl=63 time=0.690 ms
64 bytes from 128.223.32.36: icmp_seq=7 ttl=63 time=0.470 ms
64 bytes from 128.223.32.36: icmp_seq=8 ttl=63 time=0.533 ms
64 bytes from 128.223.32.36: icmp_seq=8 ttl=63 time=0.551 ms
64 bytes from 128.223.32.36: icmp_seq=8 ttl=63 time=0.464 ms
64 bytes from 128.223.32.36: icmp_seq=8 ttl=63 time=0.580 ms
64 bytes from 128.223.32.36: icmp_seq=8 ttl=63 time=0.739 ms
64 bytes from 128.223.32.36: icmp_seq=9 ttl=63 time=0.570 ms
64 bytes from 128.223.32.36: icmp_seq=9 ttl=63 time=0.589 ms
64 bytes from 128.223.32.36: icmp_seq=9 ttl=63 time=0.609 ms
64 bytes from 128.223.32.36: icmp_seq=9 ttl=63 time=0.508 ms
64 bytes from 128.223.32.36: icmp_seq=9 ttl=63 time=0.645 ms
64 bytes from 128.223.32.36: icmp_seq=10 ttl=63 time=0.653 ms
64 bytes from 128.223.32.36: icmp_seq=10 ttl=63 time=0.737 ms
64 bytes from 128.223.32.36: icmp_seq=10 ttl=63 time=0.783 ms
64 bytes from 128.223.32.36: icmp_seq=10 ttl=63 time=0.760 ms
64 bytes from 128.223.32.36: icmp_seq=10 ttl=63 time=0.649 ms
64 bytes from 128.223.32.36: icmp_seq=11 ttl=63 time=0.833 ms
64 bytes from 128.223.32.36: icmp_seq=11 ttl=63 time=0.799 ms
64 bytes from 128.223.32.36: icmp_seq=11 ttl=63 time=0.855 ms
64 bytes from 128.223.32.36: icmp_seq=11 ttl=63 time=0.718 ms
64 bytes from 128.223.32.36: icmp_seq=11 ttl=63 time=0.887 ms
64 bytes from 128.223.32.36: icmp_seq=12 ttl=63 time=0.711 ms
64 bytes from 128.223.32.36: icmp_seq=12 ttl=63 time=0.741 ms
64 bytes from 128.223.32.36: icmp_seq=12 ttl=63 time=0.739 ms
64 bytes from 128.223.32.36: icmp_seq=12 ttl=63 time=0.780 ms
64 bytes from 128.223.32.36: icmp_seq=12 ttl=63 time=0.665 ms
64 bytes from 128.223.32.36: icmp_seq=13 ttl=63 time=0.696 ms
64 bytes from 128.223.32.36: icmp_seq=13 ttl=63 time=0.782 ms
64 bytes from 128.223.32.36: icmp_seq=13 ttl=63 time=0.701 ms
64 bytes from 128.223.32.36: icmp_seq=13 ttl=63 time=0.785 ms
64 bytes from 128.223.32.36: icmp_seq=13 ttl=63 time=0.814 ms
64 bytes from 128.223.32.36: icmp_seq=14 ttl=63 time=0.619 ms
64 bytes from 128.223.32.36: icmp_seq=14 ttl=63 time=0.709 ms
64 bytes from 128.223.32.36: icmp_seq=14 ttl=63 time=0.582 ms
64 bytes from 128.223.32.36: icmp_seq=14 ttl=63 time=0.661 ms
64 bytes from 128.223.32.36: icmp_seq=14 ttl=63 time=0.493 ms
64 bytes from 128.223.32.36: icmp_seq=15 ttl=63 time=0.605 ms
64 bytes from 128.223.32.36: icmp_seq=15 ttl=63 time=0.652 ms
64 bytes from 128.223.32.36: icmp_seq=15 ttl=63 time=0.743 ms
64 bytes from 128.223.32.36: icmp_seq=15 ttl=63 time=0.650 ms
64 bytes from 128.223.32.36: icmp_seq=15 ttl=63 time=0.775 ms
64 bytes from 128.223.32.36: icmp_seq=16 ttl=63 time=0.732 ms
64 bytes from 128.223.32.36: icmp_seq=16 ttl=63 time=0.705 ms
64 bytes from 128.223.32.36: icmp_seq=16 ttl=63 time=0.798 ms
64 bytes from 128.223.32.36: icmp_seq=16 ttl=63 time=0.820 ms
64 bytes from 128.223.32.36: icmp_seq=17 ttl=63 time=0.598 ms
64 bytes from 128.223.32.36: icmp_seq=17 ttl=63 time=0.664 ms
64 bytes from 128.223.32.36: icmp_seq=17 ttl=63 time=0.678 ms
64 bytes from 128.223.32.36: icmp_seq=17 ttl=63 time=0.772 ms
64 bytes from 128.223.32.36: icmp_seq=17 ttl=63 time=0.799 ms
64 bytes from 128.223.32.36: icmp_seq=18 ttl=63 time=0.686 ms
64 bytes from 128.223.32.36: icmp_seq=18 ttl=63 time=0.797 ms
64 bytes from 128.223.32.36: icmp_seq=18 ttl=63 time=0.695 ms
64 bytes from 128.223.32.36: icmp_seq=19 ttl=63 time=0.642 ms
64 bytes from 128.223.32.36: icmp_seq=19 ttl=63 time=0.687 ms
64 bytes from 128.223.32.36: icmp_seq=19 ttl=63 time=0.773 ms
64 bytes from 128.223.32.36: icmp_seq=19 ttl=63 time=0.727 ms
64 bytes from 128.223.32.36: icmp_seq=19 ttl=63 time=0.641 ms
64 bytes from 128.223.32.36: icmp_seq=20 ttl=63 time=0.677 ms
64 bytes from 128.223.32.36: icmp_seq=20 ttl=63 time=0.734 ms
64 bytes from 128.223.32.36: icmp_seq=20 ttl=63 time=0.688 ms
64 bytes from 128.223.32.36: icmp_seq=20 ttl=63 time=0.772 ms
64 bytes from 128.223.32.36: icmp_seq=20 ttl=63 time=0.795 ms
64 bytes from 128.223.32.36: icmp_seq=21 ttl=63 time=0.440 ms
64 bytes from 128.223.32.36: icmp_seq=21 ttl=63 time=0.469 ms
64 bytes from 128.223.32.36: icmp_seq=21 ttl=63 time=0.370 ms
64 bytes from 128.223.32.36: icmp_seq=21 ttl=63 time=0.370 ms
64 bytes from 128.223.32.36: icmp_seq=21 ttl=63 time=0.383 ms
64 bytes from 128.223.32.36: icmp_seq=22 ttl=63 time=0.693 ms
64 bytes from 128.223.32.36: icmp_seq=22 ttl=63 time=0.778 ms
64 bytes from 128.223.32.36: icmp_seq=22 ttl=63 time=0.663 ms
64 bytes from 128.223.32.36: icmp_seq=22 ttl=63 time=0.748 ms
64 bytes from 128.223.32.36: icmp_seq=22 ttl=63 time=0.772 ms
64 bytes from 128.223.32.36: icmp_seq=23 ttl=63 time=0.700 ms
64 bytes from 128.223.32.36: icmp_seq=23 ttl=63 time=0.796 ms
64 bytes from 128.223.32.36: icmp_seq=23 ttl=63 time=0.424 ms
64 bytes from 128.223.32.36: icmp_seq=23 ttl=63 time=0.412 ms
64 bytes from 128.223.32.36: icmp_seq=23 ttl=63 time=0.693 ms
64 bytes from 128.223.32.36: icmp_seq=24 ttl=63 time=0.672 ms
64 bytes from 128.223.32.36: icmp_seq=24 ttl=63 time=0.770 ms
64 bytes from 128.223.32.36: icmp_seq=24 ttl=63 time=0.720 ms
64 bytes from 128.223.32.36: icmp_seq=24 ttl=63 time=0.768 ms
64 bytes from 128.223.32.36: icmp_seq=24 ttl=63 time=0.750 ms
64 bytes from 128.223.32.36: icmp_seq=25 ttl=63 time=0.702 ms
64 bytes from 128.223.32.36: icmp_seq=25 ttl=63 time=0.794 ms
64 bytes from 128.223.32.36: icmp_seq=25 ttl=63 time=0.657 ms
64 bytes from 128.223.32.36: icmp_seq=25 ttl=63 time=0.616 ms
64 bytes from 128.223.32.36: icmp_seq=25 ttl=63 time=0.694 ms
64 bytes from 128.223.32.36: icmp_seq=26 ttl=63 time=0.407 ms
64 bytes from 128.223.32.36: icmp_seq=26 ttl=63 time=0.680 ms
64 bytes from 128.223.32.36: icmp_seq=26 ttl=63 time=0.731 ms
64 bytes from 128.223.32.36: icmp_seq=26 ttl=63 time=0.675 ms
64 bytes from 128.223.32.36: icmp_seq=26 ttl=63 time=0.769 ms
64 bytes from 128.223.32.36: icmp_seq=27 ttl=63 time=0.530 ms
64 bytes from 128.223.32.36: icmp_seq=27 ttl=63 time=0.559 ms
64 bytes from 128.223.32.36: icmp_seq=27 ttl=63 time=0.629 ms
64 bytes from 128.223.32.36: icmp_seq=27 ttl=63 time=0.704 ms
64 bytes from 128.223.32.36: icmp_seq=27 ttl=63 time=0.719 ms
64 bytes from 128.223.32.36: icmp_seq=28 ttl=63 time=0.700 ms
64 bytes from 128.223.32.36: icmp_seq=28 ttl=63 time=0.758 ms
64 bytes from 128.223.32.36: icmp_seq=28 ttl=63 time=0.677 ms
64 bytes from 128.223.32.36: icmp_seq=28 ttl=63 time=0.762 ms
64 bytes from 128.223.32.36: icmp_seq=28 ttl=63 time=0.784 ms
64 bytes from 128.223.32.36: icmp_seq=29 ttl=63 time=0.668 ms
64 bytes from 128.223.32.36: icmp_seq=29 ttl=63 time=0.726 ms
64 bytes from 128.223.32.36: icmp_seq=29 ttl=63 time=1.17 ms
64 bytes from 128.223.32.36: icmp_seq=29 ttl=63 time=1.25 ms
64 bytes from 128.223.32.36: icmp_seq=29 ttl=63 time=0.632 ms
64 bytes from 128.223.32.36: icmp_seq=30 ttl=63 time=0.672 ms
64 bytes from 128.223.32.36: icmp_seq=30 ttl=63 time=0.738 ms
64 bytes from 128.223.32.36: icmp_seq=30 ttl=63 time=0.651 ms
64 bytes from 128.223.32.36: icmp_seq=30 ttl=63 time=0.737 ms
64 bytes from 128.223.32.36: icmp_seq=30 ttl=63 time=0.586 ms
64 bytes from 128.223.32.36: icmp_seq=31 ttl=63 time=0.581 ms
64 bytes from 128.223.32.36: icmp_seq=31 ttl=63 time=0.665 ms
64 bytes from 128.223.32.36: icmp_seq=31 ttl=63 time=0.663 ms
64 bytes from 128.223.32.36: icmp_seq=31 ttl=63 time=0.635 ms
64 bytes from 128.223.32.36: icmp_seq=31 ttl=63 time=0.609 ms
64 bytes from 128.223.32.36: icmp_seq=32 ttl=63 time=0.692 ms
64 bytes from 128.223.32.36: icmp_seq=32 ttl=63 time=0.594 ms
64 bytes from 128.223.32.36: icmp_seq=32 ttl=63 time=0.681 ms
64 bytes from 128.223.32.36: icmp_seq=32 ttl=63 time=0.709 ms
64 bytes from 128.223.32.36: icmp_seq=32 ttl=63 time=0.613 ms
64 bytes from 128.223.32.36: icmp_seq=33 ttl=63 time=0.689 ms
64 bytes from 128.223.32.36: icmp_seq=33 ttl=63 time=0.772 ms
64 bytes from 128.223.32.36: icmp_seq=33 ttl=63 time=0.795 ms
64 bytes from 128.223.32.36: icmp_seq=33 ttl=63 time=0.815 ms
64 bytes from 128.223.32.36: icmp_seq=33 ttl=63 time=0.675 ms
64 bytes from 128.223.32.36: icmp_seq=34 ttl=63 time=0.776 ms
64 bytes from 128.223.32.36: icmp_seq=34 ttl=63 time=0.798 ms
64 bytes from 128.223.32.36: icmp_seq=34 ttl=63 time=0.690 ms
64 bytes from 128.223.32.36: icmp_seq=34 ttl=63 time=0.818 ms
64 bytes from 128.223.32.36: icmp_seq=34 ttl=63 time=0.602 ms
64 bytes from 128.223.32.36: icmp_seq=35 ttl=63 time=0.722 ms
64 bytes from 128.223.32.36: icmp_seq=35 ttl=63 time=0.768 ms
64 bytes from 128.223.32.36: icmp_seq=35 ttl=63 time=0.637 ms
64 bytes from 128.223.32.36: icmp_seq=35 ttl=63 time=0.744 ms
64 bytes from 128.223.32.36: icmp_seq=35 ttl=63 time=0.685 ms
64 bytes from 128.223.32.36: icmp_seq=36 ttl=63 time=0.718 ms
64 bytes from 128.223.32.36: icmp_seq=36 ttl=63 time=0.741 ms
64 bytes from 128.223.32.36: icmp_seq=36 ttl=63 time=0.632 ms
64 bytes from 128.223.32.36: icmp_seq=36 ttl=63 time=0.761 ms
64 bytes from 128.223.32.36: icmp_seq=36 ttl=63 time=0.586 ms
64 bytes from 128.223.32.36: icmp_seq=37 ttl=63 time=0.720 ms
64 bytes from 128.223.32.36: icmp_seq=37 ttl=63 time=0.722 ms
64 bytes from 128.223.32.36: icmp_seq=37 ttl=63 time=0.636 ms
64 bytes from 128.223.32.36: icmp_seq=37 ttl=63 time=0.745 ms
64 bytes from 128.223.32.36: icmp_seq=37 ttl=63 time=0.596 ms
64 bytes from 128.223.32.36: icmp_seq=38 ttl=63 time=0.715 ms
64 bytes from 128.223.32.36: icmp_seq=38 ttl=63 time=0.636 ms
64 bytes from 128.223.32.36: icmp_seq=38 ttl=63 time=0.744 ms
64 bytes from 128.223.32.36: icmp_seq=38 ttl=63 time=0.768 ms
64 bytes from 128.223.32.36: icmp_seq=38 ttl=63 time=0.583 ms
64 bytes from 128.223.32.36: icmp_seq=39 ttl=63 time=0.756 ms
64 bytes from 128.223.32.36: icmp_seq=39 ttl=63 time=0.678 ms
64 bytes from 128.223.32.36: icmp_seq=39 ttl=63 time=0.784 ms
64 bytes from 128.223.32.36: icmp_seq=39 ttl=63 time=0.690 ms
64 bytes from 128.223.32.36: icmp_seq=39 ttl=63 time=0.693 ms
64 bytes from 128.223.32.36: icmp_seq=40 ttl=63 time=0.700 ms
64 bytes from 128.223.32.36: icmp_seq=40 ttl=63 time=0.629 ms
64 bytes from 128.223.32.36: icmp_seq=40 ttl=63 time=0.737 ms
64 bytes from 128.223.32.36: icmp_seq=40 ttl=63 time=0.744 ms
64 bytes from 128.223.32.36: icmp_seq=40 ttl=63 time=0.667 ms
64 bytes from 128.223.32.36: icmp_seq=41 ttl=63 time=0.440 ms
64 bytes from 128.223.32.36: icmp_seq=41 ttl=63 time=0.407 ms
64 bytes from 128.223.32.36: icmp_seq=41 ttl=63 time=0.446 ms
64 bytes from 128.223.32.36: icmp_seq=41 ttl=63 time=0.455 ms
64 bytes from 128.223.32.36: icmp_seq=41 ttl=63 time=0.382 ms
64 bytes from 128.223.32.36: icmp_seq=42 ttl=63 time=0.670 ms
64 bytes from 128.223.32.36: icmp_seq=42 ttl=63 time=0.585 ms
64 bytes from 128.223.32.36: icmp_seq=42 ttl=63 time=0.693 ms
64 bytes from 128.223.32.36: icmp_seq=42 ttl=63 time=0.708 ms
64 bytes from 128.223.32.36: icmp_seq=42 ttl=63 time=0.598 ms
64 bytes from 128.223.32.36: icmp_seq=43 ttl=63 time=0.424 ms
64 bytes from 128.223.32.36: icmp_seq=43 ttl=63 time=0.407 ms
64 bytes from 128.223.32.36: icmp_seq=43 ttl=63 time=0.434 ms
64 bytes from 128.223.32.36: icmp_seq=43 ttl=63 time=0.450 ms
64 bytes from 128.223.32.36: icmp_seq=43 ttl=63 time=0.402 ms
64 bytes from 128.223.32.36: icmp_seq=44 ttl=63 time=0.775 ms
64 bytes from 128.223.32.36: icmp_seq=44 ttl=63 time=0.689 ms
64 bytes from 128.223.32.36: icmp_seq=44 ttl=63 time=0.798 ms
64 bytes from 128.223.32.36: icmp_seq=44 ttl=63 time=0.805 ms
64 bytes from 128.223.32.36: icmp_seq=44 ttl=63 time=0.673 ms
64 bytes from 128.223.32.36: icmp_seq=45 ttl=63 time=0.386 ms
64 bytes from 128.223.32.36: icmp_seq=45 ttl=63 time=0.398 ms
64 bytes from 128.223.32.36: icmp_seq=45 ttl=63 time=0.416 ms
64 bytes from 128.223.32.36: icmp_seq=45 ttl=63 time=0.424 ms
64 bytes from 128.223.32.36: icmp_seq=45 ttl=63 time=0.407 ms
64 bytes from 128.223.32.36: icmp_seq=46 ttl=63 time=0.781 ms
64 bytes from 128.223.32.36: icmp_seq=46 ttl=63 time=0.696 ms
64 bytes from 128.223.32.36: icmp_seq=46 ttl=63 time=0.803 ms
64 bytes from 128.223.32.36: icmp_seq=46 ttl=63 time=0.826 ms
64 bytes from 128.223.32.36: icmp_seq=46 ttl=63 time=0.685 ms
64 bytes from 128.223.32.36: icmp_seq=47 ttl=63 time=0.804 ms
64 bytes from 128.223.32.36: icmp_seq=47 ttl=63 time=0.711 ms
64 bytes from 128.223.32.36: icmp_seq=47 ttl=63 time=0.830 ms
64 bytes from 128.223.32.36: icmp_seq=47 ttl=63 time=0.832 ms
64 bytes from 128.223.32.36: icmp_seq=47 ttl=63 time=0.601 ms
64 bytes from 128.223.32.36: icmp_seq=48 ttl=63 time=0.685 ms
64 bytes from 128.223.32.36: icmp_seq=48 ttl=63 time=0.600 ms
64 bytes from 128.223.32.36: icmp_seq=48 ttl=63 time=0.708 ms
64 bytes from 128.223.32.36: icmp_seq=48 ttl=63 time=0.693 ms
64 bytes from 128.223.32.36: icmp_seq=48 ttl=63 time=0.687 ms
64 bytes from 128.223.32.36: icmp_seq=48 ttl=63 time=0.655 ms
64 bytes from 128.223.32.36: icmp_seq=49 ttl=63 time=0.632 ms
64 bytes from 128.223.32.36: icmp_seq=49 ttl=63 time=0.718 ms
64 bytes from 128.223.32.36: icmp_seq=49 ttl=63 time=0.737 ms
64 bytes from 128.223.32.36: icmp_seq=49 ttl=63 time=0.589 ms
64 bytes from 128.223.32.36: icmp_seq=49 ttl=63 time=0.583 ms
PING 128.223.32.36 (128.223.32.36) 56(84) bytes of data.
64 bytes from 128.223.32.36: icmp_seq=49 ttl=63 time=0.617 ms
64 bytes from 128.223.32.36: icmp_seq=50 ttl=63 time=0.703 ms
64 bytes from 128.223.32.36: icmp_seq=50 ttl=63 time=0.617 ms
64 bytes from 128.223.32.36: icmp_seq=50 ttl=63 time=0.728 ms
64 bytes from 128.223.32.36: icmp_seq=50 ttl=63 time=0.593 ms
64 bytes from 128.223.32.36: icmp_seq=50 ttl=63 time=0.715 ms
64 bytes from 128.223.32.36: icmp_seq=50 ttl=63 time=0.633 ms



--- 128.223.32.36 ping statistics ---
50 packets transmitted, 45 received, 10% packet loss, time 50057ms
rtt min/avg/max/mdev = 0.398/0.671/0.887/0.109 ms
--- 128.223.32.36 ping statistics ---
50 packets transmitted, 49 received, 2% packet loss, time 50057ms
rtt min/avg/max/mdev = 0.386/0.658/0.832/0.114 ms
--- 128.223.32.36 ping statistics ---
50 packets transmitted, 47 received, 6% packet loss, time 50058ms
rtt min/avg/max/mdev = 0.370/0.681/1.170/0.133 ms

--- 128.223.32.36 ping statistics ---
50 packets transmitted, 39 received, 22% packet loss, time 50089ms
rtt min/avg/max/mdev = 0.383/0.693/1.256/0.155 ms

--- 128.223.32.36 ping statistics ---
50 packets transmitted, 45 received, 10% packet loss, time 50121ms
rtt min/avg/max/mdev = 0.341/0.634/0.855/0.127 ms




--- 128.223.32.36 ping statistics ---
50 packets transmitted, 2 received, 96% packet loss, time 50153ms
rtt min/avg/max/mdev = 0.470/0.602/0.735/0.134 ms
--- 128.223.32.36 ping statistics ---
50 packets transmitted, 2 received, 96% packet loss, time 50154ms
rtt min/avg/max/mdev = 0.284/0.388/0.493/0.106 ms
--- 128.223.32.36 ping statistics ---
50 packets transmitted, 3 received, 94% packet loss, time 50154ms
rtt min/avg/max/mdev = 0.393/0.594/0.696/0.142 ms


--- 128.223.32.36 ping statistics ---
50 packets transmitted, 3 received, 94% packet loss, time 50152ms
rtt min/avg/max/mdev = 0.641/0.654/0.675/0.015 ms


--- 128.223.32.36 ping statistics ---
50 packets transmitted, 1 received, 98% packet loss, time 50152ms
rtt min/avg/max/mdev = 0.665/0.665/0.665/0.000 ms
--- 128.223.32.36 ping statistics ---
50 packets transmitted, 4 received, 92% packet loss, time 50154ms
rtt min/avg/max/mdev = 0.336/0.596/0.769/0.161 ms
--- 128.223.32.36 ping statistics ---
50 packets transmitted, 6 received, 88% packet loss, time 50154ms
rtt min/avg/max/mdev = 0.336/0.612/0.739/0.129 ms
--- 128.223.32.36 ping statistics ---
50 packets transmitted, 3 received, 94% packet loss, time 50154ms
rtt min/avg/max/mdev = 0.293/0.571/0.727/0.198 ms

--- 128.223.32.36 ping statistics ---
50 packets transmitted, 1 received, 98% packet loss, time 50152ms
rtt min/avg/max/mdev = 0.617/0.617/0.617/0.000 ms
PING 128.223.32.36 (128.223.32.36) 56(84) bytes of data.

PING 128.223.32.36 (128.223.32.36) 56(84) bytes of data.

PING 128.223.32.36 (128.223.32.36) 56(84) bytes of data.

PING 128.223.32.36 (128.223.32.36) 56(84) bytes of data.

PING 128.223.32.36 (128.223.32.36) 56(84) bytes of data.

PING 128.223.32.36 (128.223.32.36) 56(84) bytes of data.

--- 128.223.32.36 ping statistics ---
50 packets transmitted, 0 received, 100% packet loss, time 50152ms

--- 128.223.32.36 ping statistics ---
50 packets transmitted, 0 received, 100% packet loss, time 50152ms

--- 128.223.32.36 ping statistics ---
50 packets transmitted, 0 received, 100% packet loss, time 50151ms

--- 128.223.32.36 ping statistics ---
50 packets transmitted, 0 received, 100% packet loss, time 50152ms

--- 128.223.32.36 ping statistics ---
50 packets transmitted, 0 received, 100% packet loss, time 50152ms

--- 128.223.32.36 ping statistics ---
50 packets transmitted, 0 received, 100% packet loss, time 50153ms

