Attaching to softwareoverhead_ping_3, softwareoverhead_ping_5, softwareoverhead_ping_2, softwareoverhead_ping_16, softwareoverhead_ping_6, softwareoverhead_ping_1, softwareoverhead_ping_20, softwareoverhead_ping_18, softwareoverhead_ping_10, softwareoverhead_ping_11, softwareoverhead_ping_13, softwareoverhead_ping_8, softwareoverhead_ping_4, softwareoverhead_ping_9, softwareoverhead_ping_14, softwareoverhead_ping_7, softwareoverhead_ping_15, softwareoverhead_ping_17, softwareoverhead_ping_19, softwareoverhead_ping_12, softwareoverhead_ping_26, softwareoverhead_ping_23, softwareoverhead_ping_34, softwareoverhead_ping_22, softwareoverhead_ping_24, softwareoverhead_ping_31, softwareoverhead_ping_35, softwareoverhead_ping_32, softwareoverhead_ping_40, softwareoverhead_ping_29, softwareoverhead_ping_36, softwareoverhead_ping_39, softwareoverhead_ping_28, softwareoverhead_ping_33, softwareoverhead_ping_21, softwareoverhead_ping_25, softwareoverhead_ping_37, softwareoverhead_ping_38, softwareoverhead_ping_27, softwareoverhead_ping_30
ping_3  | PING 128.223.87.2 (128.223.87.2): 56 data bytes
ping_3  | 64 bytes from 128.223.87.2: seq=0 ttl=64 time=0.118 ms
ping_2  | PING 128.223.87.2 (128.223.87.2): 56 data bytes
ping_5  | PING 128.223.87.2 (128.223.87.2): 56 data bytes
ping_3  | 64 bytes from 128.223.87.2: seq=1 ttl=64 time=0.171 ms
ping_2  | 64 bytes from 128.223.87.2: seq=0 ttl=64 time=0.108 ms
ping_5  | 64 bytes from 128.223.87.2: seq=0 ttl=64 time=0.144 ms
ping_2  | 64 bytes from 128.223.87.2: seq=1 ttl=64 time=0.141 ms
ping_3  | 64 bytes from 128.223.87.2: seq=2 ttl=64 time=0.152 ms
ping_2  | 64 bytes from 128.223.87.2: seq=2 ttl=64 time=0.069 ms
ping_5  | 64 bytes from 128.223.87.2: seq=1 ttl=64 time=0.091 ms
ping_2  | 64 bytes from 128.223.87.2: seq=3 ttl=64 time=0.209 ms
ping_3  | 64 bytes from 128.223.87.2: seq=3 ttl=64 time=0.073 ms
ping_2  | 64 bytes from 128.223.87.2: seq=4 ttl=64 time=0.177 ms
ping_3  | 64 bytes from 128.223.87.2: seq=4 ttl=64 time=0.118 ms
ping_5  | 64 bytes from 128.223.87.2: seq=2 ttl=64 time=0.177 ms
ping_2  | 64 bytes from 128.223.87.2: seq=5 ttl=64 time=0.175 ms
ping_3  | 64 bytes from 128.223.87.2: seq=5 ttl=64 time=0.066 ms
ping_5  | 64 bytes from 128.223.87.2: seq=3 ttl=64 time=0.161 ms
ping_2  | 64 bytes from 128.223.87.2: seq=6 ttl=64 time=0.157 ms
ping_3  | 64 bytes from 128.223.87.2: seq=6 ttl=64 time=0.170 ms
ping_5  | 64 bytes from 128.223.87.2: seq=4 ttl=64 time=0.160 ms
ping_3  | 64 bytes from 128.223.87.2: seq=7 ttl=64 time=0.180 ms
ping_2  | 64 bytes from 128.223.87.2: seq=7 ttl=64 time=0.160 ms
ping_5  | 64 bytes from 128.223.87.2: seq=5 ttl=64 time=0.104 ms
ping_3  | 64 bytes from 128.223.87.2: seq=8 ttl=64 time=0.172 ms
ping_2  | 64 bytes from 128.223.87.2: seq=8 ttl=64 time=0.175 ms
ping_3  | 64 bytes from 128.223.87.2: seq=9 ttl=64 time=0.105 ms
ping_5  | 64 bytes from 128.223.87.2: seq=6 ttl=64 time=0.172 ms
ping_3  | 64 bytes from 128.223.87.2: seq=10 ttl=64 time=0.179 ms
ping_2  | 64 bytes from 128.223.87.2: seq=9 ttl=64 time=0.133 ms
ping_3  | 64 bytes from 128.223.87.2: seq=11 ttl=64 time=0.175 ms
ping_2  | 64 bytes from 128.223.87.2: seq=10 ttl=64 time=0.206 ms
ping_5  | 64 bytes from 128.223.87.2: seq=7 ttl=64 time=0.168 ms
ping_3  | 64 bytes from 128.223.87.2: seq=12 ttl=64 time=0.175 ms
ping_2  | 64 bytes from 128.223.87.2: seq=11 ttl=64 time=0.040 ms
ping_5  | 64 bytes from 128.223.87.2: seq=8 ttl=64 time=0.178 ms
ping_5  | 64 bytes from 128.223.87.2: seq=9 ttl=64 time=0.188 ms
ping_3  | 64 bytes from 128.223.87.2: seq=13 ttl=64 time=0.090 ms
ping_5  | 64 bytes from 128.223.87.2: seq=10 ttl=64 time=0.145 ms
ping_2  | 64 bytes from 128.223.87.2: seq=12 ttl=64 time=0.091 ms
ping_2  | 64 bytes from 128.223.87.2: seq=13 ttl=64 time=0.099 ms
ping_5  | 64 bytes from 128.223.87.2: seq=11 ttl=64 time=0.150 ms
ping_16 | PING 128.223.87.2 (128.223.87.2): 56 data bytes
ping_3  | 64 bytes from 128.223.87.2: seq=14 ttl=64 time=0.090 ms
ping_16 | 64 bytes from 128.223.87.2: seq=0 ttl=64 time=0.192 ms
ping_5  | 64 bytes from 128.223.87.2: seq=12 ttl=64 time=0.098 ms
ping_3  | 64 bytes from 128.223.87.2: seq=15 ttl=64 time=0.145 ms
ping_5  | 64 bytes from 128.223.87.2: seq=13 ttl=64 time=0.093 ms
ping_3  | 64 bytes from 128.223.87.2: seq=16 ttl=64 time=0.121 ms
ping_1  | PING 128.223.87.2 (128.223.87.2): 56 data bytes
ping_5  | 64 bytes from 128.223.87.2: seq=14 ttl=64 time=0.157 ms
ping_6  | PING 128.223.87.2 (128.223.87.2): 56 data bytes
ping_2  | 64 bytes from 128.223.87.2: seq=14 ttl=64 time=0.156 ms
ping_16 | 64 bytes from 128.223.87.2: seq=1 ttl=64 time=0.156 ms
ping_3  | 64 bytes from 128.223.87.2: seq=17 ttl=64 time=0.160 ms
ping_2  | 64 bytes from 128.223.87.2: seq=15 ttl=64 time=0.081 ms
ping_20 | PING 128.223.87.2 (128.223.87.2): 56 data bytes
ping_20 | 64 bytes from 128.223.87.2: seq=0 ttl=64 time=0.148 ms
ping_16 | 64 bytes from 128.223.87.2: seq=2 ttl=64 time=0.110 ms
ping_6  | 64 bytes from 128.223.87.2: seq=0 ttl=64 time=0.108 ms
ping_5  | 64 bytes from 128.223.87.2: seq=15 ttl=64 time=0.146 ms
ping_20 | 64 bytes from 128.223.87.2: seq=1 ttl=64 time=0.074 ms
ping_5  | 64 bytes from 128.223.87.2: seq=16 ttl=64 time=0.073 ms
ping_1  | 64 bytes from 128.223.87.2: seq=0 ttl=64 time=0.179 ms
ping_6  | 64 bytes from 128.223.87.2: seq=1 ttl=64 time=0.129 ms
ping_6  | 64 bytes from 128.223.87.2: seq=2 ttl=64 time=0.152 ms
ping_3  | 64 bytes from 128.223.87.2: seq=18 ttl=64 time=0.144 ms
ping_1  | 64 bytes from 128.223.87.2: seq=1 ttl=64 time=0.143 ms
ping_18 | PING 128.223.87.2 (128.223.87.2): 56 data bytes
ping_6  | 64 bytes from 128.223.87.2: seq=3 ttl=64 time=0.150 ms
ping_3  | 64 bytes from 128.223.87.2: seq=19 ttl=64 time=0.180 ms
ping_16 | 64 bytes from 128.223.87.2: seq=3 ttl=64 time=0.076 ms
ping_18 | 64 bytes from 128.223.87.2: seq=0 ttl=64 time=0.150 ms
ping_6  | 64 bytes from 128.223.87.2: seq=4 ttl=64 time=0.173 ms
ping_2  | 64 bytes from 128.223.87.2: seq=16 ttl=64 time=0.056 ms
ping_5  | 64 bytes from 128.223.87.2: seq=17 ttl=64 time=0.163 ms
ping_3  | 64 bytes from 128.223.87.2: seq=20 ttl=64 time=0.052 ms
ping_20 | 64 bytes from 128.223.87.2: seq=2 ttl=64 time=0.188 ms
ping_5  | 64 bytes from 128.223.87.2: seq=18 ttl=64 time=0.075 ms
ping_16 | 64 bytes from 128.223.87.2: seq=4 ttl=64 time=0.135 ms
ping_20 | 64 bytes from 128.223.87.2: seq=3 ttl=64 time=0.069 ms
ping_6  | 64 bytes from 128.223.87.2: seq=5 ttl=64 time=0.157 ms
ping_3  | 64 bytes from 128.223.87.2: seq=21 ttl=64 time=0.083 ms
ping_18 | 64 bytes from 128.223.87.2: seq=1 ttl=64 time=0.198 ms
ping_5  | 64 bytes from 128.223.87.2: seq=19 ttl=64 time=0.204 ms
ping_10 | PING 128.223.87.2 (128.223.87.2): 56 data bytes
ping_2  | 64 bytes from 128.223.87.2: seq=17 ttl=64 time=0.084 ms
ping_1  | 64 bytes from 128.223.87.2: seq=2 ttl=64 time=0.067 ms
ping_3  | 64 bytes from 128.223.87.2: seq=22 ttl=64 time=0.127 ms
ping_10 | 64 bytes from 128.223.87.2: seq=0 ttl=64 time=0.209 ms
ping_5  | 64 bytes from 128.223.87.2: seq=20 ttl=64 time=0.190 ms
ping_18 | 64 bytes from 128.223.87.2: seq=2 ttl=64 time=0.171 ms
ping_3  | 64 bytes from 128.223.87.2: seq=23 ttl=64 time=0.183 ms
ping_10 | 64 bytes from 128.223.87.2: seq=1 ttl=64 time=0.047 ms
ping_5  | 64 bytes from 128.223.87.2: seq=21 ttl=64 time=0.090 ms
ping_20 | 64 bytes from 128.223.87.2: seq=4 ttl=64 time=0.186 ms
ping_16 | 64 bytes from 128.223.87.2: seq=5 ttl=64 time=0.175 ms
ping_11 | PING 128.223.87.2 (128.223.87.2): 56 data bytes
ping_20 | 64 bytes from 128.223.87.2: seq=5 ttl=64 time=0.104 ms
ping_6  | 64 bytes from 128.223.87.2: seq=6 ttl=64 time=0.157 ms
ping_2  | 64 bytes from 128.223.87.2: seq=18 ttl=64 time=0.176 ms
ping_18 | 64 bytes from 128.223.87.2: seq=3 ttl=64 time=0.167 ms
ping_20 | 64 bytes from 128.223.87.2: seq=6 ttl=64 time=0.067 ms
ping_5  | 64 bytes from 128.223.87.2: seq=22 ttl=64 time=0.184 ms
ping_3  | 64 bytes from 128.223.87.2: seq=24 ttl=64 time=0.186 ms
ping_3  | 
ping_3  | --- 128.223.87.2 ping statistics ---
ping_3  | 25 packets transmitted, 25 packets received, 0% packet loss
ping_3  | round-trip min/avg/max = 0.052/0.136/0.186 ms
ping_11 | 64 bytes from 128.223.87.2: seq=0 ttl=64 time=0.122 ms
ping_6  | 64 bytes from 128.223.87.2: seq=7 ttl=64 time=0.158 ms
ping_1  | 64 bytes from 128.223.87.2: seq=3 ttl=64 time=0.172 ms
ping_6  | 64 bytes from 128.223.87.2: seq=8 ttl=64 time=0.158 ms
ping_18 | 64 bytes from 128.223.87.2: seq=4 ttl=64 time=0.169 ms
ping_13 | PING 128.223.87.2 (128.223.87.2): 56 data bytes
ping_13 | 64 bytes from 128.223.87.2: seq=0 ttl=64 time=0.153 ms
ping_16 | 64 bytes from 128.223.87.2: seq=6 ttl=64 time=0.108 ms
ping_10 | 64 bytes from 128.223.87.2: seq=2 ttl=64 time=0.104 ms
ping_18 | 64 bytes from 128.223.87.2: seq=5 ttl=64 time=0.175 ms
ping_6  | 64 bytes from 128.223.87.2: seq=9 ttl=64 time=0.191 ms
ping_16 | 64 bytes from 128.223.87.2: seq=7 ttl=64 time=0.171 ms
ping_2  | 64 bytes from 128.223.87.2: seq=19 ttl=64 time=0.163 ms
ping_10 | 64 bytes from 128.223.87.2: seq=3 ttl=64 time=0.192 ms
ping_1  | 64 bytes from 128.223.87.2: seq=4 ttl=64 time=0.158 ms
ping_6  | 64 bytes from 128.223.87.2: seq=10 ttl=64 time=0.101 ms
ping_5  | 64 bytes from 128.223.87.2: seq=23 ttl=64 time=0.215 ms
ping_8  | PING 128.223.87.2 (128.223.87.2): 56 data bytes
ping_11 | 64 bytes from 128.223.87.2: seq=1 ttl=64 time=0.171 ms
ping_4  | PING 128.223.87.2 (128.223.87.2): 56 data bytes
ping_20 | 64 bytes from 128.223.87.2: seq=7 ttl=64 time=0.086 ms
ping_18 | 64 bytes from 128.223.87.2: seq=6 ttl=64 time=0.169 ms
ping_5  | 64 bytes from 128.223.87.2: seq=24 ttl=64 time=0.077 ms
ping_5  | 
ping_5  | --- 128.223.87.2 ping statistics ---
ping_5  | 25 packets transmitted, 25 packets received, 0% packet loss
ping_5  | round-trip min/avg/max = 0.073/0.144/0.215 ms
ping_6  | 64 bytes from 128.223.87.2: seq=11 ttl=64 time=0.084 ms
ping_1  | 64 bytes from 128.223.87.2: seq=5 ttl=64 time=0.172 ms
ping_10 | 64 bytes from 128.223.87.2: seq=4 ttl=64 time=0.088 ms
ping_11 | 64 bytes from 128.223.87.2: seq=2 ttl=64 time=0.175 ms
ping_2  | 64 bytes from 128.223.87.2: seq=20 ttl=64 time=0.063 ms
ping_13 | 64 bytes from 128.223.87.2: seq=1 ttl=64 time=0.109 ms
ping_16 | 64 bytes from 128.223.87.2: seq=8 ttl=64 time=0.077 ms
softwareoverhead_ping_3 exited with code 0
ping_1  | 64 bytes from 128.223.87.2: seq=6 ttl=64 time=0.164 ms
ping_2  | 64 bytes from 128.223.87.2: seq=21 ttl=64 time=0.185 ms
ping_9  | PING 128.223.87.2 (128.223.87.2): 56 data bytes
ping_13 | 64 bytes from 128.223.87.2: seq=2 ttl=64 time=0.140 ms
ping_10 | 64 bytes from 128.223.87.2: seq=5 ttl=64 time=0.093 ms
ping_11 | 64 bytes from 128.223.87.2: seq=3 ttl=64 time=0.174 ms
ping_18 | 64 bytes from 128.223.87.2: seq=7 ttl=64 time=0.098 ms
ping_20 | 64 bytes from 128.223.87.2: seq=8 ttl=64 time=0.176 ms
ping_1  | 64 bytes from 128.223.87.2: seq=7 ttl=64 time=0.174 ms
ping_8  | 64 bytes from 128.223.87.2: seq=0 ttl=64 time=0.159 ms
ping_18 | 64 bytes from 128.223.87.2: seq=8 ttl=64 time=0.175 ms
ping_14 | PING 128.223.87.2 (128.223.87.2): 56 data bytes
ping_4  | 64 bytes from 128.223.87.2: seq=0 ttl=64 time=0.177 ms
ping_8  | 64 bytes from 128.223.87.2: seq=1 ttl=64 time=0.174 ms
ping_10 | 64 bytes from 128.223.87.2: seq=6 ttl=64 time=0.050 ms
ping_16 | 64 bytes from 128.223.87.2: seq=9 ttl=64 time=0.176 ms
ping_8  | 64 bytes from 128.223.87.2: seq=2 ttl=64 time=0.076 ms
ping_13 | 64 bytes from 128.223.87.2: seq=3 ttl=64 time=0.077 ms
ping_10 | 64 bytes from 128.223.87.2: seq=7 ttl=64 time=0.172 ms
ping_4  | 64 bytes from 128.223.87.2: seq=1 ttl=64 time=0.162 ms
ping_2  | 64 bytes from 128.223.87.2: seq=22 ttl=64 time=0.155 ms
ping_8  | 64 bytes from 128.223.87.2: seq=3 ttl=64 time=0.157 ms
ping_20 | 64 bytes from 128.223.87.2: seq=9 ttl=64 time=0.063 ms
ping_13 | 64 bytes from 128.223.87.2: seq=4 ttl=64 time=0.144 ms
ping_9  | 64 bytes from 128.223.87.2: seq=0 ttl=64 time=0.117 ms
ping_11 | 64 bytes from 128.223.87.2: seq=4 ttl=64 time=0.131 ms
ping_18 | 64 bytes from 128.223.87.2: seq=9 ttl=64 time=0.074 ms
ping_4  | 64 bytes from 128.223.87.2: seq=2 ttl=64 time=0.157 ms
ping_8  | 64 bytes from 128.223.87.2: seq=4 ttl=64 time=0.142 ms
ping_16 | 64 bytes from 128.223.87.2: seq=10 ttl=64 time=0.164 ms
softwareoverhead_ping_5 exited with code 0
ping_7  | PING 128.223.87.2 (128.223.87.2): 56 data bytes
ping_9  | 64 bytes from 128.223.87.2: seq=1 ttl=64 time=0.038 ms
ping_14 | 64 bytes from 128.223.87.2: seq=0 ttl=64 time=0.148 ms
ping_20 | 64 bytes from 128.223.87.2: seq=10 ttl=64 time=0.086 ms
ping_4  | 64 bytes from 128.223.87.2: seq=3 ttl=64 time=0.144 ms
ping_6  | 64 bytes from 128.223.87.2: seq=12 ttl=64 time=0.089 ms
ping_13 | 64 bytes from 128.223.87.2: seq=5 ttl=64 time=0.063 ms
ping_10 | 64 bytes from 128.223.87.2: seq=8 ttl=64 time=0.040 ms
ping_1  | 64 bytes from 128.223.87.2: seq=8 ttl=64 time=0.176 ms
ping_8  | 64 bytes from 128.223.87.2: seq=5 ttl=64 time=0.078 ms
ping_6  | 64 bytes from 128.223.87.2: seq=13 ttl=64 time=0.129 ms
ping_14 | 64 bytes from 128.223.87.2: seq=1 ttl=64 time=0.104 ms
ping_20 | 64 bytes from 128.223.87.2: seq=11 ttl=64 time=0.086 ms
ping_10 | 64 bytes from 128.223.87.2: seq=9 ttl=64 time=0.091 ms
ping_11 | 64 bytes from 128.223.87.2: seq=5 ttl=64 time=0.177 ms
ping_2  | 64 bytes from 128.223.87.2: seq=23 ttl=64 time=0.191 ms
ping_16 | 64 bytes from 128.223.87.2: seq=11 ttl=64 time=0.081 ms
ping_15 | PING 128.223.87.2 (128.223.87.2): 56 data bytes
ping_6  | 64 bytes from 128.223.87.2: seq=14 ttl=64 time=0.149 ms
ping_10 | 64 bytes from 128.223.87.2: seq=10 ttl=64 time=0.085 ms
ping_11 | 64 bytes from 128.223.87.2: seq=6 ttl=64 time=0.181 ms
ping_18 | 64 bytes from 128.223.87.2: seq=10 ttl=64 time=0.102 ms
ping_9  | 64 bytes from 128.223.87.2: seq=2 ttl=64 time=0.067 ms
ping_4  | 64 bytes from 128.223.87.2: seq=4 ttl=64 time=0.065 ms
ping_13 | 64 bytes from 128.223.87.2: seq=6 ttl=64 time=0.160 ms
ping_7  | 64 bytes from 128.223.87.2: seq=0 ttl=64 time=0.178 ms
ping_15 | 64 bytes from 128.223.87.2: seq=0 ttl=64 time=0.185 ms
ping_8  | 64 bytes from 128.223.87.2: seq=6 ttl=64 time=0.053 ms
ping_2  | 64 bytes from 128.223.87.2: seq=24 ttl=64 time=0.165 ms
ping_2  | 
ping_2  | --- 128.223.87.2 ping statistics ---
ping_2  | 25 packets transmitted, 25 packets received, 0% packet loss
ping_2  | round-trip min/avg/max = 0.040/0.136/0.209 ms
ping_1  | 64 bytes from 128.223.87.2: seq=9 ttl=64 time=0.174 ms
ping_11 | 64 bytes from 128.223.87.2: seq=7 ttl=64 time=0.179 ms
ping_20 | 64 bytes from 128.223.87.2: seq=12 ttl=64 time=0.126 ms
ping_18 | 64 bytes from 128.223.87.2: seq=11 ttl=64 time=0.101 ms
ping_14 | 64 bytes from 128.223.87.2: seq=2 ttl=64 time=0.059 ms
ping_7  | 64 bytes from 128.223.87.2: seq=1 ttl=64 time=0.124 ms
ping_6  | 64 bytes from 128.223.87.2: seq=15 ttl=64 time=0.176 ms
ping_16 | 64 bytes from 128.223.87.2: seq=12 ttl=64 time=0.080 ms
ping_10 | 64 bytes from 128.223.87.2: seq=11 ttl=64 time=0.161 ms
ping_9  | 64 bytes from 128.223.87.2: seq=3 ttl=64 time=0.126 ms
ping_1  | 64 bytes from 128.223.87.2: seq=10 ttl=64 time=0.091 ms
ping_7  | 64 bytes from 128.223.87.2: seq=2 ttl=64 time=0.061 ms
ping_20 | 64 bytes from 128.223.87.2: seq=13 ttl=64 time=0.120 ms
ping_10 | 64 bytes from 128.223.87.2: seq=12 ttl=64 time=0.177 ms
ping_13 | 64 bytes from 128.223.87.2: seq=7 ttl=64 time=0.070 ms
ping_1  | 64 bytes from 128.223.87.2: seq=11 ttl=64 time=0.079 ms
ping_4  | 64 bytes from 128.223.87.2: seq=5 ttl=64 time=0.136 ms
ping_15 | 64 bytes from 128.223.87.2: seq=1 ttl=64 time=0.149 ms
ping_10 | 64 bytes from 128.223.87.2: seq=13 ttl=64 time=0.159 ms
ping_19 | PING 128.223.87.2 (128.223.87.2): 56 data bytes
ping_20 | 64 bytes from 128.223.87.2: seq=14 ttl=64 time=0.126 ms
ping_17 | PING 128.223.87.2 (128.223.87.2): 56 data bytes
ping_6  | 64 bytes from 128.223.87.2: seq=16 ttl=64 time=0.177 ms
ping_10 | 64 bytes from 128.223.87.2: seq=14 ttl=64 time=0.179 ms
ping_14 | 64 bytes from 128.223.87.2: seq=3 ttl=64 time=0.047 ms
ping_8  | 64 bytes from 128.223.87.2: seq=7 ttl=64 time=0.086 ms
ping_11 | 64 bytes from 128.223.87.2: seq=8 ttl=64 time=0.066 ms
ping_1  | 64 bytes from 128.223.87.2: seq=12 ttl=64 time=0.147 ms
ping_9  | 64 bytes from 128.223.87.2: seq=4 ttl=64 time=0.041 ms
ping_17 | 64 bytes from 128.223.87.2: seq=0 ttl=64 time=0.193 ms
ping_15 | 64 bytes from 128.223.87.2: seq=2 ttl=64 time=0.090 ms
ping_19 | 64 bytes from 128.223.87.2: seq=0 ttl=64 time=0.146 ms
ping_10 | 64 bytes from 128.223.87.2: seq=15 ttl=64 time=0.163 ms
ping_13 | 64 bytes from 128.223.87.2: seq=8 ttl=64 time=0.080 ms
ping_18 | 64 bytes from 128.223.87.2: seq=12 ttl=64 time=0.157 ms
ping_20 | 64 bytes from 128.223.87.2: seq=15 ttl=64 time=0.183 ms
ping_4  | 64 bytes from 128.223.87.2: seq=6 ttl=64 time=0.095 ms
ping_7  | 64 bytes from 128.223.87.2: seq=3 ttl=64 time=0.107 ms
ping_9  | 64 bytes from 128.223.87.2: seq=5 ttl=64 time=0.060 ms
ping_6  | 64 bytes from 128.223.87.2: seq=17 ttl=64 time=0.168 ms
ping_16 | 64 bytes from 128.223.87.2: seq=13 ttl=64 time=0.157 ms
ping_10 | 64 bytes from 128.223.87.2: seq=16 ttl=64 time=0.180 ms
ping_13 | 64 bytes from 128.223.87.2: seq=9 ttl=64 time=0.081 ms
ping_26 | PING 128.223.87.2 (128.223.87.2): 56 data bytes
ping_26 | 64 bytes from 128.223.87.2: seq=0 ttl=64 time=0.209 ms
ping_11 | 64 bytes from 128.223.87.2: seq=9 ttl=64 time=0.097 ms
ping_14 | 64 bytes from 128.223.87.2: seq=4 ttl=64 time=0.093 ms
ping_19 | 64 bytes from 128.223.87.2: seq=1 ttl=64 time=0.048 ms
ping_20 | 64 bytes from 128.223.87.2: seq=16 ttl=64 time=0.150 ms
ping_23 | PING 128.223.87.2 (128.223.87.2): 56 data bytes
ping_26 | 64 bytes from 128.223.87.2: seq=1 ttl=64 time=0.157 ms
ping_12 | PING 128.223.87.2 (128.223.87.2): 56 data bytes
ping_7  | 64 bytes from 128.223.87.2: seq=4 ttl=64 time=0.093 ms
ping_7  | 64 bytes from 128.223.87.2: seq=5 ttl=64 time=0.196 ms
ping_8  | 64 bytes from 128.223.87.2: seq=8 ttl=64 time=0.096 ms
ping_15 | 64 bytes from 128.223.87.2: seq=3 ttl=64 time=0.084 ms
ping_13 | 64 bytes from 128.223.87.2: seq=10 ttl=64 time=0.117 ms
ping_6  | 64 bytes from 128.223.87.2: seq=18 ttl=64 time=0.176 ms
ping_17 | 64 bytes from 128.223.87.2: seq=1 ttl=64 time=0.156 ms
ping_16 | 64 bytes from 128.223.87.2: seq=14 ttl=64 time=0.164 ms
ping_1  | 64 bytes from 128.223.87.2: seq=13 ttl=64 time=0.186 ms
ping_26 | 64 bytes from 128.223.87.2: seq=2 ttl=64 time=0.180 ms
ping_18 | 64 bytes from 128.223.87.2: seq=13 ttl=64 time=0.101 ms
ping_7  | 64 bytes from 128.223.87.2: seq=6 ttl=64 time=0.157 ms
ping_11 | 64 bytes from 128.223.87.2: seq=10 ttl=64 time=0.167 ms
ping_6  | 64 bytes from 128.223.87.2: seq=19 ttl=64 time=0.184 ms
ping_14 | 64 bytes from 128.223.87.2: seq=5 ttl=64 time=0.084 ms
ping_9  | 64 bytes from 128.223.87.2: seq=6 ttl=64 time=0.089 ms
ping_15 | 64 bytes from 128.223.87.2: seq=4 ttl=64 time=0.131 ms
ping_4  | 64 bytes from 128.223.87.2: seq=7 ttl=64 time=0.090 ms
ping_13 | 64 bytes from 128.223.87.2: seq=11 ttl=64 time=0.177 ms
ping_12 | 64 bytes from 128.223.87.2: seq=0 ttl=64 time=0.151 ms
ping_20 | 64 bytes from 128.223.87.2: seq=17 ttl=64 time=0.142 ms
ping_19 | 64 bytes from 128.223.87.2: seq=2 ttl=64 time=0.092 ms
ping_26 | 64 bytes from 128.223.87.2: seq=3 ttl=64 time=0.161 ms
ping_23 | 64 bytes from 128.223.87.2: seq=0 ttl=64 time=0.268 ms
ping_15 | 64 bytes from 128.223.87.2: seq=5 ttl=64 time=0.175 ms
ping_8  | 64 bytes from 128.223.87.2: seq=9 ttl=64 time=0.144 ms
ping_1  | 64 bytes from 128.223.87.2: seq=14 ttl=64 time=0.145 ms
ping_17 | 64 bytes from 128.223.87.2: seq=2 ttl=64 time=0.078 ms
ping_9  | 64 bytes from 128.223.87.2: seq=7 ttl=64 time=0.158 ms
ping_18 | 64 bytes from 128.223.87.2: seq=14 ttl=64 time=0.149 ms
ping_11 | 64 bytes from 128.223.87.2: seq=11 ttl=64 time=0.162 ms
ping_12 | 64 bytes from 128.223.87.2: seq=1 ttl=64 time=0.083 ms
ping_4  | 64 bytes from 128.223.87.2: seq=8 ttl=64 time=0.149 ms
ping_1  | 64 bytes from 128.223.87.2: seq=15 ttl=64 time=0.151 ms
ping_10 | 64 bytes from 128.223.87.2: seq=17 ttl=64 time=0.110 ms
ping_14 | 64 bytes from 128.223.87.2: seq=6 ttl=64 time=0.159 ms
ping_15 | 64 bytes from 128.223.87.2: seq=6 ttl=64 time=0.197 ms
ping_6  | 64 bytes from 128.223.87.2: seq=20 ttl=64 time=0.167 ms
ping_22 | PING 128.223.87.2 (128.223.87.2): 56 data bytes
ping_26 | 64 bytes from 128.223.87.2: seq=4 ttl=64 time=0.163 ms
ping_7  | 64 bytes from 128.223.87.2: seq=7 ttl=64 time=0.131 ms
ping_1  | 64 bytes from 128.223.87.2: seq=16 ttl=64 time=0.185 ms
softwareoverhead_ping_2 exited with code 0
ping_15 | 64 bytes from 128.223.87.2: seq=7 ttl=64 time=0.133 ms
ping_34 | PING 128.223.87.2 (128.223.87.2): 56 data bytes
ping_22 | 64 bytes from 128.223.87.2: seq=0 ttl=64 time=0.321 ms
ping_26 | 64 bytes from 128.223.87.2: seq=5 ttl=64 time=0.182 ms
ping_11 | 64 bytes from 128.223.87.2: seq=12 ttl=64 time=0.119 ms
ping_19 | 64 bytes from 128.223.87.2: seq=3 ttl=64 time=0.087 ms
ping_1  | 64 bytes from 128.223.87.2: seq=17 ttl=64 time=0.066 ms
ping_9  | 64 bytes from 128.223.87.2: seq=8 ttl=64 time=0.115 ms
ping_8  | 64 bytes from 128.223.87.2: seq=10 ttl=64 time=0.163 ms
ping_4  | 64 bytes from 128.223.87.2: seq=9 ttl=64 time=0.178 ms
ping_14 | 64 bytes from 128.223.87.2: seq=7 ttl=64 time=0.159 ms
ping_22 | 64 bytes from 128.223.87.2: seq=1 ttl=64 time=0.114 ms
ping_20 | 64 bytes from 128.223.87.2: seq=18 ttl=64 time=0.128 ms
ping_15 | 64 bytes from 128.223.87.2: seq=8 ttl=64 time=0.134 ms
ping_24 | PING 128.223.87.2 (128.223.87.2): 56 data bytes
ping_1  | 64 bytes from 128.223.87.2: seq=18 ttl=64 time=0.092 ms
ping_7  | 64 bytes from 128.223.87.2: seq=8 ttl=64 time=0.178 ms
ping_13 | 64 bytes from 128.223.87.2: seq=12 ttl=64 time=0.160 ms
ping_19 | 64 bytes from 128.223.87.2: seq=4 ttl=64 time=0.153 ms
ping_17 | 64 bytes from 128.223.87.2: seq=3 ttl=64 time=0.088 ms
ping_26 | 64 bytes from 128.223.87.2: seq=6 ttl=64 time=0.183 ms
ping_12 | 64 bytes from 128.223.87.2: seq=2 ttl=64 time=0.092 ms
ping_22 | 64 bytes from 128.223.87.2: seq=2 ttl=64 time=0.084 ms
ping_4  | 64 bytes from 128.223.87.2: seq=10 ttl=64 time=0.159 ms
ping_23 | 64 bytes from 128.223.87.2: seq=1 ttl=64 time=0.073 ms
ping_6  | 64 bytes from 128.223.87.2: seq=21 ttl=64 time=0.185 ms
ping_34 | 64 bytes from 128.223.87.2: seq=0 ttl=64 time=0.303 ms
ping_16 | 64 bytes from 128.223.87.2: seq=15 ttl=64 time=0.062 ms
ping_1  | 64 bytes from 128.223.87.2: seq=19 ttl=64 time=0.146 ms
ping_14 | 64 bytes from 128.223.87.2: seq=8 ttl=64 time=0.158 ms
ping_13 | 64 bytes from 128.223.87.2: seq=13 ttl=64 time=0.227 ms
ping_24 | 64 bytes from 128.223.87.2: seq=0 ttl=64 time=0.220 ms
ping_15 | 64 bytes from 128.223.87.2: seq=9 ttl=64 time=0.067 ms
ping_13 | 64 bytes from 128.223.87.2: seq=14 ttl=64 time=0.160 ms
ping_4  | 64 bytes from 128.223.87.2: seq=11 ttl=64 time=0.174 ms
ping_9  | 64 bytes from 128.223.87.2: seq=9 ttl=64 time=0.161 ms
ping_8  | 64 bytes from 128.223.87.2: seq=11 ttl=64 time=0.174 ms
ping_34 | 64 bytes from 128.223.87.2: seq=1 ttl=64 time=0.059 ms
ping_20 | 64 bytes from 128.223.87.2: seq=19 ttl=64 time=0.151 ms
ping_31 | PING 128.223.87.2 (128.223.87.2): 56 data bytes
ping_22 | 64 bytes from 128.223.87.2: seq=3 ttl=64 time=0.175 ms
ping_18 | 64 bytes from 128.223.87.2: seq=15 ttl=64 time=0.179 ms
ping_6  | 64 bytes from 128.223.87.2: seq=22 ttl=64 time=0.181 ms
ping_14 | 64 bytes from 128.223.87.2: seq=9 ttl=64 time=0.179 ms
ping_34 | 64 bytes from 128.223.87.2: seq=2 ttl=64 time=0.156 ms
ping_16 | 64 bytes from 128.223.87.2: seq=16 ttl=64 time=0.182 ms
ping_1  | 64 bytes from 128.223.87.2: seq=20 ttl=64 time=0.183 ms
ping_35 | PING 128.223.87.2 (128.223.87.2): 56 data bytes
ping_23 | 64 bytes from 128.223.87.2: seq=2 ttl=64 time=0.144 ms
ping_22 | 64 bytes from 128.223.87.2: seq=4 ttl=64 time=0.147 ms
ping_7  | 64 bytes from 128.223.87.2: seq=9 ttl=64 time=0.157 ms
ping_9  | 64 bytes from 128.223.87.2: seq=10 ttl=64 time=0.181 ms
ping_12 | 64 bytes from 128.223.87.2: seq=3 ttl=64 time=0.165 ms
ping_20 | 64 bytes from 128.223.87.2: seq=20 ttl=64 time=0.041 ms
ping_11 | 64 bytes from 128.223.87.2: seq=13 ttl=64 time=0.114 ms
ping_15 | 64 bytes from 128.223.87.2: seq=10 ttl=64 time=0.080 ms
ping_13 | 64 bytes from 128.223.87.2: seq=15 ttl=64 time=0.181 ms
ping_18 | 64 bytes from 128.223.87.2: seq=16 ttl=64 time=0.179 ms
ping_6  | 64 bytes from 128.223.87.2: seq=23 ttl=64 time=0.088 ms
ping_6  | 64 bytes from 128.223.87.2: seq=24 ttl=64 time=0.190 ms
ping_6  | 
ping_6  | --- 128.223.87.2 ping statistics ---
ping_6  | 25 packets transmitted, 25 packets received, 0% packet loss
ping_6  | round-trip min/avg/max = 0.084/0.151/0.191 ms
ping_10 | 64 bytes from 128.223.87.2: seq=18 ttl=64 time=0.164 ms
ping_14 | 64 bytes from 128.223.87.2: seq=10 ttl=64 time=0.125 ms
ping_4  | 64 bytes from 128.223.87.2: seq=12 ttl=64 time=0.183 ms
ping_35 | 64 bytes from 128.223.87.2: seq=0 ttl=64 time=0.271 ms
ping_16 | 64 bytes from 128.223.87.2: seq=17 ttl=64 time=0.151 ms
ping_20 | 64 bytes from 128.223.87.2: seq=21 ttl=64 time=0.151 ms
ping_19 | 64 bytes from 128.223.87.2: seq=5 ttl=64 time=0.159 ms
ping_34 | 64 bytes from 128.223.87.2: seq=3 ttl=64 time=0.045 ms
ping_4  | 64 bytes from 128.223.87.2: seq=13 ttl=64 time=0.080 ms
ping_16 | 64 bytes from 128.223.87.2: seq=18 ttl=64 time=0.178 ms
ping_26 | 64 bytes from 128.223.87.2: seq=7 ttl=64 time=0.186 ms
ping_17 | 64 bytes from 128.223.87.2: seq=4 ttl=64 time=0.110 ms
ping_10 | 64 bytes from 128.223.87.2: seq=19 ttl=64 time=0.127 ms
ping_14 | 64 bytes from 128.223.87.2: seq=11 ttl=64 time=0.178 ms
ping_17 | 64 bytes from 128.223.87.2: seq=5 ttl=64 time=0.148 ms
ping_8  | 64 bytes from 128.223.87.2: seq=12 ttl=64 time=0.207 ms
ping_35 | 64 bytes from 128.223.87.2: seq=1 ttl=64 time=0.164 ms
ping_24 | 64 bytes from 128.223.87.2: seq=1 ttl=64 time=0.159 ms
ping_18 | 64 bytes from 128.223.87.2: seq=17 ttl=64 time=0.168 ms
ping_9  | 64 bytes from 128.223.87.2: seq=11 ttl=64 time=0.186 ms
ping_1  | 64 bytes from 128.223.87.2: seq=21 ttl=64 time=0.186 ms
ping_23 | 64 bytes from 128.223.87.2: seq=3 ttl=64 time=0.047 ms
ping_7  | 64 bytes from 128.223.87.2: seq=10 ttl=64 time=0.176 ms
ping_16 | 64 bytes from 128.223.87.2: seq=19 ttl=64 time=0.056 ms
ping_8  | 64 bytes from 128.223.87.2: seq=13 ttl=64 time=0.175 ms
ping_15 | 64 bytes from 128.223.87.2: seq=11 ttl=64 time=0.119 ms
ping_13 | 64 bytes from 128.223.87.2: seq=16 ttl=64 time=0.044 ms
ping_31 | 64 bytes from 128.223.87.2: seq=0 ttl=64 time=0.205 ms
ping_31 | 64 bytes from 128.223.87.2: seq=1 ttl=64 time=0.111 ms
ping_34 | 64 bytes from 128.223.87.2: seq=4 ttl=64 time=0.161 ms
ping_18 | 64 bytes from 128.223.87.2: seq=18 ttl=64 time=0.172 ms
ping_17 | 64 bytes from 128.223.87.2: seq=6 ttl=64 time=0.167 ms
ping_1  | 64 bytes from 128.223.87.2: seq=22 ttl=64 time=0.186 ms
ping_22 | 64 bytes from 128.223.87.2: seq=5 ttl=64 time=0.076 ms
ping_35 | 64 bytes from 128.223.87.2: seq=2 ttl=64 time=0.147 ms
ping_15 | 64 bytes from 128.223.87.2: seq=12 ttl=64 time=0.166 ms
ping_26 | 64 bytes from 128.223.87.2: seq=8 ttl=64 time=0.169 ms
ping_31 | 64 bytes from 128.223.87.2: seq=2 ttl=64 time=0.091 ms
ping_8  | 64 bytes from 128.223.87.2: seq=14 ttl=64 time=0.160 ms
ping_24 | 64 bytes from 128.223.87.2: seq=2 ttl=64 time=0.041 ms
ping_7  | 64 bytes from 128.223.87.2: seq=11 ttl=64 time=0.057 ms
ping_26 | 64 bytes from 128.223.87.2: seq=9 ttl=64 time=0.187 ms
ping_17 | 64 bytes from 128.223.87.2: seq=7 ttl=64 time=0.067 ms
ping_23 | 64 bytes from 128.223.87.2: seq=4 ttl=64 time=0.116 ms
ping_19 | 64 bytes from 128.223.87.2: seq=6 ttl=64 time=0.177 ms
ping_32 | PING 128.223.87.2 (128.223.87.2): 56 data bytes
ping_34 | 64 bytes from 128.223.87.2: seq=5 ttl=64 time=0.173 ms
ping_4  | 64 bytes from 128.223.87.2: seq=14 ttl=64 time=0.089 ms
ping_40 | PING 128.223.87.2 (128.223.87.2): 56 data bytes
ping_13 | 64 bytes from 128.223.87.2: seq=17 ttl=64 time=0.112 ms
ping_15 | 64 bytes from 128.223.87.2: seq=13 ttl=64 time=0.068 ms
ping_18 | 64 bytes from 128.223.87.2: seq=19 ttl=64 time=0.178 ms
ping_20 | 64 bytes from 128.223.87.2: seq=22 ttl=64 time=0.167 ms
ping_1  | 64 bytes from 128.223.87.2: seq=23 ttl=64 time=0.103 ms
ping_9  | 64 bytes from 128.223.87.2: seq=12 ttl=64 time=0.180 ms
ping_16 | 64 bytes from 128.223.87.2: seq=20 ttl=64 time=0.184 ms
ping_4  | 64 bytes from 128.223.87.2: seq=15 ttl=64 time=0.211 ms
softwareoverhead_ping_6 exited with code 0
ping_10 | 64 bytes from 128.223.87.2: seq=20 ttl=64 time=0.192 ms
ping_29 | PING 128.223.87.2 (128.223.87.2): 56 data bytes
ping_32 | 64 bytes from 128.223.87.2: seq=0 ttl=64 time=0.249 ms
ping_17 | 64 bytes from 128.223.87.2: seq=8 ttl=64 time=0.161 ms
ping_1  | 64 bytes from 128.223.87.2: seq=24 ttl=64 time=0.171 ms
ping_1  | 
ping_1  | --- 128.223.87.2 ping statistics ---
ping_1  | 25 packets transmitted, 25 packets received, 0% packet loss
ping_1  | round-trip min/avg/max = 0.066/0.147/0.186 ms
ping_24 | 64 bytes from 128.223.87.2: seq=3 ttl=64 time=0.176 ms
ping_12 | 64 bytes from 128.223.87.2: seq=4 ttl=64 time=0.178 ms
ping_20 | 64 bytes from 128.223.87.2: seq=23 ttl=64 time=0.179 ms
ping_35 | 64 bytes from 128.223.87.2: seq=3 ttl=64 time=0.183 ms
ping_15 | 64 bytes from 128.223.87.2: seq=14 ttl=64 time=0.183 ms
ping_13 | 64 bytes from 128.223.87.2: seq=18 ttl=64 time=0.096 ms
ping_12 | 64 bytes from 128.223.87.2: seq=5 ttl=64 time=0.152 ms
ping_16 | 64 bytes from 128.223.87.2: seq=21 ttl=64 time=0.181 ms
ping_8  | 64 bytes from 128.223.87.2: seq=15 ttl=64 time=0.119 ms
ping_35 | 64 bytes from 128.223.87.2: seq=4 ttl=64 time=0.078 ms
ping_20 | 64 bytes from 128.223.87.2: seq=24 ttl=64 time=0.185 ms
ping_20 | 
ping_20 | --- 128.223.87.2 ping statistics ---
ping_20 | 25 packets transmitted, 25 packets received, 0% packet loss
ping_20 | round-trip min/avg/max = 0.041/0.127/0.188 ms
ping_12 | 64 bytes from 128.223.87.2: seq=6 ttl=64 time=0.177 ms
ping_23 | 64 bytes from 128.223.87.2: seq=5 ttl=64 time=0.157 ms
ping_29 | 64 bytes from 128.223.87.2: seq=0 ttl=64 time=0.197 ms
ping_11 | 64 bytes from 128.223.87.2: seq=14 ttl=64 time=0.156 ms
ping_18 | 64 bytes from 128.223.87.2: seq=20 ttl=64 time=0.180 ms
ping_34 | 64 bytes from 128.223.87.2: seq=6 ttl=64 time=0.076 ms
ping_32 | 64 bytes from 128.223.87.2: seq=1 ttl=64 time=0.119 ms
ping_10 | 64 bytes from 128.223.87.2: seq=21 ttl=64 time=0.053 ms
ping_14 | 64 bytes from 128.223.87.2: seq=12 ttl=64 time=0.163 ms
ping_40 | 64 bytes from 128.223.87.2: seq=0 ttl=64 time=0.206 ms
ping_8  | 64 bytes from 128.223.87.2: seq=16 ttl=64 time=0.137 ms
ping_13 | 64 bytes from 128.223.87.2: seq=19 ttl=64 time=0.188 ms
ping_22 | 64 bytes from 128.223.87.2: seq=6 ttl=64 time=0.119 ms
ping_16 | 64 bytes from 128.223.87.2: seq=22 ttl=64 time=0.170 ms
ping_26 | 64 bytes from 128.223.87.2: seq=10 ttl=64 time=0.188 ms
ping_31 | 64 bytes from 128.223.87.2: seq=3 ttl=64 time=0.210 ms
ping_4  | 64 bytes from 128.223.87.2: seq=16 ttl=64 time=0.184 ms
ping_40 | 64 bytes from 128.223.87.2: seq=1 ttl=64 time=0.181 ms
ping_8  | 64 bytes from 128.223.87.2: seq=17 ttl=64 time=0.080 ms
ping_24 | 64 bytes from 128.223.87.2: seq=4 ttl=64 time=0.148 ms
ping_9  | 64 bytes from 128.223.87.2: seq=13 ttl=64 time=0.143 ms
ping_8  | 64 bytes from 128.223.87.2: seq=18 ttl=64 time=0.188 ms
ping_22 | 64 bytes from 128.223.87.2: seq=7 ttl=64 time=0.194 ms
ping_16 | 64 bytes from 128.223.87.2: seq=23 ttl=64 time=0.076 ms
ping_15 | 64 bytes from 128.223.87.2: seq=15 ttl=64 time=0.097 ms
ping_11 | 64 bytes from 128.223.87.2: seq=15 ttl=64 time=0.072 ms
ping_19 | 64 bytes from 128.223.87.2: seq=7 ttl=64 time=0.178 ms
ping_34 | 64 bytes from 128.223.87.2: seq=7 ttl=64 time=0.169 ms
ping_13 | 64 bytes from 128.223.87.2: seq=20 ttl=64 time=0.068 ms
ping_22 | 64 bytes from 128.223.87.2: seq=8 ttl=64 time=0.188 ms
ping_14 | 64 bytes from 128.223.87.2: seq=13 ttl=64 time=0.179 ms
ping_7  | 64 bytes from 128.223.87.2: seq=12 ttl=64 time=0.127 ms
ping_16 | 64 bytes from 128.223.87.2: seq=24 ttl=64 time=0.058 ms
ping_16 | 
ping_16 | --- 128.223.87.2 ping statistics ---
ping_16 | 25 packets transmitted, 25 packets received, 0% packet loss
ping_16 | round-trip min/avg/max = 0.056/0.132/0.192 ms
ping_18 | 64 bytes from 128.223.87.2: seq=21 ttl=64 time=0.180 ms
ping_26 | 64 bytes from 128.223.87.2: seq=11 ttl=64 time=0.195 ms
ping_19 | 64 bytes from 128.223.87.2: seq=8 ttl=64 time=0.162 ms
ping_34 | 64 bytes from 128.223.87.2: seq=8 ttl=64 time=0.042 ms
ping_23 | 64 bytes from 128.223.87.2: seq=6 ttl=64 time=0.177 ms
ping_29 | 64 bytes from 128.223.87.2: seq=1 ttl=64 time=0.085 ms
ping_40 | 64 bytes from 128.223.87.2: seq=2 ttl=64 time=0.112 ms
ping_9  | 64 bytes from 128.223.87.2: seq=14 ttl=64 time=0.181 ms
ping_17 | 64 bytes from 128.223.87.2: seq=9 ttl=64 time=0.074 ms
ping_12 | 64 bytes from 128.223.87.2: seq=7 ttl=64 time=0.182 ms
softwareoverhead_ping_1 exited with code 0
ping_24 | 64 bytes from 128.223.87.2: seq=5 ttl=64 time=0.094 ms
ping_35 | 64 bytes from 128.223.87.2: seq=5 ttl=64 time=0.163 ms
ping_31 | 64 bytes from 128.223.87.2: seq=4 ttl=64 time=0.118 ms
ping_8  | 64 bytes from 128.223.87.2: seq=19 ttl=64 time=0.213 ms
ping_13 | 64 bytes from 128.223.87.2: seq=21 ttl=64 time=0.040 ms
ping_10 | 64 bytes from 128.223.87.2: seq=22 ttl=64 time=0.069 ms
ping_29 | 64 bytes from 128.223.87.2: seq=2 ttl=64 time=0.103 ms
ping_9  | 64 bytes from 128.223.87.2: seq=15 ttl=64 time=0.080 ms
ping_39 | PING 128.223.87.2 (128.223.87.2): 56 data bytes
ping_34 | 64 bytes from 128.223.87.2: seq=9 ttl=64 time=0.148 ms
ping_4  | 64 bytes from 128.223.87.2: seq=17 ttl=64 time=0.056 ms
ping_15 | 64 bytes from 128.223.87.2: seq=16 ttl=64 time=0.150 ms
ping_40 | 64 bytes from 128.223.87.2: seq=3 ttl=64 time=0.097 ms
ping_18 | 64 bytes from 128.223.87.2: seq=22 ttl=64 time=0.169 ms
ping_13 | 64 bytes from 128.223.87.2: seq=22 ttl=64 time=0.051 ms
ping_11 | 64 bytes from 128.223.87.2: seq=16 ttl=64 time=0.078 ms
ping_9  | 64 bytes from 128.223.87.2: seq=16 ttl=64 time=0.186 ms
ping_12 | 64 bytes from 128.223.87.2: seq=8 ttl=64 time=0.183 ms
ping_4  | 64 bytes from 128.223.87.2: seq=18 ttl=64 time=0.179 ms
ping_14 | 64 bytes from 128.223.87.2: seq=14 ttl=64 time=0.077 ms
ping_19 | 64 bytes from 128.223.87.2: seq=9 ttl=64 time=0.163 ms
ping_28 | PING 128.223.87.2 (128.223.87.2): 56 data bytes
ping_7  | 64 bytes from 128.223.87.2: seq=13 ttl=64 time=0.176 ms
ping_32 | 64 bytes from 128.223.87.2: seq=2 ttl=64 time=0.173 ms
ping_40 | 64 bytes from 128.223.87.2: seq=4 ttl=64 time=0.187 ms
ping_34 | 64 bytes from 128.223.87.2: seq=10 ttl=64 time=0.219 ms
ping_11 | 64 bytes from 128.223.87.2: seq=17 ttl=64 time=0.107 ms
ping_23 | 64 bytes from 128.223.87.2: seq=7 ttl=64 time=0.080 ms
ping_22 | 64 bytes from 128.223.87.2: seq=9 ttl=64 time=0.132 ms
ping_29 | 64 bytes from 128.223.87.2: seq=3 ttl=64 time=0.186 ms
ping_4  | 64 bytes from 128.223.87.2: seq=19 ttl=64 time=0.100 ms
ping_26 | 64 bytes from 128.223.87.2: seq=12 ttl=64 time=0.104 ms
ping_8  | 64 bytes from 128.223.87.2: seq=20 ttl=64 time=0.076 ms
ping_39 | 64 bytes from 128.223.87.2: seq=0 ttl=64 time=0.214 ms
ping_12 | 64 bytes from 128.223.87.2: seq=9 ttl=64 time=0.160 ms
ping_35 | 64 bytes from 128.223.87.2: seq=6 ttl=64 time=0.079 ms
ping_36 | PING 128.223.87.2 (128.223.87.2): 56 data bytes
ping_17 | 64 bytes from 128.223.87.2: seq=10 ttl=64 time=0.146 ms
ping_33 | PING 128.223.87.2 (128.223.87.2): 56 data bytes
ping_24 | 64 bytes from 128.223.87.2: seq=6 ttl=64 time=0.178 ms
ping_35 | 64 bytes from 128.223.87.2: seq=7 ttl=64 time=0.167 ms
ping_40 | 64 bytes from 128.223.87.2: seq=5 ttl=64 time=0.118 ms
ping_9  | 64 bytes from 128.223.87.2: seq=17 ttl=64 time=0.167 ms
ping_10 | 64 bytes from 128.223.87.2: seq=23 ttl=64 time=0.083 ms
ping_28 | 64 bytes from 128.223.87.2: seq=0 ttl=64 time=0.208 ms
ping_7  | 64 bytes from 128.223.87.2: seq=14 ttl=64 time=0.183 ms
ping_19 | 64 bytes from 128.223.87.2: seq=10 ttl=64 time=0.162 ms
ping_21 | PING 128.223.87.2 (128.223.87.2): 56 data bytes
ping_29 | 64 bytes from 128.223.87.2: seq=4 ttl=64 time=0.196 ms
ping_24 | 64 bytes from 128.223.87.2: seq=7 ttl=64 time=0.125 ms
ping_7  | 64 bytes from 128.223.87.2: seq=15 ttl=64 time=0.060 ms
ping_26 | 64 bytes from 128.223.87.2: seq=13 ttl=64 time=0.061 ms
ping_14 | 64 bytes from 128.223.87.2: seq=15 ttl=64 time=0.170 ms
ping_9  | 64 bytes from 128.223.87.2: seq=18 ttl=64 time=0.097 ms
ping_33 | 64 bytes from 128.223.87.2: seq=0 ttl=64 time=0.296 ms
ping_35 | 64 bytes from 128.223.87.2: seq=8 ttl=64 time=0.143 ms
ping_39 | 64 bytes from 128.223.87.2: seq=1 ttl=64 time=0.200 ms
ping_29 | 64 bytes from 128.223.87.2: seq=5 ttl=64 time=0.189 ms
ping_4  | 64 bytes from 128.223.87.2: seq=20 ttl=64 time=0.219 ms
ping_19 | 64 bytes from 128.223.87.2: seq=11 ttl=64 time=0.159 ms
ping_28 | 64 bytes from 128.223.87.2: seq=1 ttl=64 time=0.117 ms
ping_32 | 64 bytes from 128.223.87.2: seq=3 ttl=64 time=0.171 ms
ping_22 | 64 bytes from 128.223.87.2: seq=10 ttl=64 time=0.233 ms
ping_18 | 64 bytes from 128.223.87.2: seq=23 ttl=64 time=0.148 ms
ping_31 | 64 bytes from 128.223.87.2: seq=5 ttl=64 time=0.123 ms
ping_36 | 64 bytes from 128.223.87.2: seq=0 ttl=64 time=0.191 ms
ping_23 | 64 bytes from 128.223.87.2: seq=8 ttl=64 time=0.189 ms
ping_34 | 64 bytes from 128.223.87.2: seq=11 ttl=64 time=0.163 ms
ping_21 | 64 bytes from 128.223.87.2: seq=0 ttl=64 time=0.219 ms
ping_17 | 64 bytes from 128.223.87.2: seq=11 ttl=64 time=0.081 ms
ping_9  | 64 bytes from 128.223.87.2: seq=19 ttl=64 time=0.160 ms
ping_12 | 64 bytes from 128.223.87.2: seq=10 ttl=64 time=0.165 ms
ping_35 | 64 bytes from 128.223.87.2: seq=9 ttl=64 time=0.186 ms
ping_8  | 64 bytes from 128.223.87.2: seq=21 ttl=64 time=0.093 ms
ping_14 | 64 bytes from 128.223.87.2: seq=16 ttl=64 time=0.141 ms
ping_29 | 64 bytes from 128.223.87.2: seq=6 ttl=64 time=0.089 ms
ping_31 | 64 bytes from 128.223.87.2: seq=6 ttl=64 time=0.196 ms
ping_39 | 64 bytes from 128.223.87.2: seq=2 ttl=64 time=0.213 ms
ping_17 | 64 bytes from 128.223.87.2: seq=12 ttl=64 time=0.116 ms
softwareoverhead_ping_16 exited with code 0
ping_24 | 64 bytes from 128.223.87.2: seq=8 ttl=64 time=0.174 ms
ping_24 | 64 bytes from 128.223.87.2: seq=9 ttl=64 time=0.173 ms
ping_24 | 64 bytes from 128.223.87.2: seq=10 ttl=64 time=0.111 ms
ping_23 | 64 bytes from 128.223.87.2: seq=9 ttl=64 time=0.066 ms
ping_28 | 64 bytes from 128.223.87.2: seq=2 ttl=64 time=0.125 ms
ping_28 | 64 bytes from 128.223.87.2: seq=3 ttl=64 time=0.186 ms
ping_23 | 64 bytes from 128.223.87.2: seq=10 ttl=64 time=0.128 ms
ping_33 | 64 bytes from 128.223.87.2: seq=1 ttl=64 time=0.167 ms
ping_7  | 64 bytes from 128.223.87.2: seq=16 ttl=64 time=0.079 ms
ping_36 | 64 bytes from 128.223.87.2: seq=1 ttl=64 time=0.164 ms
ping_28 | 64 bytes from 128.223.87.2: seq=4 ttl=64 time=0.034 ms
ping_39 | 64 bytes from 128.223.87.2: seq=3 ttl=64 time=0.170 ms
ping_12 | 64 bytes from 128.223.87.2: seq=11 ttl=64 time=0.057 ms
ping_23 | 64 bytes from 128.223.87.2: seq=11 ttl=64 time=0.114 ms
ping_40 | 64 bytes from 128.223.87.2: seq=6 ttl=64 time=0.078 ms
ping_39 | 64 bytes from 128.223.87.2: seq=4 ttl=64 time=0.145 ms
ping_33 | 64 bytes from 128.223.87.2: seq=2 ttl=64 time=0.185 ms
ping_17 | 64 bytes from 128.223.87.2: seq=13 ttl=64 time=0.080 ms
ping_28 | 64 bytes from 128.223.87.2: seq=5 ttl=64 time=0.049 ms
ping_19 | 64 bytes from 128.223.87.2: seq=12 ttl=64 time=0.061 ms
ping_11 | 64 bytes from 128.223.87.2: seq=18 ttl=64 time=0.188 ms
ping_7  | 64 bytes from 128.223.87.2: seq=17 ttl=64 time=0.073 ms
ping_31 | 64 bytes from 128.223.87.2: seq=7 ttl=64 time=0.188 ms
ping_37 | PING 128.223.87.2 (128.223.87.2): 56 data bytes
ping_28 | 64 bytes from 128.223.87.2: seq=6 ttl=64 time=0.052 ms
ping_39 | 64 bytes from 128.223.87.2: seq=5 ttl=64 time=0.078 ms
ping_40 | 64 bytes from 128.223.87.2: seq=7 ttl=64 time=0.109 ms
ping_19 | 64 bytes from 128.223.87.2: seq=13 ttl=64 time=0.120 ms
ping_23 | 64 bytes from 128.223.87.2: seq=12 ttl=64 time=0.202 ms
ping_12 | 64 bytes from 128.223.87.2: seq=12 ttl=64 time=0.132 ms
ping_25 | PING 128.223.87.2 (128.223.87.2): 56 data bytes
ping_17 | 64 bytes from 128.223.87.2: seq=14 ttl=64 time=0.185 ms
ping_14 | 64 bytes from 128.223.87.2: seq=17 ttl=64 time=0.155 ms
ping_11 | 64 bytes from 128.223.87.2: seq=19 ttl=64 time=0.213 ms
ping_19 | 64 bytes from 128.223.87.2: seq=14 ttl=64 time=0.215 ms
ping_31 | 64 bytes from 128.223.87.2: seq=8 ttl=64 time=0.062 ms
ping_32 | 64 bytes from 128.223.87.2: seq=4 ttl=64 time=0.166 ms
ping_21 | 64 bytes from 128.223.87.2: seq=1 ttl=64 time=0.166 ms
ping_29 | 64 bytes from 128.223.87.2: seq=7 ttl=64 time=0.213 ms
ping_40 | 64 bytes from 128.223.87.2: seq=8 ttl=64 time=0.103 ms
ping_37 | 64 bytes from 128.223.87.2: seq=0 ttl=64 time=0.206 ms
ping_39 | 64 bytes from 128.223.87.2: seq=6 ttl=64 time=0.151 ms
ping_11 | 64 bytes from 128.223.87.2: seq=20 ttl=64 time=0.185 ms
ping_19 | 64 bytes from 128.223.87.2: seq=15 ttl=64 time=0.056 ms
ping_36 | 64 bytes from 128.223.87.2: seq=2 ttl=64 time=0.079 ms
ping_21 | 64 bytes from 128.223.87.2: seq=2 ttl=64 time=0.066 ms
ping_14 | 64 bytes from 128.223.87.2: seq=18 ttl=64 time=0.173 ms
ping_17 | 64 bytes from 128.223.87.2: seq=15 ttl=64 time=0.034 ms
ping_36 | 64 bytes from 128.223.87.2: seq=3 ttl=64 time=0.184 ms
ping_32 | 64 bytes from 128.223.87.2: seq=5 ttl=64 time=0.075 ms
ping_31 | 64 bytes from 128.223.87.2: seq=9 ttl=64 time=0.167 ms
ping_36 | 64 bytes from 128.223.87.2: seq=4 ttl=64 time=0.084 ms
ping_25 | 64 bytes from 128.223.87.2: seq=0 ttl=64 time=0.341 ms
ping_37 | 64 bytes from 128.223.87.2: seq=1 ttl=64 time=0.118 ms
ping_33 | 64 bytes from 128.223.87.2: seq=3 ttl=64 time=0.148 ms
ping_32 | 64 bytes from 128.223.87.2: seq=6 ttl=64 time=0.079 ms
ping_25 | 64 bytes from 128.223.87.2: seq=1 ttl=64 time=0.140 ms
ping_38 | PING 128.223.87.2 (128.223.87.2): 56 data bytes
ping_21 | 64 bytes from 128.223.87.2: seq=3 ttl=64 time=0.124 ms
ping_37 | 64 bytes from 128.223.87.2: seq=2 ttl=64 time=0.074 ms
ping_19 | 64 bytes from 128.223.87.2: seq=16 ttl=64 time=0.076 ms
ping_17 | 64 bytes from 128.223.87.2: seq=16 ttl=64 time=0.178 ms
ping_11 | 64 bytes from 128.223.87.2: seq=21 ttl=64 time=0.067 ms
ping_12 | 64 bytes from 128.223.87.2: seq=13 ttl=64 time=0.047 ms
ping_25 | 64 bytes from 128.223.87.2: seq=2 ttl=64 time=0.160 ms
ping_21 | 64 bytes from 128.223.87.2: seq=4 ttl=64 time=0.123 ms
ping_36 | 64 bytes from 128.223.87.2: seq=5 ttl=64 time=0.186 ms
ping_33 | 64 bytes from 128.223.87.2: seq=4 ttl=64 time=0.158 ms
ping_21 | 64 bytes from 128.223.87.2: seq=5 ttl=64 time=0.173 ms
ping_12 | 64 bytes from 128.223.87.2: seq=14 ttl=64 time=0.165 ms
ping_37 | 64 bytes from 128.223.87.2: seq=3 ttl=64 time=0.224 ms
ping_38 | 64 bytes from 128.223.87.2: seq=0 ttl=64 time=0.289 ms
ping_11 | 64 bytes from 128.223.87.2: seq=22 ttl=64 time=0.196 ms
ping_36 | 64 bytes from 128.223.87.2: seq=6 ttl=64 time=0.077 ms
ping_32 | 64 bytes from 128.223.87.2: seq=7 ttl=64 time=0.150 ms
ping_38 | 64 bytes from 128.223.87.2: seq=1 ttl=64 time=0.075 ms
ping_25 | 64 bytes from 128.223.87.2: seq=3 ttl=64 time=0.049 ms
ping_30 | PING 128.223.87.2 (128.223.87.2): 56 data bytes
ping_27 | PING 128.223.87.2 (128.223.87.2): 56 data bytes
ping_25 | 64 bytes from 128.223.87.2: seq=4 ttl=64 time=0.082 ms
ping_33 | 64 bytes from 128.223.87.2: seq=5 ttl=64 time=0.197 ms
ping_12 | 64 bytes from 128.223.87.2: seq=15 ttl=64 time=0.094 ms
ping_30 | 64 bytes from 128.223.87.2: seq=0 ttl=64 time=0.203 ms
ping_27 | 64 bytes from 128.223.87.2: seq=0 ttl=64 time=0.240 ms
ping_27 | 64 bytes from 128.223.87.2: seq=1 ttl=64 time=0.047 ms
ping_36 | 64 bytes from 128.223.87.2: seq=7 ttl=64 time=0.161 ms
ping_32 | 64 bytes from 128.223.87.2: seq=8 ttl=64 time=0.074 ms
ping_38 | 64 bytes from 128.223.87.2: seq=2 ttl=64 time=0.069 ms
softwareoverhead_ping_20 exited with code 0
ping_18 | 64 bytes from 128.223.87.2: seq=24 ttl=64 time=0.092 ms
ping_18 | 
ping_18 | --- 128.223.87.2 ping statistics ---
ping_18 | 25 packets transmitted, 25 packets received, 0% packet loss
ping_18 | round-trip min/avg/max = 0.074/0.152/0.198 ms
ping_22 | 64 bytes from 128.223.87.2: seq=11 ttl=64 time=0.186 ms
ping_33 | 64 bytes from 128.223.87.2: seq=6 ttl=64 time=0.164 ms
ping_11 | 64 bytes from 128.223.87.2: seq=23 ttl=64 time=0.078 ms
ping_29 | 64 bytes from 128.223.87.2: seq=8 ttl=64 time=0.057 ms
ping_31 | 64 bytes from 128.223.87.2: seq=10 ttl=64 time=0.079 ms
ping_32 | 64 bytes from 128.223.87.2: seq=9 ttl=64 time=0.160 ms
ping_39 | 64 bytes from 128.223.87.2: seq=7 ttl=64 time=0.067 ms
ping_4  | 64 bytes from 128.223.87.2: seq=21 ttl=64 time=0.065 ms
ping_37 | 64 bytes from 128.223.87.2: seq=4 ttl=64 time=0.044 ms
softwareoverhead_ping_18 exited with code 0
ping_15 | 64 bytes from 128.223.87.2: seq=17 ttl=64 time=0.119 ms
ping_17 | 64 bytes from 128.223.87.2: seq=17 ttl=64 time=0.157 ms
ping_36 | 64 bytes from 128.223.87.2: seq=8 ttl=64 time=0.183 ms
ping_35 | 64 bytes from 128.223.87.2: seq=10 ttl=64 time=0.175 ms
ping_23 | 64 bytes from 128.223.87.2: seq=13 ttl=64 time=0.141 ms
ping_21 | 64 bytes from 128.223.87.2: seq=6 ttl=64 time=0.126 ms
ping_34 | 64 bytes from 128.223.87.2: seq=12 ttl=64 time=0.112 ms
ping_24 | 64 bytes from 128.223.87.2: seq=11 ttl=64 time=0.184 ms
ping_40 | 64 bytes from 128.223.87.2: seq=9 ttl=64 time=0.142 ms
ping_38 | 64 bytes from 128.223.87.2: seq=3 ttl=64 time=0.233 ms
ping_7  | 64 bytes from 128.223.87.2: seq=18 ttl=64 time=0.189 ms
ping_28 | 64 bytes from 128.223.87.2: seq=7 ttl=64 time=0.181 ms
ping_27 | 64 bytes from 128.223.87.2: seq=2 ttl=64 time=0.185 ms
ping_13 | 64 bytes from 128.223.87.2: seq=23 ttl=64 time=0.149 ms
ping_10 | 64 bytes from 128.223.87.2: seq=24 ttl=64 time=0.185 ms
ping_10 | 
ping_10 | --- 128.223.87.2 ping statistics ---
ping_10 | 25 packets transmitted, 25 packets received, 0% packet loss
ping_10 | round-trip min/avg/max = 0.040/0.126/0.209 ms
ping_12 | 64 bytes from 128.223.87.2: seq=16 ttl=64 time=0.172 ms
ping_9  | 64 bytes from 128.223.87.2: seq=20 ttl=64 time=0.183 ms
ping_14 | 64 bytes from 128.223.87.2: seq=19 ttl=64 time=0.185 ms
ping_8  | 64 bytes from 128.223.87.2: seq=22 ttl=64 time=0.217 ms
ping_25 | 64 bytes from 128.223.87.2: seq=5 ttl=64 time=0.149 ms
ping_19 | 64 bytes from 128.223.87.2: seq=17 ttl=64 time=0.180 ms
ping_30 | 64 bytes from 128.223.87.2: seq=1 ttl=64 time=0.072 ms
ping_26 | 64 bytes from 128.223.87.2: seq=14 ttl=64 time=0.068 ms
softwareoverhead_ping_10 exited with code 0
ping_22 | 64 bytes from 128.223.87.2: seq=12 ttl=64 time=0.151 ms
ping_33 | 64 bytes from 128.223.87.2: seq=7 ttl=64 time=0.185 ms
ping_11 | 64 bytes from 128.223.87.2: seq=24 ttl=64 time=0.119 ms
ping_11 | 
ping_11 | --- 128.223.87.2 ping statistics ---
ping_11 | 25 packets transmitted, 25 packets received, 0% packet loss
ping_11 | round-trip min/avg/max = 0.066/0.139/0.213 ms
ping_29 | 64 bytes from 128.223.87.2: seq=9 ttl=64 time=0.111 ms
ping_31 | 64 bytes from 128.223.87.2: seq=11 ttl=64 time=0.161 ms
ping_32 | 64 bytes from 128.223.87.2: seq=10 ttl=64 time=0.091 ms
ping_39 | 64 bytes from 128.223.87.2: seq=8 ttl=64 time=0.150 ms
ping_4  | 64 bytes from 128.223.87.2: seq=22 ttl=64 time=0.139 ms
ping_37 | 64 bytes from 128.223.87.2: seq=5 ttl=64 time=0.109 ms
ping_15 | 64 bytes from 128.223.87.2: seq=18 ttl=64 time=0.063 ms
ping_17 | 64 bytes from 128.223.87.2: seq=18 ttl=64 time=0.082 ms
ping_36 | 64 bytes from 128.223.87.2: seq=9 ttl=64 time=0.047 ms
ping_35 | 64 bytes from 128.223.87.2: seq=11 ttl=64 time=0.058 ms
ping_23 | 64 bytes from 128.223.87.2: seq=14 ttl=64 time=0.039 ms
ping_21 | 64 bytes from 128.223.87.2: seq=7 ttl=64 time=0.124 ms
softwareoverhead_ping_11 exited with code 0
ping_34 | 64 bytes from 128.223.87.2: seq=13 ttl=64 time=0.129 ms
ping_24 | 64 bytes from 128.223.87.2: seq=12 ttl=64 time=0.182 ms
ping_40 | 64 bytes from 128.223.87.2: seq=10 ttl=64 time=0.164 ms
ping_38 | 64 bytes from 128.223.87.2: seq=4 ttl=64 time=0.185 ms
ping_7  | 64 bytes from 128.223.87.2: seq=19 ttl=64 time=0.193 ms
ping_28 | 64 bytes from 128.223.87.2: seq=8 ttl=64 time=0.148 ms
ping_27 | 64 bytes from 128.223.87.2: seq=3 ttl=64 time=0.180 ms
ping_13 | 64 bytes from 128.223.87.2: seq=24 ttl=64 time=0.175 ms
ping_13 | 
ping_13 | --- 128.223.87.2 ping statistics ---
ping_13 | 25 packets transmitted, 25 packets received, 0% packet loss
ping_13 | round-trip min/avg/max = 0.040/0.120/0.227 ms
ping_12 | 64 bytes from 128.223.87.2: seq=17 ttl=64 time=0.181 ms
ping_9  | 64 bytes from 128.223.87.2: seq=21 ttl=64 time=0.138 ms
ping_14 | 64 bytes from 128.223.87.2: seq=20 ttl=64 time=0.126 ms
ping_8  | 64 bytes from 128.223.87.2: seq=23 ttl=64 time=0.152 ms
ping_25 | 64 bytes from 128.223.87.2: seq=6 ttl=64 time=0.137 ms
ping_19 | 64 bytes from 128.223.87.2: seq=18 ttl=64 time=0.065 ms
ping_30 | 64 bytes from 128.223.87.2: seq=2 ttl=64 time=0.057 ms
ping_26 | 64 bytes from 128.223.87.2: seq=15 ttl=64 time=0.060 ms
softwareoverhead_ping_13 exited with code 0
ping_22 | 64 bytes from 128.223.87.2: seq=13 ttl=64 time=0.168 ms
ping_33 | 64 bytes from 128.223.87.2: seq=8 ttl=64 time=0.185 ms
ping_29 | 64 bytes from 128.223.87.2: seq=10 ttl=64 time=0.184 ms
ping_31 | 64 bytes from 128.223.87.2: seq=12 ttl=64 time=0.186 ms
ping_32 | 64 bytes from 128.223.87.2: seq=11 ttl=64 time=0.165 ms
ping_39 | 64 bytes from 128.223.87.2: seq=9 ttl=64 time=0.155 ms
ping_4  | 64 bytes from 128.223.87.2: seq=23 ttl=64 time=0.085 ms
ping_37 | 64 bytes from 128.223.87.2: seq=6 ttl=64 time=0.110 ms
ping_15 | 64 bytes from 128.223.87.2: seq=19 ttl=64 time=0.156 ms
ping_17 | 64 bytes from 128.223.87.2: seq=19 ttl=64 time=0.118 ms
ping_36 | 64 bytes from 128.223.87.2: seq=10 ttl=64 time=0.122 ms
ping_35 | 64 bytes from 128.223.87.2: seq=12 ttl=64 time=0.109 ms
ping_23 | 64 bytes from 128.223.87.2: seq=15 ttl=64 time=0.121 ms
ping_21 | 64 bytes from 128.223.87.2: seq=8 ttl=64 time=0.109 ms
ping_34 | 64 bytes from 128.223.87.2: seq=14 ttl=64 time=0.108 ms
ping_24 | 64 bytes from 128.223.87.2: seq=13 ttl=64 time=0.117 ms
ping_40 | 64 bytes from 128.223.87.2: seq=11 ttl=64 time=0.163 ms
ping_38 | 64 bytes from 128.223.87.2: seq=5 ttl=64 time=0.164 ms
ping_7  | 64 bytes from 128.223.87.2: seq=20 ttl=64 time=0.159 ms
ping_28 | 64 bytes from 128.223.87.2: seq=9 ttl=64 time=0.181 ms
ping_27 | 64 bytes from 128.223.87.2: seq=4 ttl=64 time=0.182 ms
ping_12 | 64 bytes from 128.223.87.2: seq=18 ttl=64 time=0.138 ms
ping_9  | 64 bytes from 128.223.87.2: seq=22 ttl=64 time=0.223 ms
ping_14 | 64 bytes from 128.223.87.2: seq=21 ttl=64 time=0.136 ms
ping_8  | 64 bytes from 128.223.87.2: seq=24 ttl=64 time=0.162 ms
ping_8  | 
ping_8  | --- 128.223.87.2 ping statistics ---
ping_8  | 25 packets transmitted, 25 packets received, 0% packet loss
ping_8  | round-trip min/avg/max = 0.053/0.139/0.217 ms
ping_25 | 64 bytes from 128.223.87.2: seq=7 ttl=64 time=0.160 ms
ping_19 | 64 bytes from 128.223.87.2: seq=19 ttl=64 time=0.120 ms
ping_30 | 64 bytes from 128.223.87.2: seq=3 ttl=64 time=0.059 ms
ping_26 | 64 bytes from 128.223.87.2: seq=16 ttl=64 time=0.053 ms
softwareoverhead_ping_8 exited with code 0
ping_22 | 64 bytes from 128.223.87.2: seq=14 ttl=64 time=0.167 ms
ping_33 | 64 bytes from 128.223.87.2: seq=9 ttl=64 time=0.182 ms
ping_29 | 64 bytes from 128.223.87.2: seq=11 ttl=64 time=0.182 ms
ping_31 | 64 bytes from 128.223.87.2: seq=13 ttl=64 time=0.185 ms
ping_32 | 64 bytes from 128.223.87.2: seq=12 ttl=64 time=0.180 ms
ping_39 | 64 bytes from 128.223.87.2: seq=10 ttl=64 time=0.179 ms
ping_4  | 64 bytes from 128.223.87.2: seq=24 ttl=64 time=0.086 ms
ping_4  | 
ping_4  | --- 128.223.87.2 ping statistics ---
ping_4  | 25 packets transmitted, 25 packets received, 0% packet loss
ping_4  | round-trip min/avg/max = 0.056/0.134/0.219 ms
ping_37 | 64 bytes from 128.223.87.2: seq=7 ttl=64 time=0.087 ms
ping_15 | 64 bytes from 128.223.87.2: seq=20 ttl=64 time=0.099 ms
ping_17 | 64 bytes from 128.223.87.2: seq=20 ttl=64 time=0.178 ms
ping_36 | 64 bytes from 128.223.87.2: seq=11 ttl=64 time=0.187 ms
ping_35 | 64 bytes from 128.223.87.2: seq=13 ttl=64 time=0.191 ms
ping_23 | 64 bytes from 128.223.87.2: seq=16 ttl=64 time=0.150 ms
ping_21 | 64 bytes from 128.223.87.2: seq=9 ttl=64 time=0.123 ms
ping_34 | 64 bytes from 128.223.87.2: seq=15 ttl=64 time=0.060 ms
ping_24 | 64 bytes from 128.223.87.2: seq=14 ttl=64 time=0.074 ms
ping_40 | 64 bytes from 128.223.87.2: seq=12 ttl=64 time=0.162 ms
ping_38 | 64 bytes from 128.223.87.2: seq=6 ttl=64 time=0.163 ms
ping_7  | 64 bytes from 128.223.87.2: seq=21 ttl=64 time=0.203 ms
ping_28 | 64 bytes from 128.223.87.2: seq=10 ttl=64 time=0.176 ms
ping_27 | 64 bytes from 128.223.87.2: seq=5 ttl=64 time=0.172 ms
ping_12 | 64 bytes from 128.223.87.2: seq=19 ttl=64 time=0.154 ms
ping_9  | 64 bytes from 128.223.87.2: seq=23 ttl=64 time=0.156 ms
ping_14 | 64 bytes from 128.223.87.2: seq=22 ttl=64 time=0.231 ms
ping_25 | 64 bytes from 128.223.87.2: seq=8 ttl=64 time=0.086 ms
ping_19 | 64 bytes from 128.223.87.2: seq=20 ttl=64 time=0.047 ms
ping_30 | 64 bytes from 128.223.87.2: seq=4 ttl=64 time=0.059 ms
ping_26 | 64 bytes from 128.223.87.2: seq=17 ttl=64 time=0.080 ms
softwareoverhead_ping_4 exited with code 0
ping_22 | 64 bytes from 128.223.87.2: seq=15 ttl=64 time=0.185 ms
ping_33 | 64 bytes from 128.223.87.2: seq=10 ttl=64 time=0.182 ms
ping_29 | 64 bytes from 128.223.87.2: seq=12 ttl=64 time=0.180 ms
ping_31 | 64 bytes from 128.223.87.2: seq=14 ttl=64 time=0.180 ms
ping_32 | 64 bytes from 128.223.87.2: seq=13 ttl=64 time=0.110 ms
ping_39 | 64 bytes from 128.223.87.2: seq=11 ttl=64 time=0.112 ms
ping_37 | 64 bytes from 128.223.87.2: seq=8 ttl=64 time=0.071 ms
ping_15 | 64 bytes from 128.223.87.2: seq=21 ttl=64 time=0.094 ms
ping_17 | 64 bytes from 128.223.87.2: seq=21 ttl=64 time=0.088 ms
ping_36 | 64 bytes from 128.223.87.2: seq=12 ttl=64 time=0.119 ms
ping_35 | 64 bytes from 128.223.87.2: seq=14 ttl=64 time=0.179 ms
ping_23 | 64 bytes from 128.223.87.2: seq=17 ttl=64 time=0.178 ms
ping_21 | 64 bytes from 128.223.87.2: seq=10 ttl=64 time=0.125 ms
ping_34 | 64 bytes from 128.223.87.2: seq=16 ttl=64 time=0.180 ms
ping_24 | 64 bytes from 128.223.87.2: seq=15 ttl=64 time=0.172 ms
ping_40 | 64 bytes from 128.223.87.2: seq=13 ttl=64 time=0.181 ms
ping_38 | 64 bytes from 128.223.87.2: seq=7 ttl=64 time=0.137 ms
ping_7  | 64 bytes from 128.223.87.2: seq=22 ttl=64 time=0.110 ms
ping_28 | 64 bytes from 128.223.87.2: seq=11 ttl=64 time=0.108 ms
ping_27 | 64 bytes from 128.223.87.2: seq=6 ttl=64 time=0.111 ms
ping_12 | 64 bytes from 128.223.87.2: seq=20 ttl=64 time=0.161 ms
ping_9  | 64 bytes from 128.223.87.2: seq=24 ttl=64 time=0.147 ms
ping_9  | 
ping_9  | --- 128.223.87.2 ping statistics ---
ping_9  | 25 packets transmitted, 25 packets received, 0% packet loss
ping_9  | round-trip min/avg/max = 0.038/0.135/0.223 ms
ping_14 | 64 bytes from 128.223.87.2: seq=23 ttl=64 time=0.177 ms
ping_25 | 64 bytes from 128.223.87.2: seq=9 ttl=64 time=0.185 ms
ping_19 | 64 bytes from 128.223.87.2: seq=21 ttl=64 time=0.166 ms
ping_30 | 64 bytes from 128.223.87.2: seq=5 ttl=64 time=0.068 ms
ping_26 | 64 bytes from 128.223.87.2: seq=18 ttl=64 time=0.079 ms
softwareoverhead_ping_9 exited with code 0
ping_22 | 64 bytes from 128.223.87.2: seq=16 ttl=64 time=0.152 ms
ping_33 | 64 bytes from 128.223.87.2: seq=11 ttl=64 time=0.162 ms
ping_29 | 64 bytes from 128.223.87.2: seq=13 ttl=64 time=0.182 ms
ping_31 | 64 bytes from 128.223.87.2: seq=15 ttl=64 time=0.234 ms
ping_32 | 64 bytes from 128.223.87.2: seq=14 ttl=64 time=0.180 ms
ping_39 | 64 bytes from 128.223.87.2: seq=12 ttl=64 time=0.184 ms
ping_37 | 64 bytes from 128.223.87.2: seq=9 ttl=64 time=0.246 ms
ping_15 | 64 bytes from 128.223.87.2: seq=22 ttl=64 time=0.152 ms
ping_17 | 64 bytes from 128.223.87.2: seq=22 ttl=64 time=0.128 ms
ping_36 | 64 bytes from 128.223.87.2: seq=13 ttl=64 time=0.122 ms
ping_35 | 64 bytes from 128.223.87.2: seq=15 ttl=64 time=0.047 ms
ping_21 | 64 bytes from 128.223.87.2: seq=11 ttl=64 time=0.036 ms
ping_23 | 64 bytes from 128.223.87.2: seq=18 ttl=64 time=0.077 ms
ping_34 | 64 bytes from 128.223.87.2: seq=17 ttl=64 time=0.133 ms
ping_24 | 64 bytes from 128.223.87.2: seq=16 ttl=64 time=0.178 ms
ping_40 | 64 bytes from 128.223.87.2: seq=14 ttl=64 time=0.179 ms
ping_38 | 64 bytes from 128.223.87.2: seq=8 ttl=64 time=0.179 ms
ping_7  | 64 bytes from 128.223.87.2: seq=23 ttl=64 time=0.179 ms
ping_28 | 64 bytes from 128.223.87.2: seq=12 ttl=64 time=0.179 ms
ping_27 | 64 bytes from 128.223.87.2: seq=7 ttl=64 time=0.143 ms
ping_12 | 64 bytes from 128.223.87.2: seq=21 ttl=64 time=0.110 ms
ping_14 | 64 bytes from 128.223.87.2: seq=24 ttl=64 time=0.159 ms
ping_14 | 
ping_14 | --- 128.223.87.2 ping statistics ---
ping_14 | 25 packets transmitted, 25 packets received, 0% packet loss
ping_14 | round-trip min/avg/max = 0.047/0.142/0.231 ms
ping_25 | 64 bytes from 128.223.87.2: seq=10 ttl=64 time=0.160 ms
ping_19 | 64 bytes from 128.223.87.2: seq=22 ttl=64 time=0.179 ms
ping_30 | 64 bytes from 128.223.87.2: seq=6 ttl=64 time=0.062 ms
ping_26 | 64 bytes from 128.223.87.2: seq=19 ttl=64 time=0.057 ms
softwareoverhead_ping_14 exited with code 0
ping_22 | 64 bytes from 128.223.87.2: seq=17 ttl=64 time=0.162 ms
ping_33 | 64 bytes from 128.223.87.2: seq=12 ttl=64 time=0.185 ms
ping_29 | 64 bytes from 128.223.87.2: seq=14 ttl=64 time=0.181 ms
ping_31 | 64 bytes from 128.223.87.2: seq=16 ttl=64 time=0.181 ms
ping_32 | 64 bytes from 128.223.87.2: seq=15 ttl=64 time=0.182 ms
ping_39 | 64 bytes from 128.223.87.2: seq=13 ttl=64 time=0.182 ms
ping_37 | 64 bytes from 128.223.87.2: seq=10 ttl=64 time=0.179 ms
ping_15 | 64 bytes from 128.223.87.2: seq=23 ttl=64 time=0.181 ms
ping_17 | 64 bytes from 128.223.87.2: seq=23 ttl=64 time=0.184 ms
ping_36 | 64 bytes from 128.223.87.2: seq=14 ttl=64 time=0.206 ms
ping_35 | 64 bytes from 128.223.87.2: seq=16 ttl=64 time=0.112 ms
ping_23 | 64 bytes from 128.223.87.2: seq=19 ttl=64 time=0.126 ms
ping_21 | 64 bytes from 128.223.87.2: seq=12 ttl=64 time=0.112 ms
ping_34 | 64 bytes from 128.223.87.2: seq=18 ttl=64 time=0.109 ms
ping_24 | 64 bytes from 128.223.87.2: seq=17 ttl=64 time=0.173 ms
ping_40 | 64 bytes from 128.223.87.2: seq=15 ttl=64 time=0.177 ms
ping_38 | 64 bytes from 128.223.87.2: seq=9 ttl=64 time=0.126 ms
ping_7  | 64 bytes from 128.223.87.2: seq=24 ttl=64 time=0.110 ms
ping_7  | 
ping_7  | --- 128.223.87.2 ping statistics ---
ping_7  | 25 packets transmitted, 25 packets received, 0% packet loss
ping_7  | round-trip min/avg/max = 0.057/0.138/0.203 ms
ping_28 | 64 bytes from 128.223.87.2: seq=13 ttl=64 time=0.108 ms
ping_27 | 64 bytes from 128.223.87.2: seq=8 ttl=64 time=0.110 ms
ping_12 | 64 bytes from 128.223.87.2: seq=22 ttl=64 time=0.115 ms
ping_25 | 64 bytes from 128.223.87.2: seq=11 ttl=64 time=0.069 ms
ping_19 | 64 bytes from 128.223.87.2: seq=23 ttl=64 time=0.134 ms
ping_30 | 64 bytes from 128.223.87.2: seq=7 ttl=64 time=0.148 ms
ping_26 | 64 bytes from 128.223.87.2: seq=20 ttl=64 time=0.185 ms
softwareoverhead_ping_7 exited with code 0
ping_22 | 64 bytes from 128.223.87.2: seq=18 ttl=64 time=0.187 ms
ping_33 | 64 bytes from 128.223.87.2: seq=13 ttl=64 time=0.143 ms
ping_29 | 64 bytes from 128.223.87.2: seq=15 ttl=64 time=0.184 ms
ping_31 | 64 bytes from 128.223.87.2: seq=17 ttl=64 time=0.175 ms
ping_32 | 64 bytes from 128.223.87.2: seq=16 ttl=64 time=0.175 ms
ping_39 | 64 bytes from 128.223.87.2: seq=14 ttl=64 time=0.181 ms
ping_37 | 64 bytes from 128.223.87.2: seq=11 ttl=64 time=0.178 ms
ping_15 | 64 bytes from 128.223.87.2: seq=24 ttl=64 time=0.180 ms
ping_15 | 
ping_15 | --- 128.223.87.2 ping statistics ---
ping_15 | 25 packets transmitted, 25 packets received, 0% packet loss
ping_15 | round-trip min/avg/max = 0.063/0.130/0.197 ms
ping_17 | 64 bytes from 128.223.87.2: seq=24 ttl=64 time=0.177 ms
ping_17 | 
ping_17 | --- 128.223.87.2 ping statistics ---
ping_17 | 25 packets transmitted, 25 packets received, 0% packet loss
ping_17 | round-trip min/avg/max = 0.034/0.126/0.193 ms
ping_36 | 64 bytes from 128.223.87.2: seq=15 ttl=64 time=0.193 ms
ping_35 | 64 bytes from 128.223.87.2: seq=17 ttl=64 time=0.070 ms
ping_23 | 64 bytes from 128.223.87.2: seq=20 ttl=64 time=0.062 ms
ping_21 | 64 bytes from 128.223.87.2: seq=13 ttl=64 time=0.055 ms
ping_34 | 64 bytes from 128.223.87.2: seq=19 ttl=64 time=0.057 ms
ping_24 | 64 bytes from 128.223.87.2: seq=18 ttl=64 time=0.049 ms
ping_40 | 64 bytes from 128.223.87.2: seq=16 ttl=64 time=0.036 ms
ping_38 | 64 bytes from 128.223.87.2: seq=10 ttl=64 time=0.174 ms
ping_28 | 64 bytes from 128.223.87.2: seq=14 ttl=64 time=0.144 ms
ping_27 | 64 bytes from 128.223.87.2: seq=9 ttl=64 time=0.117 ms
ping_12 | 64 bytes from 128.223.87.2: seq=23 ttl=64 time=0.143 ms
ping_25 | 64 bytes from 128.223.87.2: seq=12 ttl=64 time=0.105 ms
ping_19 | 64 bytes from 128.223.87.2: seq=24 ttl=64 time=0.068 ms
ping_19 | 
ping_19 | --- 128.223.87.2 ping statistics ---
ping_19 | 25 packets transmitted, 25 packets received, 0% packet loss
ping_19 | round-trip min/avg/max = 0.047/0.126/0.215 ms
ping_30 | 64 bytes from 128.223.87.2: seq=8 ttl=64 time=0.081 ms
ping_26 | 64 bytes from 128.223.87.2: seq=21 ttl=64 time=0.063 ms
softwareoverhead_ping_15 exited with code 0
softwareoverhead_ping_17 exited with code 0
ping_22 | 64 bytes from 128.223.87.2: seq=19 ttl=64 time=0.078 ms
ping_33 | 64 bytes from 128.223.87.2: seq=14 ttl=64 time=0.078 ms
softwareoverhead_ping_19 exited with code 0
ping_29 | 64 bytes from 128.223.87.2: seq=16 ttl=64 time=0.159 ms
ping_31 | 64 bytes from 128.223.87.2: seq=18 ttl=64 time=0.160 ms
ping_32 | 64 bytes from 128.223.87.2: seq=17 ttl=64 time=0.180 ms
ping_39 | 64 bytes from 128.223.87.2: seq=15 ttl=64 time=0.160 ms
ping_37 | 64 bytes from 128.223.87.2: seq=12 ttl=64 time=0.177 ms
ping_36 | 64 bytes from 128.223.87.2: seq=16 ttl=64 time=0.180 ms
ping_35 | 64 bytes from 128.223.87.2: seq=18 ttl=64 time=0.122 ms
ping_23 | 64 bytes from 128.223.87.2: seq=21 ttl=64 time=0.152 ms
ping_21 | 64 bytes from 128.223.87.2: seq=14 ttl=64 time=0.118 ms
ping_34 | 64 bytes from 128.223.87.2: seq=20 ttl=64 time=0.131 ms
ping_24 | 64 bytes from 128.223.87.2: seq=19 ttl=64 time=0.158 ms
ping_40 | 64 bytes from 128.223.87.2: seq=17 ttl=64 time=0.162 ms
ping_38 | 64 bytes from 128.223.87.2: seq=11 ttl=64 time=0.180 ms
ping_28 | 64 bytes from 128.223.87.2: seq=15 ttl=64 time=0.178 ms
ping_27 | 64 bytes from 128.223.87.2: seq=10 ttl=64 time=0.139 ms
ping_12 | 64 bytes from 128.223.87.2: seq=24 ttl=64 time=0.179 ms
ping_12 | 
ping_12 | --- 128.223.87.2 ping statistics ---
ping_12 | 25 packets transmitted, 25 packets received, 0% packet loss
ping_12 | round-trip min/avg/max = 0.047/0.141/0.183 ms
ping_25 | 64 bytes from 128.223.87.2: seq=13 ttl=64 time=0.073 ms
ping_30 | 64 bytes from 128.223.87.2: seq=9 ttl=64 time=0.064 ms
ping_26 | 64 bytes from 128.223.87.2: seq=22 ttl=64 time=0.155 ms
softwareoverhead_ping_12 exited with code 0
ping_22 | 64 bytes from 128.223.87.2: seq=20 ttl=64 time=0.165 ms
ping_33 | 64 bytes from 128.223.87.2: seq=15 ttl=64 time=0.181 ms
ping_29 | 64 bytes from 128.223.87.2: seq=17 ttl=64 time=0.179 ms
ping_31 | 64 bytes from 128.223.87.2: seq=19 ttl=64 time=0.183 ms
ping_32 | 64 bytes from 128.223.87.2: seq=18 ttl=64 time=0.179 ms
ping_39 | 64 bytes from 128.223.87.2: seq=16 ttl=64 time=0.181 ms
ping_37 | 64 bytes from 128.223.87.2: seq=13 ttl=64 time=0.124 ms
ping_36 | 64 bytes from 128.223.87.2: seq=17 ttl=64 time=0.157 ms
ping_35 | 64 bytes from 128.223.87.2: seq=19 ttl=64 time=0.178 ms
ping_23 | 64 bytes from 128.223.87.2: seq=22 ttl=64 time=0.178 ms
ping_21 | 64 bytes from 128.223.87.2: seq=15 ttl=64 time=0.137 ms
ping_34 | 64 bytes from 128.223.87.2: seq=21 ttl=64 time=0.174 ms
ping_24 | 64 bytes from 128.223.87.2: seq=20 ttl=64 time=0.104 ms
ping_40 | 64 bytes from 128.223.87.2: seq=18 ttl=64 time=0.133 ms
ping_38 | 64 bytes from 128.223.87.2: seq=12 ttl=64 time=0.161 ms
ping_28 | 64 bytes from 128.223.87.2: seq=16 ttl=64 time=0.157 ms
ping_27 | 64 bytes from 128.223.87.2: seq=11 ttl=64 time=0.159 ms
ping_25 | 64 bytes from 128.223.87.2: seq=14 ttl=64 time=0.178 ms
ping_30 | 64 bytes from 128.223.87.2: seq=10 ttl=64 time=0.177 ms
ping_26 | 64 bytes from 128.223.87.2: seq=23 ttl=64 time=0.177 ms
ping_22 | 64 bytes from 128.223.87.2: seq=21 ttl=64 time=0.161 ms
ping_33 | 64 bytes from 128.223.87.2: seq=16 ttl=64 time=0.162 ms
ping_29 | 64 bytes from 128.223.87.2: seq=18 ttl=64 time=0.177 ms
ping_31 | 64 bytes from 128.223.87.2: seq=20 ttl=64 time=0.178 ms
ping_32 | 64 bytes from 128.223.87.2: seq=19 ttl=64 time=0.222 ms
ping_39 | 64 bytes from 128.223.87.2: seq=17 ttl=64 time=0.179 ms
ping_37 | 64 bytes from 128.223.87.2: seq=14 ttl=64 time=0.179 ms
ping_36 | 64 bytes from 128.223.87.2: seq=18 ttl=64 time=0.178 ms
ping_35 | 64 bytes from 128.223.87.2: seq=20 ttl=64 time=0.177 ms
ping_23 | 64 bytes from 128.223.87.2: seq=23 ttl=64 time=0.174 ms
ping_21 | 64 bytes from 128.223.87.2: seq=16 ttl=64 time=0.175 ms
ping_34 | 64 bytes from 128.223.87.2: seq=22 ttl=64 time=0.180 ms
ping_24 | 64 bytes from 128.223.87.2: seq=21 ttl=64 time=0.147 ms
ping_40 | 64 bytes from 128.223.87.2: seq=19 ttl=64 time=0.109 ms
ping_38 | 64 bytes from 128.223.87.2: seq=13 ttl=64 time=0.108 ms
ping_28 | 64 bytes from 128.223.87.2: seq=17 ttl=64 time=0.161 ms
ping_27 | 64 bytes from 128.223.87.2: seq=12 ttl=64 time=0.161 ms
ping_25 | 64 bytes from 128.223.87.2: seq=15 ttl=64 time=0.160 ms
ping_30 | 64 bytes from 128.223.87.2: seq=11 ttl=64 time=0.177 ms
ping_26 | 64 bytes from 128.223.87.2: seq=24 ttl=64 time=0.180 ms
ping_26 | 
ping_26 | --- 128.223.87.2 ping statistics ---
ping_26 | 25 packets transmitted, 25 packets received, 0% packet loss
ping_26 | round-trip min/avg/max = 0.053/0.139/0.209 ms
ping_22 | 64 bytes from 128.223.87.2: seq=22 ttl=64 time=0.074 ms
ping_33 | 64 bytes from 128.223.87.2: seq=17 ttl=64 time=0.054 ms
softwareoverhead_ping_26 exited with code 0
ping_29 | 64 bytes from 128.223.87.2: seq=19 ttl=64 time=0.141 ms
ping_31 | 64 bytes from 128.223.87.2: seq=21 ttl=64 time=0.181 ms
ping_32 | 64 bytes from 128.223.87.2: seq=20 ttl=64 time=0.176 ms
ping_39 | 64 bytes from 128.223.87.2: seq=18 ttl=64 time=0.162 ms
ping_37 | 64 bytes from 128.223.87.2: seq=15 ttl=64 time=0.157 ms
ping_36 | 64 bytes from 128.223.87.2: seq=19 ttl=64 time=0.175 ms
ping_35 | 64 bytes from 128.223.87.2: seq=21 ttl=64 time=0.177 ms
ping_23 | 64 bytes from 128.223.87.2: seq=24 ttl=64 time=0.169 ms
ping_23 | 
ping_23 | --- 128.223.87.2 ping statistics ---
ping_23 | 25 packets transmitted, 25 packets received, 0% packet loss
ping_23 | round-trip min/avg/max = 0.039/0.133/0.268 ms
ping_21 | 64 bytes from 128.223.87.2: seq=17 ttl=64 time=0.169 ms
ping_34 | 64 bytes from 128.223.87.2: seq=23 ttl=64 time=0.127 ms
ping_24 | 64 bytes from 128.223.87.2: seq=22 ttl=64 time=0.076 ms
ping_40 | 64 bytes from 128.223.87.2: seq=20 ttl=64 time=0.072 ms
ping_38 | 64 bytes from 128.223.87.2: seq=14 ttl=64 time=0.067 ms
ping_28 | 64 bytes from 128.223.87.2: seq=18 ttl=64 time=0.161 ms
ping_27 | 64 bytes from 128.223.87.2: seq=13 ttl=64 time=0.125 ms
ping_25 | 64 bytes from 128.223.87.2: seq=16 ttl=64 time=0.069 ms
ping_30 | 64 bytes from 128.223.87.2: seq=12 ttl=64 time=0.169 ms
softwareoverhead_ping_23 exited with code 0
ping_22 | 64 bytes from 128.223.87.2: seq=23 ttl=64 time=0.164 ms
ping_33 | 64 bytes from 128.223.87.2: seq=18 ttl=64 time=0.179 ms
ping_29 | 64 bytes from 128.223.87.2: seq=20 ttl=64 time=0.176 ms
ping_31 | 64 bytes from 128.223.87.2: seq=22 ttl=64 time=0.178 ms
ping_32 | 64 bytes from 128.223.87.2: seq=21 ttl=64 time=0.177 ms
ping_39 | 64 bytes from 128.223.87.2: seq=19 ttl=64 time=0.123 ms
ping_37 | 64 bytes from 128.223.87.2: seq=16 ttl=64 time=0.157 ms
ping_36 | 64 bytes from 128.223.87.2: seq=20 ttl=64 time=0.182 ms
ping_35 | 64 bytes from 128.223.87.2: seq=22 ttl=64 time=0.176 ms
ping_21 | 64 bytes from 128.223.87.2: seq=18 ttl=64 time=0.175 ms
ping_34 | 64 bytes from 128.223.87.2: seq=24 ttl=64 time=0.174 ms
ping_34 | 
ping_34 | --- 128.223.87.2 ping statistics ---
ping_34 | 25 packets transmitted, 25 packets received, 0% packet loss
ping_34 | round-trip min/avg/max = 0.042/0.135/0.303 ms
ping_24 | 64 bytes from 128.223.87.2: seq=23 ttl=64 time=0.173 ms
ping_40 | 64 bytes from 128.223.87.2: seq=21 ttl=64 time=0.080 ms
ping_38 | 64 bytes from 128.223.87.2: seq=15 ttl=64 time=0.052 ms
ping_28 | 64 bytes from 128.223.87.2: seq=19 ttl=64 time=0.065 ms
ping_27 | 64 bytes from 128.223.87.2: seq=14 ttl=64 time=0.034 ms
ping_25 | 64 bytes from 128.223.87.2: seq=17 ttl=64 time=0.102 ms
ping_30 | 64 bytes from 128.223.87.2: seq=13 ttl=64 time=0.156 ms
softwareoverhead_ping_34 exited with code 0
ping_22 | 64 bytes from 128.223.87.2: seq=24 ttl=64 time=0.186 ms
ping_22 | 
ping_22 | --- 128.223.87.2 ping statistics ---
ping_22 | 25 packets transmitted, 25 packets received, 0% packet loss
ping_22 | round-trip min/avg/max = 0.074/0.158/0.321 ms
ping_33 | 64 bytes from 128.223.87.2: seq=19 ttl=64 time=0.182 ms
ping_29 | 64 bytes from 128.223.87.2: seq=21 ttl=64 time=0.152 ms
ping_31 | 64 bytes from 128.223.87.2: seq=23 ttl=64 time=0.072 ms
ping_32 | 64 bytes from 128.223.87.2: seq=22 ttl=64 time=0.141 ms
ping_39 | 64 bytes from 128.223.87.2: seq=20 ttl=64 time=0.166 ms
ping_37 | 64 bytes from 128.223.87.2: seq=17 ttl=64 time=0.067 ms
ping_36 | 64 bytes from 128.223.87.2: seq=21 ttl=64 time=0.164 ms
ping_35 | 64 bytes from 128.223.87.2: seq=23 ttl=64 time=0.115 ms
ping_21 | 64 bytes from 128.223.87.2: seq=19 ttl=64 time=0.064 ms
softwareoverhead_ping_22 exited with code 0
ping_24 | 64 bytes from 128.223.87.2: seq=24 ttl=64 time=0.142 ms
ping_24 | 
ping_24 | --- 128.223.87.2 ping statistics ---
ping_24 | 25 packets transmitted, 25 packets received, 0% packet loss
ping_24 | round-trip min/avg/max = 0.041/0.141/0.220 ms
ping_40 | 64 bytes from 128.223.87.2: seq=22 ttl=64 time=0.162 ms
ping_38 | 64 bytes from 128.223.87.2: seq=16 ttl=64 time=0.162 ms
ping_28 | 64 bytes from 128.223.87.2: seq=20 ttl=64 time=0.154 ms
ping_27 | 64 bytes from 128.223.87.2: seq=15 ttl=64 time=0.135 ms
ping_25 | 64 bytes from 128.223.87.2: seq=18 ttl=64 time=0.084 ms
ping_30 | 64 bytes from 128.223.87.2: seq=14 ttl=64 time=0.172 ms
softwareoverhead_ping_24 exited with code 0
ping_33 | 64 bytes from 128.223.87.2: seq=20 ttl=64 time=0.179 ms
ping_29 | 64 bytes from 128.223.87.2: seq=22 ttl=64 time=0.176 ms
ping_31 | 64 bytes from 128.223.87.2: seq=24 ttl=64 time=0.125 ms
ping_31 | 
ping_31 | --- 128.223.87.2 ping statistics ---
ping_31 | 25 packets transmitted, 25 packets received, 0% packet loss
ping_31 | round-trip min/avg/max = 0.062/0.157/0.234 ms
ping_32 | 64 bytes from 128.223.87.2: seq=23 ttl=64 time=0.083 ms
ping_39 | 64 bytes from 128.223.87.2: seq=21 ttl=64 time=0.092 ms
ping_37 | 64 bytes from 128.223.87.2: seq=18 ttl=64 time=0.158 ms
ping_36 | 64 bytes from 128.223.87.2: seq=22 ttl=64 time=0.142 ms
ping_35 | 64 bytes from 128.223.87.2: seq=24 ttl=64 time=0.065 ms
ping_35 | 
ping_35 | --- 128.223.87.2 ping statistics ---
ping_35 | 25 packets transmitted, 25 packets received, 0% packet loss
ping_35 | round-trip min/avg/max = 0.047/0.141/0.271 ms
ping_21 | 64 bytes from 128.223.87.2: seq=20 ttl=64 time=0.082 ms
softwareoverhead_ping_31 exited with code 0
ping_40 | 64 bytes from 128.223.87.2: seq=23 ttl=64 time=0.077 ms
ping_38 | 64 bytes from 128.223.87.2: seq=17 ttl=64 time=0.054 ms
ping_28 | 64 bytes from 128.223.87.2: seq=21 ttl=64 time=0.240 ms
ping_27 | 64 bytes from 128.223.87.2: seq=16 ttl=64 time=0.115 ms
ping_25 | 64 bytes from 128.223.87.2: seq=19 ttl=64 time=0.174 ms
ping_30 | 64 bytes from 128.223.87.2: seq=15 ttl=64 time=0.161 ms
softwareoverhead_ping_35 exited with code 0
ping_33 | 64 bytes from 128.223.87.2: seq=21 ttl=64 time=0.139 ms
ping_29 | 64 bytes from 128.223.87.2: seq=23 ttl=64 time=0.175 ms
ping_32 | 64 bytes from 128.223.87.2: seq=24 ttl=64 time=0.167 ms
ping_32 | 
ping_32 | --- 128.223.87.2 ping statistics ---
ping_32 | 25 packets transmitted, 25 packets received, 0% packet loss
ping_32 | round-trip min/avg/max = 0.074/0.152/0.249 ms
ping_39 | 64 bytes from 128.223.87.2: seq=22 ttl=64 time=0.117 ms
ping_37 | 64 bytes from 128.223.87.2: seq=19 ttl=64 time=0.079 ms
ping_36 | 64 bytes from 128.223.87.2: seq=23 ttl=64 time=0.060 ms
ping_21 | 64 bytes from 128.223.87.2: seq=21 ttl=64 time=0.118 ms
ping_40 | 64 bytes from 128.223.87.2: seq=24 ttl=64 time=0.094 ms
ping_40 | 
ping_40 | --- 128.223.87.2 ping statistics ---
ping_40 | 25 packets transmitted, 25 packets received, 0% packet loss
ping_40 | round-trip min/avg/max = 0.036/0.131/0.206 ms
ping_38 | 64 bytes from 128.223.87.2: seq=18 ttl=64 time=0.087 ms
softwareoverhead_ping_32 exited with code 0
ping_28 | 64 bytes from 128.223.87.2: seq=22 ttl=64 time=0.084 ms
ping_27 | 64 bytes from 128.223.87.2: seq=17 ttl=64 time=0.061 ms
ping_25 | 64 bytes from 128.223.87.2: seq=20 ttl=64 time=0.164 ms
ping_30 | 64 bytes from 128.223.87.2: seq=16 ttl=64 time=0.157 ms
softwareoverhead_ping_40 exited with code 0
ping_33 | 64 bytes from 128.223.87.2: seq=22 ttl=64 time=0.177 ms
ping_29 | 64 bytes from 128.223.87.2: seq=24 ttl=64 time=0.124 ms
ping_29 | 
ping_29 | --- 128.223.87.2 ping statistics ---
ping_29 | 25 packets transmitted, 25 packets received, 0% packet loss
ping_29 | round-trip min/avg/max = 0.057/0.159/0.213 ms
ping_39 | 64 bytes from 128.223.87.2: seq=23 ttl=64 time=0.138 ms
ping_37 | 64 bytes from 128.223.87.2: seq=20 ttl=64 time=0.155 ms
ping_36 | 64 bytes from 128.223.87.2: seq=24 ttl=64 time=0.112 ms
ping_36 | 
ping_36 | --- 128.223.87.2 ping statistics ---
ping_36 | 25 packets transmitted, 25 packets received, 0% packet loss
ping_36 | round-trip min/avg/max = 0.047/0.146/0.206 ms
ping_21 | 64 bytes from 128.223.87.2: seq=22 ttl=64 time=0.149 ms
softwareoverhead_ping_29 exited with code 0
ping_38 | 64 bytes from 128.223.87.2: seq=19 ttl=64 time=0.126 ms
ping_28 | 64 bytes from 128.223.87.2: seq=23 ttl=64 time=0.152 ms
ping_27 | 64 bytes from 128.223.87.2: seq=18 ttl=64 time=0.122 ms
ping_25 | 64 bytes from 128.223.87.2: seq=21 ttl=64 time=0.180 ms
ping_30 | 64 bytes from 128.223.87.2: seq=17 ttl=64 time=0.150 ms
softwareoverhead_ping_36 exited with code 0
ping_33 | 64 bytes from 128.223.87.2: seq=23 ttl=64 time=0.174 ms
ping_39 | 64 bytes from 128.223.87.2: seq=24 ttl=64 time=0.174 ms
ping_39 | 
ping_39 | --- 128.223.87.2 ping statistics ---
ping_39 | 25 packets transmitted, 25 packets received, 0% packet loss
ping_39 | round-trip min/avg/max = 0.067/0.154/0.214 ms
ping_37 | 64 bytes from 128.223.87.2: seq=21 ttl=64 time=0.069 ms
ping_21 | 64 bytes from 128.223.87.2: seq=23 ttl=64 time=0.072 ms
ping_38 | 64 bytes from 128.223.87.2: seq=20 ttl=64 time=0.222 ms
ping_28 | 64 bytes from 128.223.87.2: seq=24 ttl=64 time=0.111 ms
ping_28 | 
ping_28 | --- 128.223.87.2 ping statistics ---
ping_28 | 25 packets transmitted, 25 packets received, 0% packet loss
ping_28 | round-trip min/avg/max = 0.034/0.138/0.240 ms
ping_27 | 64 bytes from 128.223.87.2: seq=19 ttl=64 time=0.063 ms
softwareoverhead_ping_39 exited with code 0
ping_25 | 64 bytes from 128.223.87.2: seq=22 ttl=64 time=0.052 ms
ping_30 | 64 bytes from 128.223.87.2: seq=18 ttl=64 time=0.080 ms
softwareoverhead_ping_28 exited with code 0
ping_33 | 64 bytes from 128.223.87.2: seq=24 ttl=64 time=0.138 ms
ping_33 | 
ping_33 | --- 128.223.87.2 ping statistics ---
ping_33 | 25 packets transmitted, 25 packets received, 0% packet loss
ping_33 | round-trip min/avg/max = 0.054/0.167/0.296 ms
ping_37 | 64 bytes from 128.223.87.2: seq=22 ttl=64 time=0.088 ms
ping_21 | 64 bytes from 128.223.87.2: seq=24 ttl=64 time=0.078 ms
ping_21 | 
ping_21 | --- 128.223.87.2 ping statistics ---
ping_21 | 25 packets transmitted, 25 packets received, 0% packet loss
ping_21 | round-trip min/avg/max = 0.036/0.120/0.219 ms
softwareoverhead_ping_33 exited with code 0
ping_38 | 64 bytes from 128.223.87.2: seq=21 ttl=64 time=0.110 ms
ping_27 | 64 bytes from 128.223.87.2: seq=20 ttl=64 time=0.057 ms
ping_25 | 64 bytes from 128.223.87.2: seq=23 ttl=64 time=0.104 ms
ping_30 | 64 bytes from 128.223.87.2: seq=19 ttl=64 time=0.089 ms
softwareoverhead_ping_21 exited with code 0
ping_37 | 64 bytes from 128.223.87.2: seq=23 ttl=64 time=0.177 ms
ping_38 | 64 bytes from 128.223.87.2: seq=22 ttl=64 time=0.144 ms
ping_27 | 64 bytes from 128.223.87.2: seq=21 ttl=64 time=0.125 ms
ping_25 | 64 bytes from 128.223.87.2: seq=24 ttl=64 time=0.110 ms
ping_25 | 
ping_25 | --- 128.223.87.2 ping statistics ---
ping_25 | 25 packets transmitted, 25 packets received, 0% packet loss
ping_25 | round-trip min/avg/max = 0.049/0.130/0.341 ms
ping_30 | 64 bytes from 128.223.87.2: seq=20 ttl=64 time=0.174 ms
softwareoverhead_ping_25 exited with code 0
ping_37 | 64 bytes from 128.223.87.2: seq=24 ttl=64 time=0.173 ms
ping_37 | 
ping_37 | --- 128.223.87.2 ping statistics ---
ping_37 | 25 packets transmitted, 25 packets received, 0% packet loss
ping_37 | round-trip min/avg/max = 0.044/0.136/0.246 ms
ping_38 | 64 bytes from 128.223.87.2: seq=23 ttl=64 time=0.115 ms
ping_27 | 64 bytes from 128.223.87.2: seq=22 ttl=64 time=0.136 ms
softwareoverhead_ping_37 exited with code 0
ping_30 | 64 bytes from 128.223.87.2: seq=21 ttl=64 time=0.079 ms
ping_38 | 64 bytes from 128.223.87.2: seq=24 ttl=64 time=0.173 ms
ping_38 | 
ping_38 | --- 128.223.87.2 ping statistics ---
ping_38 | 25 packets transmitted, 25 packets received, 0% packet loss
ping_38 | round-trip min/avg/max = 0.052/0.142/0.289 ms
ping_27 | 64 bytes from 128.223.87.2: seq=23 ttl=64 time=0.165 ms
ping_30 | 64 bytes from 128.223.87.2: seq=22 ttl=64 time=0.108 ms
softwareoverhead_ping_38 exited with code 0
ping_27 | 64 bytes from 128.223.87.2: seq=24 ttl=64 time=0.173 ms
ping_27 | 
ping_27 | --- 128.223.87.2 ping statistics ---
ping_27 | 25 packets transmitted, 25 packets received, 0% packet loss
ping_27 | round-trip min/avg/max = 0.034/0.130/0.240 ms
ping_30 | 64 bytes from 128.223.87.2: seq=23 ttl=64 time=0.060 ms
softwareoverhead_ping_27 exited with code 0
ping_30 | 64 bytes from 128.223.87.2: seq=24 ttl=64 time=0.082 ms
ping_30 | 
ping_30 | --- 128.223.87.2 ping statistics ---
ping_30 | 25 packets transmitted, 25 packets received, 0% packet loss
ping_30 | round-trip min/avg/max = 0.057/0.114/0.203 ms
softwareoverhead_ping_30 exited with code 0
