     1	 95.4 
     2	 97.3 
     3	 79.1 
     4	 95.9 
     5	 38.9 
     6	 92.4 
     7	 96.3 
     8	 94.2 
     9	 96.8 
    10	 96.4 
    11	 95.5 
    12	 97.0 
    13	 99.0 
    14	 99.4 
    15	 99.1 
    16	 99.5 
    17	 99.5 
    18	 99.4 
    19	 99.8 
    20	 99.4 
    21	 99.1 
    22	 99.3 
    23	 99.6 
    24	 99.5 
    25	 99.1 
    26	 99.6 
    27	 99.5 
    28	 99.8 
    29	 99.6 
    30	 99.6 
    31	 99.5 
    32	 99.4 
    33	 99.3 
    34	 99.3 
    35	 99.0 
    36	 99.4 
    37	 99.4 
    38	 99.6 
    39	 99.3 
    40	 99.4 
    41	 99.1 
    42	 99.3 
    43	 99.5 
    44	 99.4 
    45	 99.8 
    46	 99.6 
    47	 98.0 
    48	 99.4 
    49	 99.1 
    50	 99.3 
    51	 99.5 
    52	 99.8 
    53	 99.5 
    54	 99.5 
    55	 99.3 
    56	 99.9 
    57	 99.6 
    58	 99.6 
    59	 99.8 
    60	 99.4 
    61	 99.3 
    62	 99.6 
    63	 99.5 
    64	 99.8 
    65	 99.3 
    66	 99.5 
    67	 99.4 
    68	 99.4 
    69	 99.4 
    70	 99.5 
    71	 99.3 
    72	 99.5 
    73	 99.4 
    74	 99.8 
    75	 99.4 
    76	 99.1 
    77	 99.1 
    78	 99.6 
    79	 99.5 
    80	 99.5 
    81	 99.4 
    82	 99.6 
    83	 99.8 
    84	 99.5 
    85	 99.0 
    86	 99.4 
    87	 99.4 
    88	 99.8 
    89	 99.6 
    90	 99.6 
    91	 98.9 
    92	 99.6 
    93	 99.4 
    94	 99.5 
    95	 99.5 
    96	 99.4 
    97	 99.8 
    98	 99.6 
    99	 99.3 
   100	 99.6 
   101	 98.6 
   102	 93.9 
   103	 94.6 
   104	 92.1 
   105	 92.3 
