ping_1  | round-trip min/avg/max = 119.285/119.879/123.398 ms
ping_2  | round-trip min/avg/max = 119.251/119.932/123.843 ms
ping_4  | round-trip min/avg/max = 119.444/119.840/123.100 ms
ping_8  | round-trip min/avg/max = 119.360/119.857/120.289 ms
ping_7  | round-trip min/avg/max = 119.432/119.855/120.249 ms
ping_6  | round-trip min/avg/max = 119.387/119.954/123.377 ms
ping_5  | round-trip min/avg/max = 119.365/119.875/120.272 ms
ping_10 | round-trip min/avg/max = 119.402/119.993/124.308 ms
ping_3  | round-trip min/avg/max = 119.320/119.995/124.055 ms
ping_9  | round-trip min/avg/max = 119.390/119.893/122.187 ms
