ping_1  | round-trip min/avg/max = 0.448/0.782/0.942 ms
ping_2  | round-trip min/avg/max = 0.403/0.780/0.968 ms
ping_10 | round-trip min/avg/max = 0.461/0.822/0.983 ms
ping_5  | round-trip min/avg/max = 0.476/0.793/0.974 ms
ping_9  | round-trip min/avg/max = 0.508/0.812/0.981 ms
ping_8  | round-trip min/avg/max = 0.435/0.791/0.969 ms
ping_3  | round-trip min/avg/max = 0.482/0.792/0.975 ms
ping_6  | round-trip min/avg/max = 0.434/0.807/0.973 ms
ping_7  | round-trip min/avg/max = 0.426/0.777/0.973 ms
ping_4  | round-trip min/avg/max = 0.472/0.797/0.993 ms
