     1	 95.8 
     2	 97.1 
     3	 65.8 
     4	 14.8 
     5	  6.7 
     6	  9.2 
     7	 45.8 
     8	 90.4 
     9	 91.1 
    10	 88.1 
    11	 90.3 
    12	 90.1 
    13	 90.0 
    14	 84.1 
    15	 86.9 
    16	 85.0 
    17	 87.3 
    18	 73.5 
    19	 76.0 
    20	 60.3 
    21	 86.3 
    22	 77.9 
    23	 71.6 
    24	 83.5 
    25	 83.0 
    26	 74.7 
    27	 26.0 
    28	  8.2 
    29	  8.7 
    30	 18.2 
    31	  3.8 
    32	  4.6 
    33	  3.0 
    34	  3.1 
    35	 41.0 
    36	 90.5 
    37	 87.2 
    38	 75.5 
    39	 83.8 
    40	 77.4 
    41	 85.8 
    42	 87.0 
    43	 91.5 
    44	 83.3 
    45	 75.4 
    46	 68.0 
    47	 61.5 
    48	 69.9 
    49	 75.9 
    50	 57.6 
    51	 56.5 
    52	 75.8 
    53	 72.2 
    54	 63.8 
    55	 81.3 
    56	 82.1 
    57	 70.0 
    58	 84.0 
    59	 81.0 
    60	 81.6 
    61	 85.3 
    62	 86.1 
    63	 92.9 
    64	 87.6 
    65	 89.3 
