     1	295 
     2	295 
     3	295 
     4	295 
     5	295 
     6	295 
     7	295 
     8	295 
     9	295 
    10	295 
    11	295 
    12	295 
    13	295 
    14	295 
    15	295 
    16	295 
    17	295 
    18	295 
    19	295 
    20	295 
    21	295 
    22	295 
    23	295 
    24	295 
    25	295 
    26	295 
    27	295 
    28	295 
    29	295 
    30	295 
    31	295 
    32	295 
    33	295 
    34	295 
    35	295 
    36	295 
    37	295 
    38	295 
    39	295 
    40	295 
    41	295 
    42	295 
    43	295 
    44	295 
    45	295 
    46	295 
    47	295 
    48	295 
    49	295 
