Attaching to softwareoverhead_ping_1, softwareoverhead_ping_2
ping_1  | PING csl2.hkspeedtest.com (203.210.4.91): 56 data bytes
ping_1  | 64 bytes from 203.210.4.91: seq=0 ttl=51 time=185.431 ms
ping_2  | PING csl2.hkspeedtest.com (203.210.4.91): 56 data bytes
ping_2  | 64 bytes from 203.210.4.91: seq=0 ttl=51 time=183.760 ms
ping_1  | 64 bytes from 203.210.4.91: seq=1 ttl=51 time=184.491 ms
ping_2  | 64 bytes from 203.210.4.91: seq=1 ttl=51 time=184.198 ms
ping_1  | 64 bytes from 203.210.4.91: seq=2 ttl=51 time=184.317 ms
ping_2  | 64 bytes from 203.210.4.91: seq=2 ttl=51 time=185.475 ms
ping_1  | 64 bytes from 203.210.4.91: seq=3 ttl=51 time=185.410 ms
ping_2  | 64 bytes from 203.210.4.91: seq=3 ttl=51 time=184.276 ms
ping_1  | 64 bytes from 203.210.4.91: seq=4 ttl=51 time=183.941 ms
ping_2  | 64 bytes from 203.210.4.91: seq=4 ttl=51 time=184.913 ms
ping_1  | 64 bytes from 203.210.4.91: seq=5 ttl=51 time=183.745 ms
ping_1  | 64 bytes from 203.210.4.91: seq=6 ttl=51 time=183.917 ms
ping_2  | 64 bytes from 203.210.4.91: seq=6 ttl=51 time=184.966 ms
ping_1  | 64 bytes from 203.210.4.91: seq=7 ttl=51 time=183.215 ms
ping_2  | 64 bytes from 203.210.4.91: seq=7 ttl=51 time=184.711 ms
ping_1  | 64 bytes from 203.210.4.91: seq=8 ttl=51 time=184.903 ms
ping_2  | 64 bytes from 203.210.4.91: seq=8 ttl=51 time=184.753 ms
ping_1  | 64 bytes from 203.210.4.91: seq=9 ttl=51 time=183.664 ms
ping_2  | 64 bytes from 203.210.4.91: seq=9 ttl=51 time=185.069 ms
ping_1  | 64 bytes from 203.210.4.91: seq=10 ttl=51 time=184.912 ms
ping_2  | 64 bytes from 203.210.4.91: seq=10 ttl=51 time=184.297 ms
ping_1  | 64 bytes from 203.210.4.91: seq=11 ttl=51 time=182.763 ms
ping_2  | 64 bytes from 203.210.4.91: seq=11 ttl=51 time=180.928 ms
ping_1  | 64 bytes from 203.210.4.91: seq=12 ttl=51 time=181.365 ms
ping_2  | 64 bytes from 203.210.4.91: seq=12 ttl=51 time=184.996 ms
ping_1  | 64 bytes from 203.210.4.91: seq=13 ttl=51 time=183.933 ms
ping_2  | 64 bytes from 203.210.4.91: seq=13 ttl=51 time=183.696 ms
ping_2  | 64 bytes from 203.210.4.91: seq=14 ttl=51 time=185.293 ms
ping_1  | 64 bytes from 203.210.4.91: seq=15 ttl=51 time=184.681 ms
ping_2  | 64 bytes from 203.210.4.91: seq=15 ttl=51 time=182.958 ms
ping_1  | 64 bytes from 203.210.4.91: seq=16 ttl=51 time=185.448 ms
ping_2  | 64 bytes from 203.210.4.91: seq=16 ttl=51 time=184.237 ms
ping_1  | 64 bytes from 203.210.4.91: seq=17 ttl=51 time=185.196 ms
ping_2  | 64 bytes from 203.210.4.91: seq=17 ttl=51 time=167.342 ms
ping_1  | 64 bytes from 203.210.4.91: seq=18 ttl=51 time=168.524 ms
ping_2  | 64 bytes from 203.210.4.91: seq=18 ttl=51 time=170.038 ms
ping_1  | 64 bytes from 203.210.4.91: seq=19 ttl=51 time=168.459 ms
ping_2  | 64 bytes from 203.210.4.91: seq=19 ttl=51 time=173.435 ms
ping_1  | 64 bytes from 203.210.4.91: seq=20 ttl=51 time=174.262 ms
ping_2  | 64 bytes from 203.210.4.91: seq=20 ttl=51 time=184.787 ms
ping_1  | 64 bytes from 203.210.4.91: seq=21 ttl=51 time=183.926 ms
ping_2  | 64 bytes from 203.210.4.91: seq=21 ttl=51 time=167.141 ms
ping_1  | 64 bytes from 203.210.4.91: seq=22 ttl=51 time=167.572 ms
ping_2  | 64 bytes from 203.210.4.91: seq=22 ttl=51 time=168.831 ms
ping_1  | 64 bytes from 203.210.4.91: seq=23 ttl=51 time=167.529 ms
ping_2  | 64 bytes from 203.210.4.91: seq=23 ttl=51 time=169.348 ms
ping_1  | 64 bytes from 203.210.4.91: seq=24 ttl=51 time=167.439 ms
ping_2  | 64 bytes from 203.210.4.91: seq=24 ttl=51 time=172.260 ms
ping_1  | 64 bytes from 203.210.4.91: seq=25 ttl=51 time=173.938 ms
ping_2  | 64 bytes from 203.210.4.91: seq=25 ttl=51 time=176.965 ms
ping_1  | 64 bytes from 203.210.4.91: seq=26 ttl=51 time=173.780 ms
ping_2  | 64 bytes from 203.210.4.91: seq=26 ttl=51 time=175.953 ms
ping_1  | 64 bytes from 203.210.4.91: seq=27 ttl=51 time=177.699 ms
ping_2  | 64 bytes from 203.210.4.91: seq=27 ttl=51 time=169.549 ms
ping_1  | 64 bytes from 203.210.4.91: seq=28 ttl=51 time=171.696 ms
ping_2  | 64 bytes from 203.210.4.91: seq=28 ttl=51 time=182.430 ms
ping_1  | 64 bytes from 203.210.4.91: seq=29 ttl=51 time=179.764 ms
ping_2  | 64 bytes from 203.210.4.91: seq=29 ttl=51 time=178.143 ms
ping_1  | 64 bytes from 203.210.4.91: seq=30 ttl=51 time=179.458 ms
ping_2  | 64 bytes from 203.210.4.91: seq=30 ttl=51 time=169.950 ms
ping_1  | 64 bytes from 203.210.4.91: seq=31 ttl=51 time=168.405 ms
ping_2  | 64 bytes from 203.210.4.91: seq=31 ttl=51 time=180.369 ms
ping_1  | 64 bytes from 203.210.4.91: seq=32 ttl=51 time=178.806 ms
ping_2  | 64 bytes from 203.210.4.91: seq=32 ttl=51 time=177.212 ms
ping_1  | 64 bytes from 203.210.4.91: seq=33 ttl=51 time=178.476 ms
ping_2  | 64 bytes from 203.210.4.91: seq=33 ttl=51 time=182.063 ms
ping_1  | 64 bytes from 203.210.4.91: seq=34 ttl=51 time=183.946 ms
ping_2  | 64 bytes from 203.210.4.91: seq=34 ttl=51 time=183.442 ms
ping_1  | 64 bytes from 203.210.4.91: seq=35 ttl=51 time=183.631 ms
ping_2  | 64 bytes from 203.210.4.91: seq=35 ttl=51 time=170.229 ms
ping_1  | 64 bytes from 203.210.4.91: seq=36 ttl=51 time=169.160 ms
ping_2  | 64 bytes from 203.210.4.91: seq=36 ttl=51 time=172.216 ms
ping_1  | 64 bytes from 203.210.4.91: seq=37 ttl=51 time=171.480 ms
ping_2  | 64 bytes from 203.210.4.91: seq=37 ttl=51 time=183.577 ms
ping_1  | 64 bytes from 203.210.4.91: seq=38 ttl=51 time=185.218 ms
ping_2  | 64 bytes from 203.210.4.91: seq=38 ttl=51 time=169.274 ms
ping_1  | 64 bytes from 203.210.4.91: seq=39 ttl=51 time=171.710 ms
ping_2  | 64 bytes from 203.210.4.91: seq=39 ttl=51 time=173.346 ms
ping_1  | 64 bytes from 203.210.4.91: seq=40 ttl=51 time=173.509 ms
ping_2  | 64 bytes from 203.210.4.91: seq=40 ttl=51 time=185.018 ms
ping_1  | 64 bytes from 203.210.4.91: seq=41 ttl=51 time=182.963 ms
ping_2  | 64 bytes from 203.210.4.91: seq=41 ttl=51 time=176.115 ms
ping_1  | 64 bytes from 203.210.4.91: seq=42 ttl=51 time=175.829 ms
ping_2  | 64 bytes from 203.210.4.91: seq=42 ttl=51 time=181.110 ms
ping_1  | 64 bytes from 203.210.4.91: seq=43 ttl=51 time=178.130 ms
ping_2  | 64 bytes from 203.210.4.91: seq=43 ttl=51 time=183.122 ms
ping_1  | 64 bytes from 203.210.4.91: seq=44 ttl=51 time=184.251 ms
ping_2  | 64 bytes from 203.210.4.91: seq=44 ttl=51 time=173.399 ms
ping_1  | 64 bytes from 203.210.4.91: seq=45 ttl=51 time=174.016 ms
ping_2  | 64 bytes from 203.210.4.91: seq=45 ttl=51 time=174.440 ms
ping_1  | 64 bytes from 203.210.4.91: seq=46 ttl=51 time=174.653 ms
ping_2  | 64 bytes from 203.210.4.91: seq=46 ttl=51 time=179.516 ms
ping_1  | 64 bytes from 203.210.4.91: seq=47 ttl=51 time=180.208 ms
ping_2  | 64 bytes from 203.210.4.91: seq=47 ttl=51 time=168.047 ms
ping_1  | 64 bytes from 203.210.4.91: seq=48 ttl=51 time=168.183 ms
ping_2  | 64 bytes from 203.210.4.91: seq=48 ttl=51 time=170.529 ms
ping_1  | 64 bytes from 203.210.4.91: seq=49 ttl=51 time=168.749 ms
ping_2  | 64 bytes from 203.210.4.91: seq=49 ttl=51 time=176.769 ms
ping_1  | 64 bytes from 203.210.4.91: seq=50 ttl=51 time=178.626 ms
ping_2  | 64 bytes from 203.210.4.91: seq=50 ttl=51 time=174.799 ms
ping_1  | 64 bytes from 203.210.4.91: seq=51 ttl=51 time=176.351 ms
ping_2  | 64 bytes from 203.210.4.91: seq=51 ttl=51 time=170.936 ms
ping_1  | 64 bytes from 203.210.4.91: seq=52 ttl=51 time=170.614 ms
ping_2  | 64 bytes from 203.210.4.91: seq=52 ttl=51 time=183.202 ms
ping_1  | 64 bytes from 203.210.4.91: seq=53 ttl=51 time=184.230 ms
ping_2  | 64 bytes from 203.210.4.91: seq=53 ttl=51 time=173.847 ms
ping_1  | 64 bytes from 203.210.4.91: seq=54 ttl=51 time=173.765 ms
ping_2  | 64 bytes from 203.210.4.91: seq=54 ttl=51 time=170.148 ms
ping_1  | 64 bytes from 203.210.4.91: seq=55 ttl=51 time=177.157 ms
ping_2  | 64 bytes from 203.210.4.91: seq=55 ttl=51 time=180.166 ms
ping_1  | 64 bytes from 203.210.4.91: seq=56 ttl=51 time=178.796 ms
ping_2  | 64 bytes from 203.210.4.91: seq=56 ttl=51 time=181.226 ms
ping_1  | 64 bytes from 203.210.4.91: seq=57 ttl=51 time=178.282 ms
ping_2  | 64 bytes from 203.210.4.91: seq=57 ttl=51 time=184.805 ms
ping_1  | 64 bytes from 203.210.4.91: seq=58 ttl=51 time=184.339 ms
ping_2  | 64 bytes from 203.210.4.91: seq=58 ttl=51 time=177.893 ms
ping_1  | 64 bytes from 203.210.4.91: seq=59 ttl=51 time=179.299 ms
ping_2  | 64 bytes from 203.210.4.91: seq=59 ttl=51 time=183.162 ms
ping_1  | 64 bytes from 203.210.4.91: seq=60 ttl=51 time=183.590 ms
ping_2  | 64 bytes from 203.210.4.91: seq=60 ttl=51 time=182.580 ms
ping_1  | 64 bytes from 203.210.4.91: seq=61 ttl=51 time=180.693 ms
ping_2  | 64 bytes from 203.210.4.91: seq=61 ttl=51 time=178.776 ms
ping_1  | 64 bytes from 203.210.4.91: seq=62 ttl=51 time=176.435 ms
ping_2  | 64 bytes from 203.210.4.91: seq=62 ttl=51 time=174.761 ms
ping_1  | 64 bytes from 203.210.4.91: seq=63 ttl=51 time=176.732 ms
ping_2  | 64 bytes from 203.210.4.91: seq=63 ttl=51 time=180.927 ms
ping_1  | 64 bytes from 203.210.4.91: seq=64 ttl=51 time=180.319 ms
ping_2  | 64 bytes from 203.210.4.91: seq=64 ttl=51 time=184.953 ms
ping_1  | 64 bytes from 203.210.4.91: seq=65 ttl=51 time=183.216 ms
ping_2  | 64 bytes from 203.210.4.91: seq=65 ttl=51 time=173.529 ms
ping_1  | 64 bytes from 203.210.4.91: seq=66 ttl=51 time=177.529 ms
ping_2  | 64 bytes from 203.210.4.91: seq=66 ttl=51 time=172.550 ms
ping_1  | 64 bytes from 203.210.4.91: seq=67 ttl=51 time=168.330 ms
ping_2  | 64 bytes from 203.210.4.91: seq=67 ttl=51 time=171.113 ms
ping_1  | 64 bytes from 203.210.4.91: seq=68 ttl=51 time=169.983 ms
ping_2  | 64 bytes from 203.210.4.91: seq=68 ttl=51 time=184.897 ms
ping_1  | 64 bytes from 203.210.4.91: seq=69 ttl=51 time=185.826 ms
ping_2  | 64 bytes from 203.210.4.91: seq=69 ttl=51 time=184.954 ms
ping_1  | 64 bytes from 203.210.4.91: seq=70 ttl=51 time=185.490 ms
ping_2  | 64 bytes from 203.210.4.91: seq=70 ttl=51 time=184.353 ms
ping_1  | 64 bytes from 203.210.4.91: seq=71 ttl=51 time=185.442 ms
ping_2  | 64 bytes from 203.210.4.91: seq=71 ttl=51 time=185.086 ms
ping_1  | 64 bytes from 203.210.4.91: seq=72 ttl=51 time=184.986 ms
ping_2  | 64 bytes from 203.210.4.91: seq=72 ttl=51 time=185.283 ms
ping_1  | 64 bytes from 203.210.4.91: seq=73 ttl=51 time=184.920 ms
ping_2  | 64 bytes from 203.210.4.91: seq=73 ttl=51 time=185.979 ms
ping_1  | 64 bytes from 203.210.4.91: seq=74 ttl=51 time=184.420 ms
ping_2  | 64 bytes from 203.210.4.91: seq=74 ttl=51 time=185.502 ms
ping_1  | 64 bytes from 203.210.4.91: seq=75 ttl=51 time=185.450 ms
ping_2  | 64 bytes from 203.210.4.91: seq=75 ttl=51 time=185.583 ms
ping_1  | 64 bytes from 203.210.4.91: seq=76 ttl=51 time=184.851 ms
ping_2  | 64 bytes from 203.210.4.91: seq=76 ttl=51 time=185.035 ms
ping_1  | 64 bytes from 203.210.4.91: seq=77 ttl=51 time=185.709 ms
ping_2  | 64 bytes from 203.210.4.91: seq=77 ttl=51 time=185.091 ms
ping_1  | 64 bytes from 203.210.4.91: seq=78 ttl=51 time=184.112 ms
ping_2  | 64 bytes from 203.210.4.91: seq=78 ttl=51 time=186.332 ms
ping_1  | 64 bytes from 203.210.4.91: seq=79 ttl=51 time=185.176 ms
ping_1  | 64 bytes from 203.210.4.91: seq=80 ttl=51 time=185.079 ms
ping_2  | 64 bytes from 203.210.4.91: seq=80 ttl=51 time=185.167 ms
ping_1  | 64 bytes from 203.210.4.91: seq=81 ttl=51 time=185.238 ms
ping_2  | 64 bytes from 203.210.4.91: seq=81 ttl=51 time=184.637 ms
ping_1  | 64 bytes from 203.210.4.91: seq=82 ttl=51 time=185.333 ms
ping_2  | 64 bytes from 203.210.4.91: seq=82 ttl=51 time=185.249 ms
ping_1  | 64 bytes from 203.210.4.91: seq=83 ttl=51 time=184.585 ms
ping_2  | 64 bytes from 203.210.4.91: seq=83 ttl=51 time=185.407 ms
ping_1  | 64 bytes from 203.210.4.91: seq=84 ttl=51 time=184.876 ms
ping_2  | 64 bytes from 203.210.4.91: seq=84 ttl=51 time=184.806 ms
ping_1  | 64 bytes from 203.210.4.91: seq=85 ttl=51 time=185.826 ms
ping_2  | 64 bytes from 203.210.4.91: seq=85 ttl=51 time=184.856 ms
ping_1  | 64 bytes from 203.210.4.91: seq=86 ttl=51 time=185.952 ms
ping_2  | 64 bytes from 203.210.4.91: seq=86 ttl=51 time=184.865 ms
ping_1  | 64 bytes from 203.210.4.91: seq=87 ttl=51 time=185.205 ms
ping_2  | 64 bytes from 203.210.4.91: seq=87 ttl=51 time=185.159 ms
ping_1  | 64 bytes from 203.210.4.91: seq=88 ttl=51 time=185.450 ms
ping_2  | 64 bytes from 203.210.4.91: seq=88 ttl=51 time=184.920 ms
ping_1  | 64 bytes from 203.210.4.91: seq=89 ttl=51 time=185.368 ms
ping_2  | 64 bytes from 203.210.4.91: seq=89 ttl=51 time=185.365 ms
ping_1  | 64 bytes from 203.210.4.91: seq=90 ttl=51 time=185.903 ms
ping_2  | 64 bytes from 203.210.4.91: seq=90 ttl=51 time=185.925 ms
ping_1  | 64 bytes from 203.210.4.91: seq=91 ttl=51 time=185.083 ms
ping_2  | 64 bytes from 203.210.4.91: seq=91 ttl=51 time=185.117 ms
ping_1  | 64 bytes from 203.210.4.91: seq=92 ttl=51 time=184.839 ms
ping_2  | 64 bytes from 203.210.4.91: seq=92 ttl=51 time=185.492 ms
ping_1  | 64 bytes from 203.210.4.91: seq=93 ttl=51 time=185.366 ms
ping_2  | 64 bytes from 203.210.4.91: seq=93 ttl=51 time=185.350 ms
ping_1  | 64 bytes from 203.210.4.91: seq=94 ttl=51 time=185.399 ms
ping_2  | 64 bytes from 203.210.4.91: seq=94 ttl=51 time=185.432 ms
ping_1  | 64 bytes from 203.210.4.91: seq=95 ttl=51 time=184.481 ms
ping_2  | 64 bytes from 203.210.4.91: seq=95 ttl=51 time=185.169 ms
ping_1  | 64 bytes from 203.210.4.91: seq=96 ttl=51 time=185.326 ms
ping_2  | 64 bytes from 203.210.4.91: seq=96 ttl=51 time=184.742 ms
ping_1  | 64 bytes from 203.210.4.91: seq=97 ttl=51 time=185.440 ms
ping_2  | 64 bytes from 203.210.4.91: seq=97 ttl=51 time=184.974 ms
ping_1  | 64 bytes from 203.210.4.91: seq=98 ttl=51 time=184.647 ms
ping_2  | 64 bytes from 203.210.4.91: seq=98 ttl=51 time=185.214 ms
ping_1  | 64 bytes from 203.210.4.91: seq=99 ttl=51 time=185.548 ms
ping_2  | 64 bytes from 203.210.4.91: seq=99 ttl=51 time=185.743 ms
ping_1  | 64 bytes from 203.210.4.91: seq=100 ttl=51 time=186.121 ms
ping_2  | 64 bytes from 203.210.4.91: seq=100 ttl=51 time=185.937 ms
ping_1  | 64 bytes from 203.210.4.91: seq=101 ttl=51 time=184.481 ms
ping_2  | 64 bytes from 203.210.4.91: seq=101 ttl=51 time=185.502 ms
ping_1  | 64 bytes from 203.210.4.91: seq=102 ttl=51 time=184.792 ms
ping_2  | 64 bytes from 203.210.4.91: seq=102 ttl=51 time=185.287 ms
ping_1  | 64 bytes from 203.210.4.91: seq=103 ttl=51 time=185.596 ms
ping_2  | 64 bytes from 203.210.4.91: seq=103 ttl=51 time=185.152 ms
ping_1  | 64 bytes from 203.210.4.91: seq=104 ttl=51 time=187.445 ms
ping_1  | 64 bytes from 203.210.4.91: seq=105 ttl=51 time=185.083 ms
ping_2  | 64 bytes from 203.210.4.91: seq=105 ttl=51 time=185.191 ms
ping_1  | 64 bytes from 203.210.4.91: seq=106 ttl=51 time=185.702 ms
ping_2  | 64 bytes from 203.210.4.91: seq=106 ttl=51 time=184.636 ms
ping_2  | 64 bytes from 203.210.4.91: seq=107 ttl=51 time=183.595 ms
ping_1  | 64 bytes from 203.210.4.91: seq=108 ttl=51 time=183.100 ms
ping_2  | 64 bytes from 203.210.4.91: seq=108 ttl=51 time=185.288 ms
ping_1  | 64 bytes from 203.210.4.91: seq=109 ttl=51 time=184.846 ms
ping_2  | 64 bytes from 203.210.4.91: seq=109 ttl=51 time=185.330 ms
ping_1  | 64 bytes from 203.210.4.91: seq=110 ttl=51 time=184.786 ms
ping_2  | 64 bytes from 203.210.4.91: seq=110 ttl=51 time=185.147 ms
ping_1  | 64 bytes from 203.210.4.91: seq=111 ttl=51 time=182.802 ms
ping_2  | 64 bytes from 203.210.4.91: seq=111 ttl=51 time=185.093 ms
ping_1  | 64 bytes from 203.210.4.91: seq=112 ttl=51 time=184.842 ms
ping_2  | 64 bytes from 203.210.4.91: seq=112 ttl=51 time=185.679 ms
ping_1  | 64 bytes from 203.210.4.91: seq=113 ttl=51 time=186.959 ms
ping_2  | 64 bytes from 203.210.4.91: seq=113 ttl=51 time=185.327 ms
ping_1  | 64 bytes from 203.210.4.91: seq=114 ttl=51 time=185.221 ms
ping_2  | 64 bytes from 203.210.4.91: seq=114 ttl=51 time=185.500 ms
ping_1  | 64 bytes from 203.210.4.91: seq=115 ttl=51 time=185.414 ms
ping_2  | 64 bytes from 203.210.4.91: seq=115 ttl=51 time=184.101 ms
ping_1  | 64 bytes from 203.210.4.91: seq=116 ttl=51 time=183.885 ms
ping_2  | 64 bytes from 203.210.4.91: seq=116 ttl=51 time=185.103 ms
ping_1  | 64 bytes from 203.210.4.91: seq=117 ttl=51 time=184.714 ms
ping_2  | 64 bytes from 203.210.4.91: seq=117 ttl=51 time=184.955 ms
ping_1  | 64 bytes from 203.210.4.91: seq=118 ttl=51 time=184.538 ms
ping_2  | 64 bytes from 203.210.4.91: seq=118 ttl=51 time=184.843 ms
ping_1  | 64 bytes from 203.210.4.91: seq=119 ttl=51 time=185.378 ms
ping_2  | 64 bytes from 203.210.4.91: seq=119 ttl=51 time=185.154 ms
ping_1  | 64 bytes from 203.210.4.91: seq=120 ttl=51 time=184.867 ms
ping_2  | 64 bytes from 203.210.4.91: seq=120 ttl=51 time=184.970 ms
ping_1  | 64 bytes from 203.210.4.91: seq=121 ttl=51 time=185.649 ms
ping_2  | 64 bytes from 203.210.4.91: seq=121 ttl=51 time=185.569 ms
ping_2  | 64 bytes from 203.210.4.91: seq=122 ttl=51 time=185.064 ms
ping_1  | 64 bytes from 203.210.4.91: seq=123 ttl=51 time=185.301 ms
ping_2  | 64 bytes from 203.210.4.91: seq=123 ttl=51 time=185.529 ms
ping_1  | 64 bytes from 203.210.4.91: seq=124 ttl=51 time=184.879 ms
ping_2  | 64 bytes from 203.210.4.91: seq=124 ttl=51 time=185.234 ms
ping_1  | 64 bytes from 203.210.4.91: seq=125 ttl=51 time=185.349 ms
ping_2  | 64 bytes from 203.210.4.91: seq=125 ttl=51 time=185.464 ms
ping_1  | 64 bytes from 203.210.4.91: seq=126 ttl=51 time=185.869 ms
ping_2  | 64 bytes from 203.210.4.91: seq=126 ttl=51 time=185.504 ms
ping_1  | 64 bytes from 203.210.4.91: seq=127 ttl=51 time=185.559 ms
ping_2  | 64 bytes from 203.210.4.91: seq=127 ttl=51 time=185.613 ms
ping_1  | 64 bytes from 203.210.4.91: seq=128 ttl=51 time=184.736 ms
ping_2  | 64 bytes from 203.210.4.91: seq=128 ttl=51 time=167.434 ms
ping_1  | 64 bytes from 203.210.4.91: seq=129 ttl=51 time=167.767 ms
ping_2  | 64 bytes from 203.210.4.91: seq=129 ttl=51 time=167.609 ms
ping_1  | 64 bytes from 203.210.4.91: seq=130 ttl=51 time=167.603 ms
ping_2  | 64 bytes from 203.210.4.91: seq=130 ttl=51 time=168.176 ms
ping_1  | 64 bytes from 203.210.4.91: seq=131 ttl=51 time=167.916 ms
ping_2  | 64 bytes from 203.210.4.91: seq=131 ttl=51 time=168.018 ms
ping_1  | 64 bytes from 203.210.4.91: seq=132 ttl=51 time=167.410 ms
ping_2  | 64 bytes from 203.210.4.91: seq=132 ttl=51 time=175.006 ms
ping_1  | 64 bytes from 203.210.4.91: seq=133 ttl=51 time=177.919 ms
ping_2  | 64 bytes from 203.210.4.91: seq=133 ttl=51 time=181.189 ms
ping_1  | 64 bytes from 203.210.4.91: seq=134 ttl=51 time=182.719 ms
ping_2  | 64 bytes from 203.210.4.91: seq=134 ttl=51 time=176.661 ms
ping_1  | 64 bytes from 203.210.4.91: seq=135 ttl=51 time=176.834 ms
ping_2  | 64 bytes from 203.210.4.91: seq=135 ttl=51 time=181.569 ms
ping_1  | 64 bytes from 203.210.4.91: seq=136 ttl=51 time=180.901 ms
ping_2  | 64 bytes from 203.210.4.91: seq=136 ttl=51 time=173.573 ms
ping_1  | 64 bytes from 203.210.4.91: seq=137 ttl=51 time=172.294 ms
ping_2  | 64 bytes from 203.210.4.91: seq=137 ttl=51 time=184.031 ms
ping_1  | 64 bytes from 203.210.4.91: seq=138 ttl=51 time=184.876 ms
ping_2  | 64 bytes from 203.210.4.91: seq=138 ttl=51 time=185.592 ms
ping_1  | 64 bytes from 203.210.4.91: seq=139 ttl=51 time=184.183 ms
ping_2  | 64 bytes from 203.210.4.91: seq=139 ttl=51 time=183.726 ms
ping_1  | 64 bytes from 203.210.4.91: seq=140 ttl=51 time=183.365 ms
ping_2  | 64 bytes from 203.210.4.91: seq=140 ttl=51 time=181.499 ms
ping_1  | 64 bytes from 203.210.4.91: seq=141 ttl=51 time=180.745 ms
ping_2  | 64 bytes from 203.210.4.91: seq=141 ttl=51 time=172.350 ms
ping_1  | 64 bytes from 203.210.4.91: seq=142 ttl=51 time=174.391 ms
ping_2  | 64 bytes from 203.210.4.91: seq=142 ttl=51 time=184.700 ms
ping_1  | 64 bytes from 203.210.4.91: seq=143 ttl=51 time=185.044 ms
ping_2  | 64 bytes from 203.210.4.91: seq=143 ttl=51 time=184.635 ms
ping_1  | 64 bytes from 203.210.4.91: seq=144 ttl=51 time=184.638 ms
ping_2  | 64 bytes from 203.210.4.91: seq=144 ttl=51 time=172.053 ms
ping_1  | 64 bytes from 203.210.4.91: seq=145 ttl=51 time=171.885 ms
ping_2  | 64 bytes from 203.210.4.91: seq=145 ttl=51 time=181.228 ms
ping_1  | 64 bytes from 203.210.4.91: seq=146 ttl=51 time=179.434 ms
ping_2  | 64 bytes from 203.210.4.91: seq=146 ttl=51 time=174.506 ms
ping_1  | 64 bytes from 203.210.4.91: seq=147 ttl=51 time=173.633 ms
ping_2  | 64 bytes from 203.210.4.91: seq=147 ttl=51 time=182.513 ms
ping_1  | 64 bytes from 203.210.4.91: seq=148 ttl=51 time=182.017 ms
ping_2  | 64 bytes from 203.210.4.91: seq=148 ttl=51 time=185.044 ms
ping_1  | 64 bytes from 203.210.4.91: seq=149 ttl=51 time=184.452 ms
ping_2  | 64 bytes from 203.210.4.91: seq=149 ttl=51 time=184.994 ms
ping_1  | 64 bytes from 203.210.4.91: seq=150 ttl=51 time=185.370 ms
ping_2  | 64 bytes from 203.210.4.91: seq=150 ttl=51 time=171.582 ms
ping_1  | 64 bytes from 203.210.4.91: seq=151 ttl=51 time=171.136 ms
ping_2  | 64 bytes from 203.210.4.91: seq=151 ttl=51 time=181.769 ms
ping_1  | 64 bytes from 203.210.4.91: seq=152 ttl=51 time=182.009 ms
ping_2  | 64 bytes from 203.210.4.91: seq=152 ttl=51 time=168.338 ms
ping_1  | 64 bytes from 203.210.4.91: seq=153 ttl=51 time=167.799 ms
ping_2  | 64 bytes from 203.210.4.91: seq=153 ttl=51 time=178.997 ms
ping_1  | 64 bytes from 203.210.4.91: seq=154 ttl=51 time=178.934 ms
ping_2  | 64 bytes from 203.210.4.91: seq=154 ttl=51 time=175.211 ms
ping_1  | 64 bytes from 203.210.4.91: seq=155 ttl=51 time=174.260 ms
ping_2  | 64 bytes from 203.210.4.91: seq=155 ttl=51 time=184.344 ms
ping_1  | 64 bytes from 203.210.4.91: seq=156 ttl=51 time=184.217 ms
ping_2  | 64 bytes from 203.210.4.91: seq=156 ttl=51 time=184.487 ms
ping_1  | 64 bytes from 203.210.4.91: seq=157 ttl=51 time=182.805 ms
ping_2  | 64 bytes from 203.210.4.91: seq=157 ttl=51 time=172.094 ms
ping_1  | 64 bytes from 203.210.4.91: seq=158 ttl=51 time=172.294 ms
ping_2  | 64 bytes from 203.210.4.91: seq=158 ttl=51 time=183.925 ms
ping_1  | 64 bytes from 203.210.4.91: seq=159 ttl=51 time=182.238 ms
ping_2  | 64 bytes from 203.210.4.91: seq=159 ttl=51 time=185.496 ms
ping_1  | 64 bytes from 203.210.4.91: seq=160 ttl=51 time=184.472 ms
ping_2  | 64 bytes from 203.210.4.91: seq=160 ttl=51 time=182.541 ms
ping_1  | 64 bytes from 203.210.4.91: seq=161 ttl=51 time=183.006 ms
ping_2  | 64 bytes from 203.210.4.91: seq=161 ttl=51 time=178.567 ms
ping_1  | 64 bytes from 203.210.4.91: seq=162 ttl=51 time=178.389 ms
ping_2  | 64 bytes from 203.210.4.91: seq=162 ttl=51 time=176.298 ms
ping_1  | 64 bytes from 203.210.4.91: seq=163 ttl=51 time=176.461 ms
ping_2  | 64 bytes from 203.210.4.91: seq=163 ttl=51 time=171.828 ms
ping_1  | 64 bytes from 203.210.4.91: seq=164 ttl=51 time=171.629 ms
ping_2  | 64 bytes from 203.210.4.91: seq=164 ttl=51 time=175.598 ms
ping_1  | 64 bytes from 203.210.4.91: seq=165 ttl=51 time=176.196 ms
ping_2  | 64 bytes from 203.210.4.91: seq=165 ttl=51 time=184.489 ms
ping_1  | 64 bytes from 203.210.4.91: seq=166 ttl=51 time=183.410 ms
ping_2  | 64 bytes from 203.210.4.91: seq=166 ttl=51 time=181.159 ms
ping_1  | 64 bytes from 203.210.4.91: seq=167 ttl=51 time=180.125 ms
ping_2  | 64 bytes from 203.210.4.91: seq=167 ttl=51 time=167.234 ms
ping_1  | 64 bytes from 203.210.4.91: seq=168 ttl=51 time=168.313 ms
ping_2  | 64 bytes from 203.210.4.91: seq=168 ttl=51 time=181.384 ms
ping_1  | 64 bytes from 203.210.4.91: seq=169 ttl=51 time=181.069 ms
ping_2  | 64 bytes from 203.210.4.91: seq=169 ttl=51 time=177.339 ms
ping_1  | 64 bytes from 203.210.4.91: seq=170 ttl=51 time=176.020 ms
ping_2  | 64 bytes from 203.210.4.91: seq=170 ttl=51 time=184.788 ms
ping_1  | 64 bytes from 203.210.4.91: seq=171 ttl=51 time=184.676 ms
ping_2  | 64 bytes from 203.210.4.91: seq=171 ttl=51 time=183.513 ms
ping_1  | 64 bytes from 203.210.4.91: seq=172 ttl=51 time=184.773 ms
ping_2  | 64 bytes from 203.210.4.91: seq=172 ttl=51 time=171.117 ms
ping_1  | 64 bytes from 203.210.4.91: seq=173 ttl=51 time=170.024 ms
ping_2  | 64 bytes from 203.210.4.91: seq=173 ttl=51 time=180.780 ms
ping_1  | 64 bytes from 203.210.4.91: seq=174 ttl=51 time=177.727 ms
ping_2  | 64 bytes from 203.210.4.91: seq=174 ttl=51 time=179.326 ms
ping_1  | 64 bytes from 203.210.4.91: seq=175 ttl=51 time=181.354 ms
ping_2  | 64 bytes from 203.210.4.91: seq=175 ttl=51 time=170.356 ms
ping_1  | 64 bytes from 203.210.4.91: seq=176 ttl=51 time=170.270 ms
ping_2  | 64 bytes from 203.210.4.91: seq=176 ttl=51 time=184.704 ms
ping_1  | 64 bytes from 203.210.4.91: seq=177 ttl=51 time=184.881 ms
ping_2  | 64 bytes from 203.210.4.91: seq=177 ttl=51 time=168.604 ms
ping_1  | 64 bytes from 203.210.4.91: seq=178 ttl=51 time=170.588 ms
ping_2  | 64 bytes from 203.210.4.91: seq=178 ttl=51 time=176.463 ms
ping_1  | 64 bytes from 203.210.4.91: seq=179 ttl=51 time=174.711 ms
ping_2  | 64 bytes from 203.210.4.91: seq=179 ttl=51 time=177.899 ms
ping_1  | 64 bytes from 203.210.4.91: seq=180 ttl=51 time=175.877 ms
ping_2  | 64 bytes from 203.210.4.91: seq=180 ttl=51 time=172.371 ms
ping_1  | 64 bytes from 203.210.4.91: seq=181 ttl=51 time=173.620 ms
ping_2  | 64 bytes from 203.210.4.91: seq=181 ttl=51 time=180.941 ms
ping_1  | 64 bytes from 203.210.4.91: seq=182 ttl=51 time=182.528 ms
ping_2  | 64 bytes from 203.210.4.91: seq=182 ttl=51 time=175.061 ms
ping_1  | 64 bytes from 203.210.4.91: seq=183 ttl=51 time=174.051 ms
ping_2  | 64 bytes from 203.210.4.91: seq=183 ttl=51 time=173.312 ms
ping_1  | 64 bytes from 203.210.4.91: seq=184 ttl=51 time=173.120 ms
ping_2  | 64 bytes from 203.210.4.91: seq=184 ttl=51 time=185.026 ms
ping_1  | 64 bytes from 203.210.4.91: seq=185 ttl=51 time=184.878 ms
ping_2  | 64 bytes from 203.210.4.91: seq=185 ttl=51 time=181.646 ms
ping_1  | 64 bytes from 203.210.4.91: seq=186 ttl=51 time=184.266 ms
ping_2  | 64 bytes from 203.210.4.91: seq=186 ttl=51 time=185.678 ms
ping_1  | 64 bytes from 203.210.4.91: seq=187 ttl=51 time=185.645 ms
ping_2  | 64 bytes from 203.210.4.91: seq=187 ttl=51 time=175.550 ms
ping_1  | 64 bytes from 203.210.4.91: seq=188 ttl=51 time=175.500 ms
ping_2  | 64 bytes from 203.210.4.91: seq=188 ttl=51 time=171.165 ms
ping_1  | 64 bytes from 203.210.4.91: seq=189 ttl=51 time=172.743 ms
ping_2  | 64 bytes from 203.210.4.91: seq=189 ttl=51 time=169.303 ms
ping_1  | 64 bytes from 203.210.4.91: seq=190 ttl=51 time=168.855 ms
ping_2  | 64 bytes from 203.210.4.91: seq=190 ttl=51 time=180.820 ms
ping_1  | 64 bytes from 203.210.4.91: seq=191 ttl=51 time=179.836 ms
ping_2  | 64 bytes from 203.210.4.91: seq=191 ttl=51 time=168.797 ms
ping_1  | 64 bytes from 203.210.4.91: seq=192 ttl=51 time=168.361 ms
ping_2  | 64 bytes from 203.210.4.91: seq=192 ttl=51 time=185.053 ms
ping_1  | 64 bytes from 203.210.4.91: seq=193 ttl=51 time=184.236 ms
ping_2  | 64 bytes from 203.210.4.91: seq=193 ttl=51 time=170.145 ms
ping_1  | 64 bytes from 203.210.4.91: seq=194 ttl=51 time=167.946 ms
ping_2  | 64 bytes from 203.210.4.91: seq=194 ttl=51 time=175.653 ms
ping_1  | 64 bytes from 203.210.4.91: seq=195 ttl=51 time=173.175 ms
ping_2  | 64 bytes from 203.210.4.91: seq=195 ttl=51 time=179.856 ms
ping_1  | 64 bytes from 203.210.4.91: seq=196 ttl=51 time=178.349 ms
ping_2  | 64 bytes from 203.210.4.91: seq=196 ttl=51 time=176.043 ms
ping_1  | 64 bytes from 203.210.4.91: seq=197 ttl=51 time=175.829 ms
ping_2  | 64 bytes from 203.210.4.91: seq=197 ttl=51 time=184.730 ms
ping_1  | 64 bytes from 203.210.4.91: seq=198 ttl=51 time=184.378 ms
ping_2  | 64 bytes from 203.210.4.91: seq=198 ttl=51 time=168.787 ms
ping_1  | 64 bytes from 203.210.4.91: seq=199 ttl=51 time=167.921 ms
ping_2  | 64 bytes from 203.210.4.91: seq=199 ttl=51 time=168.466 ms
ping_1  | 64 bytes from 203.210.4.91: seq=200 ttl=51 time=169.307 ms
ping_2  | 64 bytes from 203.210.4.91: seq=200 ttl=51 time=174.064 ms
ping_1  | 64 bytes from 203.210.4.91: seq=201 ttl=51 time=173.197 ms
ping_2  | 64 bytes from 203.210.4.91: seq=201 ttl=51 time=179.889 ms
ping_1  | 64 bytes from 203.210.4.91: seq=202 ttl=51 time=184.272 ms
ping_2  | 64 bytes from 203.210.4.91: seq=202 ttl=51 time=168.827 ms
ping_1  | 64 bytes from 203.210.4.91: seq=203 ttl=51 time=167.955 ms
ping_2  | 64 bytes from 203.210.4.91: seq=203 ttl=51 time=183.483 ms
ping_1  | 64 bytes from 203.210.4.91: seq=204 ttl=51 time=185.056 ms
ping_2  | 64 bytes from 203.210.4.91: seq=204 ttl=51 time=175.231 ms
ping_1  | 64 bytes from 203.210.4.91: seq=205 ttl=51 time=175.121 ms
ping_2  | 64 bytes from 203.210.4.91: seq=205 ttl=51 time=180.114 ms
ping_1  | 64 bytes from 203.210.4.91: seq=206 ttl=51 time=182.824 ms
ping_2  | 64 bytes from 203.210.4.91: seq=206 ttl=51 time=179.073 ms
ping_1  | 64 bytes from 203.210.4.91: seq=207 ttl=51 time=174.883 ms
ping_2  | 64 bytes from 203.210.4.91: seq=207 ttl=51 time=170.754 ms
ping_1  | 64 bytes from 203.210.4.91: seq=208 ttl=51 time=172.509 ms
ping_2  | 64 bytes from 203.210.4.91: seq=208 ttl=51 time=177.652 ms
ping_1  | 64 bytes from 203.210.4.91: seq=209 ttl=51 time=176.314 ms
ping_2  | 64 bytes from 203.210.4.91: seq=209 ttl=51 time=179.211 ms
ping_1  | 64 bytes from 203.210.4.91: seq=210 ttl=51 time=179.549 ms
ping_2  | 64 bytes from 203.210.4.91: seq=210 ttl=51 time=174.907 ms
ping_1  | 64 bytes from 203.210.4.91: seq=211 ttl=51 time=173.868 ms
ping_2  | 64 bytes from 203.210.4.91: seq=211 ttl=51 time=185.296 ms
ping_1  | 64 bytes from 203.210.4.91: seq=212 ttl=51 time=184.178 ms
ping_2  | 64 bytes from 203.210.4.91: seq=212 ttl=51 time=177.567 ms
ping_1  | 64 bytes from 203.210.4.91: seq=213 ttl=51 time=177.527 ms
ping_2  | 64 bytes from 203.210.4.91: seq=213 ttl=51 time=184.974 ms
ping_1  | 64 bytes from 203.210.4.91: seq=214 ttl=51 time=184.751 ms
ping_2  | 64 bytes from 203.210.4.91: seq=214 ttl=51 time=168.971 ms
ping_1  | 64 bytes from 203.210.4.91: seq=215 ttl=51 time=172.793 ms
ping_2  | 64 bytes from 203.210.4.91: seq=215 ttl=51 time=171.246 ms
ping_1  | 64 bytes from 203.210.4.91: seq=216 ttl=51 time=172.054 ms
ping_2  | 64 bytes from 203.210.4.91: seq=216 ttl=51 time=170.446 ms
ping_1  | 64 bytes from 203.210.4.91: seq=217 ttl=51 time=168.324 ms
ping_2  | 64 bytes from 203.210.4.91: seq=217 ttl=51 time=176.857 ms
ping_1  | 64 bytes from 203.210.4.91: seq=218 ttl=51 time=175.860 ms
ping_2  | 64 bytes from 203.210.4.91: seq=218 ttl=51 time=179.558 ms
ping_1  | 64 bytes from 203.210.4.91: seq=219 ttl=51 time=177.030 ms
ping_2  | 64 bytes from 203.210.4.91: seq=219 ttl=51 time=182.775 ms
ping_1  | 64 bytes from 203.210.4.91: seq=220 ttl=51 time=184.634 ms
ping_2  | 64 bytes from 203.210.4.91: seq=220 ttl=51 time=167.766 ms
ping_1  | 64 bytes from 203.210.4.91: seq=221 ttl=51 time=168.374 ms
ping_2  | 64 bytes from 203.210.4.91: seq=221 ttl=51 time=179.862 ms
ping_1  | 64 bytes from 203.210.4.91: seq=222 ttl=51 time=180.299 ms
ping_2  | 64 bytes from 203.210.4.91: seq=222 ttl=51 time=180.767 ms
ping_1  | 64 bytes from 203.210.4.91: seq=223 ttl=51 time=181.087 ms
ping_2  | 64 bytes from 203.210.4.91: seq=223 ttl=51 time=176.245 ms
ping_1  | 64 bytes from 203.210.4.91: seq=224 ttl=51 time=176.264 ms
ping_2  | 64 bytes from 203.210.4.91: seq=224 ttl=51 time=175.113 ms
ping_1  | 64 bytes from 203.210.4.91: seq=225 ttl=51 time=174.215 ms
ping_2  | 64 bytes from 203.210.4.91: seq=225 ttl=51 time=184.275 ms
ping_1  | 64 bytes from 203.210.4.91: seq=226 ttl=51 time=185.443 ms
ping_2  | 64 bytes from 203.210.4.91: seq=226 ttl=51 time=183.984 ms
ping_1  | 64 bytes from 203.210.4.91: seq=227 ttl=51 time=184.650 ms
ping_2  | 64 bytes from 203.210.4.91: seq=227 ttl=51 time=185.601 ms
ping_1  | 64 bytes from 203.210.4.91: seq=228 ttl=51 time=185.273 ms
ping_1  | 64 bytes from 203.210.4.91: seq=229 ttl=51 time=185.372 ms
ping_2  | 64 bytes from 203.210.4.91: seq=229 ttl=51 time=184.674 ms
ping_1  | 64 bytes from 203.210.4.91: seq=230 ttl=51 time=185.045 ms
ping_2  | 64 bytes from 203.210.4.91: seq=230 ttl=51 time=185.499 ms
ping_1  | 64 bytes from 203.210.4.91: seq=231 ttl=51 time=185.455 ms
ping_2  | 64 bytes from 203.210.4.91: seq=231 ttl=51 time=185.738 ms
ping_1  | 64 bytes from 203.210.4.91: seq=232 ttl=51 time=184.352 ms
ping_2  | 64 bytes from 203.210.4.91: seq=232 ttl=51 time=184.636 ms
ping_1  | 64 bytes from 203.210.4.91: seq=233 ttl=51 time=184.608 ms
ping_2  | 64 bytes from 203.210.4.91: seq=233 ttl=51 time=185.091 ms
ping_1  | 64 bytes from 203.210.4.91: seq=234 ttl=51 time=185.523 ms
ping_2  | 64 bytes from 203.210.4.91: seq=234 ttl=51 time=185.955 ms
ping_1  | 64 bytes from 203.210.4.91: seq=235 ttl=51 time=186.740 ms
ping_2  | 64 bytes from 203.210.4.91: seq=235 ttl=51 time=185.551 ms
ping_1  | 64 bytes from 203.210.4.91: seq=236 ttl=51 time=185.533 ms
ping_2  | 64 bytes from 203.210.4.91: seq=236 ttl=51 time=186.536 ms
ping_1  | 64 bytes from 203.210.4.91: seq=237 ttl=51 time=185.335 ms
ping_2  | 64 bytes from 203.210.4.91: seq=237 ttl=51 time=185.227 ms
ping_1  | 64 bytes from 203.210.4.91: seq=238 ttl=51 time=185.106 ms
ping_2  | 64 bytes from 203.210.4.91: seq=238 ttl=51 time=184.380 ms
ping_1  | 64 bytes from 203.210.4.91: seq=239 ttl=51 time=184.412 ms
ping_1  | 64 bytes from 203.210.4.91: seq=240 ttl=51 time=186.047 ms
ping_2  | 64 bytes from 203.210.4.91: seq=240 ttl=51 time=185.563 ms
ping_1  | 64 bytes from 203.210.4.91: seq=241 ttl=51 time=184.547 ms
ping_2  | 64 bytes from 203.210.4.91: seq=241 ttl=51 time=184.425 ms
ping_1  | 64 bytes from 203.210.4.91: seq=242 ttl=51 time=185.456 ms
ping_2  | 64 bytes from 203.210.4.91: seq=242 ttl=51 time=185.307 ms
ping_1  | 64 bytes from 203.210.4.91: seq=243 ttl=51 time=185.100 ms
ping_2  | 64 bytes from 203.210.4.91: seq=243 ttl=51 time=185.208 ms
ping_1  | 64 bytes from 203.210.4.91: seq=244 ttl=51 time=184.832 ms
ping_2  | 64 bytes from 203.210.4.91: seq=244 ttl=51 time=185.028 ms
ping_1  | 64 bytes from 203.210.4.91: seq=245 ttl=51 time=185.169 ms
ping_2  | 64 bytes from 203.210.4.91: seq=245 ttl=51 time=184.701 ms
ping_1  | 64 bytes from 203.210.4.91: seq=246 ttl=51 time=185.349 ms
ping_2  | 64 bytes from 203.210.4.91: seq=246 ttl=51 time=185.165 ms
ping_1  | 64 bytes from 203.210.4.91: seq=247 ttl=51 time=186.114 ms
ping_2  | 64 bytes from 203.210.4.91: seq=247 ttl=51 time=184.914 ms
ping_1  | 64 bytes from 203.210.4.91: seq=248 ttl=51 time=184.940 ms
ping_2  | 64 bytes from 203.210.4.91: seq=248 ttl=51 time=185.823 ms
ping_1  | 64 bytes from 203.210.4.91: seq=249 ttl=51 time=185.239 ms
ping_2  | 64 bytes from 203.210.4.91: seq=249 ttl=51 time=184.815 ms
ping_1  | 64 bytes from 203.210.4.91: seq=250 ttl=51 time=185.664 ms
ping_2  | 64 bytes from 203.210.4.91: seq=250 ttl=51 time=185.509 ms
ping_1  | 64 bytes from 203.210.4.91: seq=251 ttl=51 time=185.102 ms
ping_2  | 64 bytes from 203.210.4.91: seq=251 ttl=51 time=185.264 ms
ping_1  | 64 bytes from 203.210.4.91: seq=252 ttl=51 time=185.181 ms
ping_2  | 64 bytes from 203.210.4.91: seq=252 ttl=51 time=184.817 ms
ping_1  | 64 bytes from 203.210.4.91: seq=253 ttl=51 time=185.290 ms
ping_2  | 64 bytes from 203.210.4.91: seq=253 ttl=51 time=185.229 ms
ping_1  | 64 bytes from 203.210.4.91: seq=254 ttl=51 time=184.985 ms
ping_2  | 64 bytes from 203.210.4.91: seq=254 ttl=51 time=185.411 ms
ping_1  | 64 bytes from 203.210.4.91: seq=255 ttl=51 time=185.715 ms
ping_2  | 64 bytes from 203.210.4.91: seq=255 ttl=51 time=185.126 ms
ping_1  | 64 bytes from 203.210.4.91: seq=256 ttl=51 time=185.321 ms
ping_2  | 64 bytes from 203.210.4.91: seq=256 ttl=51 time=185.177 ms
ping_1  | 64 bytes from 203.210.4.91: seq=257 ttl=51 time=186.141 ms
ping_2  | 64 bytes from 203.210.4.91: seq=257 ttl=51 time=185.425 ms
ping_1  | 64 bytes from 203.210.4.91: seq=258 ttl=51 time=185.212 ms
ping_2  | 64 bytes from 203.210.4.91: seq=258 ttl=51 time=185.481 ms
ping_1  | 64 bytes from 203.210.4.91: seq=259 ttl=51 time=185.791 ms
ping_2  | 64 bytes from 203.210.4.91: seq=259 ttl=51 time=185.128 ms
ping_1  | 64 bytes from 203.210.4.91: seq=260 ttl=51 time=185.050 ms
ping_2  | 64 bytes from 203.210.4.91: seq=260 ttl=51 time=185.337 ms
ping_1  | 64 bytes from 203.210.4.91: seq=261 ttl=51 time=185.155 ms
ping_2  | 64 bytes from 203.210.4.91: seq=261 ttl=51 time=184.822 ms
ping_1  | 64 bytes from 203.210.4.91: seq=262 ttl=51 time=185.198 ms
ping_2  | 64 bytes from 203.210.4.91: seq=262 ttl=51 time=185.613 ms
ping_1  | 64 bytes from 203.210.4.91: seq=263 ttl=51 time=185.642 ms
ping_2  | 64 bytes from 203.210.4.91: seq=263 ttl=51 time=184.929 ms
ping_1  | 64 bytes from 203.210.4.91: seq=264 ttl=51 time=185.473 ms
ping_2  | 64 bytes from 203.210.4.91: seq=264 ttl=51 time=185.056 ms
ping_1  | 64 bytes from 203.210.4.91: seq=265 ttl=51 time=185.500 ms
ping_2  | 64 bytes from 203.210.4.91: seq=265 ttl=51 time=185.073 ms
ping_1  | 64 bytes from 203.210.4.91: seq=266 ttl=51 time=185.536 ms
ping_2  | 64 bytes from 203.210.4.91: seq=266 ttl=51 time=184.358 ms
ping_1  | 64 bytes from 203.210.4.91: seq=267 ttl=51 time=184.521 ms
ping_2  | 64 bytes from 203.210.4.91: seq=267 ttl=51 time=184.812 ms
ping_1  | 64 bytes from 203.210.4.91: seq=268 ttl=51 time=185.762 ms
ping_2  | 64 bytes from 203.210.4.91: seq=268 ttl=51 time=184.983 ms
ping_1  | 64 bytes from 203.210.4.91: seq=269 ttl=51 time=184.972 ms
ping_2  | 64 bytes from 203.210.4.91: seq=269 ttl=51 time=185.007 ms
ping_1  | 64 bytes from 203.210.4.91: seq=270 ttl=51 time=185.064 ms
ping_2  | 64 bytes from 203.210.4.91: seq=270 ttl=51 time=185.423 ms
ping_1  | 64 bytes from 203.210.4.91: seq=271 ttl=51 time=184.714 ms
ping_1  | 64 bytes from 203.210.4.91: seq=272 ttl=51 time=184.737 ms
ping_2  | 64 bytes from 203.210.4.91: seq=272 ttl=51 time=185.550 ms
ping_1  | 64 bytes from 203.210.4.91: seq=273 ttl=51 time=185.207 ms
ping_2  | 64 bytes from 203.210.4.91: seq=273 ttl=51 time=185.293 ms
ping_1  | 64 bytes from 203.210.4.91: seq=274 ttl=51 time=185.372 ms
ping_2  | 64 bytes from 203.210.4.91: seq=274 ttl=51 time=185.376 ms
ping_1  | 64 bytes from 203.210.4.91: seq=275 ttl=51 time=184.965 ms
ping_2  | 64 bytes from 203.210.4.91: seq=275 ttl=51 time=184.532 ms
ping_1  | 64 bytes from 203.210.4.91: seq=276 ttl=51 time=185.142 ms
ping_2  | 64 bytes from 203.210.4.91: seq=276 ttl=51 time=185.352 ms
ping_1  | 64 bytes from 203.210.4.91: seq=277 ttl=51 time=185.369 ms
ping_2  | 64 bytes from 203.210.4.91: seq=277 ttl=51 time=184.692 ms
ping_1  | 64 bytes from 203.210.4.91: seq=278 ttl=51 time=185.677 ms
ping_2  | 64 bytes from 203.210.4.91: seq=278 ttl=51 time=186.213 ms
ping_1  | 64 bytes from 203.210.4.91: seq=279 ttl=51 time=185.922 ms
ping_2  | 64 bytes from 203.210.4.91: seq=279 ttl=51 time=184.133 ms
ping_1  | 64 bytes from 203.210.4.91: seq=280 ttl=51 time=184.964 ms
ping_2  | 64 bytes from 203.210.4.91: seq=280 ttl=51 time=186.824 ms
ping_1  | 64 bytes from 203.210.4.91: seq=281 ttl=51 time=184.986 ms
ping_2  | 64 bytes from 203.210.4.91: seq=281 ttl=51 time=184.574 ms
ping_1  | 64 bytes from 203.210.4.91: seq=282 ttl=51 time=186.349 ms
ping_2  | 64 bytes from 203.210.4.91: seq=282 ttl=51 time=184.642 ms
ping_1  | 64 bytes from 203.210.4.91: seq=283 ttl=51 time=184.879 ms
ping_2  | 64 bytes from 203.210.4.91: seq=283 ttl=51 time=184.763 ms
ping_1  | 64 bytes from 203.210.4.91: seq=284 ttl=51 time=185.417 ms
ping_2  | 64 bytes from 203.210.4.91: seq=284 ttl=51 time=185.368 ms
ping_1  | 64 bytes from 203.210.4.91: seq=285 ttl=51 time=185.745 ms
ping_2  | 64 bytes from 203.210.4.91: seq=285 ttl=51 time=185.524 ms
ping_2  | 64 bytes from 203.210.4.91: seq=286 ttl=51 time=185.881 ms
ping_1  | 64 bytes from 203.210.4.91: seq=287 ttl=51 time=185.106 ms
ping_2  | 64 bytes from 203.210.4.91: seq=287 ttl=51 time=167.386 ms
ping_1  | 64 bytes from 203.210.4.91: seq=288 ttl=51 time=167.311 ms
ping_2  | 64 bytes from 203.210.4.91: seq=288 ttl=51 time=167.905 ms
ping_1  | 64 bytes from 203.210.4.91: seq=289 ttl=51 time=167.565 ms
ping_2  | 64 bytes from 203.210.4.91: seq=289 ttl=51 time=168.260 ms
ping_1  | 64 bytes from 203.210.4.91: seq=290 ttl=51 time=169.105 ms
ping_2  | 64 bytes from 203.210.4.91: seq=290 ttl=51 time=185.074 ms
ping_1  | 64 bytes from 203.210.4.91: seq=291 ttl=51 time=186.016 ms
ping_2  | 64 bytes from 203.210.4.91: seq=291 ttl=51 time=184.674 ms
ping_1  | 64 bytes from 203.210.4.91: seq=292 ttl=51 time=184.096 ms
ping_2  | 64 bytes from 203.210.4.91: seq=292 ttl=51 time=184.789 ms
ping_1  | 64 bytes from 203.210.4.91: seq=293 ttl=51 time=183.829 ms
ping_2  | 64 bytes from 203.210.4.91: seq=293 ttl=51 time=184.275 ms
ping_1  | 64 bytes from 203.210.4.91: seq=294 ttl=51 time=183.669 ms
ping_2  | 64 bytes from 203.210.4.91: seq=294 ttl=51 time=185.057 ms
ping_1  | 64 bytes from 203.210.4.91: seq=295 ttl=51 time=184.069 ms
ping_2  | 64 bytes from 203.210.4.91: seq=295 ttl=51 time=181.251 ms
ping_1  | 64 bytes from 203.210.4.91: seq=296 ttl=51 time=180.812 ms
ping_2  | 64 bytes from 203.210.4.91: seq=296 ttl=51 time=184.614 ms
ping_1  | 64 bytes from 203.210.4.91: seq=297 ttl=51 time=185.335 ms
ping_2  | 64 bytes from 203.210.4.91: seq=297 ttl=51 time=183.933 ms
ping_1  | 64 bytes from 203.210.4.91: seq=298 ttl=51 time=184.381 ms
ping_2  | 64 bytes from 203.210.4.91: seq=298 ttl=51 time=184.924 ms
ping_1  | 64 bytes from 203.210.4.91: seq=299 ttl=51 time=185.374 ms
ping_2  | 64 bytes from 203.210.4.91: seq=299 ttl=51 time=183.762 ms
ping_1  | 64 bytes from 203.210.4.91: seq=300 ttl=51 time=181.722 ms
ping_2  | 64 bytes from 203.210.4.91: seq=300 ttl=51 time=190.013 ms
ping_1  | 64 bytes from 203.210.4.91: seq=301 ttl=51 time=185.116 ms
ping_2  | 64 bytes from 203.210.4.91: seq=301 ttl=51 time=184.829 ms
ping_1  | 64 bytes from 203.210.4.91: seq=302 ttl=51 time=186.000 ms
ping_2  | 64 bytes from 203.210.4.91: seq=302 ttl=51 time=183.191 ms
ping_1  | 64 bytes from 203.210.4.91: seq=303 ttl=51 time=182.888 ms
ping_2  | 64 bytes from 203.210.4.91: seq=303 ttl=51 time=176.147 ms
ping_1  | 64 bytes from 203.210.4.91: seq=304 ttl=51 time=177.672 ms
ping_2  | 64 bytes from 203.210.4.91: seq=304 ttl=51 time=184.121 ms
ping_1  | 64 bytes from 203.210.4.91: seq=305 ttl=51 time=182.857 ms
ping_2  | 64 bytes from 203.210.4.91: seq=305 ttl=51 time=184.925 ms
ping_1  | 64 bytes from 203.210.4.91: seq=306 ttl=51 time=184.304 ms
ping_2  | 64 bytes from 203.210.4.91: seq=306 ttl=51 time=184.277 ms
ping_1  | 64 bytes from 203.210.4.91: seq=307 ttl=51 time=184.047 ms
ping_2  | 64 bytes from 203.210.4.91: seq=307 ttl=51 time=180.909 ms
ping_1  | 64 bytes from 203.210.4.91: seq=308 ttl=51 time=181.029 ms
ping_2  | 64 bytes from 203.210.4.91: seq=308 ttl=51 time=167.443 ms
ping_1  | 64 bytes from 203.210.4.91: seq=309 ttl=51 time=168.026 ms
ping_2  | 64 bytes from 203.210.4.91: seq=309 ttl=51 time=174.195 ms
ping_1  | 64 bytes from 203.210.4.91: seq=310 ttl=51 time=175.738 ms
ping_2  | 64 bytes from 203.210.4.91: seq=310 ttl=51 time=182.015 ms
ping_1  | 64 bytes from 203.210.4.91: seq=311 ttl=51 time=180.958 ms
ping_2  | 64 bytes from 203.210.4.91: seq=311 ttl=51 time=183.031 ms
ping_1  | 64 bytes from 203.210.4.91: seq=312 ttl=51 time=182.175 ms
ping_2  | 64 bytes from 203.210.4.91: seq=312 ttl=51 time=172.993 ms
ping_1  | 64 bytes from 203.210.4.91: seq=313 ttl=51 time=174.054 ms
ping_2  | 64 bytes from 203.210.4.91: seq=313 ttl=51 time=167.396 ms
ping_1  | 64 bytes from 203.210.4.91: seq=314 ttl=51 time=168.704 ms
ping_2  | 64 bytes from 203.210.4.91: seq=314 ttl=51 time=177.623 ms
ping_1  | 64 bytes from 203.210.4.91: seq=315 ttl=51 time=177.948 ms
ping_2  | 64 bytes from 203.210.4.91: seq=315 ttl=51 time=173.572 ms
ping_1  | 64 bytes from 203.210.4.91: seq=316 ttl=51 time=173.710 ms
ping_2  | 64 bytes from 203.210.4.91: seq=316 ttl=51 time=184.362 ms
ping_1  | 64 bytes from 203.210.4.91: seq=317 ttl=51 time=183.159 ms
ping_2  | 64 bytes from 203.210.4.91: seq=317 ttl=51 time=185.991 ms
ping_1  | 64 bytes from 203.210.4.91: seq=318 ttl=51 time=185.252 ms
ping_2  | 64 bytes from 203.210.4.91: seq=318 ttl=51 time=183.608 ms
ping_1  | 64 bytes from 203.210.4.91: seq=319 ttl=51 time=184.709 ms
ping_2  | 64 bytes from 203.210.4.91: seq=319 ttl=51 time=185.113 ms
ping_1  | 64 bytes from 203.210.4.91: seq=320 ttl=51 time=184.296 ms
ping_2  | 64 bytes from 203.210.4.91: seq=320 ttl=51 time=184.497 ms
ping_1  | 64 bytes from 203.210.4.91: seq=321 ttl=51 time=185.395 ms
ping_2  | 64 bytes from 203.210.4.91: seq=321 ttl=51 time=184.511 ms
ping_1  | 64 bytes from 203.210.4.91: seq=322 ttl=51 time=186.065 ms
ping_2  | 64 bytes from 203.210.4.91: seq=322 ttl=51 time=185.151 ms
ping_1  | 64 bytes from 203.210.4.91: seq=323 ttl=51 time=185.870 ms
ping_2  | 64 bytes from 203.210.4.91: seq=323 ttl=51 time=184.582 ms
ping_1  | 64 bytes from 203.210.4.91: seq=324 ttl=51 time=185.337 ms
ping_2  | 64 bytes from 203.210.4.91: seq=324 ttl=51 time=185.006 ms
ping_1  | 64 bytes from 203.210.4.91: seq=325 ttl=51 time=185.765 ms
ping_2  | 64 bytes from 203.210.4.91: seq=325 ttl=51 time=184.679 ms
ping_1  | 64 bytes from 203.210.4.91: seq=326 ttl=51 time=185.764 ms
ping_2  | 64 bytes from 203.210.4.91: seq=326 ttl=51 time=180.519 ms
ping_1  | 64 bytes from 203.210.4.91: seq=327 ttl=51 time=179.641 ms
ping_2  | 64 bytes from 203.210.4.91: seq=327 ttl=51 time=185.147 ms
ping_1  | 64 bytes from 203.210.4.91: seq=328 ttl=51 time=184.932 ms
ping_2  | 64 bytes from 203.210.4.91: seq=328 ttl=51 time=185.115 ms
ping_1  | 64 bytes from 203.210.4.91: seq=329 ttl=51 time=184.826 ms
ping_2  | 64 bytes from 203.210.4.91: seq=329 ttl=51 time=183.632 ms
ping_1  | 64 bytes from 203.210.4.91: seq=330 ttl=51 time=183.016 ms
ping_2  | 64 bytes from 203.210.4.91: seq=330 ttl=51 time=179.467 ms
ping_1  | 64 bytes from 203.210.4.91: seq=331 ttl=51 time=179.234 ms
ping_2  | 64 bytes from 203.210.4.91: seq=331 ttl=51 time=184.141 ms
ping_1  | 64 bytes from 203.210.4.91: seq=332 ttl=51 time=185.633 ms
ping_2  | 64 bytes from 203.210.4.91: seq=332 ttl=51 time=184.910 ms
ping_1  | 64 bytes from 203.210.4.91: seq=333 ttl=51 time=184.953 ms
ping_2  | 64 bytes from 203.210.4.91: seq=333 ttl=51 time=183.906 ms
ping_1  | 64 bytes from 203.210.4.91: seq=334 ttl=51 time=182.574 ms
ping_2  | 64 bytes from 203.210.4.91: seq=334 ttl=51 time=179.956 ms
ping_1  | 64 bytes from 203.210.4.91: seq=335 ttl=51 time=178.587 ms
ping_2  | 64 bytes from 203.210.4.91: seq=335 ttl=51 time=184.636 ms
ping_1  | 64 bytes from 203.210.4.91: seq=336 ttl=51 time=184.664 ms
ping_2  | 64 bytes from 203.210.4.91: seq=336 ttl=51 time=183.702 ms
ping_1  | 64 bytes from 203.210.4.91: seq=337 ttl=51 time=185.750 ms
ping_2  | 64 bytes from 203.210.4.91: seq=337 ttl=51 time=185.032 ms
ping_1  | 64 bytes from 203.210.4.91: seq=338 ttl=51 time=185.147 ms
ping_2  | 64 bytes from 203.210.4.91: seq=338 ttl=51 time=182.781 ms
ping_1  | 64 bytes from 203.210.4.91: seq=339 ttl=51 time=182.771 ms
ping_2  | 64 bytes from 203.210.4.91: seq=339 ttl=51 time=181.319 ms
ping_1  | 64 bytes from 203.210.4.91: seq=340 ttl=51 time=180.978 ms
ping_2  | 64 bytes from 203.210.4.91: seq=340 ttl=51 time=185.707 ms
ping_1  | 64 bytes from 203.210.4.91: seq=341 ttl=51 time=185.792 ms
ping_2  | 64 bytes from 203.210.4.91: seq=341 ttl=51 time=185.963 ms
ping_1  | 64 bytes from 203.210.4.91: seq=342 ttl=51 time=184.397 ms
ping_2  | 64 bytes from 203.210.4.91: seq=342 ttl=51 time=178.849 ms
ping_1  | 64 bytes from 203.210.4.91: seq=343 ttl=51 time=180.843 ms
ping_2  | 64 bytes from 203.210.4.91: seq=343 ttl=51 time=168.121 ms
ping_1  | 64 bytes from 203.210.4.91: seq=344 ttl=51 time=171.272 ms
ping_2  | 64 bytes from 203.210.4.91: seq=344 ttl=51 time=183.451 ms
ping_1  | 64 bytes from 203.210.4.91: seq=345 ttl=51 time=184.517 ms
ping_2  | 64 bytes from 203.210.4.91: seq=345 ttl=51 time=184.958 ms
ping_1  | 64 bytes from 203.210.4.91: seq=346 ttl=51 time=184.395 ms
ping_2  | 64 bytes from 203.210.4.91: seq=346 ttl=51 time=184.506 ms
ping_1  | 64 bytes from 203.210.4.91: seq=347 ttl=51 time=184.704 ms
ping_2  | 64 bytes from 203.210.4.91: seq=347 ttl=51 time=167.751 ms
ping_1  | 64 bytes from 203.210.4.91: seq=348 ttl=51 time=167.287 ms
ping_2  | 64 bytes from 203.210.4.91: seq=348 ttl=51 time=167.471 ms
ping_1  | 64 bytes from 203.210.4.91: seq=349 ttl=51 time=168.087 ms
ping_2  | 64 bytes from 203.210.4.91: seq=349 ttl=51 time=168.475 ms
ping_1  | 64 bytes from 203.210.4.91: seq=350 ttl=51 time=169.260 ms
ping_2  | 64 bytes from 203.210.4.91: seq=350 ttl=51 time=173.184 ms
ping_1  | 64 bytes from 203.210.4.91: seq=351 ttl=51 time=171.546 ms
ping_2  | 64 bytes from 203.210.4.91: seq=351 ttl=51 time=178.379 ms
ping_1  | 64 bytes from 203.210.4.91: seq=352 ttl=51 time=177.812 ms
ping_2  | 64 bytes from 203.210.4.91: seq=352 ttl=51 time=185.827 ms
ping_1  | 64 bytes from 203.210.4.91: seq=353 ttl=51 time=185.612 ms
ping_2  | 64 bytes from 203.210.4.91: seq=353 ttl=51 time=186.059 ms
ping_1  | 64 bytes from 203.210.4.91: seq=354 ttl=51 time=185.562 ms
ping_2  | 64 bytes from 203.210.4.91: seq=354 ttl=51 time=184.813 ms
ping_1  | 64 bytes from 203.210.4.91: seq=355 ttl=51 time=184.774 ms
ping_2  | 64 bytes from 203.210.4.91: seq=355 ttl=51 time=183.962 ms
ping_1  | 64 bytes from 203.210.4.91: seq=356 ttl=51 time=183.065 ms
ping_2  | 64 bytes from 203.210.4.91: seq=356 ttl=51 time=181.066 ms
ping_1  | 64 bytes from 203.210.4.91: seq=357 ttl=51 time=182.390 ms
ping_2  | 64 bytes from 203.210.4.91: seq=357 ttl=51 time=185.137 ms
ping_1  | 64 bytes from 203.210.4.91: seq=358 ttl=51 time=184.274 ms
ping_2  | 64 bytes from 203.210.4.91: seq=358 ttl=51 time=185.062 ms
ping_1  | 64 bytes from 203.210.4.91: seq=359 ttl=51 time=184.481 ms
ping_2  | 64 bytes from 203.210.4.91: seq=359 ttl=51 time=185.624 ms
ping_1  | 64 bytes from 203.210.4.91: seq=360 ttl=51 time=185.289 ms
ping_2  | 64 bytes from 203.210.4.91: seq=360 ttl=51 time=185.798 ms
ping_1  | 64 bytes from 203.210.4.91: seq=361 ttl=51 time=185.643 ms
ping_2  | 64 bytes from 203.210.4.91: seq=361 ttl=51 time=185.669 ms
ping_1  | 64 bytes from 203.210.4.91: seq=362 ttl=51 time=185.634 ms
ping_2  | 64 bytes from 203.210.4.91: seq=362 ttl=51 time=185.267 ms
ping_1  | 64 bytes from 203.210.4.91: seq=363 ttl=51 time=185.210 ms
ping_2  | 64 bytes from 203.210.4.91: seq=363 ttl=51 time=185.162 ms
ping_1  | 64 bytes from 203.210.4.91: seq=364 ttl=51 time=185.717 ms
ping_2  | 64 bytes from 203.210.4.91: seq=364 ttl=51 time=184.651 ms
ping_1  | 64 bytes from 203.210.4.91: seq=365 ttl=51 time=186.934 ms
ping_2  | 64 bytes from 203.210.4.91: seq=365 ttl=51 time=185.379 ms
ping_1  | 64 bytes from 203.210.4.91: seq=366 ttl=51 time=185.527 ms
ping_2  | 64 bytes from 203.210.4.91: seq=366 ttl=51 time=184.938 ms
ping_1  | 64 bytes from 203.210.4.91: seq=367 ttl=51 time=185.538 ms
ping_2  | 64 bytes from 203.210.4.91: seq=367 ttl=51 time=185.592 ms
ping_1  | 64 bytes from 203.210.4.91: seq=368 ttl=51 time=185.798 ms
ping_2  | 64 bytes from 203.210.4.91: seq=368 ttl=51 time=185.561 ms
ping_1  | 64 bytes from 203.210.4.91: seq=369 ttl=51 time=185.344 ms
ping_2  | 64 bytes from 203.210.4.91: seq=369 ttl=51 time=184.749 ms
ping_1  | 64 bytes from 203.210.4.91: seq=370 ttl=51 time=184.762 ms
ping_2  | 64 bytes from 203.210.4.91: seq=370 ttl=51 time=185.497 ms
ping_1  | 64 bytes from 203.210.4.91: seq=371 ttl=51 time=185.425 ms
ping_2  | 64 bytes from 203.210.4.91: seq=371 ttl=51 time=185.189 ms
ping_1  | 64 bytes from 203.210.4.91: seq=372 ttl=51 time=184.641 ms
ping_2  | 64 bytes from 203.210.4.91: seq=372 ttl=51 time=185.336 ms
ping_1  | 64 bytes from 203.210.4.91: seq=373 ttl=51 time=185.637 ms
ping_2  | 64 bytes from 203.210.4.91: seq=373 ttl=51 time=185.251 ms
ping_1  | 64 bytes from 203.210.4.91: seq=374 ttl=51 time=185.200 ms
ping_2  | 64 bytes from 203.210.4.91: seq=374 ttl=51 time=186.167 ms
ping_1  | 64 bytes from 203.210.4.91: seq=375 ttl=51 time=185.988 ms
ping_2  | 64 bytes from 203.210.4.91: seq=375 ttl=51 time=185.227 ms
ping_1  | 64 bytes from 203.210.4.91: seq=376 ttl=51 time=185.771 ms
ping_2  | 64 bytes from 203.210.4.91: seq=376 ttl=51 time=184.885 ms
ping_1  | 64 bytes from 203.210.4.91: seq=377 ttl=51 time=185.319 ms
ping_2  | 64 bytes from 203.210.4.91: seq=377 ttl=51 time=187.458 ms
ping_1  | 64 bytes from 203.210.4.91: seq=378 ttl=51 time=185.560 ms
ping_2  | 64 bytes from 203.210.4.91: seq=378 ttl=51 time=185.242 ms
ping_1  | 64 bytes from 203.210.4.91: seq=379 ttl=51 time=185.259 ms
ping_2  | 64 bytes from 203.210.4.91: seq=379 ttl=51 time=185.831 ms
ping_1  | 64 bytes from 203.210.4.91: seq=380 ttl=51 time=184.713 ms
ping_2  | 64 bytes from 203.210.4.91: seq=380 ttl=51 time=185.952 ms
ping_1  | 64 bytes from 203.210.4.91: seq=381 ttl=51 time=185.386 ms
ping_1  | 64 bytes from 203.210.4.91: seq=382 ttl=51 time=185.300 ms
ping_2  | 64 bytes from 203.210.4.91: seq=382 ttl=51 time=173.788 ms
ping_1  | 64 bytes from 203.210.4.91: seq=383 ttl=51 time=171.614 ms
ping_2  | 64 bytes from 203.210.4.91: seq=383 ttl=51 time=180.875 ms
ping_1  | 64 bytes from 203.210.4.91: seq=384 ttl=51 time=181.168 ms
ping_2  | 64 bytes from 203.210.4.91: seq=384 ttl=51 time=185.006 ms
ping_1  | 64 bytes from 203.210.4.91: seq=385 ttl=51 time=184.795 ms
ping_2  | 64 bytes from 203.210.4.91: seq=385 ttl=51 time=185.051 ms
ping_1  | 64 bytes from 203.210.4.91: seq=386 ttl=51 time=184.827 ms
ping_2  | 64 bytes from 203.210.4.91: seq=386 ttl=51 time=185.353 ms
ping_1  | 64 bytes from 203.210.4.91: seq=387 ttl=51 time=185.139 ms
ping_2  | 64 bytes from 203.210.4.91: seq=387 ttl=51 time=184.903 ms
ping_1  | 64 bytes from 203.210.4.91: seq=388 ttl=51 time=185.542 ms
ping_2  | 64 bytes from 203.210.4.91: seq=388 ttl=51 time=184.594 ms
ping_1  | 64 bytes from 203.210.4.91: seq=389 ttl=51 time=186.603 ms
ping_2  | 64 bytes from 203.210.4.91: seq=389 ttl=51 time=185.937 ms
ping_1  | 64 bytes from 203.210.4.91: seq=390 ttl=51 time=186.077 ms
ping_2  | 64 bytes from 203.210.4.91: seq=390 ttl=51 time=185.665 ms
ping_1  | 64 bytes from 203.210.4.91: seq=391 ttl=51 time=185.010 ms
ping_2  | 64 bytes from 203.210.4.91: seq=391 ttl=51 time=185.441 ms
ping_1  | 64 bytes from 203.210.4.91: seq=392 ttl=51 time=184.848 ms
ping_2  | 64 bytes from 203.210.4.91: seq=392 ttl=51 time=185.150 ms
ping_1  | 64 bytes from 203.210.4.91: seq=393 ttl=51 time=185.419 ms
ping_2  | 64 bytes from 203.210.4.91: seq=393 ttl=51 time=185.620 ms
ping_1  | 64 bytes from 203.210.4.91: seq=394 ttl=51 time=185.133 ms
ping_2  | 64 bytes from 203.210.4.91: seq=394 ttl=51 time=185.656 ms
ping_1  | 64 bytes from 203.210.4.91: seq=395 ttl=51 time=185.213 ms
ping_1  | 64 bytes from 203.210.4.91: seq=396 ttl=51 time=185.671 ms
ping_2  | 64 bytes from 203.210.4.91: seq=396 ttl=51 time=185.267 ms
ping_1  | 64 bytes from 203.210.4.91: seq=397 ttl=51 time=184.907 ms
ping_2  | 64 bytes from 203.210.4.91: seq=397 ttl=51 time=186.383 ms
ping_1  | 64 bytes from 203.210.4.91: seq=398 ttl=51 time=185.028 ms
ping_2  | 64 bytes from 203.210.4.91: seq=398 ttl=51 time=185.452 ms
ping_2  | 64 bytes from 203.210.4.91: seq=399 ttl=51 time=185.904 ms
ping_1  | 64 bytes from 203.210.4.91: seq=400 ttl=51 time=185.055 ms
ping_2  | 64 bytes from 203.210.4.91: seq=400 ttl=51 time=185.605 ms
ping_2  | 64 bytes from 203.210.4.91: seq=401 ttl=51 time=185.998 ms
ping_2  | 64 bytes from 203.210.4.91: seq=402 ttl=51 time=185.047 ms
ping_1  | 64 bytes from 203.210.4.91: seq=403 ttl=51 time=185.030 ms
ping_2  | 64 bytes from 203.210.4.91: seq=403 ttl=51 time=185.465 ms
ping_1  | 64 bytes from 203.210.4.91: seq=404 ttl=51 time=185.219 ms
ping_2  | 64 bytes from 203.210.4.91: seq=404 ttl=51 time=186.161 ms
ping_1  | 64 bytes from 203.210.4.91: seq=405 ttl=51 time=185.510 ms
ping_2  | 64 bytes from 203.210.4.91: seq=405 ttl=51 time=186.368 ms
ping_1  | 64 bytes from 203.210.4.91: seq=406 ttl=51 time=185.623 ms
ping_1  | 64 bytes from 203.210.4.91: seq=407 ttl=51 time=185.406 ms
ping_2  | 64 bytes from 203.210.4.91: seq=407 ttl=51 time=185.364 ms
ping_1  | 64 bytes from 203.210.4.91: seq=408 ttl=51 time=185.235 ms
ping_2  | 64 bytes from 203.210.4.91: seq=408 ttl=51 time=185.575 ms
ping_1  | 64 bytes from 203.210.4.91: seq=409 ttl=51 time=185.713 ms
ping_2  | 64 bytes from 203.210.4.91: seq=409 ttl=51 time=185.377 ms
ping_1  | 64 bytes from 203.210.4.91: seq=410 ttl=51 time=185.258 ms
ping_2  | 64 bytes from 203.210.4.91: seq=410 ttl=51 time=185.770 ms
ping_2  | 64 bytes from 203.210.4.91: seq=411 ttl=51 time=185.276 ms
ping_1  | 64 bytes from 203.210.4.91: seq=412 ttl=51 time=184.961 ms
ping_2  | 64 bytes from 203.210.4.91: seq=412 ttl=51 time=184.978 ms
ping_1  | 64 bytes from 203.210.4.91: seq=413 ttl=51 time=185.576 ms
ping_2  | 64 bytes from 203.210.4.91: seq=413 ttl=51 time=186.147 ms
ping_1  | 64 bytes from 203.210.4.91: seq=414 ttl=51 time=186.611 ms
ping_2  | 64 bytes from 203.210.4.91: seq=414 ttl=51 time=185.484 ms
ping_1  | 64 bytes from 203.210.4.91: seq=415 ttl=51 time=185.488 ms
ping_2  | 64 bytes from 203.210.4.91: seq=415 ttl=51 time=185.610 ms
ping_1  | 64 bytes from 203.210.4.91: seq=416 ttl=51 time=185.541 ms
ping_2  | 64 bytes from 203.210.4.91: seq=416 ttl=51 time=186.538 ms
ping_1  | 64 bytes from 203.210.4.91: seq=417 ttl=51 time=185.575 ms
ping_2  | 64 bytes from 203.210.4.91: seq=417 ttl=51 time=184.852 ms
ping_1  | 64 bytes from 203.210.4.91: seq=418 ttl=51 time=185.010 ms
ping_2  | 64 bytes from 203.210.4.91: seq=418 ttl=51 time=176.224 ms
ping_1  | 64 bytes from 203.210.4.91: seq=419 ttl=51 time=176.750 ms
ping_2  | 64 bytes from 203.210.4.91: seq=419 ttl=51 time=182.540 ms
ping_1  | 64 bytes from 203.210.4.91: seq=420 ttl=51 time=182.876 ms
ping_2  | 64 bytes from 203.210.4.91: seq=420 ttl=51 time=167.348 ms
ping_1  | 64 bytes from 203.210.4.91: seq=421 ttl=51 time=167.552 ms
ping_2  | 64 bytes from 203.210.4.91: seq=421 ttl=51 time=167.342 ms
ping_1  | 64 bytes from 203.210.4.91: seq=422 ttl=51 time=167.181 ms
ping_2  | 64 bytes from 203.210.4.91: seq=422 ttl=51 time=167.207 ms
ping_1  | 64 bytes from 203.210.4.91: seq=423 ttl=51 time=169.113 ms
ping_2  | 64 bytes from 203.210.4.91: seq=423 ttl=51 time=181.315 ms
ping_1  | 64 bytes from 203.210.4.91: seq=424 ttl=51 time=180.682 ms
ping_2  | 64 bytes from 203.210.4.91: seq=424 ttl=51 time=185.585 ms
ping_1  | 64 bytes from 203.210.4.91: seq=425 ttl=51 time=182.895 ms
ping_2  | 64 bytes from 203.210.4.91: seq=425 ttl=51 time=184.275 ms
ping_1  | 64 bytes from 203.210.4.91: seq=426 ttl=51 time=182.909 ms
ping_2  | 64 bytes from 203.210.4.91: seq=426 ttl=51 time=181.609 ms
ping_1  | 64 bytes from 203.210.4.91: seq=427 ttl=51 time=181.164 ms
ping_2  | 64 bytes from 203.210.4.91: seq=427 ttl=51 time=180.632 ms
ping_1  | 64 bytes from 203.210.4.91: seq=428 ttl=51 time=181.975 ms
ping_2  | 64 bytes from 203.210.4.91: seq=428 ttl=51 time=183.163 ms
ping_1  | 64 bytes from 203.210.4.91: seq=429 ttl=51 time=182.575 ms
ping_1  | 64 bytes from 203.210.4.91: seq=430 ttl=51 time=175.742 ms
ping_2  | 64 bytes from 203.210.4.91: seq=430 ttl=51 time=181.944 ms
ping_1  | 64 bytes from 203.210.4.91: seq=431 ttl=51 time=183.800 ms
ping_2  | 64 bytes from 203.210.4.91: seq=431 ttl=51 time=182.054 ms
ping_1  | 64 bytes from 203.210.4.91: seq=432 ttl=51 time=181.064 ms
ping_2  | 64 bytes from 203.210.4.91: seq=432 ttl=51 time=178.013 ms
ping_1  | 64 bytes from 203.210.4.91: seq=433 ttl=51 time=178.974 ms
ping_2  | 64 bytes from 203.210.4.91: seq=433 ttl=51 time=184.633 ms
ping_1  | 64 bytes from 203.210.4.91: seq=434 ttl=51 time=184.190 ms
ping_2  | 64 bytes from 203.210.4.91: seq=434 ttl=51 time=183.571 ms
ping_1  | 64 bytes from 203.210.4.91: seq=435 ttl=51 time=183.329 ms
ping_2  | 64 bytes from 203.210.4.91: seq=435 ttl=51 time=182.141 ms
ping_1  | 64 bytes from 203.210.4.91: seq=436 ttl=51 time=179.884 ms
ping_2  | 64 bytes from 203.210.4.91: seq=436 ttl=51 time=185.449 ms
ping_1  | 64 bytes from 203.210.4.91: seq=437 ttl=51 time=184.905 ms
ping_2  | 64 bytes from 203.210.4.91: seq=437 ttl=51 time=182.747 ms
ping_1  | 64 bytes from 203.210.4.91: seq=438 ttl=51 time=181.284 ms
ping_2  | 64 bytes from 203.210.4.91: seq=438 ttl=51 time=177.017 ms
ping_1  | 64 bytes from 203.210.4.91: seq=439 ttl=51 time=178.286 ms
ping_2  | 64 bytes from 203.210.4.91: seq=439 ttl=51 time=173.959 ms
ping_1  | 64 bytes from 203.210.4.91: seq=440 ttl=51 time=176.485 ms
ping_2  | 64 bytes from 203.210.4.91: seq=440 ttl=51 time=181.594 ms
ping_1  | 64 bytes from 203.210.4.91: seq=441 ttl=51 time=183.325 ms
ping_2  | 64 bytes from 203.210.4.91: seq=441 ttl=51 time=174.830 ms
ping_1  | 64 bytes from 203.210.4.91: seq=442 ttl=51 time=176.299 ms
ping_2  | 64 bytes from 203.210.4.91: seq=442 ttl=51 time=183.716 ms
ping_1  | 64 bytes from 203.210.4.91: seq=443 ttl=51 time=185.617 ms
ping_2  | 64 bytes from 203.210.4.91: seq=443 ttl=51 time=185.122 ms
ping_1  | 64 bytes from 203.210.4.91: seq=444 ttl=51 time=185.062 ms
ping_2  | 64 bytes from 203.210.4.91: seq=444 ttl=51 time=183.358 ms
ping_1  | 64 bytes from 203.210.4.91: seq=445 ttl=51 time=184.063 ms
ping_2  | 64 bytes from 203.210.4.91: seq=445 ttl=51 time=177.359 ms
ping_1  | 64 bytes from 203.210.4.91: seq=446 ttl=51 time=178.059 ms
ping_2  | 64 bytes from 203.210.4.91: seq=446 ttl=51 time=183.839 ms
ping_1  | 64 bytes from 203.210.4.91: seq=447 ttl=51 time=185.346 ms
ping_2  | 64 bytes from 203.210.4.91: seq=447 ttl=51 time=181.010 ms
ping_1  | 64 bytes from 203.210.4.91: seq=448 ttl=51 time=183.082 ms
ping_2  | 64 bytes from 203.210.4.91: seq=448 ttl=51 time=167.197 ms
ping_1  | 64 bytes from 203.210.4.91: seq=449 ttl=51 time=167.751 ms
ping_2  | 64 bytes from 203.210.4.91: seq=449 ttl=51 time=169.771 ms
ping_1  | 64 bytes from 203.210.4.91: seq=450 ttl=51 time=167.530 ms
ping_2  | 64 bytes from 203.210.4.91: seq=450 ttl=51 time=167.467 ms
ping_1  | 64 bytes from 203.210.4.91: seq=451 ttl=51 time=168.102 ms
ping_2  | 64 bytes from 203.210.4.91: seq=451 ttl=51 time=174.980 ms
ping_1  | 64 bytes from 203.210.4.91: seq=452 ttl=51 time=173.123 ms
ping_2  | 64 bytes from 203.210.4.91: seq=452 ttl=51 time=174.405 ms
ping_1  | 64 bytes from 203.210.4.91: seq=453 ttl=51 time=177.794 ms
ping_2  | 64 bytes from 203.210.4.91: seq=453 ttl=51 time=179.941 ms
ping_1  | 64 bytes from 203.210.4.91: seq=454 ttl=51 time=178.273 ms
ping_2  | 64 bytes from 203.210.4.91: seq=454 ttl=51 time=177.822 ms
ping_1  | 64 bytes from 203.210.4.91: seq=455 ttl=51 time=175.115 ms
ping_2  | 64 bytes from 203.210.4.91: seq=455 ttl=51 time=184.064 ms
ping_1  | 64 bytes from 203.210.4.91: seq=456 ttl=51 time=183.823 ms
ping_2  | 64 bytes from 203.210.4.91: seq=456 ttl=51 time=184.706 ms
ping_1  | 64 bytes from 203.210.4.91: seq=457 ttl=51 time=185.660 ms
ping_2  | 64 bytes from 203.210.4.91: seq=457 ttl=51 time=185.020 ms
ping_1  | 64 bytes from 203.210.4.91: seq=458 ttl=51 time=183.365 ms
ping_2  | 64 bytes from 203.210.4.91: seq=458 ttl=51 time=181.738 ms
ping_1  | 64 bytes from 203.210.4.91: seq=459 ttl=51 time=180.258 ms
ping_2  | 64 bytes from 203.210.4.91: seq=459 ttl=51 time=184.799 ms
ping_1  | 64 bytes from 203.210.4.91: seq=460 ttl=51 time=185.343 ms
ping_1  | 64 bytes from 203.210.4.91: seq=461 ttl=51 time=184.723 ms
ping_2  | 64 bytes from 203.210.4.91: seq=461 ttl=51 time=183.302 ms
ping_1  | 64 bytes from 203.210.4.91: seq=462 ttl=51 time=184.092 ms
ping_2  | 64 bytes from 203.210.4.91: seq=462 ttl=51 time=185.310 ms
ping_1  | 64 bytes from 203.210.4.91: seq=463 ttl=51 time=183.803 ms
ping_2  | 64 bytes from 203.210.4.91: seq=463 ttl=51 time=184.709 ms
ping_2  | 64 bytes from 203.210.4.91: seq=464 ttl=51 time=184.293 ms
ping_1  | 64 bytes from 203.210.4.91: seq=465 ttl=51 time=184.853 ms
ping_2  | 64 bytes from 203.210.4.91: seq=465 ttl=51 time=185.734 ms
ping_1  | 64 bytes from 203.210.4.91: seq=466 ttl=51 time=185.324 ms
ping_2  | 64 bytes from 203.210.4.91: seq=466 ttl=51 time=182.607 ms
ping_1  | 64 bytes from 203.210.4.91: seq=467 ttl=51 time=180.947 ms
ping_2  | 64 bytes from 203.210.4.91: seq=467 ttl=51 time=185.669 ms
ping_1  | 64 bytes from 203.210.4.91: seq=468 ttl=51 time=184.398 ms
ping_2  | 64 bytes from 203.210.4.91: seq=468 ttl=51 time=181.121 ms
ping_1  | 64 bytes from 203.210.4.91: seq=469 ttl=51 time=180.978 ms
ping_2  | 64 bytes from 203.210.4.91: seq=469 ttl=51 time=179.266 ms
ping_1  | 64 bytes from 203.210.4.91: seq=470 ttl=51 time=181.619 ms
ping_2  | 64 bytes from 203.210.4.91: seq=470 ttl=51 time=183.740 ms
ping_1  | 64 bytes from 203.210.4.91: seq=471 ttl=51 time=182.673 ms
ping_2  | 64 bytes from 203.210.4.91: seq=471 ttl=51 time=183.548 ms
ping_1  | 64 bytes from 203.210.4.91: seq=472 ttl=51 time=184.368 ms
ping_2  | 64 bytes from 203.210.4.91: seq=472 ttl=51 time=181.487 ms
ping_1  | 64 bytes from 203.210.4.91: seq=473 ttl=51 time=182.877 ms
ping_2  | 64 bytes from 203.210.4.91: seq=473 ttl=51 time=178.825 ms
ping_1  | 64 bytes from 203.210.4.91: seq=474 ttl=51 time=179.040 ms
ping_2  | 64 bytes from 203.210.4.91: seq=474 ttl=51 time=182.826 ms
ping_1  | 64 bytes from 203.210.4.91: seq=475 ttl=51 time=183.898 ms
ping_2  | 64 bytes from 203.210.4.91: seq=475 ttl=51 time=180.835 ms
ping_1  | 64 bytes from 203.210.4.91: seq=476 ttl=51 time=181.666 ms
ping_2  | 64 bytes from 203.210.4.91: seq=476 ttl=51 time=181.569 ms
ping_1  | 64 bytes from 203.210.4.91: seq=477 ttl=51 time=182.016 ms
ping_2  | 64 bytes from 203.210.4.91: seq=477 ttl=51 time=183.809 ms
ping_1  | 64 bytes from 203.210.4.91: seq=478 ttl=51 time=182.192 ms
ping_2  | 64 bytes from 203.210.4.91: seq=478 ttl=51 time=185.006 ms
ping_1  | 64 bytes from 203.210.4.91: seq=479 ttl=51 time=185.815 ms
ping_2  | 64 bytes from 203.210.4.91: seq=479 ttl=51 time=185.704 ms
ping_1  | 64 bytes from 203.210.4.91: seq=480 ttl=51 time=185.592 ms
ping_2  | 64 bytes from 203.210.4.91: seq=480 ttl=51 time=184.531 ms
ping_1  | 64 bytes from 203.210.4.91: seq=481 ttl=51 time=185.151 ms
ping_2  | 64 bytes from 203.210.4.91: seq=481 ttl=51 time=186.058 ms
ping_1  | 64 bytes from 203.210.4.91: seq=482 ttl=51 time=184.895 ms
ping_2  | 64 bytes from 203.210.4.91: seq=482 ttl=51 time=179.958 ms
ping_1  | 64 bytes from 203.210.4.91: seq=483 ttl=51 time=180.961 ms
ping_2  | 64 bytes from 203.210.4.91: seq=483 ttl=51 time=167.983 ms
ping_1  | 64 bytes from 203.210.4.91: seq=484 ttl=51 time=168.056 ms
ping_2  | 64 bytes from 203.210.4.91: seq=484 ttl=51 time=178.478 ms
ping_1  | 64 bytes from 203.210.4.91: seq=485 ttl=51 time=179.321 ms
ping_2  | 64 bytes from 203.210.4.91: seq=485 ttl=51 time=182.946 ms
ping_1  | 64 bytes from 203.210.4.91: seq=486 ttl=51 time=183.891 ms
ping_2  | 64 bytes from 203.210.4.91: seq=486 ttl=51 time=185.829 ms
ping_1  | 64 bytes from 203.210.4.91: seq=487 ttl=51 time=183.209 ms
ping_2  | 64 bytes from 203.210.4.91: seq=487 ttl=51 time=184.525 ms
ping_1  | 64 bytes from 203.210.4.91: seq=488 ttl=51 time=183.681 ms
ping_2  | 64 bytes from 203.210.4.91: seq=488 ttl=51 time=167.437 ms
ping_1  | 64 bytes from 203.210.4.91: seq=489 ttl=51 time=167.429 ms
ping_2  | 64 bytes from 203.210.4.91: seq=489 ttl=51 time=167.940 ms
ping_1  | 64 bytes from 203.210.4.91: seq=490 ttl=51 time=167.420 ms
ping_2  | 64 bytes from 203.210.4.91: seq=490 ttl=51 time=168.063 ms
ping_1  | 64 bytes from 203.210.4.91: seq=491 ttl=51 time=168.393 ms
ping_2  | 64 bytes from 203.210.4.91: seq=491 ttl=51 time=169.588 ms
ping_1  | 64 bytes from 203.210.4.91: seq=492 ttl=51 time=172.196 ms
ping_2  | 64 bytes from 203.210.4.91: seq=492 ttl=51 time=183.044 ms
ping_1  | 64 bytes from 203.210.4.91: seq=493 ttl=51 time=184.130 ms
ping_2  | 64 bytes from 203.210.4.91: seq=493 ttl=51 time=185.440 ms
ping_1  | 64 bytes from 203.210.4.91: seq=494 ttl=51 time=185.888 ms
ping_2  | 64 bytes from 203.210.4.91: seq=494 ttl=51 time=185.179 ms
ping_1  | 64 bytes from 203.210.4.91: seq=495 ttl=51 time=185.247 ms
ping_2  | 64 bytes from 203.210.4.91: seq=495 ttl=51 time=185.449 ms
ping_1  | 64 bytes from 203.210.4.91: seq=496 ttl=51 time=185.761 ms
ping_2  | 64 bytes from 203.210.4.91: seq=496 ttl=51 time=185.192 ms
ping_1  | 64 bytes from 203.210.4.91: seq=497 ttl=51 time=185.661 ms
ping_2  | 64 bytes from 203.210.4.91: seq=497 ttl=51 time=185.353 ms
ping_1  | 64 bytes from 203.210.4.91: seq=498 ttl=51 time=185.098 ms
ping_2  | 64 bytes from 203.210.4.91: seq=498 ttl=51 time=185.167 ms
ping_1  | 64 bytes from 203.210.4.91: seq=499 ttl=51 time=185.367 ms
ping_1  | 
ping_1  | --- csl2.hkspeedtest.com ping statistics ---
ping_1  | 500 packets transmitted, 491 packets received, 1% packet loss
ping_1  | round-trip min/avg/max = 167.181/181.272/187.445 ms
ping_2  | 64 bytes from 203.210.4.91: seq=499 ttl=51 time=185.003 ms
softwareoverhead_ping_1 exited with code 0
ping_2  | 
ping_2  | --- csl2.hkspeedtest.com ping statistics ---
ping_2  | 500 packets transmitted, 489 packets received, 2% packet loss
ping_2  | round-trip min/avg/max = 167.141/181.297/190.013 ms
softwareoverhead_ping_2 exited with code 0
