Attaching to softwareoverhead_ping_1, softwareoverhead_ping_2
ping_2  | PING futuredeus.ddns.net (218.250.209.212): 56 data bytes
ping_1  | PING futuredeus.ddns.net (218.250.209.212): 56 data bytes
ping_1  | 64 bytes from 218.250.209.212: seq=0 ttl=49 time=170.171 ms
ping_1  | 64 bytes from 218.250.209.212: seq=1 ttl=49 time=170.359 ms
ping_2  | 64 bytes from 218.250.209.212: seq=1 ttl=49 time=171.098 ms
ping_1  | 64 bytes from 218.250.209.212: seq=2 ttl=49 time=170.905 ms
ping_2  | 64 bytes from 218.250.209.212: seq=2 ttl=49 time=171.583 ms
ping_1  | 64 bytes from 218.250.209.212: seq=3 ttl=49 time=170.164 ms
ping_2  | 64 bytes from 218.250.209.212: seq=3 ttl=49 time=169.986 ms
ping_1  | 64 bytes from 218.250.209.212: seq=4 ttl=49 time=172.406 ms
ping_2  | 64 bytes from 218.250.209.212: seq=4 ttl=49 time=170.908 ms
ping_1  | 64 bytes from 218.250.209.212: seq=5 ttl=49 time=170.692 ms
ping_2  | 64 bytes from 218.250.209.212: seq=5 ttl=49 time=170.878 ms
ping_1  | 64 bytes from 218.250.209.212: seq=6 ttl=49 time=172.095 ms
ping_2  | 64 bytes from 218.250.209.212: seq=6 ttl=49 time=170.709 ms
ping_1  | 64 bytes from 218.250.209.212: seq=7 ttl=49 time=171.010 ms
ping_2  | 64 bytes from 218.250.209.212: seq=7 ttl=49 time=171.324 ms
ping_1  | 64 bytes from 218.250.209.212: seq=8 ttl=49 time=171.272 ms
ping_2  | 64 bytes from 218.250.209.212: seq=8 ttl=49 time=170.647 ms
ping_1  | 64 bytes from 218.250.209.212: seq=9 ttl=49 time=172.407 ms
ping_2  | 64 bytes from 218.250.209.212: seq=9 ttl=49 time=170.591 ms
ping_1  | 64 bytes from 218.250.209.212: seq=10 ttl=49 time=170.377 ms
ping_2  | 64 bytes from 218.250.209.212: seq=10 ttl=49 time=171.783 ms
ping_1  | 64 bytes from 218.250.209.212: seq=11 ttl=49 time=170.639 ms
ping_2  | 64 bytes from 218.250.209.212: seq=11 ttl=49 time=170.455 ms
ping_1  | 64 bytes from 218.250.209.212: seq=12 ttl=49 time=170.804 ms
ping_2  | 64 bytes from 218.250.209.212: seq=12 ttl=49 time=170.462 ms
ping_1  | 64 bytes from 218.250.209.212: seq=13 ttl=49 time=170.301 ms
ping_2  | 64 bytes from 218.250.209.212: seq=13 ttl=49 time=170.778 ms
ping_1  | 64 bytes from 218.250.209.212: seq=14 ttl=49 time=170.854 ms
ping_2  | 64 bytes from 218.250.209.212: seq=14 ttl=49 time=170.433 ms
ping_1  | 64 bytes from 218.250.209.212: seq=15 ttl=49 time=170.441 ms
ping_2  | 64 bytes from 218.250.209.212: seq=15 ttl=49 time=170.664 ms
ping_1  | 64 bytes from 218.250.209.212: seq=16 ttl=49 time=170.356 ms
ping_2  | 64 bytes from 218.250.209.212: seq=16 ttl=49 time=171.013 ms
ping_1  | 64 bytes from 218.250.209.212: seq=17 ttl=49 time=169.900 ms
ping_2  | 64 bytes from 218.250.209.212: seq=17 ttl=49 time=170.785 ms
ping_1  | 64 bytes from 218.250.209.212: seq=18 ttl=49 time=172.503 ms
ping_2  | 64 bytes from 218.250.209.212: seq=18 ttl=49 time=170.298 ms
ping_1  | 64 bytes from 218.250.209.212: seq=19 ttl=49 time=170.231 ms
ping_2  | 64 bytes from 218.250.209.212: seq=19 ttl=49 time=170.569 ms
ping_1  | 64 bytes from 218.250.209.212: seq=20 ttl=49 time=170.056 ms
ping_2  | 64 bytes from 218.250.209.212: seq=20 ttl=49 time=171.156 ms
ping_1  | 64 bytes from 218.250.209.212: seq=21 ttl=49 time=170.322 ms
ping_2  | 64 bytes from 218.250.209.212: seq=21 ttl=49 time=170.593 ms
ping_1  | 64 bytes from 218.250.209.212: seq=22 ttl=49 time=170.568 ms
ping_2  | 64 bytes from 218.250.209.212: seq=22 ttl=49 time=170.368 ms
ping_1  | 64 bytes from 218.250.209.212: seq=23 ttl=49 time=170.059 ms
ping_2  | 64 bytes from 218.250.209.212: seq=23 ttl=49 time=170.307 ms
ping_1  | 64 bytes from 218.250.209.212: seq=24 ttl=49 time=170.338 ms
ping_2  | 64 bytes from 218.250.209.212: seq=24 ttl=49 time=170.263 ms
ping_1  | 64 bytes from 218.250.209.212: seq=25 ttl=49 time=174.892 ms
ping_2  | 64 bytes from 218.250.209.212: seq=25 ttl=49 time=171.146 ms
ping_1  | 64 bytes from 218.250.209.212: seq=26 ttl=49 time=170.319 ms
ping_2  | 64 bytes from 218.250.209.212: seq=26 ttl=49 time=171.105 ms
ping_1  | 64 bytes from 218.250.209.212: seq=27 ttl=49 time=169.919 ms
ping_2  | 64 bytes from 218.250.209.212: seq=27 ttl=49 time=171.245 ms
ping_1  | 64 bytes from 218.250.209.212: seq=28 ttl=49 time=170.884 ms
ping_2  | 64 bytes from 218.250.209.212: seq=28 ttl=49 time=171.612 ms
ping_1  | 64 bytes from 218.250.209.212: seq=29 ttl=49 time=171.840 ms
ping_2  | 64 bytes from 218.250.209.212: seq=29 ttl=49 time=170.824 ms
ping_1  | 64 bytes from 218.250.209.212: seq=30 ttl=49 time=174.855 ms
ping_2  | 64 bytes from 218.250.209.212: seq=30 ttl=49 time=170.927 ms
ping_1  | 64 bytes from 218.250.209.212: seq=31 ttl=49 time=171.292 ms
ping_2  | 64 bytes from 218.250.209.212: seq=31 ttl=49 time=172.616 ms
ping_1  | 64 bytes from 218.250.209.212: seq=32 ttl=49 time=170.762 ms
ping_2  | 64 bytes from 218.250.209.212: seq=32 ttl=49 time=170.881 ms
ping_1  | 64 bytes from 218.250.209.212: seq=33 ttl=49 time=172.846 ms
ping_2  | 64 bytes from 218.250.209.212: seq=33 ttl=49 time=170.754 ms
ping_1  | 64 bytes from 218.250.209.212: seq=34 ttl=49 time=171.222 ms
ping_2  | 64 bytes from 218.250.209.212: seq=34 ttl=49 time=170.766 ms
ping_1  | 64 bytes from 218.250.209.212: seq=35 ttl=49 time=170.549 ms
ping_2  | 64 bytes from 218.250.209.212: seq=35 ttl=49 time=171.477 ms
ping_1  | 64 bytes from 218.250.209.212: seq=36 ttl=49 time=171.257 ms
ping_2  | 64 bytes from 218.250.209.212: seq=36 ttl=49 time=170.826 ms
ping_1  | 64 bytes from 218.250.209.212: seq=37 ttl=49 time=172.845 ms
ping_2  | 64 bytes from 218.250.209.212: seq=37 ttl=49 time=174.018 ms
ping_1  | 64 bytes from 218.250.209.212: seq=38 ttl=49 time=170.967 ms
ping_2  | 64 bytes from 218.250.209.212: seq=38 ttl=49 time=171.758 ms
ping_1  | 64 bytes from 218.250.209.212: seq=39 ttl=49 time=171.466 ms
ping_2  | 64 bytes from 218.250.209.212: seq=39 ttl=49 time=170.937 ms
ping_1  | 64 bytes from 218.250.209.212: seq=40 ttl=49 time=171.344 ms
ping_2  | 64 bytes from 218.250.209.212: seq=40 ttl=49 time=170.647 ms
ping_1  | 64 bytes from 218.250.209.212: seq=41 ttl=49 time=170.467 ms
ping_2  | 64 bytes from 218.250.209.212: seq=41 ttl=49 time=172.524 ms
ping_1  | 64 bytes from 218.250.209.212: seq=42 ttl=49 time=171.079 ms
ping_2  | 64 bytes from 218.250.209.212: seq=42 ttl=49 time=170.562 ms
ping_1  | 64 bytes from 218.250.209.212: seq=43 ttl=49 time=171.964 ms
ping_2  | 64 bytes from 218.250.209.212: seq=43 ttl=49 time=170.666 ms
ping_1  | 64 bytes from 218.250.209.212: seq=44 ttl=49 time=172.057 ms
ping_2  | 64 bytes from 218.250.209.212: seq=44 ttl=49 time=170.774 ms
ping_1  | 64 bytes from 218.250.209.212: seq=45 ttl=49 time=172.406 ms
ping_2  | 64 bytes from 218.250.209.212: seq=45 ttl=49 time=171.220 ms
ping_1  | 64 bytes from 218.250.209.212: seq=46 ttl=49 time=170.556 ms
ping_2  | 64 bytes from 218.250.209.212: seq=46 ttl=49 time=170.286 ms
ping_1  | 64 bytes from 218.250.209.212: seq=47 ttl=49 time=170.295 ms
ping_2  | 64 bytes from 218.250.209.212: seq=47 ttl=49 time=170.817 ms
ping_1  | 64 bytes from 218.250.209.212: seq=48 ttl=49 time=171.044 ms
ping_2  | 64 bytes from 218.250.209.212: seq=48 ttl=49 time=171.099 ms
ping_1  | 64 bytes from 218.250.209.212: seq=49 ttl=49 time=170.453 ms
ping_2  | 64 bytes from 218.250.209.212: seq=49 ttl=49 time=170.054 ms
ping_1  | 64 bytes from 218.250.209.212: seq=50 ttl=49 time=170.779 ms
ping_2  | 64 bytes from 218.250.209.212: seq=50 ttl=49 time=170.271 ms
ping_1  | 64 bytes from 218.250.209.212: seq=51 ttl=49 time=170.737 ms
ping_2  | 64 bytes from 218.250.209.212: seq=51 ttl=49 time=171.222 ms
ping_1  | 64 bytes from 218.250.209.212: seq=52 ttl=49 time=169.949 ms
ping_2  | 64 bytes from 218.250.209.212: seq=52 ttl=49 time=170.403 ms
ping_1  | 64 bytes from 218.250.209.212: seq=53 ttl=49 time=170.718 ms
ping_2  | 64 bytes from 218.250.209.212: seq=53 ttl=49 time=170.579 ms
ping_1  | 64 bytes from 218.250.209.212: seq=54 ttl=49 time=170.437 ms
ping_2  | 64 bytes from 218.250.209.212: seq=54 ttl=49 time=170.743 ms
ping_1  | 64 bytes from 218.250.209.212: seq=55 ttl=49 time=170.690 ms
ping_2  | 64 bytes from 218.250.209.212: seq=55 ttl=49 time=171.724 ms
ping_1  | 64 bytes from 218.250.209.212: seq=56 ttl=49 time=170.564 ms
ping_2  | 64 bytes from 218.250.209.212: seq=56 ttl=49 time=170.848 ms
ping_1  | 64 bytes from 218.250.209.212: seq=57 ttl=49 time=170.572 ms
ping_2  | 64 bytes from 218.250.209.212: seq=57 ttl=49 time=171.581 ms
ping_1  | 64 bytes from 218.250.209.212: seq=58 ttl=49 time=170.834 ms
ping_2  | 64 bytes from 218.250.209.212: seq=58 ttl=49 time=171.218 ms
ping_1  | 64 bytes from 218.250.209.212: seq=59 ttl=49 time=169.924 ms
ping_2  | 64 bytes from 218.250.209.212: seq=59 ttl=49 time=170.472 ms
ping_1  | 64 bytes from 218.250.209.212: seq=60 ttl=49 time=170.030 ms
ping_2  | 64 bytes from 218.250.209.212: seq=60 ttl=49 time=171.001 ms
ping_1  | 64 bytes from 218.250.209.212: seq=61 ttl=49 time=170.302 ms
ping_2  | 64 bytes from 218.250.209.212: seq=61 ttl=49 time=170.618 ms
ping_1  | 64 bytes from 218.250.209.212: seq=62 ttl=49 time=170.820 ms
ping_2  | 64 bytes from 218.250.209.212: seq=62 ttl=49 time=170.928 ms
ping_1  | 64 bytes from 218.250.209.212: seq=63 ttl=49 time=170.859 ms
ping_2  | 64 bytes from 218.250.209.212: seq=63 ttl=49 time=171.073 ms
ping_1  | 64 bytes from 218.250.209.212: seq=64 ttl=49 time=179.246 ms
ping_2  | 64 bytes from 218.250.209.212: seq=64 ttl=49 time=170.069 ms
ping_1  | 64 bytes from 218.250.209.212: seq=65 ttl=49 time=172.795 ms
ping_2  | 64 bytes from 218.250.209.212: seq=65 ttl=49 time=170.393 ms
ping_1  | 64 bytes from 218.250.209.212: seq=66 ttl=49 time=170.804 ms
ping_2  | 64 bytes from 218.250.209.212: seq=66 ttl=49 time=170.501 ms
ping_1  | 64 bytes from 218.250.209.212: seq=67 ttl=49 time=171.078 ms
ping_2  | 64 bytes from 218.250.209.212: seq=67 ttl=49 time=174.496 ms
ping_1  | 64 bytes from 218.250.209.212: seq=68 ttl=49 time=171.058 ms
ping_2  | 64 bytes from 218.250.209.212: seq=68 ttl=49 time=170.435 ms
ping_1  | 64 bytes from 218.250.209.212: seq=69 ttl=49 time=170.638 ms
ping_2  | 64 bytes from 218.250.209.212: seq=69 ttl=49 time=171.809 ms
ping_1  | 64 bytes from 218.250.209.212: seq=70 ttl=49 time=170.333 ms
ping_2  | 64 bytes from 218.250.209.212: seq=70 ttl=49 time=170.916 ms
ping_1  | 64 bytes from 218.250.209.212: seq=71 ttl=49 time=170.696 ms
ping_2  | 64 bytes from 218.250.209.212: seq=71 ttl=49 time=170.458 ms
ping_1  | 64 bytes from 218.250.209.212: seq=72 ttl=49 time=170.408 ms
ping_2  | 64 bytes from 218.250.209.212: seq=72 ttl=49 time=172.786 ms
ping_1  | 64 bytes from 218.250.209.212: seq=73 ttl=49 time=174.469 ms
ping_2  | 64 bytes from 218.250.209.212: seq=73 ttl=49 time=174.773 ms
ping_1  | 64 bytes from 218.250.209.212: seq=74 ttl=49 time=176.667 ms
ping_2  | 64 bytes from 218.250.209.212: seq=74 ttl=49 time=184.695 ms
ping_1  | 64 bytes from 218.250.209.212: seq=75 ttl=49 time=185.464 ms
ping_2  | 64 bytes from 218.250.209.212: seq=75 ttl=49 time=178.751 ms
ping_1  | 64 bytes from 218.250.209.212: seq=76 ttl=49 time=178.378 ms
ping_2  | 64 bytes from 218.250.209.212: seq=76 ttl=49 time=174.548 ms
ping_1  | 64 bytes from 218.250.209.212: seq=77 ttl=49 time=171.705 ms
ping_2  | 64 bytes from 218.250.209.212: seq=77 ttl=49 time=173.020 ms
ping_1  | 64 bytes from 218.250.209.212: seq=78 ttl=49 time=174.852 ms
ping_2  | 64 bytes from 218.250.209.212: seq=78 ttl=49 time=173.627 ms
ping_1  | 64 bytes from 218.250.209.212: seq=79 ttl=49 time=173.867 ms
ping_2  | 64 bytes from 218.250.209.212: seq=79 ttl=49 time=186.872 ms
ping_1  | 64 bytes from 218.250.209.212: seq=80 ttl=49 time=182.749 ms
ping_2  | 64 bytes from 218.250.209.212: seq=80 ttl=49 time=177.126 ms
ping_1  | 64 bytes from 218.250.209.212: seq=81 ttl=49 time=173.525 ms
ping_2  | 64 bytes from 218.250.209.212: seq=81 ttl=49 time=174.303 ms
ping_1  | 64 bytes from 218.250.209.212: seq=82 ttl=49 time=172.348 ms
ping_2  | 64 bytes from 218.250.209.212: seq=82 ttl=49 time=174.828 ms
ping_1  | 64 bytes from 218.250.209.212: seq=83 ttl=49 time=170.472 ms
ping_2  | 64 bytes from 218.250.209.212: seq=83 ttl=49 time=171.265 ms
ping_1  | 64 bytes from 218.250.209.212: seq=84 ttl=49 time=171.791 ms
ping_2  | 64 bytes from 218.250.209.212: seq=84 ttl=49 time=174.028 ms
ping_1  | 64 bytes from 218.250.209.212: seq=85 ttl=49 time=171.548 ms
ping_2  | 64 bytes from 218.250.209.212: seq=85 ttl=49 time=179.863 ms
ping_1  | 64 bytes from 218.250.209.212: seq=86 ttl=49 time=177.990 ms
ping_2  | 64 bytes from 218.250.209.212: seq=86 ttl=49 time=183.915 ms
ping_1  | 64 bytes from 218.250.209.212: seq=87 ttl=49 time=181.788 ms
ping_2  | 64 bytes from 218.250.209.212: seq=87 ttl=49 time=186.080 ms
ping_1  | 64 bytes from 218.250.209.212: seq=88 ttl=49 time=183.112 ms
ping_2  | 64 bytes from 218.250.209.212: seq=88 ttl=49 time=183.903 ms
ping_1  | 64 bytes from 218.250.209.212: seq=89 ttl=49 time=183.328 ms
ping_2  | 64 bytes from 218.250.209.212: seq=89 ttl=49 time=193.146 ms
ping_1  | 64 bytes from 218.250.209.212: seq=90 ttl=49 time=190.856 ms
ping_2  | 64 bytes from 218.250.209.212: seq=90 ttl=49 time=185.460 ms
ping_1  | 64 bytes from 218.250.209.212: seq=91 ttl=49 time=183.005 ms
ping_2  | 64 bytes from 218.250.209.212: seq=91 ttl=49 time=183.011 ms
ping_1  | 64 bytes from 218.250.209.212: seq=92 ttl=49 time=179.721 ms
ping_2  | 64 bytes from 218.250.209.212: seq=92 ttl=49 time=178.674 ms
ping_1  | 64 bytes from 218.250.209.212: seq=93 ttl=49 time=180.598 ms
ping_2  | 64 bytes from 218.250.209.212: seq=93 ttl=49 time=181.440 ms
ping_1  | 64 bytes from 218.250.209.212: seq=94 ttl=49 time=180.131 ms
ping_2  | 64 bytes from 218.250.209.212: seq=94 ttl=49 time=176.176 ms
ping_1  | 64 bytes from 218.250.209.212: seq=95 ttl=49 time=170.417 ms
ping_2  | 64 bytes from 218.250.209.212: seq=95 ttl=49 time=185.823 ms
ping_1  | 64 bytes from 218.250.209.212: seq=96 ttl=49 time=185.621 ms
ping_2  | 64 bytes from 218.250.209.212: seq=96 ttl=49 time=186.501 ms
ping_1  | 64 bytes from 218.250.209.212: seq=97 ttl=49 time=184.734 ms
ping_2  | 64 bytes from 218.250.209.212: seq=97 ttl=49 time=182.310 ms
ping_1  | 64 bytes from 218.250.209.212: seq=98 ttl=49 time=178.754 ms
ping_2  | 64 bytes from 218.250.209.212: seq=98 ttl=49 time=171.343 ms
ping_1  | 64 bytes from 218.250.209.212: seq=99 ttl=49 time=171.886 ms
ping_2  | 64 bytes from 218.250.209.212: seq=99 ttl=49 time=171.196 ms
ping_1  | 64 bytes from 218.250.209.212: seq=100 ttl=49 time=172.318 ms
ping_2  | 64 bytes from 218.250.209.212: seq=100 ttl=49 time=173.287 ms
ping_1  | 64 bytes from 218.250.209.212: seq=101 ttl=49 time=169.815 ms
ping_2  | 64 bytes from 218.250.209.212: seq=101 ttl=49 time=171.222 ms
ping_1  | 64 bytes from 218.250.209.212: seq=102 ttl=49 time=170.840 ms
ping_2  | 64 bytes from 218.250.209.212: seq=102 ttl=49 time=171.093 ms
ping_1  | 64 bytes from 218.250.209.212: seq=103 ttl=49 time=170.585 ms
ping_2  | 64 bytes from 218.250.209.212: seq=103 ttl=49 time=170.636 ms
ping_1  | 64 bytes from 218.250.209.212: seq=104 ttl=49 time=169.751 ms
ping_2  | 64 bytes from 218.250.209.212: seq=104 ttl=49 time=171.081 ms
ping_1  | 64 bytes from 218.250.209.212: seq=105 ttl=49 time=170.231 ms
ping_2  | 64 bytes from 218.250.209.212: seq=105 ttl=49 time=170.249 ms
ping_1  | 64 bytes from 218.250.209.212: seq=106 ttl=49 time=170.567 ms
ping_2  | 64 bytes from 218.250.209.212: seq=106 ttl=49 time=170.793 ms
ping_1  | 64 bytes from 218.250.209.212: seq=107 ttl=49 time=170.699 ms
ping_2  | 64 bytes from 218.250.209.212: seq=107 ttl=49 time=170.710 ms
ping_1  | 64 bytes from 218.250.209.212: seq=108 ttl=49 time=170.897 ms
ping_2  | 64 bytes from 218.250.209.212: seq=108 ttl=49 time=170.902 ms
ping_1  | 64 bytes from 218.250.209.212: seq=109 ttl=49 time=171.327 ms
ping_2  | 64 bytes from 218.250.209.212: seq=109 ttl=49 time=169.936 ms
ping_1  | 64 bytes from 218.250.209.212: seq=110 ttl=49 time=170.379 ms
ping_2  | 64 bytes from 218.250.209.212: seq=110 ttl=49 time=170.929 ms
ping_1  | 64 bytes from 218.250.209.212: seq=111 ttl=49 time=170.089 ms
ping_2  | 64 bytes from 218.250.209.212: seq=111 ttl=49 time=171.590 ms
ping_1  | 64 bytes from 218.250.209.212: seq=112 ttl=49 time=170.480 ms
ping_2  | 64 bytes from 218.250.209.212: seq=112 ttl=49 time=170.499 ms
ping_1  | 64 bytes from 218.250.209.212: seq=113 ttl=49 time=170.487 ms
ping_2  | 64 bytes from 218.250.209.212: seq=113 ttl=49 time=170.751 ms
ping_1  | 64 bytes from 218.250.209.212: seq=114 ttl=49 time=170.481 ms
ping_2  | 64 bytes from 218.250.209.212: seq=114 ttl=49 time=169.946 ms
ping_1  | 64 bytes from 218.250.209.212: seq=115 ttl=49 time=170.733 ms
ping_2  | 64 bytes from 218.250.209.212: seq=115 ttl=49 time=170.863 ms
ping_1  | 64 bytes from 218.250.209.212: seq=116 ttl=49 time=170.881 ms
ping_2  | 64 bytes from 218.250.209.212: seq=116 ttl=49 time=170.543 ms
ping_1  | 64 bytes from 218.250.209.212: seq=117 ttl=49 time=170.836 ms
ping_2  | 64 bytes from 218.250.209.212: seq=117 ttl=49 time=171.226 ms
ping_1  | 64 bytes from 218.250.209.212: seq=118 ttl=49 time=171.524 ms
ping_2  | 64 bytes from 218.250.209.212: seq=118 ttl=49 time=170.748 ms
ping_1  | 64 bytes from 218.250.209.212: seq=119 ttl=49 time=170.844 ms
ping_2  | 64 bytes from 218.250.209.212: seq=119 ttl=49 time=170.899 ms
ping_1  | 64 bytes from 218.250.209.212: seq=120 ttl=49 time=171.054 ms
ping_2  | 64 bytes from 218.250.209.212: seq=120 ttl=49 time=171.817 ms
ping_1  | 64 bytes from 218.250.209.212: seq=121 ttl=49 time=171.360 ms
ping_2  | 64 bytes from 218.250.209.212: seq=121 ttl=49 time=172.634 ms
ping_1  | 64 bytes from 218.250.209.212: seq=122 ttl=49 time=170.443 ms
ping_2  | 64 bytes from 218.250.209.212: seq=122 ttl=49 time=175.557 ms
ping_1  | 64 bytes from 218.250.209.212: seq=123 ttl=49 time=172.101 ms
ping_2  | 64 bytes from 218.250.209.212: seq=123 ttl=49 time=176.273 ms
ping_1  | 64 bytes from 218.250.209.212: seq=124 ttl=49 time=176.389 ms
ping_2  | 64 bytes from 218.250.209.212: seq=124 ttl=49 time=175.840 ms
ping_1  | 64 bytes from 218.250.209.212: seq=125 ttl=49 time=173.559 ms
ping_2  | 64 bytes from 218.250.209.212: seq=125 ttl=49 time=175.949 ms
ping_1  | 64 bytes from 218.250.209.212: seq=126 ttl=49 time=175.449 ms
ping_2  | 64 bytes from 218.250.209.212: seq=126 ttl=49 time=172.341 ms
ping_1  | 64 bytes from 218.250.209.212: seq=127 ttl=49 time=170.634 ms
ping_2  | 64 bytes from 218.250.209.212: seq=127 ttl=49 time=176.359 ms
ping_1  | 64 bytes from 218.250.209.212: seq=128 ttl=49 time=175.104 ms
ping_2  | 64 bytes from 218.250.209.212: seq=128 ttl=49 time=175.242 ms
ping_1  | 64 bytes from 218.250.209.212: seq=129 ttl=49 time=173.372 ms
ping_2  | 64 bytes from 218.250.209.212: seq=129 ttl=49 time=178.351 ms
ping_1  | 64 bytes from 218.250.209.212: seq=130 ttl=49 time=175.400 ms
ping_2  | 64 bytes from 218.250.209.212: seq=130 ttl=49 time=173.476 ms
ping_1  | 64 bytes from 218.250.209.212: seq=131 ttl=49 time=173.901 ms
ping_2  | 64 bytes from 218.250.209.212: seq=131 ttl=49 time=181.359 ms
ping_1  | 64 bytes from 218.250.209.212: seq=132 ttl=49 time=177.766 ms
ping_2  | 64 bytes from 218.250.209.212: seq=132 ttl=49 time=169.890 ms
ping_1  | 64 bytes from 218.250.209.212: seq=133 ttl=49 time=173.751 ms
ping_2  | 64 bytes from 218.250.209.212: seq=133 ttl=49 time=170.348 ms
ping_1  | 64 bytes from 218.250.209.212: seq=134 ttl=49 time=170.764 ms
ping_2  | 64 bytes from 218.250.209.212: seq=134 ttl=49 time=170.018 ms
ping_1  | 64 bytes from 218.250.209.212: seq=135 ttl=49 time=170.748 ms
ping_2  | 64 bytes from 218.250.209.212: seq=135 ttl=49 time=170.796 ms
ping_1  | 64 bytes from 218.250.209.212: seq=136 ttl=49 time=170.569 ms
ping_2  | 64 bytes from 218.250.209.212: seq=136 ttl=49 time=170.213 ms
ping_1  | 64 bytes from 218.250.209.212: seq=137 ttl=49 time=171.114 ms
ping_2  | 64 bytes from 218.250.209.212: seq=137 ttl=49 time=171.014 ms
ping_1  | 64 bytes from 218.250.209.212: seq=138 ttl=49 time=170.643 ms
ping_2  | 64 bytes from 218.250.209.212: seq=138 ttl=49 time=170.665 ms
ping_1  | 64 bytes from 218.250.209.212: seq=139 ttl=49 time=170.703 ms
ping_2  | 64 bytes from 218.250.209.212: seq=139 ttl=49 time=170.215 ms
ping_1  | 64 bytes from 218.250.209.212: seq=140 ttl=49 time=171.639 ms
ping_2  | 64 bytes from 218.250.209.212: seq=140 ttl=49 time=170.140 ms
ping_1  | 64 bytes from 218.250.209.212: seq=141 ttl=49 time=170.607 ms
ping_2  | 64 bytes from 218.250.209.212: seq=141 ttl=49 time=170.535 ms
ping_1  | 64 bytes from 218.250.209.212: seq=142 ttl=49 time=170.734 ms
ping_2  | 64 bytes from 218.250.209.212: seq=142 ttl=49 time=169.793 ms
ping_1  | 64 bytes from 218.250.209.212: seq=143 ttl=49 time=170.531 ms
ping_2  | 64 bytes from 218.250.209.212: seq=143 ttl=49 time=171.569 ms
ping_1  | 64 bytes from 218.250.209.212: seq=144 ttl=49 time=170.455 ms
ping_2  | 64 bytes from 218.250.209.212: seq=144 ttl=49 time=171.123 ms
ping_1  | 64 bytes from 218.250.209.212: seq=145 ttl=49 time=170.479 ms
ping_2  | 64 bytes from 218.250.209.212: seq=145 ttl=49 time=170.944 ms
ping_1  | 64 bytes from 218.250.209.212: seq=146 ttl=49 time=170.961 ms
ping_2  | 64 bytes from 218.250.209.212: seq=146 ttl=49 time=171.202 ms
ping_1  | 64 bytes from 218.250.209.212: seq=147 ttl=49 time=170.869 ms
ping_2  | 64 bytes from 218.250.209.212: seq=147 ttl=49 time=171.070 ms
ping_1  | 64 bytes from 218.250.209.212: seq=148 ttl=49 time=171.951 ms
ping_2  | 64 bytes from 218.250.209.212: seq=148 ttl=49 time=170.836 ms
ping_1  | 64 bytes from 218.250.209.212: seq=149 ttl=49 time=174.910 ms
ping_2  | 64 bytes from 218.250.209.212: seq=149 ttl=49 time=171.174 ms
ping_1  | 64 bytes from 218.250.209.212: seq=150 ttl=49 time=171.257 ms
ping_2  | 64 bytes from 218.250.209.212: seq=150 ttl=49 time=171.809 ms
ping_1  | 64 bytes from 218.250.209.212: seq=151 ttl=49 time=170.757 ms
ping_2  | 64 bytes from 218.250.209.212: seq=151 ttl=49 time=170.552 ms
ping_1  | 64 bytes from 218.250.209.212: seq=152 ttl=49 time=171.180 ms
ping_2  | 64 bytes from 218.250.209.212: seq=152 ttl=49 time=170.180 ms
ping_1  | 64 bytes from 218.250.209.212: seq=153 ttl=49 time=170.852 ms
ping_2  | 64 bytes from 218.250.209.212: seq=153 ttl=49 time=170.485 ms
ping_1  | 64 bytes from 218.250.209.212: seq=154 ttl=49 time=170.540 ms
ping_2  | 64 bytes from 218.250.209.212: seq=154 ttl=49 time=170.603 ms
ping_1  | 64 bytes from 218.250.209.212: seq=155 ttl=49 time=170.651 ms
ping_2  | 64 bytes from 218.250.209.212: seq=155 ttl=49 time=169.714 ms
ping_1  | 64 bytes from 218.250.209.212: seq=156 ttl=49 time=170.295 ms
ping_2  | 64 bytes from 218.250.209.212: seq=156 ttl=49 time=170.881 ms
ping_1  | 64 bytes from 218.250.209.212: seq=157 ttl=49 time=171.216 ms
ping_2  | 64 bytes from 218.250.209.212: seq=157 ttl=49 time=170.707 ms
ping_1  | 64 bytes from 218.250.209.212: seq=158 ttl=49 time=172.060 ms
ping_2  | 64 bytes from 218.250.209.212: seq=158 ttl=49 time=170.348 ms
ping_1  | 64 bytes from 218.250.209.212: seq=159 ttl=49 time=172.282 ms
ping_2  | 64 bytes from 218.250.209.212: seq=159 ttl=49 time=170.881 ms
ping_1  | 64 bytes from 218.250.209.212: seq=160 ttl=49 time=170.766 ms
ping_2  | 64 bytes from 218.250.209.212: seq=160 ttl=49 time=171.003 ms
ping_1  | 64 bytes from 218.250.209.212: seq=161 ttl=49 time=171.832 ms
ping_2  | 64 bytes from 218.250.209.212: seq=161 ttl=49 time=171.031 ms
ping_1  | 64 bytes from 218.250.209.212: seq=162 ttl=49 time=170.887 ms
ping_2  | 64 bytes from 218.250.209.212: seq=162 ttl=49 time=170.109 ms
ping_1  | 64 bytes from 218.250.209.212: seq=163 ttl=49 time=170.436 ms
ping_2  | 64 bytes from 218.250.209.212: seq=163 ttl=49 time=170.875 ms
ping_1  | 64 bytes from 218.250.209.212: seq=164 ttl=49 time=170.376 ms
ping_2  | 64 bytes from 218.250.209.212: seq=164 ttl=49 time=171.061 ms
ping_1  | 64 bytes from 218.250.209.212: seq=165 ttl=49 time=170.707 ms
ping_2  | 64 bytes from 218.250.209.212: seq=165 ttl=49 time=170.433 ms
ping_1  | 64 bytes from 218.250.209.212: seq=166 ttl=49 time=170.632 ms
ping_2  | 64 bytes from 218.250.209.212: seq=166 ttl=49 time=175.004 ms
ping_1  | 64 bytes from 218.250.209.212: seq=167 ttl=49 time=170.680 ms
ping_2  | 64 bytes from 218.250.209.212: seq=167 ttl=49 time=170.895 ms
ping_1  | 64 bytes from 218.250.209.212: seq=168 ttl=49 time=169.971 ms
ping_2  | 64 bytes from 218.250.209.212: seq=168 ttl=49 time=170.356 ms
ping_1  | 64 bytes from 218.250.209.212: seq=169 ttl=49 time=170.389 ms
ping_2  | 64 bytes from 218.250.209.212: seq=169 ttl=49 time=170.121 ms
ping_1  | 64 bytes from 218.250.209.212: seq=170 ttl=49 time=170.539 ms
ping_2  | 64 bytes from 218.250.209.212: seq=170 ttl=49 time=170.919 ms
ping_1  | 64 bytes from 218.250.209.212: seq=171 ttl=49 time=170.839 ms
ping_2  | 64 bytes from 218.250.209.212: seq=171 ttl=49 time=171.502 ms
ping_1  | 64 bytes from 218.250.209.212: seq=172 ttl=49 time=170.657 ms
ping_2  | 64 bytes from 218.250.209.212: seq=172 ttl=49 time=171.647 ms
ping_1  | 64 bytes from 218.250.209.212: seq=173 ttl=49 time=171.191 ms
ping_2  | 64 bytes from 218.250.209.212: seq=173 ttl=49 time=176.781 ms
ping_1  | 64 bytes from 218.250.209.212: seq=174 ttl=49 time=172.461 ms
ping_2  | 64 bytes from 218.250.209.212: seq=174 ttl=49 time=176.726 ms
ping_1  | 64 bytes from 218.250.209.212: seq=175 ttl=49 time=177.321 ms
ping_2  | 64 bytes from 218.250.209.212: seq=175 ttl=49 time=171.441 ms
ping_1  | 64 bytes from 218.250.209.212: seq=176 ttl=49 time=171.582 ms
ping_2  | 64 bytes from 218.250.209.212: seq=176 ttl=49 time=172.679 ms
ping_1  | 64 bytes from 218.250.209.212: seq=177 ttl=49 time=171.990 ms
ping_2  | 64 bytes from 218.250.209.212: seq=177 ttl=49 time=170.882 ms
ping_1  | 64 bytes from 218.250.209.212: seq=178 ttl=49 time=172.246 ms
ping_2  | 64 bytes from 218.250.209.212: seq=178 ttl=49 time=170.876 ms
ping_1  | 64 bytes from 218.250.209.212: seq=179 ttl=49 time=171.293 ms
ping_2  | 64 bytes from 218.250.209.212: seq=179 ttl=49 time=170.181 ms
ping_1  | 64 bytes from 218.250.209.212: seq=180 ttl=49 time=170.141 ms
ping_2  | 64 bytes from 218.250.209.212: seq=180 ttl=49 time=170.059 ms
ping_1  | 64 bytes from 218.250.209.212: seq=181 ttl=49 time=170.884 ms
ping_2  | 64 bytes from 218.250.209.212: seq=181 ttl=49 time=170.574 ms
ping_1  | 64 bytes from 218.250.209.212: seq=182 ttl=49 time=171.606 ms
ping_2  | 64 bytes from 218.250.209.212: seq=182 ttl=49 time=171.109 ms
ping_1  | 64 bytes from 218.250.209.212: seq=183 ttl=49 time=170.617 ms
ping_2  | 64 bytes from 218.250.209.212: seq=183 ttl=49 time=170.809 ms
ping_1  | 64 bytes from 218.250.209.212: seq=184 ttl=49 time=170.624 ms
ping_2  | 64 bytes from 218.250.209.212: seq=184 ttl=49 time=170.675 ms
ping_1  | 64 bytes from 218.250.209.212: seq=185 ttl=49 time=171.558 ms
ping_2  | 64 bytes from 218.250.209.212: seq=185 ttl=49 time=171.418 ms
ping_1  | 64 bytes from 218.250.209.212: seq=186 ttl=49 time=174.307 ms
ping_2  | 64 bytes from 218.250.209.212: seq=186 ttl=49 time=172.007 ms
ping_1  | 64 bytes from 218.250.209.212: seq=187 ttl=49 time=170.770 ms
ping_2  | 64 bytes from 218.250.209.212: seq=187 ttl=49 time=170.692 ms
ping_1  | 64 bytes from 218.250.209.212: seq=188 ttl=49 time=171.115 ms
ping_2  | 64 bytes from 218.250.209.212: seq=188 ttl=49 time=170.834 ms
ping_1  | 64 bytes from 218.250.209.212: seq=189 ttl=49 time=170.654 ms
ping_2  | 64 bytes from 218.250.209.212: seq=189 ttl=49 time=171.540 ms
ping_1  | 64 bytes from 218.250.209.212: seq=190 ttl=49 time=170.887 ms
ping_2  | 64 bytes from 218.250.209.212: seq=190 ttl=49 time=170.460 ms
ping_1  | 64 bytes from 218.250.209.212: seq=191 ttl=49 time=171.050 ms
ping_2  | 64 bytes from 218.250.209.212: seq=191 ttl=49 time=170.727 ms
ping_1  | 64 bytes from 218.250.209.212: seq=192 ttl=49 time=169.860 ms
ping_2  | 64 bytes from 218.250.209.212: seq=192 ttl=49 time=171.090 ms
ping_1  | 64 bytes from 218.250.209.212: seq=193 ttl=49 time=170.184 ms
ping_2  | 64 bytes from 218.250.209.212: seq=193 ttl=49 time=170.730 ms
ping_1  | 64 bytes from 218.250.209.212: seq=194 ttl=49 time=170.157 ms
ping_2  | 64 bytes from 218.250.209.212: seq=194 ttl=49 time=171.430 ms
ping_1  | 64 bytes from 218.250.209.212: seq=195 ttl=49 time=170.933 ms
ping_2  | 64 bytes from 218.250.209.212: seq=195 ttl=49 time=170.732 ms
ping_1  | 64 bytes from 218.250.209.212: seq=196 ttl=49 time=171.463 ms
ping_2  | 64 bytes from 218.250.209.212: seq=196 ttl=49 time=170.869 ms
ping_1  | 64 bytes from 218.250.209.212: seq=197 ttl=49 time=169.788 ms
ping_2  | 64 bytes from 218.250.209.212: seq=197 ttl=49 time=171.789 ms
ping_1  | 64 bytes from 218.250.209.212: seq=198 ttl=49 time=170.636 ms
ping_2  | 64 bytes from 218.250.209.212: seq=198 ttl=49 time=170.730 ms
ping_1  | 64 bytes from 218.250.209.212: seq=199 ttl=49 time=170.948 ms
ping_2  | 64 bytes from 218.250.209.212: seq=199 ttl=49 time=170.050 ms
ping_1  | 64 bytes from 218.250.209.212: seq=200 ttl=49 time=170.666 ms
ping_2  | 64 bytes from 218.250.209.212: seq=200 ttl=49 time=170.134 ms
ping_1  | 64 bytes from 218.250.209.212: seq=201 ttl=49 time=169.917 ms
ping_2  | 64 bytes from 218.250.209.212: seq=201 ttl=49 time=170.288 ms
ping_1  | 64 bytes from 218.250.209.212: seq=202 ttl=49 time=171.065 ms
ping_2  | 64 bytes from 218.250.209.212: seq=202 ttl=49 time=170.154 ms
ping_1  | 64 bytes from 218.250.209.212: seq=203 ttl=49 time=171.093 ms
ping_2  | 64 bytes from 218.250.209.212: seq=203 ttl=49 time=170.099 ms
ping_1  | 64 bytes from 218.250.209.212: seq=204 ttl=49 time=170.204 ms
ping_2  | 64 bytes from 218.250.209.212: seq=204 ttl=49 time=170.312 ms
ping_1  | 64 bytes from 218.250.209.212: seq=205 ttl=49 time=170.418 ms
ping_2  | 64 bytes from 218.250.209.212: seq=205 ttl=49 time=170.302 ms
ping_1  | 64 bytes from 218.250.209.212: seq=206 ttl=49 time=169.884 ms
ping_2  | 64 bytes from 218.250.209.212: seq=206 ttl=49 time=170.379 ms
ping_1  | 64 bytes from 218.250.209.212: seq=207 ttl=49 time=170.273 ms
ping_2  | 64 bytes from 218.250.209.212: seq=207 ttl=49 time=171.892 ms
ping_1  | 64 bytes from 218.250.209.212: seq=208 ttl=49 time=170.673 ms
ping_2  | 64 bytes from 218.250.209.212: seq=208 ttl=49 time=170.898 ms
ping_1  | 64 bytes from 218.250.209.212: seq=209 ttl=49 time=171.479 ms
ping_2  | 64 bytes from 218.250.209.212: seq=209 ttl=49 time=174.201 ms
ping_1  | 64 bytes from 218.250.209.212: seq=210 ttl=49 time=170.649 ms
ping_2  | 64 bytes from 218.250.209.212: seq=210 ttl=49 time=170.520 ms
ping_1  | 64 bytes from 218.250.209.212: seq=211 ttl=49 time=170.344 ms
ping_2  | 64 bytes from 218.250.209.212: seq=211 ttl=49 time=171.177 ms
ping_1  | 64 bytes from 218.250.209.212: seq=212 ttl=49 time=170.409 ms
ping_2  | 64 bytes from 218.250.209.212: seq=212 ttl=49 time=171.396 ms
ping_1  | 64 bytes from 218.250.209.212: seq=213 ttl=49 time=173.860 ms
ping_2  | 64 bytes from 218.250.209.212: seq=213 ttl=49 time=172.975 ms
ping_1  | 64 bytes from 218.250.209.212: seq=214 ttl=49 time=174.809 ms
ping_2  | 64 bytes from 218.250.209.212: seq=214 ttl=49 time=177.922 ms
ping_1  | 64 bytes from 218.250.209.212: seq=215 ttl=49 time=178.170 ms
ping_2  | 64 bytes from 218.250.209.212: seq=215 ttl=49 time=176.315 ms
ping_1  | 64 bytes from 218.250.209.212: seq=216 ttl=49 time=174.051 ms
ping_2  | 64 bytes from 218.250.209.212: seq=216 ttl=49 time=170.391 ms
ping_1  | 64 bytes from 218.250.209.212: seq=217 ttl=49 time=174.126 ms
ping_2  | 64 bytes from 218.250.209.212: seq=217 ttl=49 time=173.202 ms
ping_1  | 64 bytes from 218.250.209.212: seq=218 ttl=49 time=172.710 ms
ping_2  | 64 bytes from 218.250.209.212: seq=218 ttl=49 time=177.281 ms
ping_1  | 64 bytes from 218.250.209.212: seq=219 ttl=49 time=177.111 ms
ping_2  | 64 bytes from 218.250.209.212: seq=219 ttl=49 time=176.360 ms
ping_1  | 64 bytes from 218.250.209.212: seq=220 ttl=49 time=171.767 ms
ping_2  | 64 bytes from 218.250.209.212: seq=220 ttl=49 time=175.689 ms
ping_1  | 64 bytes from 218.250.209.212: seq=221 ttl=49 time=174.281 ms
ping_2  | 64 bytes from 218.250.209.212: seq=221 ttl=49 time=170.579 ms
ping_1  | 64 bytes from 218.250.209.212: seq=222 ttl=49 time=171.404 ms
ping_2  | 64 bytes from 218.250.209.212: seq=222 ttl=49 time=170.750 ms
ping_1  | 64 bytes from 218.250.209.212: seq=223 ttl=49 time=171.906 ms
ping_2  | 64 bytes from 218.250.209.212: seq=223 ttl=49 time=171.118 ms
ping_1  | 64 bytes from 218.250.209.212: seq=224 ttl=49 time=172.008 ms
ping_2  | 64 bytes from 218.250.209.212: seq=224 ttl=49 time=170.679 ms
ping_1  | 64 bytes from 218.250.209.212: seq=225 ttl=49 time=172.313 ms
ping_2  | 64 bytes from 218.250.209.212: seq=225 ttl=49 time=171.087 ms
ping_1  | 64 bytes from 218.250.209.212: seq=226 ttl=49 time=170.992 ms
ping_2  | 64 bytes from 218.250.209.212: seq=226 ttl=49 time=170.966 ms
ping_1  | 64 bytes from 218.250.209.212: seq=227 ttl=49 time=170.321 ms
ping_2  | 64 bytes from 218.250.209.212: seq=227 ttl=49 time=172.306 ms
ping_1  | 64 bytes from 218.250.209.212: seq=228 ttl=49 time=170.567 ms
ping_2  | 64 bytes from 218.250.209.212: seq=228 ttl=49 time=171.209 ms
ping_1  | 64 bytes from 218.250.209.212: seq=229 ttl=49 time=170.701 ms
ping_2  | 64 bytes from 218.250.209.212: seq=229 ttl=49 time=169.791 ms
ping_1  | 64 bytes from 218.250.209.212: seq=230 ttl=49 time=170.030 ms
ping_2  | 64 bytes from 218.250.209.212: seq=230 ttl=49 time=170.886 ms
ping_1  | 64 bytes from 218.250.209.212: seq=231 ttl=49 time=171.469 ms
ping_2  | 64 bytes from 218.250.209.212: seq=231 ttl=49 time=170.906 ms
ping_1  | 64 bytes from 218.250.209.212: seq=232 ttl=49 time=170.931 ms
ping_2  | 64 bytes from 218.250.209.212: seq=232 ttl=49 time=171.547 ms
ping_1  | 64 bytes from 218.250.209.212: seq=233 ttl=49 time=170.391 ms
ping_2  | 64 bytes from 218.250.209.212: seq=233 ttl=49 time=171.033 ms
ping_1  | 64 bytes from 218.250.209.212: seq=234 ttl=49 time=170.558 ms
ping_2  | 64 bytes from 218.250.209.212: seq=234 ttl=49 time=171.218 ms
ping_1  | 64 bytes from 218.250.209.212: seq=235 ttl=49 time=170.800 ms
ping_2  | 64 bytes from 218.250.209.212: seq=235 ttl=49 time=170.967 ms
ping_1  | 64 bytes from 218.250.209.212: seq=236 ttl=49 time=170.924 ms
ping_2  | 64 bytes from 218.250.209.212: seq=236 ttl=49 time=171.108 ms
ping_1  | 64 bytes from 218.250.209.212: seq=237 ttl=49 time=169.990 ms
ping_2  | 64 bytes from 218.250.209.212: seq=237 ttl=49 time=171.030 ms
ping_1  | 64 bytes from 218.250.209.212: seq=238 ttl=49 time=170.150 ms
ping_2  | 64 bytes from 218.250.209.212: seq=238 ttl=49 time=170.952 ms
ping_1  | 64 bytes from 218.250.209.212: seq=239 ttl=49 time=170.298 ms
ping_2  | 64 bytes from 218.250.209.212: seq=239 ttl=49 time=170.342 ms
ping_1  | 64 bytes from 218.250.209.212: seq=240 ttl=49 time=170.803 ms
ping_2  | 64 bytes from 218.250.209.212: seq=240 ttl=49 time=170.881 ms
ping_1  | 64 bytes from 218.250.209.212: seq=241 ttl=49 time=170.333 ms
ping_2  | 64 bytes from 218.250.209.212: seq=241 ttl=49 time=170.146 ms
ping_1  | 64 bytes from 218.250.209.212: seq=242 ttl=49 time=171.141 ms
ping_2  | 64 bytes from 218.250.209.212: seq=242 ttl=49 time=170.675 ms
ping_1  | 64 bytes from 218.250.209.212: seq=243 ttl=49 time=170.726 ms
ping_2  | 64 bytes from 218.250.209.212: seq=243 ttl=49 time=169.957 ms
ping_1  | 64 bytes from 218.250.209.212: seq=244 ttl=49 time=170.985 ms
ping_2  | 64 bytes from 218.250.209.212: seq=244 ttl=49 time=170.653 ms
ping_1  | 64 bytes from 218.250.209.212: seq=245 ttl=49 time=170.372 ms
ping_2  | 64 bytes from 218.250.209.212: seq=245 ttl=49 time=170.612 ms
ping_1  | 64 bytes from 218.250.209.212: seq=246 ttl=49 time=170.414 ms
ping_2  | 64 bytes from 218.250.209.212: seq=246 ttl=49 time=170.627 ms
ping_1  | 64 bytes from 218.250.209.212: seq=247 ttl=49 time=171.035 ms
ping_2  | 64 bytes from 218.250.209.212: seq=247 ttl=49 time=170.823 ms
ping_1  | 64 bytes from 218.250.209.212: seq=248 ttl=49 time=170.820 ms
ping_2  | 64 bytes from 218.250.209.212: seq=248 ttl=49 time=171.143 ms
ping_1  | 64 bytes from 218.250.209.212: seq=249 ttl=49 time=169.526 ms
ping_2  | 64 bytes from 218.250.209.212: seq=249 ttl=49 time=170.853 ms
ping_1  | 64 bytes from 218.250.209.212: seq=250 ttl=49 time=171.613 ms
ping_2  | 64 bytes from 218.250.209.212: seq=250 ttl=49 time=170.811 ms
ping_1  | 64 bytes from 218.250.209.212: seq=251 ttl=49 time=169.776 ms
ping_2  | 64 bytes from 218.250.209.212: seq=251 ttl=49 time=170.861 ms
ping_1  | 64 bytes from 218.250.209.212: seq=252 ttl=49 time=171.072 ms
ping_2  | 64 bytes from 218.250.209.212: seq=252 ttl=49 time=170.891 ms
ping_1  | 64 bytes from 218.250.209.212: seq=253 ttl=49 time=170.679 ms
ping_2  | 64 bytes from 218.250.209.212: seq=253 ttl=49 time=170.809 ms
ping_1  | 64 bytes from 218.250.209.212: seq=254 ttl=49 time=170.833 ms
ping_2  | 64 bytes from 218.250.209.212: seq=254 ttl=49 time=170.486 ms
ping_1  | 64 bytes from 218.250.209.212: seq=255 ttl=49 time=170.699 ms
ping_2  | 64 bytes from 218.250.209.212: seq=255 ttl=49 time=170.855 ms
ping_1  | 64 bytes from 218.250.209.212: seq=256 ttl=49 time=170.343 ms
ping_2  | 64 bytes from 218.250.209.212: seq=256 ttl=49 time=170.809 ms
ping_1  | 64 bytes from 218.250.209.212: seq=257 ttl=49 time=171.019 ms
ping_2  | 64 bytes from 218.250.209.212: seq=257 ttl=49 time=170.597 ms
ping_1  | 64 bytes from 218.250.209.212: seq=258 ttl=49 time=170.601 ms
ping_2  | 64 bytes from 218.250.209.212: seq=258 ttl=49 time=170.685 ms
ping_1  | 64 bytes from 218.250.209.212: seq=259 ttl=49 time=170.386 ms
ping_2  | 64 bytes from 218.250.209.212: seq=259 ttl=49 time=171.330 ms
ping_1  | 64 bytes from 218.250.209.212: seq=260 ttl=49 time=173.174 ms
ping_2  | 64 bytes from 218.250.209.212: seq=260 ttl=49 time=171.568 ms
ping_1  | 64 bytes from 218.250.209.212: seq=261 ttl=49 time=171.267 ms
ping_2  | 64 bytes from 218.250.209.212: seq=261 ttl=49 time=170.859 ms
ping_1  | 64 bytes from 218.250.209.212: seq=262 ttl=49 time=171.779 ms
ping_2  | 64 bytes from 218.250.209.212: seq=262 ttl=49 time=170.592 ms
ping_1  | 64 bytes from 218.250.209.212: seq=263 ttl=49 time=172.472 ms
ping_2  | 64 bytes from 218.250.209.212: seq=263 ttl=49 time=172.668 ms
ping_1  | 64 bytes from 218.250.209.212: seq=264 ttl=49 time=170.382 ms
ping_2  | 64 bytes from 218.250.209.212: seq=264 ttl=49 time=171.247 ms
ping_1  | 64 bytes from 218.250.209.212: seq=265 ttl=49 time=170.483 ms
ping_2  | 64 bytes from 218.250.209.212: seq=265 ttl=49 time=173.389 ms
ping_1  | 64 bytes from 218.250.209.212: seq=266 ttl=49 time=173.765 ms
ping_2  | 64 bytes from 218.250.209.212: seq=266 ttl=49 time=169.884 ms
ping_1  | 64 bytes from 218.250.209.212: seq=267 ttl=49 time=170.872 ms
ping_2  | 64 bytes from 218.250.209.212: seq=267 ttl=49 time=173.007 ms
ping_1  | 64 bytes from 218.250.209.212: seq=268 ttl=49 time=170.864 ms
ping_2  | 64 bytes from 218.250.209.212: seq=268 ttl=49 time=170.923 ms
ping_1  | 64 bytes from 218.250.209.212: seq=269 ttl=49 time=173.032 ms
ping_2  | 64 bytes from 218.250.209.212: seq=269 ttl=49 time=170.598 ms
ping_1  | 64 bytes from 218.250.209.212: seq=270 ttl=49 time=171.008 ms
ping_2  | 64 bytes from 218.250.209.212: seq=270 ttl=49 time=171.185 ms
ping_1  | 64 bytes from 218.250.209.212: seq=271 ttl=49 time=172.621 ms
ping_2  | 64 bytes from 218.250.209.212: seq=271 ttl=49 time=170.649 ms
ping_1  | 64 bytes from 218.250.209.212: seq=272 ttl=49 time=174.679 ms
ping_2  | 64 bytes from 218.250.209.212: seq=272 ttl=49 time=171.559 ms
ping_1  | 64 bytes from 218.250.209.212: seq=273 ttl=49 time=172.749 ms
ping_2  | 64 bytes from 218.250.209.212: seq=273 ttl=49 time=170.388 ms
ping_1  | 64 bytes from 218.250.209.212: seq=274 ttl=49 time=170.572 ms
ping_2  | 64 bytes from 218.250.209.212: seq=274 ttl=49 time=170.017 ms
ping_1  | 64 bytes from 218.250.209.212: seq=275 ttl=49 time=170.508 ms
ping_2  | 64 bytes from 218.250.209.212: seq=275 ttl=49 time=169.889 ms
ping_1  | 64 bytes from 218.250.209.212: seq=276 ttl=49 time=170.395 ms
ping_2  | 64 bytes from 218.250.209.212: seq=276 ttl=49 time=171.216 ms
ping_1  | 64 bytes from 218.250.209.212: seq=277 ttl=49 time=170.773 ms
ping_2  | 64 bytes from 218.250.209.212: seq=277 ttl=49 time=171.247 ms
ping_1  | 64 bytes from 218.250.209.212: seq=278 ttl=49 time=170.742 ms
ping_2  | 64 bytes from 218.250.209.212: seq=278 ttl=49 time=170.747 ms
ping_1  | 64 bytes from 218.250.209.212: seq=279 ttl=49 time=170.069 ms
ping_2  | 64 bytes from 218.250.209.212: seq=279 ttl=49 time=170.870 ms
ping_1  | 64 bytes from 218.250.209.212: seq=280 ttl=49 time=170.315 ms
ping_2  | 64 bytes from 218.250.209.212: seq=280 ttl=49 time=171.048 ms
ping_1  | 64 bytes from 218.250.209.212: seq=281 ttl=49 time=171.344 ms
ping_2  | 64 bytes from 218.250.209.212: seq=281 ttl=49 time=169.867 ms
ping_1  | 64 bytes from 218.250.209.212: seq=282 ttl=49 time=170.140 ms
ping_2  | 64 bytes from 218.250.209.212: seq=282 ttl=49 time=169.790 ms
ping_1  | 64 bytes from 218.250.209.212: seq=283 ttl=49 time=170.853 ms
ping_2  | 64 bytes from 218.250.209.212: seq=283 ttl=49 time=170.539 ms
ping_1  | 64 bytes from 218.250.209.212: seq=284 ttl=49 time=171.163 ms
ping_2  | 64 bytes from 218.250.209.212: seq=284 ttl=49 time=170.372 ms
ping_1  | 64 bytes from 218.250.209.212: seq=285 ttl=49 time=170.487 ms
ping_2  | 64 bytes from 218.250.209.212: seq=285 ttl=49 time=170.624 ms
ping_1  | 64 bytes from 218.250.209.212: seq=286 ttl=49 time=170.558 ms
ping_2  | 64 bytes from 218.250.209.212: seq=286 ttl=49 time=170.273 ms
ping_1  | 64 bytes from 218.250.209.212: seq=287 ttl=49 time=170.802 ms
ping_2  | 64 bytes from 218.250.209.212: seq=287 ttl=49 time=171.108 ms
ping_1  | 64 bytes from 218.250.209.212: seq=288 ttl=49 time=170.733 ms
ping_2  | 64 bytes from 218.250.209.212: seq=288 ttl=49 time=170.949 ms
ping_1  | 64 bytes from 218.250.209.212: seq=289 ttl=49 time=171.787 ms
ping_2  | 64 bytes from 218.250.209.212: seq=289 ttl=49 time=175.079 ms
ping_1  | 64 bytes from 218.250.209.212: seq=290 ttl=49 time=170.222 ms
ping_2  | 64 bytes from 218.250.209.212: seq=290 ttl=49 time=170.840 ms
ping_1  | 64 bytes from 218.250.209.212: seq=291 ttl=49 time=170.231 ms
ping_2  | 64 bytes from 218.250.209.212: seq=291 ttl=49 time=171.015 ms
ping_1  | 64 bytes from 218.250.209.212: seq=292 ttl=49 time=170.746 ms
ping_2  | 64 bytes from 218.250.209.212: seq=292 ttl=49 time=169.721 ms
ping_1  | 64 bytes from 218.250.209.212: seq=293 ttl=49 time=170.464 ms
ping_2  | 64 bytes from 218.250.209.212: seq=293 ttl=49 time=170.822 ms
ping_1  | 64 bytes from 218.250.209.212: seq=294 ttl=49 time=171.282 ms
ping_2  | 64 bytes from 218.250.209.212: seq=294 ttl=49 time=170.671 ms
ping_1  | 64 bytes from 218.250.209.212: seq=295 ttl=49 time=170.915 ms
ping_2  | 64 bytes from 218.250.209.212: seq=295 ttl=49 time=170.837 ms
ping_1  | 64 bytes from 218.250.209.212: seq=296 ttl=49 time=171.085 ms
ping_2  | 64 bytes from 218.250.209.212: seq=296 ttl=49 time=170.909 ms
ping_1  | 64 bytes from 218.250.209.212: seq=297 ttl=49 time=171.108 ms
ping_2  | 64 bytes from 218.250.209.212: seq=297 ttl=49 time=172.059 ms
ping_1  | 64 bytes from 218.250.209.212: seq=298 ttl=49 time=170.192 ms
ping_2  | 64 bytes from 218.250.209.212: seq=298 ttl=49 time=170.231 ms
ping_1  | 64 bytes from 218.250.209.212: seq=299 ttl=49 time=170.654 ms
ping_2  | 64 bytes from 218.250.209.212: seq=299 ttl=49 time=171.063 ms
ping_1  | 64 bytes from 218.250.209.212: seq=300 ttl=49 time=173.734 ms
ping_2  | 64 bytes from 218.250.209.212: seq=300 ttl=49 time=170.621 ms
ping_1  | 64 bytes from 218.250.209.212: seq=301 ttl=49 time=171.688 ms
ping_2  | 64 bytes from 218.250.209.212: seq=301 ttl=49 time=170.565 ms
ping_1  | 64 bytes from 218.250.209.212: seq=302 ttl=49 time=170.729 ms
ping_2  | 64 bytes from 218.250.209.212: seq=302 ttl=49 time=171.627 ms
ping_1  | 64 bytes from 218.250.209.212: seq=303 ttl=49 time=172.735 ms
ping_2  | 64 bytes from 218.250.209.212: seq=303 ttl=49 time=171.240 ms
ping_1  | 64 bytes from 218.250.209.212: seq=304 ttl=49 time=170.713 ms
ping_2  | 64 bytes from 218.250.209.212: seq=304 ttl=49 time=170.067 ms
ping_1  | 64 bytes from 218.250.209.212: seq=305 ttl=49 time=170.126 ms
ping_2  | 64 bytes from 218.250.209.212: seq=305 ttl=49 time=174.084 ms
ping_1  | 64 bytes from 218.250.209.212: seq=306 ttl=49 time=173.755 ms
ping_2  | 64 bytes from 218.250.209.212: seq=306 ttl=49 time=174.871 ms
ping_1  | 64 bytes from 218.250.209.212: seq=307 ttl=49 time=177.149 ms
ping_2  | 64 bytes from 218.250.209.212: seq=307 ttl=49 time=178.635 ms
ping_1  | 64 bytes from 218.250.209.212: seq=308 ttl=49 time=172.657 ms
ping_2  | 64 bytes from 218.250.209.212: seq=308 ttl=49 time=177.587 ms
ping_1  | 64 bytes from 218.250.209.212: seq=309 ttl=49 time=177.704 ms
ping_2  | 64 bytes from 218.250.209.212: seq=309 ttl=49 time=170.732 ms
ping_1  | 64 bytes from 218.250.209.212: seq=310 ttl=49 time=172.351 ms
ping_2  | 64 bytes from 218.250.209.212: seq=310 ttl=49 time=174.123 ms
ping_1  | 64 bytes from 218.250.209.212: seq=311 ttl=49 time=172.237 ms
ping_2  | 64 bytes from 218.250.209.212: seq=311 ttl=49 time=172.308 ms
ping_1  | 64 bytes from 218.250.209.212: seq=312 ttl=49 time=171.251 ms
ping_2  | 64 bytes from 218.250.209.212: seq=312 ttl=49 time=172.944 ms
ping_1  | 64 bytes from 218.250.209.212: seq=313 ttl=49 time=173.023 ms
ping_2  | 64 bytes from 218.250.209.212: seq=313 ttl=49 time=172.055 ms
ping_1  | 64 bytes from 218.250.209.212: seq=314 ttl=49 time=171.484 ms
ping_2  | 64 bytes from 218.250.209.212: seq=314 ttl=49 time=171.993 ms
ping_1  | 64 bytes from 218.250.209.212: seq=315 ttl=49 time=173.036 ms
ping_2  | 64 bytes from 218.250.209.212: seq=315 ttl=49 time=171.705 ms
ping_1  | 64 bytes from 218.250.209.212: seq=316 ttl=49 time=171.030 ms
ping_2  | 64 bytes from 218.250.209.212: seq=316 ttl=49 time=171.086 ms
ping_1  | 64 bytes from 218.250.209.212: seq=317 ttl=49 time=172.676 ms
ping_2  | 64 bytes from 218.250.209.212: seq=317 ttl=49 time=170.387 ms
ping_1  | 64 bytes from 218.250.209.212: seq=318 ttl=49 time=170.604 ms
ping_2  | 64 bytes from 218.250.209.212: seq=318 ttl=49 time=171.426 ms
ping_1  | 64 bytes from 218.250.209.212: seq=319 ttl=49 time=171.336 ms
ping_2  | 64 bytes from 218.250.209.212: seq=319 ttl=49 time=169.995 ms
ping_1  | 64 bytes from 218.250.209.212: seq=320 ttl=49 time=170.392 ms
ping_2  | 64 bytes from 218.250.209.212: seq=320 ttl=49 time=170.331 ms
ping_1  | 64 bytes from 218.250.209.212: seq=321 ttl=49 time=170.724 ms
ping_2  | 64 bytes from 218.250.209.212: seq=321 ttl=49 time=170.512 ms
ping_1  | 64 bytes from 218.250.209.212: seq=322 ttl=49 time=170.350 ms
ping_2  | 64 bytes from 218.250.209.212: seq=322 ttl=49 time=172.842 ms
ping_1  | 64 bytes from 218.250.209.212: seq=323 ttl=49 time=170.977 ms
ping_2  | 64 bytes from 218.250.209.212: seq=323 ttl=49 time=170.284 ms
ping_1  | 64 bytes from 218.250.209.212: seq=324 ttl=49 time=170.658 ms
ping_2  | 64 bytes from 218.250.209.212: seq=324 ttl=49 time=172.884 ms
ping_1  | 64 bytes from 218.250.209.212: seq=325 ttl=49 time=170.589 ms
ping_2  | 64 bytes from 218.250.209.212: seq=325 ttl=49 time=170.449 ms
ping_1  | 64 bytes from 218.250.209.212: seq=326 ttl=49 time=171.135 ms
ping_2  | 64 bytes from 218.250.209.212: seq=326 ttl=49 time=170.903 ms
ping_1  | 64 bytes from 218.250.209.212: seq=327 ttl=49 time=170.478 ms
ping_2  | 64 bytes from 218.250.209.212: seq=327 ttl=49 time=170.340 ms
ping_1  | 64 bytes from 218.250.209.212: seq=328 ttl=49 time=169.546 ms
ping_2  | 64 bytes from 218.250.209.212: seq=328 ttl=49 time=170.471 ms
ping_1  | 64 bytes from 218.250.209.212: seq=329 ttl=49 time=170.573 ms
ping_2  | 64 bytes from 218.250.209.212: seq=329 ttl=49 time=170.118 ms
ping_1  | 64 bytes from 218.250.209.212: seq=330 ttl=49 time=170.841 ms
ping_2  | 64 bytes from 218.250.209.212: seq=330 ttl=49 time=170.210 ms
ping_1  | 64 bytes from 218.250.209.212: seq=331 ttl=49 time=170.494 ms
ping_2  | 64 bytes from 218.250.209.212: seq=331 ttl=49 time=171.341 ms
ping_1  | 64 bytes from 218.250.209.212: seq=332 ttl=49 time=169.421 ms
ping_2  | 64 bytes from 218.250.209.212: seq=332 ttl=49 time=169.991 ms
ping_1  | 64 bytes from 218.250.209.212: seq=333 ttl=49 time=169.598 ms
ping_2  | 64 bytes from 218.250.209.212: seq=333 ttl=49 time=169.589 ms
ping_1  | 64 bytes from 218.250.209.212: seq=334 ttl=49 time=171.383 ms
ping_2  | 64 bytes from 218.250.209.212: seq=334 ttl=49 time=170.219 ms
ping_1  | 64 bytes from 218.250.209.212: seq=335 ttl=49 time=170.126 ms
ping_2  | 64 bytes from 218.250.209.212: seq=335 ttl=49 time=171.051 ms
ping_1  | 64 bytes from 218.250.209.212: seq=336 ttl=49 time=169.318 ms
ping_2  | 64 bytes from 218.250.209.212: seq=336 ttl=49 time=170.819 ms
ping_1  | 64 bytes from 218.250.209.212: seq=337 ttl=49 time=170.987 ms
ping_2  | 64 bytes from 218.250.209.212: seq=337 ttl=49 time=170.964 ms
ping_1  | 64 bytes from 218.250.209.212: seq=338 ttl=49 time=170.768 ms
ping_2  | 64 bytes from 218.250.209.212: seq=338 ttl=49 time=170.859 ms
ping_1  | 64 bytes from 218.250.209.212: seq=339 ttl=49 time=170.082 ms
ping_2  | 64 bytes from 218.250.209.212: seq=339 ttl=49 time=170.340 ms
ping_1  | 64 bytes from 218.250.209.212: seq=340 ttl=49 time=170.685 ms
ping_2  | 64 bytes from 218.250.209.212: seq=340 ttl=49 time=173.357 ms
ping_1  | 64 bytes from 218.250.209.212: seq=341 ttl=49 time=170.799 ms
ping_2  | 64 bytes from 218.250.209.212: seq=341 ttl=49 time=172.445 ms
ping_1  | 64 bytes from 218.250.209.212: seq=342 ttl=49 time=170.708 ms
ping_2  | 64 bytes from 218.250.209.212: seq=342 ttl=49 time=172.419 ms
ping_1  | 64 bytes from 218.250.209.212: seq=343 ttl=49 time=171.313 ms
ping_2  | 64 bytes from 218.250.209.212: seq=343 ttl=49 time=176.830 ms
ping_1  | 64 bytes from 218.250.209.212: seq=344 ttl=49 time=177.910 ms
ping_2  | 64 bytes from 218.250.209.212: seq=344 ttl=49 time=176.901 ms
ping_1  | 64 bytes from 218.250.209.212: seq=345 ttl=49 time=178.012 ms
ping_2  | 64 bytes from 218.250.209.212: seq=345 ttl=49 time=176.073 ms
ping_1  | 64 bytes from 218.250.209.212: seq=346 ttl=49 time=172.021 ms
ping_2  | 64 bytes from 218.250.209.212: seq=346 ttl=49 time=170.820 ms
ping_1  | 64 bytes from 218.250.209.212: seq=347 ttl=49 time=173.663 ms
ping_2  | 64 bytes from 218.250.209.212: seq=347 ttl=49 time=177.624 ms
ping_1  | 64 bytes from 218.250.209.212: seq=348 ttl=49 time=172.427 ms
ping_2  | 64 bytes from 218.250.209.212: seq=348 ttl=49 time=186.383 ms
ping_1  | 64 bytes from 218.250.209.212: seq=349 ttl=49 time=183.742 ms
ping_2  | 64 bytes from 218.250.209.212: seq=349 ttl=49 time=176.060 ms
ping_1  | 64 bytes from 218.250.209.212: seq=350 ttl=49 time=179.911 ms
ping_2  | 64 bytes from 218.250.209.212: seq=350 ttl=49 time=175.505 ms
ping_1  | 64 bytes from 218.250.209.212: seq=351 ttl=49 time=175.342 ms
ping_2  | 64 bytes from 218.250.209.212: seq=351 ttl=49 time=181.557 ms
ping_1  | 64 bytes from 218.250.209.212: seq=352 ttl=49 time=180.314 ms
ping_2  | 64 bytes from 218.250.209.212: seq=352 ttl=49 time=178.550 ms
ping_1  | 64 bytes from 218.250.209.212: seq=353 ttl=49 time=177.049 ms
ping_2  | 64 bytes from 218.250.209.212: seq=353 ttl=49 time=171.899 ms
ping_1  | 64 bytes from 218.250.209.212: seq=354 ttl=49 time=171.054 ms
ping_2  | 64 bytes from 218.250.209.212: seq=354 ttl=49 time=170.716 ms
ping_1  | 64 bytes from 218.250.209.212: seq=355 ttl=49 time=171.101 ms
ping_2  | 64 bytes from 218.250.209.212: seq=355 ttl=49 time=175.055 ms
ping_1  | 64 bytes from 218.250.209.212: seq=356 ttl=49 time=174.199 ms
ping_2  | 64 bytes from 218.250.209.212: seq=356 ttl=49 time=176.522 ms
ping_1  | 64 bytes from 218.250.209.212: seq=357 ttl=49 time=174.116 ms
ping_2  | 64 bytes from 218.250.209.212: seq=357 ttl=49 time=170.953 ms
ping_1  | 64 bytes from 218.250.209.212: seq=358 ttl=49 time=172.029 ms
ping_2  | 64 bytes from 218.250.209.212: seq=358 ttl=49 time=170.369 ms
ping_1  | 64 bytes from 218.250.209.212: seq=359 ttl=49 time=170.936 ms
ping_2  | 64 bytes from 218.250.209.212: seq=359 ttl=49 time=170.977 ms
ping_1  | 64 bytes from 218.250.209.212: seq=360 ttl=49 time=171.551 ms
ping_2  | 64 bytes from 218.250.209.212: seq=360 ttl=49 time=173.754 ms
ping_1  | 64 bytes from 218.250.209.212: seq=361 ttl=49 time=174.425 ms
ping_2  | 64 bytes from 218.250.209.212: seq=361 ttl=49 time=170.957 ms
ping_1  | 64 bytes from 218.250.209.212: seq=362 ttl=49 time=170.881 ms
ping_2  | 64 bytes from 218.250.209.212: seq=362 ttl=49 time=171.939 ms
ping_1  | 64 bytes from 218.250.209.212: seq=363 ttl=49 time=171.026 ms
ping_2  | 64 bytes from 218.250.209.212: seq=363 ttl=49 time=170.564 ms
ping_1  | 64 bytes from 218.250.209.212: seq=364 ttl=49 time=170.225 ms
ping_2  | 64 bytes from 218.250.209.212: seq=364 ttl=49 time=171.008 ms
ping_1  | 64 bytes from 218.250.209.212: seq=365 ttl=49 time=170.637 ms
ping_2  | 64 bytes from 218.250.209.212: seq=365 ttl=49 time=170.482 ms
ping_1  | 64 bytes from 218.250.209.212: seq=366 ttl=49 time=170.723 ms
ping_2  | 64 bytes from 218.250.209.212: seq=366 ttl=49 time=169.914 ms
ping_1  | 64 bytes from 218.250.209.212: seq=367 ttl=49 time=170.751 ms
ping_2  | 64 bytes from 218.250.209.212: seq=367 ttl=49 time=171.042 ms
ping_1  | 64 bytes from 218.250.209.212: seq=368 ttl=49 time=170.097 ms
ping_2  | 64 bytes from 218.250.209.212: seq=368 ttl=49 time=170.529 ms
ping_1  | 64 bytes from 218.250.209.212: seq=369 ttl=49 time=170.248 ms
ping_2  | 64 bytes from 218.250.209.212: seq=369 ttl=49 time=170.276 ms
ping_1  | 64 bytes from 218.250.209.212: seq=370 ttl=49 time=170.905 ms
ping_2  | 64 bytes from 218.250.209.212: seq=370 ttl=49 time=171.646 ms
ping_1  | 64 bytes from 218.250.209.212: seq=371 ttl=49 time=170.390 ms
ping_2  | 64 bytes from 218.250.209.212: seq=371 ttl=49 time=170.911 ms
ping_1  | 64 bytes from 218.250.209.212: seq=372 ttl=49 time=170.718 ms
ping_2  | 64 bytes from 218.250.209.212: seq=372 ttl=49 time=169.962 ms
ping_1  | 64 bytes from 218.250.209.212: seq=373 ttl=49 time=171.265 ms
ping_2  | 64 bytes from 218.250.209.212: seq=373 ttl=49 time=170.857 ms
ping_1  | 64 bytes from 218.250.209.212: seq=374 ttl=49 time=170.493 ms
ping_2  | 64 bytes from 218.250.209.212: seq=374 ttl=49 time=170.726 ms
ping_1  | 64 bytes from 218.250.209.212: seq=375 ttl=49 time=170.639 ms
ping_2  | 64 bytes from 218.250.209.212: seq=375 ttl=49 time=170.332 ms
ping_1  | 64 bytes from 218.250.209.212: seq=376 ttl=49 time=171.007 ms
ping_2  | 64 bytes from 218.250.209.212: seq=376 ttl=49 time=171.604 ms
ping_1  | 64 bytes from 218.250.209.212: seq=377 ttl=49 time=170.733 ms
ping_2  | 64 bytes from 218.250.209.212: seq=377 ttl=49 time=170.161 ms
ping_1  | 64 bytes from 218.250.209.212: seq=378 ttl=49 time=170.890 ms
ping_2  | 64 bytes from 218.250.209.212: seq=378 ttl=49 time=170.645 ms
ping_1  | 64 bytes from 218.250.209.212: seq=379 ttl=49 time=170.517 ms
ping_2  | 64 bytes from 218.250.209.212: seq=379 ttl=49 time=170.088 ms
ping_1  | 64 bytes from 218.250.209.212: seq=380 ttl=49 time=170.599 ms
ping_2  | 64 bytes from 218.250.209.212: seq=380 ttl=49 time=171.166 ms
ping_1  | 64 bytes from 218.250.209.212: seq=381 ttl=49 time=170.694 ms
ping_2  | 64 bytes from 218.250.209.212: seq=381 ttl=49 time=170.287 ms
ping_1  | 64 bytes from 218.250.209.212: seq=382 ttl=49 time=170.514 ms
ping_2  | 64 bytes from 218.250.209.212: seq=382 ttl=49 time=170.152 ms
ping_1  | 64 bytes from 218.250.209.212: seq=383 ttl=49 time=170.580 ms
ping_2  | 64 bytes from 218.250.209.212: seq=383 ttl=49 time=172.879 ms
ping_1  | 64 bytes from 218.250.209.212: seq=384 ttl=49 time=171.379 ms
ping_2  | 64 bytes from 218.250.209.212: seq=384 ttl=49 time=171.158 ms
ping_1  | 64 bytes from 218.250.209.212: seq=385 ttl=49 time=169.641 ms
ping_2  | 64 bytes from 218.250.209.212: seq=385 ttl=49 time=170.896 ms
ping_1  | 64 bytes from 218.250.209.212: seq=386 ttl=49 time=170.533 ms
ping_2  | 64 bytes from 218.250.209.212: seq=386 ttl=49 time=170.595 ms
ping_1  | 64 bytes from 218.250.209.212: seq=387 ttl=49 time=170.335 ms
ping_2  | 64 bytes from 218.250.209.212: seq=387 ttl=49 time=171.147 ms
ping_1  | 64 bytes from 218.250.209.212: seq=388 ttl=49 time=170.906 ms
ping_2  | 64 bytes from 218.250.209.212: seq=388 ttl=49 time=172.594 ms
ping_1  | 64 bytes from 218.250.209.212: seq=389 ttl=49 time=170.764 ms
ping_2  | 64 bytes from 218.250.209.212: seq=389 ttl=49 time=170.776 ms
ping_1  | 64 bytes from 218.250.209.212: seq=390 ttl=49 time=170.446 ms
ping_2  | 64 bytes from 218.250.209.212: seq=390 ttl=49 time=171.394 ms
ping_1  | 64 bytes from 218.250.209.212: seq=391 ttl=49 time=170.910 ms
ping_2  | 64 bytes from 218.250.209.212: seq=391 ttl=49 time=170.500 ms
ping_1  | 64 bytes from 218.250.209.212: seq=392 ttl=49 time=171.069 ms
ping_2  | 64 bytes from 218.250.209.212: seq=392 ttl=49 time=169.795 ms
ping_1  | 64 bytes from 218.250.209.212: seq=393 ttl=49 time=171.005 ms
ping_2  | 64 bytes from 218.250.209.212: seq=393 ttl=49 time=172.258 ms
ping_1  | 64 bytes from 218.250.209.212: seq=394 ttl=49 time=170.601 ms
ping_2  | 64 bytes from 218.250.209.212: seq=394 ttl=49 time=170.201 ms
ping_1  | 64 bytes from 218.250.209.212: seq=395 ttl=49 time=170.521 ms
ping_2  | 64 bytes from 218.250.209.212: seq=395 ttl=49 time=170.956 ms
ping_1  | 64 bytes from 218.250.209.212: seq=396 ttl=49 time=170.729 ms
ping_2  | 64 bytes from 218.250.209.212: seq=396 ttl=49 time=169.874 ms
ping_1  | 64 bytes from 218.250.209.212: seq=397 ttl=49 time=170.473 ms
ping_2  | 64 bytes from 218.250.209.212: seq=397 ttl=49 time=170.156 ms
ping_1  | 64 bytes from 218.250.209.212: seq=398 ttl=49 time=172.725 ms
ping_2  | 64 bytes from 218.250.209.212: seq=398 ttl=49 time=172.168 ms
ping_1  | 64 bytes from 218.250.209.212: seq=399 ttl=49 time=170.792 ms
ping_2  | 64 bytes from 218.250.209.212: seq=399 ttl=49 time=171.424 ms
ping_1  | 64 bytes from 218.250.209.212: seq=400 ttl=49 time=172.870 ms
ping_2  | 64 bytes from 218.250.209.212: seq=400 ttl=49 time=175.793 ms
ping_1  | 64 bytes from 218.250.209.212: seq=401 ttl=49 time=175.832 ms
ping_2  | 64 bytes from 218.250.209.212: seq=401 ttl=49 time=177.465 ms
ping_1  | 64 bytes from 218.250.209.212: seq=402 ttl=49 time=172.953 ms
ping_2  | 64 bytes from 218.250.209.212: seq=402 ttl=49 time=177.455 ms
ping_1  | 64 bytes from 218.250.209.212: seq=403 ttl=49 time=175.440 ms
ping_2  | 64 bytes from 218.250.209.212: seq=403 ttl=49 time=177.309 ms
ping_1  | 64 bytes from 218.250.209.212: seq=404 ttl=49 time=176.397 ms
ping_2  | 64 bytes from 218.250.209.212: seq=404 ttl=49 time=174.178 ms
ping_1  | 64 bytes from 218.250.209.212: seq=405 ttl=49 time=174.207 ms
ping_2  | 64 bytes from 218.250.209.212: seq=405 ttl=49 time=185.529 ms
ping_1  | 64 bytes from 218.250.209.212: seq=406 ttl=49 time=185.671 ms
ping_2  | 64 bytes from 218.250.209.212: seq=406 ttl=49 time=181.078 ms
ping_1  | 64 bytes from 218.250.209.212: seq=407 ttl=49 time=175.308 ms
ping_2  | 64 bytes from 218.250.209.212: seq=407 ttl=49 time=170.583 ms
ping_1  | 64 bytes from 218.250.209.212: seq=408 ttl=49 time=174.316 ms
ping_2  | 64 bytes from 218.250.209.212: seq=408 ttl=49 time=170.912 ms
ping_1  | 64 bytes from 218.250.209.212: seq=409 ttl=49 time=170.285 ms
ping_2  | 64 bytes from 218.250.209.212: seq=409 ttl=49 time=170.746 ms
ping_1  | 64 bytes from 218.250.209.212: seq=410 ttl=49 time=171.037 ms
ping_2  | 64 bytes from 218.250.209.212: seq=410 ttl=49 time=172.841 ms
ping_1  | 64 bytes from 218.250.209.212: seq=411 ttl=49 time=170.942 ms
ping_2  | 64 bytes from 218.250.209.212: seq=411 ttl=49 time=171.141 ms
ping_1  | 64 bytes from 218.250.209.212: seq=412 ttl=49 time=171.182 ms
ping_2  | 64 bytes from 218.250.209.212: seq=412 ttl=49 time=171.226 ms
ping_1  | 64 bytes from 218.250.209.212: seq=413 ttl=49 time=170.286 ms
ping_2  | 64 bytes from 218.250.209.212: seq=413 ttl=49 time=171.712 ms
ping_1  | 64 bytes from 218.250.209.212: seq=414 ttl=49 time=172.418 ms
ping_2  | 64 bytes from 218.250.209.212: seq=414 ttl=49 time=171.714 ms
ping_1  | 64 bytes from 218.250.209.212: seq=415 ttl=49 time=172.103 ms
ping_2  | 64 bytes from 218.250.209.212: seq=415 ttl=49 time=172.995 ms
ping_1  | 64 bytes from 218.250.209.212: seq=416 ttl=49 time=170.801 ms
ping_2  | 64 bytes from 218.250.209.212: seq=416 ttl=49 time=170.571 ms
ping_1  | 64 bytes from 218.250.209.212: seq=417 ttl=49 time=173.084 ms
ping_2  | 64 bytes from 218.250.209.212: seq=417 ttl=49 time=170.606 ms
ping_1  | 64 bytes from 218.250.209.212: seq=418 ttl=49 time=170.891 ms
ping_2  | 64 bytes from 218.250.209.212: seq=418 ttl=49 time=170.363 ms
ping_1  | 64 bytes from 218.250.209.212: seq=419 ttl=49 time=171.461 ms
ping_2  | 64 bytes from 218.250.209.212: seq=419 ttl=49 time=171.637 ms
ping_1  | 64 bytes from 218.250.209.212: seq=420 ttl=49 time=170.485 ms
ping_2  | 64 bytes from 218.250.209.212: seq=420 ttl=49 time=171.360 ms
ping_1  | 64 bytes from 218.250.209.212: seq=421 ttl=49 time=170.930 ms
ping_2  | 64 bytes from 218.250.209.212: seq=421 ttl=49 time=171.034 ms
ping_1  | 64 bytes from 218.250.209.212: seq=422 ttl=49 time=170.881 ms
ping_2  | 64 bytes from 218.250.209.212: seq=422 ttl=49 time=170.163 ms
ping_1  | 64 bytes from 218.250.209.212: seq=423 ttl=49 time=170.774 ms
ping_2  | 64 bytes from 218.250.209.212: seq=423 ttl=49 time=170.724 ms
ping_1  | 64 bytes from 218.250.209.212: seq=424 ttl=49 time=170.367 ms
ping_2  | 64 bytes from 218.250.209.212: seq=424 ttl=49 time=170.719 ms
ping_1  | 64 bytes from 218.250.209.212: seq=425 ttl=49 time=171.559 ms
ping_2  | 64 bytes from 218.250.209.212: seq=425 ttl=49 time=172.105 ms
ping_1  | 64 bytes from 218.250.209.212: seq=426 ttl=49 time=171.022 ms
ping_2  | 64 bytes from 218.250.209.212: seq=426 ttl=49 time=169.665 ms
ping_1  | 64 bytes from 218.250.209.212: seq=427 ttl=49 time=170.834 ms
ping_2  | 64 bytes from 218.250.209.212: seq=427 ttl=49 time=170.461 ms
ping_1  | 64 bytes from 218.250.209.212: seq=428 ttl=49 time=169.508 ms
ping_2  | 64 bytes from 218.250.209.212: seq=428 ttl=49 time=170.661 ms
ping_1  | 64 bytes from 218.250.209.212: seq=429 ttl=49 time=170.541 ms
ping_2  | 64 bytes from 218.250.209.212: seq=429 ttl=49 time=170.997 ms
ping_1  | 64 bytes from 218.250.209.212: seq=430 ttl=49 time=170.888 ms
ping_2  | 64 bytes from 218.250.209.212: seq=430 ttl=49 time=171.855 ms
ping_1  | 64 bytes from 218.250.209.212: seq=431 ttl=49 time=170.199 ms
ping_2  | 64 bytes from 218.250.209.212: seq=431 ttl=49 time=171.085 ms
ping_1  | 64 bytes from 218.250.209.212: seq=432 ttl=49 time=170.812 ms
ping_2  | 64 bytes from 218.250.209.212: seq=432 ttl=49 time=170.819 ms
ping_1  | 64 bytes from 218.250.209.212: seq=433 ttl=49 time=173.033 ms
ping_2  | 64 bytes from 218.250.209.212: seq=433 ttl=49 time=170.922 ms
ping_1  | 64 bytes from 218.250.209.212: seq=434 ttl=49 time=171.138 ms
ping_2  | 64 bytes from 218.250.209.212: seq=434 ttl=49 time=171.376 ms
ping_1  | 64 bytes from 218.250.209.212: seq=435 ttl=49 time=170.733 ms
ping_2  | 64 bytes from 218.250.209.212: seq=435 ttl=49 time=170.743 ms
ping_1  | 64 bytes from 218.250.209.212: seq=436 ttl=49 time=170.643 ms
ping_2  | 64 bytes from 218.250.209.212: seq=436 ttl=49 time=171.533 ms
ping_1  | 64 bytes from 218.250.209.212: seq=437 ttl=49 time=170.790 ms
ping_2  | 64 bytes from 218.250.209.212: seq=437 ttl=49 time=170.940 ms
ping_1  | 64 bytes from 218.250.209.212: seq=438 ttl=49 time=170.841 ms
ping_2  | 64 bytes from 218.250.209.212: seq=438 ttl=49 time=170.706 ms
ping_1  | 64 bytes from 218.250.209.212: seq=439 ttl=49 time=173.474 ms
ping_2  | 64 bytes from 218.250.209.212: seq=439 ttl=49 time=170.734 ms
ping_1  | 64 bytes from 218.250.209.212: seq=440 ttl=49 time=169.969 ms
ping_2  | 64 bytes from 218.250.209.212: seq=440 ttl=49 time=170.682 ms
ping_1  | 64 bytes from 218.250.209.212: seq=441 ttl=49 time=170.004 ms
ping_2  | 64 bytes from 218.250.209.212: seq=441 ttl=49 time=171.007 ms
ping_1  | 64 bytes from 218.250.209.212: seq=442 ttl=49 time=171.204 ms
ping_2  | 64 bytes from 218.250.209.212: seq=442 ttl=49 time=170.636 ms
ping_1  | 64 bytes from 218.250.209.212: seq=443 ttl=49 time=170.378 ms
ping_2  | 64 bytes from 218.250.209.212: seq=443 ttl=49 time=170.791 ms
ping_1  | 64 bytes from 218.250.209.212: seq=444 ttl=49 time=170.830 ms
ping_2  | 64 bytes from 218.250.209.212: seq=444 ttl=49 time=170.118 ms
ping_1  | 64 bytes from 218.250.209.212: seq=445 ttl=49 time=170.603 ms
ping_2  | 64 bytes from 218.250.209.212: seq=445 ttl=49 time=170.586 ms
ping_1  | 64 bytes from 218.250.209.212: seq=446 ttl=49 time=170.496 ms
ping_2  | 64 bytes from 218.250.209.212: seq=446 ttl=49 time=170.174 ms
ping_1  | 64 bytes from 218.250.209.212: seq=447 ttl=49 time=170.765 ms
ping_2  | 64 bytes from 218.250.209.212: seq=447 ttl=49 time=172.109 ms
ping_1  | 64 bytes from 218.250.209.212: seq=448 ttl=49 time=170.728 ms
ping_2  | 64 bytes from 218.250.209.212: seq=448 ttl=49 time=171.591 ms
ping_1  | 64 bytes from 218.250.209.212: seq=449 ttl=49 time=170.862 ms
ping_2  | 64 bytes from 218.250.209.212: seq=449 ttl=49 time=170.939 ms
ping_1  | 64 bytes from 218.250.209.212: seq=450 ttl=49 time=170.110 ms
ping_2  | 64 bytes from 218.250.209.212: seq=450 ttl=49 time=171.399 ms
ping_1  | 64 bytes from 218.250.209.212: seq=451 ttl=49 time=170.488 ms
ping_2  | 64 bytes from 218.250.209.212: seq=451 ttl=49 time=170.297 ms
ping_1  | 64 bytes from 218.250.209.212: seq=452 ttl=49 time=170.370 ms
ping_2  | 64 bytes from 218.250.209.212: seq=452 ttl=49 time=170.443 ms
ping_1  | 64 bytes from 218.250.209.212: seq=453 ttl=49 time=171.706 ms
ping_2  | 64 bytes from 218.250.209.212: seq=453 ttl=49 time=171.540 ms
ping_1  | 64 bytes from 218.250.209.212: seq=454 ttl=49 time=170.816 ms
ping_2  | 64 bytes from 218.250.209.212: seq=454 ttl=49 time=171.321 ms
ping_1  | 64 bytes from 218.250.209.212: seq=455 ttl=49 time=169.911 ms
ping_2  | 64 bytes from 218.250.209.212: seq=455 ttl=49 time=171.620 ms
ping_1  | 64 bytes from 218.250.209.212: seq=456 ttl=49 time=173.317 ms
ping_2  | 64 bytes from 218.250.209.212: seq=456 ttl=49 time=178.546 ms
ping_1  | 64 bytes from 218.250.209.212: seq=457 ttl=49 time=175.008 ms
ping_2  | 64 bytes from 218.250.209.212: seq=457 ttl=49 time=178.765 ms
ping_1  | 64 bytes from 218.250.209.212: seq=458 ttl=49 time=174.683 ms
ping_2  | 64 bytes from 218.250.209.212: seq=458 ttl=49 time=175.478 ms
ping_1  | 64 bytes from 218.250.209.212: seq=459 ttl=49 time=175.438 ms
ping_2  | 64 bytes from 218.250.209.212: seq=459 ttl=49 time=175.077 ms
ping_1  | 64 bytes from 218.250.209.212: seq=460 ttl=49 time=171.489 ms
ping_2  | 64 bytes from 218.250.209.212: seq=460 ttl=49 time=170.547 ms
ping_1  | 64 bytes from 218.250.209.212: seq=461 ttl=49 time=171.748 ms
ping_2  | 64 bytes from 218.250.209.212: seq=461 ttl=49 time=170.661 ms
ping_1  | 64 bytes from 218.250.209.212: seq=462 ttl=49 time=170.399 ms
ping_2  | 64 bytes from 218.250.209.212: seq=462 ttl=49 time=169.766 ms
ping_1  | 64 bytes from 218.250.209.212: seq=463 ttl=49 time=170.408 ms
ping_2  | 64 bytes from 218.250.209.212: seq=463 ttl=49 time=170.781 ms
ping_1  | 64 bytes from 218.250.209.212: seq=464 ttl=49 time=170.815 ms
ping_2  | 64 bytes from 218.250.209.212: seq=464 ttl=49 time=171.198 ms
ping_1  | 64 bytes from 218.250.209.212: seq=465 ttl=49 time=171.042 ms
ping_2  | 64 bytes from 218.250.209.212: seq=465 ttl=49 time=173.151 ms
ping_1  | 64 bytes from 218.250.209.212: seq=466 ttl=49 time=171.875 ms
ping_2  | 64 bytes from 218.250.209.212: seq=466 ttl=49 time=170.948 ms
ping_1  | 64 bytes from 218.250.209.212: seq=467 ttl=49 time=170.806 ms
ping_2  | 64 bytes from 218.250.209.212: seq=467 ttl=49 time=170.784 ms
ping_1  | 64 bytes from 218.250.209.212: seq=468 ttl=49 time=170.877 ms
ping_2  | 64 bytes from 218.250.209.212: seq=468 ttl=49 time=170.522 ms
ping_1  | 64 bytes from 218.250.209.212: seq=469 ttl=49 time=170.138 ms
ping_2  | 64 bytes from 218.250.209.212: seq=469 ttl=49 time=170.443 ms
ping_1  | 64 bytes from 218.250.209.212: seq=470 ttl=49 time=170.020 ms
ping_2  | 64 bytes from 218.250.209.212: seq=470 ttl=49 time=170.107 ms
ping_1  | 64 bytes from 218.250.209.212: seq=471 ttl=49 time=172.105 ms
ping_2  | 64 bytes from 218.250.209.212: seq=471 ttl=49 time=170.853 ms
ping_1  | 64 bytes from 218.250.209.212: seq=472 ttl=49 time=174.461 ms
ping_2  | 64 bytes from 218.250.209.212: seq=472 ttl=49 time=170.370 ms
ping_1  | 64 bytes from 218.250.209.212: seq=473 ttl=49 time=170.633 ms
ping_2  | 64 bytes from 218.250.209.212: seq=473 ttl=49 time=171.969 ms
ping_1  | 64 bytes from 218.250.209.212: seq=474 ttl=49 time=170.644 ms
ping_2  | 64 bytes from 218.250.209.212: seq=474 ttl=49 time=170.458 ms
ping_1  | 64 bytes from 218.250.209.212: seq=475 ttl=49 time=170.394 ms
ping_2  | 64 bytes from 218.250.209.212: seq=475 ttl=49 time=171.437 ms
ping_1  | 64 bytes from 218.250.209.212: seq=476 ttl=49 time=171.076 ms
ping_2  | 64 bytes from 218.250.209.212: seq=476 ttl=49 time=171.615 ms
ping_1  | 64 bytes from 218.250.209.212: seq=477 ttl=49 time=170.994 ms
ping_2  | 64 bytes from 218.250.209.212: seq=477 ttl=49 time=169.833 ms
ping_1  | 64 bytes from 218.250.209.212: seq=478 ttl=49 time=171.617 ms
ping_2  | 64 bytes from 218.250.209.212: seq=478 ttl=49 time=171.562 ms
ping_1  | 64 bytes from 218.250.209.212: seq=479 ttl=49 time=171.384 ms
ping_2  | 64 bytes from 218.250.209.212: seq=479 ttl=49 time=171.868 ms
ping_1  | 64 bytes from 218.250.209.212: seq=480 ttl=49 time=172.092 ms
ping_2  | 64 bytes from 218.250.209.212: seq=480 ttl=49 time=170.877 ms
ping_1  | 64 bytes from 218.250.209.212: seq=481 ttl=49 time=171.683 ms
ping_2  | 64 bytes from 218.250.209.212: seq=481 ttl=49 time=170.387 ms
ping_1  | 64 bytes from 218.250.209.212: seq=482 ttl=49 time=170.937 ms
ping_2  | 64 bytes from 218.250.209.212: seq=482 ttl=49 time=170.934 ms
ping_1  | 64 bytes from 218.250.209.212: seq=483 ttl=49 time=170.572 ms
ping_2  | 64 bytes from 218.250.209.212: seq=483 ttl=49 time=171.150 ms
ping_1  | 64 bytes from 218.250.209.212: seq=484 ttl=49 time=169.641 ms
ping_2  | 64 bytes from 218.250.209.212: seq=484 ttl=49 time=170.502 ms
ping_1  | 64 bytes from 218.250.209.212: seq=485 ttl=49 time=170.983 ms
ping_2  | 64 bytes from 218.250.209.212: seq=485 ttl=49 time=170.838 ms
ping_1  | 64 bytes from 218.250.209.212: seq=486 ttl=49 time=170.172 ms
ping_2  | 64 bytes from 218.250.209.212: seq=486 ttl=49 time=170.551 ms
ping_1  | 64 bytes from 218.250.209.212: seq=487 ttl=49 time=170.910 ms
ping_2  | 64 bytes from 218.250.209.212: seq=487 ttl=49 time=170.459 ms
ping_1  | 64 bytes from 218.250.209.212: seq=488 ttl=49 time=170.504 ms
ping_2  | 64 bytes from 218.250.209.212: seq=488 ttl=49 time=170.436 ms
ping_1  | 64 bytes from 218.250.209.212: seq=489 ttl=49 time=170.531 ms
ping_2  | 64 bytes from 218.250.209.212: seq=489 ttl=49 time=170.710 ms
ping_1  | 64 bytes from 218.250.209.212: seq=490 ttl=49 time=170.671 ms
ping_2  | 64 bytes from 218.250.209.212: seq=490 ttl=49 time=170.438 ms
ping_1  | 64 bytes from 218.250.209.212: seq=491 ttl=49 time=170.432 ms
ping_2  | 64 bytes from 218.250.209.212: seq=491 ttl=49 time=170.981 ms
ping_1  | 64 bytes from 218.250.209.212: seq=492 ttl=49 time=170.611 ms
ping_2  | 64 bytes from 218.250.209.212: seq=492 ttl=49 time=171.171 ms
ping_1  | 64 bytes from 218.250.209.212: seq=493 ttl=49 time=171.011 ms
ping_2  | 64 bytes from 218.250.209.212: seq=493 ttl=49 time=170.296 ms
ping_1  | 64 bytes from 218.250.209.212: seq=494 ttl=49 time=169.826 ms
ping_2  | 64 bytes from 218.250.209.212: seq=494 ttl=49 time=170.873 ms
ping_1  | 64 bytes from 218.250.209.212: seq=495 ttl=49 time=170.613 ms
ping_2  | 64 bytes from 218.250.209.212: seq=495 ttl=49 time=172.079 ms
ping_1  | 64 bytes from 218.250.209.212: seq=496 ttl=49 time=170.517 ms
ping_2  | 64 bytes from 218.250.209.212: seq=496 ttl=49 time=170.479 ms
ping_1  | 64 bytes from 218.250.209.212: seq=497 ttl=49 time=172.180 ms
ping_2  | 64 bytes from 218.250.209.212: seq=497 ttl=49 time=170.682 ms
ping_1  | 64 bytes from 218.250.209.212: seq=498 ttl=49 time=171.794 ms
ping_2  | 64 bytes from 218.250.209.212: seq=498 ttl=49 time=171.087 ms
ping_1  | 64 bytes from 218.250.209.212: seq=499 ttl=49 time=170.572 ms
ping_1  | 
ping_1  | --- futuredeus.ddns.net ping statistics ---
ping_1  | 500 packets transmitted, 500 packets received, 0% packet loss
ping_1  | round-trip min/avg/max = 169.318/171.791/190.856 ms
softwareoverhead_ping_1 exited with code 0
ping_2  | 64 bytes from 218.250.209.212: seq=499 ttl=49 time=171.152 ms
ping_2  | 
ping_2  | --- futuredeus.ddns.net ping statistics ---
ping_2  | 500 packets transmitted, 499 packets received, 0% packet loss
ping_2  | round-trip min/avg/max = 169.589/171.966/193.146 ms
softwareoverhead_ping_2 exited with code 0
