     1	1348276 
     2	1348276 
     3	1348276 
     4	1348792 
     5	1348792 
     6	1348792 
     7	1348820 
     8	1348820 
     9	1348820 
    10	1348836 
    11	1348836 
    12	1348836 
    13	1348816 
    14	1348816 
    15	1348816 
    16	1348864 
    17	1348864 
    18	1348864 
    19	1348856 
    20	1348856 
    21	1348856 
    22	1348844 
    23	1348844 
    24	1348844 
    25	1348860 
    26	1348860 
    27	1348860 
    28	1348860 
    29	1348860 
    30	1348860 
    31	1348872 
    32	1348872 
    33	1348872 
    34	1348904 
    35	1348904 
    36	1348904 
    37	1348928 
    38	1348928 
    39	1348928 
    40	1348988 
    41	1348988 
    42	1348988 
    43	1348976 
    44	1348976 
    45	1348976 
    46	1349008 
    47	1349008 
    48	1349008 
    49	1348980 
    50	1348980 
