     1	296 
     2	297 
     3	297 
     4	316 
     5	367 
     6	426 
     7	498 
     8	586 
     9	684 
    10	717 
    11	733 
    12	740 
    13	745 
    14	756 
    15	748 
    16	759 
    17	752 
    18	750 
    19	746 
    20	745 
    21	747 
    22	756 
    23	749 
    24	751 
    25	741 
    26	750 
    27	754 
    28	758 
    29	754 
    30	742 
    31	727 
    32	713 
    33	699 
    34	667 
    35	644 
    36	613 
    37	587 
    38	565 
    39	531 
    40	499 
    41	477 
    42	453 
    43	433 
    44	403 
    45	388 
    46	370 
    47	354 
    48	331 
    49	324 
    50	331 
    51	346 
    52	373 
    53	389 
    54	427 
    55	468 
    56	520 
    57	572 
    58	622 
    59	646 
    60	682 
    61	712 
    62	726 
    63	742 
    64	730 
    65	752 
    66	749 
    67	749 
    68	750 
    69	762 
    70	751 
    71	763 
    72	749 
    73	746 
    74	761 
    75	757 
    76	753 
    77	757 
    78	758 
    79	746 
    80	723 
    81	715 
    82	701 
    83	679 
    84	658 
    85	636 
    86	621 
    87	592 
    88	574 
    89	556 
    90	533 
    91	516 
    92	497 
    93	488 
    94	472 
    95	459 
    96	445 
    97	429 
    98	423 
    99	411 
   100	402 
   101	393 
   102	381 
   103	373 
   104	366 
   105	359 
   106	352 
   107	345 
   108	336 
   109	329 
   110	323 
   111	316 
   112	313 
   113	309 
   114	305 
   115	303 
