top - 14:43:29 up  1:18,  1 user,  load average: 0.08, 0.08, 0.60
Tasks: 478 total,   1 running, 416 sleeping,   0 stopped,   0 zombie
%Cpu(s):  2.8 us,  1.6 sy,  0.0 ni, 95.6 id,  0.1 wa,  0.0 hi,  0.0 si,  0.0 st
KiB Mem : 16278772 total, 13489328 free,  1495912 used,  1293532 buff/cache
KiB Swap: 16630780 total, 16630780 free,        0 used. 14373436 avail Mem 

  PID USER      PR  NI    VIRT    RES    SHR S  %CPU %MEM     TIME+ COMMAND
  692 systemd+  20   0   71256   6696   5504 S  36.8  0.0   0:03.42 systemd-re+
   28 root      20   0       0      0      0 S  21.1  0.0   0:00.71 ksoftirqd/3
26507 kenenth   20   0   41908   3692   3100 R  10.5  0.0   0:00.04 top

top - 14:43:30 up  1:18,  1 user,  load average: 0.07, 0.07, 0.60
Tasks: 478 total,   1 running, 416 sleeping,   0 stopped,   0 zombie
%Cpu(s):  0.2 us,  0.7 sy,  0.0 ni, 98.7 id,  0.0 wa,  0.0 hi,  0.4 si,  0.0 st
KiB Mem : 16278772 total, 13489328 free,  1495912 used,  1293532 buff/cache
KiB Swap: 16630780 total, 16630780 free,        0 used. 14373436 avail Mem 

  PID USER      PR  NI    VIRT    RES    SHR S  %CPU %MEM     TIME+ COMMAND
26507 kenenth   20   0   42040   3952   3100 R   3.8  0.0   0:00.08 top
   28 root      20   0       0      0      0 S   1.9  0.0   0:00.73 ksoftirqd/3
  920 avahi     20   0   48208   4760   3308 S   1.0  0.0   0:07.23 avahi-daem+
  937 root      20   0  269672   5864   5120 S   1.0  0.0   0:00.88 iio-sensor+
 2178 root      20   0  469124 128872  61656 S   1.0  0.8   0:27.22 Xorg

top - 14:43:31 up  1:18,  1 user,  load average: 0.07, 0.07, 0.60
Tasks: 478 total,   1 running, 416 sleeping,   0 stopped,   0 zombie
%Cpu(s):  0.2 us,  0.7 sy,  0.0 ni, 98.7 id,  0.0 wa,  0.0 hi,  0.4 si,  0.0 st
KiB Mem : 16278772 total, 13489328 free,  1495912 used,  1293532 buff/cache
KiB Swap: 16630780 total, 16630780 free,        0 used. 14373436 avail Mem 

  PID USER      PR  NI    VIRT    RES    SHR S  %CPU %MEM     TIME+ COMMAND
   28 root      20   0       0      0      0 S   2.9  0.0   0:00.76 ksoftirqd/3
26507 kenenth   20   0   42040   3952   3100 R   2.9  0.0   0:00.11 top
 1318 gdm       20   0  730068  31000  23232 S   1.0  0.2   0:00.67 gsd-color
 2179 root     -51   0       0      0      0 S   1.0  0.0   0:03.40 irq/142-nv+
 2390 kenenth   20   0 3566072 277064  91588 S   1.0  1.7   0:55.67 gnome-shell

top - 14:43:32 up  1:18,  1 user,  load average: 0.07, 0.07, 0.60
Tasks: 478 total,   1 running, 416 sleeping,   0 stopped,   0 zombie
%Cpu(s):  0.2 us,  0.7 sy,  0.0 ni, 98.6 id,  0.0 wa,  0.0 hi,  0.5 si,  0.0 st
KiB Mem : 16278772 total, 13488452 free,  1496556 used,  1293764 buff/cache
KiB Swap: 16630780 total, 16630780 free,        0 used. 14372648 avail Mem 

  PID USER      PR  NI    VIRT    RES    SHR S  %CPU %MEM     TIME+ COMMAND
26507 kenenth   20   0   42040   3952   3100 R   4.8  0.0   0:00.16 top
   28 root      20   0       0      0      0 S   2.9  0.0   0:00.79 ksoftirqd/3
 2178 root      20   0  469124 128872  61656 S   1.0  0.8   0:27.23 Xorg