     1	1384732 
     2	1384732 
     3	1384732 
     4	1384800 
     5	1384800 
     6	1384800 
     7	1384852 
     8	1384852 
     9	1384852 
    10	1384828 
    11	1384828 
    12	1384828 
    13	1384908 
    14	1384908 
    15	1384908 
    16	1384852 
    17	1384852 
    18	1384852 
    19	1384928 
    20	1384928 
    21	1384928 
    22	1384876 
    23	1384876 
    24	1384876 
    25	1384952 
    26	1384952 
    27	1384952 
    28	1385052 
    29	1385052 
    30	1385052 
    31	1385100 
    32	1385100 
    33	1385100 
    34	1385080 
    35	1385080 
    36	1385084 
    37	1385084 
    38	1385084 
    39	1385128 
    40	1385128 
    41	1385128 
    42	1385104 
    43	1385104 
    44	1385104 
    45	1385184 
    46	1385184 
    47	1385184 
    48	1385180 
    49	1385180 
    50	1385180 
    51	1385172 
    52	1385172 
    53	1385172 
    54	1385184 
    55	1385184 
    56	1385184 
    57	1385224 
    58	1385224 
    59	1385224 
    60	1385256 
    61	1385256 
    62	1385256 
    63	1385248 
    64	1385248 
    65	1385248 
    66	1385228 
    67	1385228 
    68	1385228 
    69	1385300 
    70	1385300 
    71	1385300 
    72	1385340 
    73	1385340 
    74	1385340 
    75	1385356 
    76	1385356 
    77	1385356 
    78	1385288 
    79	1385288 
    80	1385288 
    81	1385384 
    82	1385384 
    83	1385384 
    84	1385344 
    85	1385344 
    86	1385344 
    87	1385340 
    88	1385340 
    89	1385340 
    90	1385368 
    91	1385368 
    92	1385368 
    93	1385428 
    94	1385428 
    95	1385428 
    96	1385384 
    97	1385384 
    98	1385384 
