top - 18:49:31 up  1:05,  1 user,  load average: 0.00, 0.42, 1.25
Tasks: 319 total,   2 running, 256 sleeping,   0 stopped,   0 zombie
%Cpu(s):  3.3 us,  1.8 sy,  0.0 ni, 94.9 id,  0.1 wa,  0.0 hi,  0.0 si,  0.0 st
KiB Mem : 16278772 total, 13155784 free,  1372324 used,  1750664 buff/cache
KiB Swap: 16630780 total, 16630780 free,        0 used. 14456248 avail Mem 

  PID USER      PR  NI    VIRT    RES    SHR S  %CPU %MEM     TIME+ COMMAND
26976 kenenth   20   0   41908   3624   3024 R  17.6  0.0   0:00.04 top
    8 root      20   0       0      0      0 I   5.9  0.0   0:02.51 rcu_sched
  696 systemd+  20   0   71244   6424   5348 R   5.9  0.0   0:03.28 systemd-resolve
 2192 root      20   0  433352  93656  61704 S   5.9  0.6   0:23.92 Xorg
 2398 kenenth   20   0 3531420 237220  90416 S   5.9  1.5   0:58.19 gnome-shell

top - 18:49:32 up  1:05,  1 user,  load average: 0.00, 0.41, 1.25
Tasks: 319 total,   1 running, 257 sleeping,   0 stopped,   0 zombie
%Cpu(s):  0.4 us,  0.2 sy,  0.0 ni, 99.4 id,  0.0 wa,  0.0 hi,  0.0 si,  0.0 st
KiB Mem : 16278772 total, 13155784 free,  1372324 used,  1750664 buff/cache
KiB Swap: 16630780 total, 16630780 free,        0 used. 14456248 avail Mem 

  PID USER      PR  NI    VIRT    RES    SHR S  %CPU %MEM     TIME+ COMMAND
26976 kenenth   20   0   41908   3624   3024 R   1.9  0.0   0:00.06 top
 2192 root      20   0  433352  93656  61704 S   1.0  0.6   0:23.93 Xorg
 2193 root     -51   0       0      0      0 S   1.0  0.0   0:03.36 irq/135-nvidia
 2398 kenenth   20   0 3531420 237220  90416 S   1.0  1.5   0:58.20 gnome-shell
 3367 kenenth   20   0  792980  37608  28000 S   1.0  0.2   0:03.31 gnome-terminal-

top - 18:49:33 up  1:05,  1 user,  load average: 0.00, 0.41, 1.25
Tasks: 319 total,   1 running, 257 sleeping,   0 stopped,   0 zombie
%Cpu(s):  0.2 us,  0.2 sy,  0.0 ni, 99.5 id,  0.0 wa,  0.0 hi,  0.0 si,  0.0 st
KiB Mem : 16278772 total, 13155784 free,  1372324 used,  1750664 buff/cache
KiB Swap: 16630780 total, 16630780 free,        0 used. 14456248 avail Mem 

  PID USER      PR  NI    VIRT    RES    SHR S  %CPU %MEM     TIME+ COMMAND
 4895 root      20   0       0      0      0 I   1.0  0.0   0:00.63 kworker/u16:2
26976 kenenth   20   0   41908   3624   3024 R   1.0  0.0   0:00.07 top

top - 18:49:34 up  1:05,  1 user,  load average: 0.00, 0.41, 1.25
Tasks: 319 total,   1 running, 257 sleeping,   0 stopped,   0 zombie
%Cpu(s):  0.1 us,  0.4 sy,  0.0 ni, 99.5 id,  0.0 wa,  0.0 hi,  0.0 si,  0.0 st
KiB Mem : 16278772 total, 13154700 free,  1373352 used,  1750720 buff/cache
KiB Swap: 16630780 total, 16630780 free,        0 used. 14455248 avail Mem 

  PID USER      PR  NI    VIRT    RES    SHR S  %CPU %MEM     TIME+ COMMAND
 1124 root      20   0 4980128  39356  25464 S   1.0  0.2   0:21.13 containerd
 2192 root      20   0  433352  93656  61704 S   1.0  0.6   0:23.94 Xorg
 2398 kenenth   20   0 3531420 237220  90416 S   1.0  1.5   0:58.21 gnome-shell
26976 kenenth   20   0   41908   3624   3024 R   1.0  0.0   0:00.08 top

top - 18:49:35 up  1:05,  1 user,  load average: 0.00, 0.41, 1.25
Tasks: 319 total,   1 running, 257 sleeping,   0 stopped,   0 zombie
%Cpu(s):  0.2 us,  0.1 sy,  0.0 ni, 99.5 id,  0.0 wa,  0.0 hi,  0.1 si,  0.0 st
KiB Mem : 16278772 total, 13154700 free,  1373352 used,  1750720 buff/cache
KiB Swap: 16630780 total, 16630780 free,        0 used. 14455248 avail Mem 

  PID USER      PR  NI    VIRT    RES    SHR S  %CPU %MEM     TIME+ COMMAND
  312 root       0 -20       0      0      0 I   1.0  0.0   0:00.08 kworker/1:1H
  962 root      20   0  179856   9624   8808 S   1.0  0.1   0:03.13 thermald
 2192 root      20   0  433352  93656  61704 S   1.0  0.6   0:23.95 Xorg
26976 kenenth   20   0   41908   3624   3024 R   1.0  0.0   0:00.09 top

top - 18:49:36 up  1:05,  1 user,  load average: 0.00, 0.41, 1.25
Tasks: 319 total,   1 running, 257 sleeping,   0 stopped,   0 zombie
%Cpu(s):  0.1 us,  0.2 sy,  0.0 ni, 99.6 id,  0.0 wa,  0.0 hi,  0.0 si,  0.0 st
KiB Mem : 16278772 total, 13154700 free,  1373352 used,  1750720 buff/cache
KiB Swap: 16630780 total, 16630780 free,        0 used. 14455248 avail Mem 

  PID USER      PR  NI    VIRT    RES    SHR S  %CPU %MEM     TIME+ COMMAND
 2193 root     -51   0       0      0      0 S   1.0  0.0   0:03.37 irq/135-nvidia
 2398 kenenth   20   0 3531420 237220  90416 S   1.0  1.5   0:58.22 gnome-shell
 3367 kenenth   20   0  792980  37608  28000 S   1.0  0.2   0:03.32 gnome-terminal-
26976 kenenth   20   0   41908   3624   3024 R   1.0  0.0   0:00.10 top

top - 18:49:37 up  1:05,  1 user,  load average: 0.00, 0.40, 1.24
Tasks: 319 total,   1 running, 257 sleeping,   0 stopped,   0 zombie
%Cpu(s):  0.1 us,  0.2 sy,  0.0 ni, 99.6 id,  0.0 wa,  0.0 hi,  0.0 si,  0.0 st
KiB Mem : 16278772 total, 13154792 free,  1373248 used,  1750732 buff/cache
KiB Swap: 16630780 total, 16630780 free,        0 used. 14455340 avail Mem 

  PID USER      PR  NI    VIRT    RES    SHR S  %CPU %MEM     TIME+ COMMAND
26976 kenenth   20   0   41908   3624   3024 R   2.0  0.0   0:00.12 top
 2192 root      20   0  433352  93656  61704 S   1.0  0.6   0:23.96 Xorg

top - 18:49:38 up  1:05,  1 user,  load average: 0.00, 0.40, 1.24
Tasks: 319 total,   1 running, 257 sleeping,   0 stopped,   0 zombie
%Cpu(s):  0.1 us,  0.2 sy,  0.0 ni, 99.6 id,  0.0 wa,  0.0 hi,  0.0 si,  0.0 st
KiB Mem : 16278772 total, 13154792 free,  1373248 used,  1750732 buff/cache
KiB Swap: 16630780 total, 16630780 free,        0 used. 14455340 avail Mem 

  PID USER      PR  NI    VIRT    RES    SHR S  %CPU %MEM     TIME+ COMMAND
 2398 kenenth   20   0 3531420 237220  90416 S   2.0  1.5   0:58.24 gnome-shell
  626 root      20   0       0      0      0 I   1.0  0.0   0:00.40 kworker/5:1
 2192 root      20   0  433352  93656  61704 S   1.0  0.6   0:23.97 Xorg
26976 kenenth   20   0   41908   3624   3024 R   1.0  0.0   0:00.13 top

top - 18:49:39 up  1:05,  1 user,  load average: 0.00, 0.40, 1.24
Tasks: 319 total,   1 running, 257 sleeping,   0 stopped,   0 zombie
%Cpu(s):  0.1 us,  0.5 sy,  0.0 ni, 99.4 id,  0.0 wa,  0.0 hi,  0.0 si,  0.0 st
KiB Mem : 16278772 total, 13154792 free,  1373248 used,  1750732 buff/cache
KiB Swap: 16630780 total, 16630780 free,        0 used. 14455340 avail Mem 

  PID USER      PR  NI    VIRT    RES    SHR S  %CPU %MEM     TIME+ COMMAND
 2192 root      20   0  433352  93656  61704 S   1.0  0.6   0:23.98 Xorg
26976 kenenth   20   0   41908   3624   3024 R   1.0  0.0   0:00.14 top

top - 18:49:40 up  1:05,  1 user,  load average: 0.00, 0.40, 1.24
Tasks: 319 total,   1 running, 257 sleeping,   0 stopped,   0 zombie
%Cpu(s):  0.2 us,  0.4 sy,  0.0 ni, 99.3 id,  0.1 wa,  0.0 hi,  0.0 si,  0.0 st
KiB Mem : 16278772 total, 13154776 free,  1373248 used,  1750748 buff/cache
KiB Swap: 16630780 total, 16630780 free,        0 used. 14455328 avail Mem 

  PID USER      PR  NI    VIRT    RES    SHR S  %CPU %MEM     TIME+ COMMAND
   34 root      20   0       0      0      0 S   1.0  0.0   0:00.72 ksoftirqd/4
 2193 root     -51   0       0      0      0 S   1.0  0.0   0:03.38 irq/135-nvidia
 2398 kenenth   20   0 3531420 237220  90416 S   1.0  1.5   0:58.25 gnome-shell
26976 kenenth   20   0   41908   3624   3024 R   1.0  0.0   0:00.15 top

top - 18:49:41 up  1:05,  1 user,  load average: 0.00, 0.40, 1.24
Tasks: 319 total,   1 running, 257 sleeping,   0 stopped,   0 zombie
%Cpu(s):  0.0 us,  0.4 sy,  0.0 ni, 99.6 id,  0.0 wa,  0.0 hi,  0.0 si,  0.0 st
KiB Mem : 16278772 total, 13154776 free,  1373248 used,  1750748 buff/cache
KiB Swap: 16630780 total, 16630780 free,        0 used. 14455328 avail Mem 

  PID USER      PR  NI    VIRT    RES    SHR S  %CPU %MEM     TIME+ COMMAND
26976 kenenth   20   0   41908   3624   3024 R   2.0  0.0   0:00.17 top
 1771 root      20   0 6052912 102592  37972 S   1.0  0.6   1:18.20 dockerd
 2192 root      20   0  433352  93656  61704 S   1.0  0.6   0:23.99 Xorg

top - 18:49:42 up  1:05,  1 user,  load average: 0.00, 0.39, 1.23
Tasks: 319 total,   1 running, 257 sleeping,   0 stopped,   0 zombie
%Cpu(s):  0.2 us,  0.0 sy,  0.0 ni, 99.8 id,  0.0 wa,  0.0 hi,  0.0 si,  0.0 st
KiB Mem : 16278772 total, 13154776 free,  1373248 used,  1750748 buff/cache
KiB Swap: 16630780 total, 16630780 free,        0 used. 14455328 avail Mem 

  PID USER      PR  NI    VIRT    RES    SHR S  %CPU %MEM     TIME+ COMMAND
 2398 kenenth   20   0 3531420 237220  90416 S   1.0  1.5   0:58.26 gnome-shell
26976 kenenth   20   0   41908   3624   3024 R   1.0  0.0   0:00.18 top

top - 18:49:43 up  1:05,  1 user,  load average: 0.00, 0.39, 1.23
Tasks: 319 total,   1 running, 257 sleeping,   0 stopped,   0 zombie
%Cpu(s):  0.1 us,  0.4 sy,  0.0 ni, 99.4 id,  0.0 wa,  0.0 hi,  0.1 si,  0.0 st
KiB Mem : 16278772 total, 13154760 free,  1373244 used,  1750768 buff/cache
KiB Swap: 16630780 total, 16630780 free,        0 used. 14455312 avail Mem 

  PID USER      PR  NI    VIRT    RES    SHR S  %CPU %MEM     TIME+ COMMAND
 2192 root      20   0  433352  93656  61704 S   1.0  0.6   0:24.00 Xorg
26976 kenenth   20   0   41908   3624   3024 R   1.0  0.0   0:00.19 top

top - 18:49:44 up  1:05,  1 user,  load average: 0.00, 0.39, 1.23
Tasks: 319 total,   1 running, 257 sleeping,   0 stopped,   0 zombie
%Cpu(s):  0.1 us,  0.4 sy,  0.0 ni, 99.5 id,  0.0 wa,  0.0 hi,  0.0 si,  0.0 st
KiB Mem : 16278772 total, 13154760 free,  1373244 used,  1750768 buff/cache
KiB Swap: 16630780 total, 16630780 free,        0 used. 14455312 avail Mem 

  PID USER      PR  NI    VIRT    RES    SHR S  %CPU %MEM     TIME+ COMMAND
26976 kenenth   20   0   41908   3624   3024 R   2.9  0.0   0:00.22 top
 1124 root      20   0 4980128  39356  25464 S   1.0  0.2   0:21.14 containerd
 2192 root      20   0  433352  93656  61704 S   1.0  0.6   0:24.01 Xorg

top - 18:49:45 up  1:05,  1 user,  load average: 0.00, 0.39, 1.23
Tasks: 319 total,   1 running, 257 sleeping,   0 stopped,   0 zombie
%Cpu(s):  0.0 us,  0.2 sy,  0.0 ni, 99.8 id,  0.0 wa,  0.0 hi,  0.0 si,  0.0 st
KiB Mem : 16278772 total, 13154760 free,  1373244 used,  1750768 buff/cache
KiB Swap: 16630780 total, 16630780 free,        0 used. 14455312 avail Mem 

  PID USER      PR  NI    VIRT    RES    SHR S  %CPU %MEM     TIME+ COMMAND
26976 kenenth   20   0   41908   3624   3024 R   1.0  0.0   0:00.23 top

top - 18:49:46 up  1:05,  1 user,  load average: 0.00, 0.39, 1.23
Tasks: 319 total,   1 running, 257 sleeping,   0 stopped,   0 zombie
%Cpu(s):  0.2 us,  0.1 sy,  0.0 ni, 99.6 id,  0.0 wa,  0.0 hi,  0.0 si,  0.0 st
KiB Mem : 16278772 total, 13154736 free,  1373260 used,  1750776 buff/cache
KiB Swap: 16630780 total, 16630780 free,        0 used. 14455288 avail Mem 

  PID USER      PR  NI    VIRT    RES    SHR S  %CPU %MEM     TIME+ COMMAND
26976 kenenth   20   0   41908   3624   3024 R   1.0  0.0   0:00.24 top

top - 18:49:47 up  1:05,  1 user,  load average: 0.00, 0.39, 1.22
Tasks: 319 total,   1 running, 257 sleeping,   0 stopped,   0 zombie
%Cpu(s):  0.1 us,  0.1 sy,  0.0 ni, 99.8 id,  0.0 wa,  0.0 hi,  0.0 si,  0.0 st
KiB Mem : 16278772 total, 13154736 free,  1373260 used,  1750776 buff/cache
KiB Swap: 16630780 total, 16630780 free,        0 used. 14455288 avail Mem 

  PID USER      PR  NI    VIRT    RES    SHR S  %CPU %MEM     TIME+ COMMAND
 2192 root      20   0  433352  93656  61704 S   1.0  0.6   0:24.02 Xorg
26976 kenenth   20   0   41908   3624   3024 R   1.0  0.0   0:00.25 top

top - 18:49:48 up  1:05,  1 user,  load average: 0.00, 0.39, 1.22
Tasks: 319 total,   1 running, 257 sleeping,   0 stopped,   0 zombie
%Cpu(s):  0.1 us,  0.2 sy,  0.0 ni, 99.6 id,  0.0 wa,  0.0 hi,  0.0 si,  0.0 st
KiB Mem : 16278772 total, 13154736 free,  1373260 used,  1750776 buff/cache
KiB Swap: 16630780 total, 16630780 free,        0 used. 14455288 avail Mem 

  PID USER      PR  NI    VIRT    RES    SHR S  %CPU %MEM     TIME+ COMMAND
 2192 root      20   0  433352  93656  61704 S   1.0  0.6   0:24.03 Xorg
26976 kenenth   20   0   41908   3624   3024 R   1.0  0.0   0:00.26 top

top - 18:49:49 up  1:06,  1 user,  load average: 0.00, 0.39, 1.22
Tasks: 319 total,   1 running, 257 sleeping,   0 stopped,   0 zombie
%Cpu(s):  0.2 us,  0.2 sy,  0.0 ni, 99.5 id,  0.0 wa,  0.0 hi,  0.0 si,  0.0 st
KiB Mem : 16278772 total, 13154728 free,  1373256 used,  1750788 buff/cache
KiB Swap: 16630780 total, 16630780 free,        0 used. 14455296 avail Mem 

  PID USER      PR  NI    VIRT    RES    SHR S  %CPU %MEM     TIME+ COMMAND
26976 kenenth   20   0   41908   3624   3024 R   1.0  0.0   0:00.27 top

top - 18:49:50 up  1:06,  1 user,  load average: 0.00, 0.39, 1.22
Tasks: 319 total,   1 running, 257 sleeping,   0 stopped,   0 zombie
%Cpu(s):  0.0 us,  0.0 sy,  0.0 ni,100.0 id,  0.0 wa,  0.0 hi,  0.0 si,  0.0 st
KiB Mem : 16278772 total, 13154728 free,  1373256 used,  1750788 buff/cache
KiB Swap: 16630780 total, 16630780 free,        0 used. 14455296 avail Mem 

  PID USER      PR  NI    VIRT    RES    SHR S  %CPU %MEM     TIME+ COMMAND
26976 kenenth   20   0   41908   3624   3024 R   2.0  0.0   0:00.29 top
 1124 root      20   0 4980128  39356  25464 S   1.0  0.2   0:21.15 containerd

top - 18:49:51 up  1:06,  1 user,  load average: 0.00, 0.39, 1.22
Tasks: 319 total,   1 running, 257 sleeping,   0 stopped,   0 zombie
%Cpu(s):  0.1 us,  0.2 sy,  0.0 ni, 99.6 id,  0.0 wa,  0.0 hi,  0.0 si,  0.0 st
KiB Mem : 16278772 total, 13154728 free,  1373256 used,  1750788 buff/cache
KiB Swap: 16630780 total, 16630780 free,        0 used. 14455296 avail Mem 

  PID USER      PR  NI    VIRT    RES    SHR S  %CPU %MEM     TIME+ COMMAND
26976 kenenth   20   0   41908   3624   3024 R   2.0  0.0   0:00.31 top
 2192 root      20   0  433352  93656  61704 S   1.0  0.6   0:24.04 Xorg

top - 18:49:52 up  1:06,  1 user,  load average: 0.00, 0.38, 1.22
Tasks: 319 total,   1 running, 257 sleeping,   0 stopped,   0 zombie
%Cpu(s):  0.4 us,  0.1 sy,  0.0 ni, 99.5 id,  0.0 wa,  0.0 hi,  0.0 si,  0.0 st
KiB Mem : 16278772 total, 13154464 free,  1373504 used,  1750804 buff/cache
KiB Swap: 16630780 total, 16630780 free,        0 used. 14455032 avail Mem 

  PID USER      PR  NI    VIRT    RES    SHR S  %CPU %MEM     TIME+ COMMAND
 1124 root      20   0 4980128  39356  25464 S   2.0  0.2   0:21.17 containerd

top - 18:49:53 up  1:06,  1 user,  load average: 0.00, 0.38, 1.22
Tasks: 319 total,   1 running, 257 sleeping,   0 stopped,   0 zombie
%Cpu(s):  0.0 us,  0.1 sy,  0.0 ni, 99.9 id,  0.0 wa,  0.0 hi,  0.0 si,  0.0 st
KiB Mem : 16278772 total, 13154464 free,  1373504 used,  1750804 buff/cache
KiB Swap: 16630780 total, 16630780 free,        0 used. 14455032 avail Mem 

  PID USER      PR  NI    VIRT    RES    SHR S  %CPU %MEM     TIME+ COMMAND
26976 kenenth   20   0   41908   3624   3024 R   2.9  0.0   0:00.34 top
 2192 root      20   0  433352  93656  61704 S   1.0  0.6   0:24.05 Xorg

top - 18:49:54 up  1:06,  1 user,  load average: 0.00, 0.38, 1.22
Tasks: 319 total,   1 running, 257 sleeping,   0 stopped,   0 zombie
%Cpu(s):  0.1 us,  0.2 sy,  0.0 ni, 99.6 id,  0.0 wa,  0.0 hi,  0.0 si,  0.0 st
KiB Mem : 16278772 total, 13154464 free,  1373504 used,  1750804 buff/cache
KiB Swap: 16630780 total, 16630780 free,        0 used. 14455032 avail Mem 

  PID USER      PR  NI    VIRT    RES    SHR S  %CPU %MEM     TIME+ COMMAND
  696 systemd+  20   0   71244   6424   5348 S   1.0  0.0   0:03.29 systemd-resolve
  967 root      20   0  493312  23424  13940 S   1.0  0.1   0:35.48 NetworkManager