     1	1170564 
     2	1170564 
     3	1170564 
     4	1210540 
     5	1210540 
     6	1210540 
     7	1221392 
     8	1221392 
     9	1221392 
    10	1221436 
    11	1221436 
    12	1221436 
    13	1221488 
    14	1221488 
    15	1221488 
    16	1220660 
    17	1220660 
    18	1220660 
    19	1220608 
    20	1220608 
    21	1220608 
    22	1219772 
    23	1219772 
    24	1219772 
    25	1225404 
    26	1225404 
    27	1225404 
    28	1225356 
    29	1225356 
    30	1225356 
    31	1225384 
    32	1225384 
    33	1225384 
    34	1224596 
    35	1224596 
    36	1224596 
    37	1224244 
    38	1224244 
    39	1224244 
    40	1224080 
    41	1224080 
    42	1224080 
    43	1224112 
    44	1224112 
    45	1224112 
    46	1224068 
    47	1224068 
    48	1224068 
    49	1224100 
    50	1224100 
    51	1224100 
    52	1224056 
    53	1224056 
    54	1224056 
    55	1224088 
    56	1224088 
    57	1224088 
    58	1224036 
    59	1224036 
    60	1224036 
    61	1224076 
    62	1224076 
    63	1224076 
    64	1224020 
    65	1224020 
    66	1224020 
    67	1224052 
    68	1224052 
    69	1224052 
    70	1224036 
    71	1224036 
    72	1224036 
    73	1224272 
    74	1224272 
    75	1224272 
    76	1224232 
    77	1224232 
    78	1224232 
    79	1224260 
    80	1224260 
    81	1224260 
    82	1224216 
    83	1224216 
    84	1224216 
    85	1224256 
    86	1224256 
    87	1224256 
    88	1224212 
    89	1224212 
    90	1224212 
    91	1224236 
    92	1224236 
    93	1224236 
    94	1224248 
    95	1224248 
    96	1224248 
    97	1224240 
    98	1224240 
    99	1224240 
   100	1224196 
   101	1224196 
   102	1224196 
   103	1224172 
   104	1224172 
   105	1224172 
   106	1224176 
   107	1224176 
   108	1224176 
   109	1224208 
   110	1224208 
   111	1224208 
   112	1224164 
   113	1224164 
   114	1224164 
   115	1224196 
   116	1224196 
   117	1224196 
   118	1224148 
   119	1224148 
   120	1224148 
   121	1224176 
   122	1224176 
   123	1224176 
   124	1224504 
   125	1224504 
   126	1224504 
   127	1224420 
   128	1224420 
   129	1224420 
   130	1224356 
   131	1224356 
   132	1224356 
   133	1224448 
   134	1224448 
   135	1224448 
   136	1224444 
   137	1224444 
   138	1224444 
   139	1224480 
   140	1224480 
   141	1224480 
   142	1224432 
   143	1224432 
   144	1224432 
   145	1224460 
   146	1224460 
   147	1224460 
   148	1224420 
   149	1224420 
   150	1224420 
   151	1224412 
   152	1224412 
   153	1224412 
   154	1224504 
   155	1224504 
   156	1224504 
   157	1224504 
   158	1225588 
   159	1225588 
   160	1225588 
   161	1225560 
   162	1225560 
   163	1225560 
   164	1225568 
   165	1225568 
   166	1225568 
   167	1225568 
   168	1225568 
   169	1225532 
   170	1225532 
   171	1225532 
   172	1225548 
   173	1225548 
   174	1225548 
   175	1225548 
   176	1225548 
   177	1225548 
   178	1225544 
   179	1225544 
   180	1225544 
   181	1225508 
   182	1225508 
   183	1225508 
   184	1229532 
   185	1229532 
   186	1229532 
   187	1229456 
   188	1229456 
   189	1229456 
   190	1229456 
   191	1229456 
   192	1229456 
   193	1229392 
   194	1229392 
   195	1229392 
   196	1227876 
   197	1227876 
   198	1227876 
   199	1227960 
   200	1227960 
   201	1227960 
   202	1227984 
   203	1227984 
   204	1227984 
   205	1227976 
   206	1227976 
   207	1227976 
   208	1227996 
   209	1227996 
   210	1227996 
   211	1227952 
   212	1227952 
   213	1227952 
   214	1228004 
   215	1228004 
   216	1228004 
   217	1227964 
   218	1227964 
   219	1227964 
   220	1227984 
   221	1227984 
   222	1227984 
   223	1227952 
   224	1227952 
   225	1227952 
   226	1227940 
   227	1227940 
   228	1227940 
   229	1227960 
   230	1227960 
   231	1227960 
   232	1227952 
   233	1227952 
   234	1227952 
   235	1227788 
   236	1227788 
   237	1227788 
   238	1227784 
   239	1227784 
   240	1227808 
   241	1227808 
   242	1227808 
   243	1227764 
   244	1227764 
   245	1227764 
   246	1227760 
   247	1227760 
   248	1227760 
   249	1227752 
   250	1227752 
   251	1227752 
   252	1227768 
   253	1227768 
   254	1227768 
   255	1227844 
   256	1227844 
   257	1227844 
   258	1227872 
   259	1227872 
   260	1227872 
   261	1227836 
   262	1227836 
   263	1227836 
   264	1227832 
   265	1227832 
   266	1227832 
   267	1227824 
   268	1227824 
   269	1227824 
   270	1227844 
   271	1227844 
   272	1227844 
   273	1227584 
   274	1227584 
   275	1227584 
   276	1227548 
   277	1227548 
   278	1227548 
   279	1227548 
   280	1227548 
   281	1227548 
   282	1227572 
   283	1227572 
   284	1227572 
   285	1227528 
   286	1227528 
   287	1227528 
   288	1227548 
   289	1227548 
   290	1227548 
   291	1227508 
   292	1227508 
   293	1227508 
   294	1228900 
   295	1228900 
   296	1228900 
   297	1228876 
   298	1228876 
   299	1228876 
   300	1228888 
   301	1228888 
   302	1228888 
   303	1227984 
   304	1227984 
   305	1227984 
   306	1227668 
   307	1227668 
   308	1227668 
   309	1227680 
   310	1227680 
   311	1227680 
   312	1227656 
   313	1227656 
   314	1227656 
   315	1227520 
   316	1227520 
   317	1227520 
   318	1227540 
   319	1227540 
   320	1227540 
   321	1227500 
   322	1227500 
   323	1227500 
   324	1227516 
   325	1227516 
   326	1227516 
   327	1227488 
   328	1227488 
   329	1227488 
   330	1227500 
   331	1227500 
   332	1227500 
   333	1227240 
   334	1227240 
   335	1227240 
   336	1227240 
   337	1227240 
   338	1227240 
   339	1227324 
   340	1227324 
   341	1227324 
   342	1219536 
   343	1219536 
   344	1219536 
   345	1219528 
   346	1219528 
   347	1219528 
   348	1219636 
   349	1219636 
   350	1219636 
   351	1219608 
   352	1219608 
   353	1219608 
   354	1219616 
   355	1219616 
   356	1219616 
   357	1219592 
   358	1219592 
   359	1219592 
   360	1219600 
   361	1219600 
   362	1219600 
   363	1219600 
   364	1219600 
   365	1219600 
   366	1219564 
   367	1219564 
   368	1219564 
   369	1219620 
   370	1219620 
   371	1219620 
   372	1218836 
   373	1218836 
   374	1218836 
   375	1218468 
   376	1218468 
   377	1218468 
   378	1218480 
   379	1218480 
   380	1218480 
   381	1218456 
   382	1218456 
   383	1218456 
   384	1218460 
   385	1218460 
   386	1218436 
   387	1218436 
   388	1218436 
   389	1218420 
   390	1218420 
   391	1218420 
   392	1218420 
   393	1218420 
   394	1218420 
   395	1218412 
   396	1218412 
   397	1218412 
   398	1218424 
   399	1218424 
   400	1218424 
   401	1218400 
   402	1218400 
   403	1218400 
   404	1218412 
   405	1218412 
   406	1218412 
   407	1218380 
   408	1218380 
   409	1218380 
   410	1218376 
   411	1218376 
   412	1218376 
   413	1218368 
   414	1218368 
   415	1218368 
   416	1218380 
   417	1218380 
   418	1218380 
   419	1218344 
   420	1218344 
   421	1218344 
   422	1218356 
   423	1218356 
   424	1218356 
   425	1218332 
   426	1218332 
   427	1218332 
   428	1218344 
   429	1218344 
   430	1218344 
   431	1218320 
   432	1218320 
   433	1218320 
   434	1218332 
   435	1218332 
   436	1218332 
   437	1218300 
   438	1218300 
   439	1218300 
   440	1218320 
   441	1218320 
   442	1218320 
   443	1218316 
   444	1218316 
   445	1218316 
   446	1218292 
   447	1218292 
   448	1218292 
   449	1218264 
   450	1218264 
   451	1218264 
   452	1218276 
   453	1218276 
   454	1218276 
   455	1218252 
   456	1218252 
   457	1218252 
   458	1218268 
   459	1218268 
   460	1218268 
   461	1218236 
   462	1218236 
   463	1218236 
   464	1218256 
   465	1218256 
   466	1218256 
   467	1218244 
   468	1218244 
   469	1218244 
   470	1218244 
   471	1218244 
   472	1218244 
   473	1218232 
   474	1218232 
   475	1218232 
   476	1218344 
   477	1218344 
   478	1218344 
   479	1217468 
   480	1217468 
   481	1217468 
   482	1215668 
   483	1215668 
   484	1215668 
   485	1215892 
   486	1215892 
   487	1215892 
   488	1216028 
   489	1216028 
   490	1216028 
   491	1212652 
   492	1212652 
   493	1212652 
   494	1212668 
   495	1212668 
   496	1212668 
   497	1212776 
   498	1212776 
   499	1212776 
