     1	279 
     2	280 
     3	307 
     4	303 
     5	302 
     6	296 
     7	330 
     8	333 
     9	329 
    10	325 
    11	321 
    12	317 
    13	313 
    14	313 
    15	313 
    16	313 
    17	313 
    18	313 
    19	313 
    20	313 
    21	313 
    22	313 
    23	313 
    24	313 
    25	313 
    26	313 
    27	313 
    28	313 
    29	313 
    30	313 
    31	313 
    32	313 
    33	313 
    34	313 
    35	313 
    36	313 
    37	313 
    38	313 
    39	313 
    40	313 
    41	313 
