100 packets transmitted, 42 received, 58% packet loss, time 101314ms
100 packets transmitted, 45 received, 55% packet loss, time 101315ms
100 packets transmitted, 37 received, 63% packet loss, time 101347ms
100 packets transmitted, 24 received, 76% packet loss, time 101346ms
100 packets transmitted, 53 received, 47% packet loss, time 101347ms
100 packets transmitted, 62 received, 38% packet loss, time 101347ms
100 packets transmitted, 34 received, 66% packet loss, time 101379ms
100 packets transmitted, 34 received, 66% packet loss, time 101379ms
100 packets transmitted, 24 received, 76% packet loss, time 101379ms
100 packets transmitted, 23 received, 77% packet loss, time 101379ms
