     1	1259200 
     2	1259200 
     3	1259200 
     4	1772240 
     5	1772240 
     6	1772240 
     7	3697960 
     8	3697960 
     9	3697960 
    10	3312516 
    11	3312516 
    12	3312516 
    13	2812716 
    14	2812716 
    15	2812716 
    16	2494492 
    17	2494492 
    18	2494492 
    19	2097556 
    20	2097556 
    21	2097556 
    22	1886796 
    23	1886796 
    24	1886796 
    25	1625572 
    26	1625572 
    27	1625572 
    28	1411592 
    29	1411592 
    30	1411592 
    31	1873508 
    32	1873508 
    33	1873508 
    34	3727288 
    35	3727288 
    36	5021208 
    37	5021208 
    38	5021208 
    39	4650376 
    40	4650376 
    41	4650376 
    42	4086788 
    43	4086788 
    44	4086788 
    45	3731628 
    46	3731628 
    47	3731628 
    48	3176340 
    49	3176340 
    50	3176340 
    51	2584604 
    52	2584604 
    53	2584604 
    54	2255932 
    55	2255932 
    56	2255932 
    57	1900868 
    58	1900868 
    59	1900868 
    60	1625704 
    61	1625704 
    62	1625704 
    63	1410356 
    64	1410356 
    65	1410356 
    66	1383972 
    67	1383972 
    68	1383972 
    69	1374100 
    70	1374100 
