     1	294 
     2	295 
     3	297 
     4	353 
     5	441 
     6	531 
     7	561 
     8	553 
     9	544 
    10	534 
    11	521 
    12	509 
    13	504 
    14	497 
    15	492 
    16	473 
    17	455 
    18	440 
    19	430 
    20	417 
    21	402 
    22	393 
    23	383 
    24	378 
    25	374 
    26	349 
    27	340 
    28	333 
    29	326 
    30	335 
    31	385 
    32	449 
    33	517 
    34	600 
    35	674 
    36	702 
    37	692 
    38	680 
    39	670 
    40	660 
    41	649 
    42	633 
    43	617 
    44	613 
    45	599 
    46	573 
    47	559 
    48	545 
    49	523 
    50	504 
    51	485 
    52	476 
    53	461 
    54	449 
    55	430 
    56	410 
    57	403 
    58	386 
    59	378 
    60	361 
    61	350 
    62	339 
    63	335 
    64	330 
    65	321 
    66	318 
    67	315 
    68	312 
    69	309 
    70	303 
