     1	291 
     2	292 
     3	292 
     4	306 
     5	379 
     6	456 
     7	524 
     8	640 
     9	693 
    10	720 
    11	736 
    12	744 
    13	738 
    14	734 
    15	742 
    16	748 
    17	752 
    18	756 
    19	745 
    20	731 
    21	739 
    22	753 
    23	743 
    24	755 
    25	740 
    26	747 
    27	741 
    28	750 
    29	754 
    30	735 
    31	720 
    32	703 
    33	686 
    34	663 
    35	639 
    36	620 
    37	601 
    38	575 
    39	554 
    40	533 
    41	508 
    42	482 
    43	470 
    44	469 
    45	440 
    46	425 
    47	403 
    48	382 
    49	365 
    50	351 
    51	337 
    52	322 
    53	318 
    54	339 
    55	372 
    56	403 
    57	448 
    58	489 
    59	543 
    60	598 
    61	633 
    62	658 
    63	707 
    64	717 
    65	741 
    66	745 
    67	746 
    68	747 
    69	762 
    70	756 
    71	754 
    72	756 
    73	750 
    74	746 
    75	751 
    76	748 
    77	757 
    78	752 
    79	752 
    80	755 
    81	756 
    82	752 
    83	740 
    84	722 
    85	706 
    86	694 
    87	675 
    88	659 
    89	631 
    90	615 
    91	591 
    92	569 
    93	549 
    94	525 
    95	514 
    96	487 
    97	456 
    98	433 
    99	424 
   100	398 
   101	381 
   102	365 
   103	355 
   104	345 
   105	329 
   106	319 
   107	314 
   108	310 
   109	307 
   110	304 
   111	303 
